xof 0302txt 0064
template Header {
 <3D82AB43-62DA-11cf-AB39-0020AF71E433>
 WORD major;
 WORD minor;
 DWORD flags;
}

template Vector {
 <3D82AB5E-62DA-11cf-AB39-0020AF71E433>
 FLOAT x;
 FLOAT y;
 FLOAT z;
}

template Coords2d {
 <F6F23F44-7686-11cf-8F52-0040333594A3>
 FLOAT u;
 FLOAT v;
}

template Matrix4x4 {
 <F6F23F45-7686-11cf-8F52-0040333594A3>
 array FLOAT matrix[16];
}

template ColorRGBA {
 <35FF44E0-6C7C-11cf-8F52-0040333594A3>
 FLOAT red;
 FLOAT green;
 FLOAT blue;
 FLOAT alpha;
}

template ColorRGB {
 <D3E16E81-7835-11cf-8F52-0040333594A3>
 FLOAT red;
 FLOAT green;
 FLOAT blue;
}

template IndexedColor {
 <1630B820-7842-11cf-8F52-0040333594A3>
 DWORD index;
 ColorRGBA indexColor;
}

template Boolean {
 <4885AE61-78E8-11cf-8F52-0040333594A3>
 WORD truefalse;
}

template Boolean2d {
 <4885AE63-78E8-11cf-8F52-0040333594A3>
 Boolean u;
 Boolean v;
}

template MaterialWrap {
 <4885AE60-78E8-11cf-8F52-0040333594A3>
 Boolean u;
 Boolean v;
}

template TextureFilename {
 <A42790E1-7810-11cf-8F52-0040333594A3>
 STRING filename;
}

template Material {
 <3D82AB4D-62DA-11cf-AB39-0020AF71E433>
 ColorRGBA faceColor;
 FLOAT power;
 ColorRGB specularColor;
 ColorRGB emissiveColor;
 [...]
}

template MeshFace {
 <3D82AB5F-62DA-11cf-AB39-0020AF71E433>
 DWORD nFaceVertexIndices;
 array DWORD faceVertexIndices[nFaceVertexIndices];
}

template MeshFaceWraps {
 <4885AE62-78E8-11cf-8F52-0040333594A3>
 DWORD nFaceWrapValues;
 Boolean2d faceWrapValues;
}

template MeshTextureCoords {
 <F6F23F40-7686-11cf-8F52-0040333594A3>
 DWORD nTextureCoords;
 array Coords2d textureCoords[nTextureCoords];
}

template MeshMaterialList {
 <F6F23F42-7686-11cf-8F52-0040333594A3>
 DWORD nMaterials;
 DWORD nFaceIndexes;
 array DWORD faceIndexes[nFaceIndexes];
 [Material]
}

template MeshNormals {
 <F6F23F43-7686-11cf-8F52-0040333594A3>
 DWORD nNormals;
 array Vector normals[nNormals];
 DWORD nFaceNormals;
 array MeshFace faceNormals[nFaceNormals];
}

template MeshVertexColors {
 <1630B821-7842-11cf-8F52-0040333594A3>
 DWORD nVertexColors;
 array IndexedColor vertexColors[nVertexColors];
}

template Mesh {
 <3D82AB44-62DA-11cf-AB39-0020AF71E433>
 DWORD nVertices;
 array Vector vertices[nVertices];
 DWORD nFaces;
 array MeshFace faces[nFaces];
 [...]
}

Header{
1;
0;
1;
}

Mesh {
 58;
 0.15218;-3.96011;-87.69903;,
 0.23893;27.35330;-93.86344;,
 9.16525;6.75455;-89.69750;,
 14.33031;-3.98939;-87.64861;,
 22.49027;-16.02037;-69.13288;,
 -0.06123;-26.36301;-69.24230;,
 -22.65599;-16.46976;-71.79447;,
 -14.02596;-3.93068;-87.74941;,
 -8.80175;6.78223;-89.83470;,
 0.27750;49.94024;33.14211;,
 0.27750;52.44534;55.54473;,
 20.94024;26.58976;57.53854;,
 24.27522;23.79468;32.00922;,
 24.27522;18.23459;-9.51955;,
 0.27750;53.54813;-12.25317;,
 32.88788;3.20079;62.48322;,
 38.15120;-3.52786;42.64953;,
 38.15120;-9.97159;-5.47839;,
 23.33654;-21.89628;66.90894;,
 27.05826;-32.72203;47.44452;,
 27.05826;-39.31986;-1.83452;,
 0.27750;-32.29192;68.74227;,
 0.27750;-44.93554;48.52727;,
 0.27750;-51.51276;-0.59715;,
 -22.78155;-21.89623;66.90897;,
 -26.50329;-33.01399;45.26306;,
 -26.50329;-39.40776;-2.49118;,
 -32.33288;3.20084;62.48320;,
 -37.59622;-3.94094;39.56434;,
 -37.59622;-10.09595;-6.40693;,
 -20.38525;26.62824;58.41924;,
 -23.72023;23.73884;34.77043;,
 -23.72023;18.15573;-10.10806;,
 13.89480;7.50275;-55.59391;,
 0.26693;42.08121;-62.44007;,
 21.78034;-9.06904;-56.22688;,
 15.45845;-20.05754;-53.39069;,
 0.21042;-25.75690;-51.62235;,
 -15.02717;-19.86248;-52.41238;,
 -21.33280;-8.79313;-54.84350;,
 -13.42277;7.67750;-54.71724;,
 0.64715;47.86630;66.12017;,
 20.97481;22.89440;67.84672;,
 31.92647;0.66185;72.59455;,
 22.65675;-5.64760;76.17856;,
 0.27753;-22.08630;78.23510;,
 -22.10173;-5.64747;76.17861;,
 -31.37147;0.10803;72.70108;,
 -20.05015;22.38201;68.82699;,
 0.89750;35.08742;92.68434;,
 15.55158;19.18857;93.76754;,
 0.41541;4.39158;111.80225;,
 17.23635;6.06187;96.02514;,
 16.96119;2.02344;98.59946;,
 0.26765;-10.72105;101.20500;,
 -15.08331;2.19622;98.49462;,
 -16.46398;5.33704;96.09541;,
 -14.89944;18.29366;94.65572;;
 
 64;
 3;0,1,2;,
 3;0,2,3;,
 3;0,3,4;,
 3;0,4,5;,
 3;0,5,6;,
 3;0,6,7;,
 3;0,7,8;,
 3;0,8,1;,
 4;9,10,11,12;,
 4;9,12,13,14;,
 4;12,11,15,16;,
 4;12,16,17,13;,
 4;16,15,18,19;,
 4;16,19,20,17;,
 4;19,18,21,22;,
 4;19,22,23,20;,
 4;22,21,24,25;,
 4;22,25,26,23;,
 4;25,24,27,28;,
 4;25,28,29,26;,
 4;28,27,30,31;,
 4;28,31,32,29;,
 4;31,30,10,9;,
 4;31,9,14,32;,
 4;33,2,1,34;,
 4;33,34,14,13;,
 4;35,3,2,33;,
 4;35,33,13,17;,
 4;36,4,3,35;,
 4;36,35,17,20;,
 4;37,5,4,36;,
 4;37,36,20,23;,
 4;38,6,5,37;,
 4;38,37,23,26;,
 4;39,7,6,38;,
 4;39,38,26,29;,
 4;40,8,7,39;,
 4;40,39,29,32;,
 4;34,1,8,40;,
 4;34,40,32,14;,
 4;41,42,11,10;,
 4;42,43,15,11;,
 4;43,44,18,15;,
 4;44,45,21,18;,
 4;45,46,24,21;,
 4;46,47,27,24;,
 4;47,48,30,27;,
 4;48,41,10,30;,
 4;49,50,42,41;,
 3;51,50,49;,
 4;50,52,43,42;,
 3;51,52,50;,
 4;52,53,44,43;,
 3;51,53,52;,
 4;53,54,45,44;,
 3;51,54,53;,
 4;54,55,46,45;,
 3;51,55,54;,
 4;55,56,47,46;,
 3;51,56,55;,
 4;56,57,48,47;,
 3;51,57,56;,
 4;57,49,41,48;,
 3;51,49,57;;
 
 MeshMaterialList {
  6;
  64;
  0,
  0,
  0,
  0,
  0,
  0,
  0,
  0,
  0,
  0,
  0,
  0,
  0,
  0,
  3,
  3,
  3,
  3,
  0,
  0,
  0,
  0,
  0,
  0,
  0,
  0,
  0,
  0,
  0,
  0,
  3,
  3,
  3,
  3,
  0,
  0,
  0,
  0,
  0,
  0,
  1,
  0,
  0,
  3,
  3,
  0,
  0,
  1,
  0,
  0,
  0,
  0,
  0,
  0,
  3,
  0,
  3,
  0,
  0,
  0,
  0,
  0,
  0,
  0;;
  Material {
   0.724800;0.388800;0.006400;1.000000;;
   5.000000;
   0.000000;0.000000;0.000000;;
   0.000000;0.000000;0.000000;;
  }
  Material {
   0.545600;0.540000;0.000000;1.000000;;
   5.000000;
   0.000000;0.000000;0.000000;;
   0.000000;0.000000;0.000000;;
  }
  Material {
   0.633600;0.354400;0.000000;1.000000;;
   5.000000;
   0.000000;0.000000;0.000000;;
   0.000000;0.000000;0.000000;;
  }
  Material {
   0.455200;0.455200;0.455200;1.000000;;
   5.000000;
   0.000000;0.000000;0.000000;;
   0.000000;0.000000;0.000000;;
  }
  Material {
   0.731200;0.731200;0.731200;1.000000;;
   5.000000;
   0.000000;0.000000;0.000000;;
   0.000000;0.000000;0.000000;;
  }
  Material {
   0.000000;0.000000;0.000000;1.000000;;
   5.000000;
   0.000000;0.000000;0.000000;;
   0.000000;0.000000;0.000000;;
  }
 }
 MeshNormals {
  74;
  0.761117;0.640101;0.104741;,
  0.821460;0.558326;0.116083;,
  0.959373;0.067492;0.273950;,
  0.657630;-0.537558;0.527783;,
  -0.004350;-0.730359;0.683049;,
  -0.663480;-0.542924;0.514808;,
  -0.959557;0.060800;0.274871;,
  -0.818450;0.557541;0.138880;,
  0.007195;-0.193169;-0.981139;,
  0.007608;-0.189531;-0.981845;,
  0.001803;-0.556974;-0.830528;,
  0.240409;-0.852223;-0.464672;,
  0.029233;-0.899883;-0.435151;,
  -0.205937;-0.845627;-0.492448;,
  0.001946;-0.522121;-0.852869;,
  0.002686;-0.192838;-0.981227;,
  0.015695;-0.482051;-0.876002;,
  0.840580;0.530791;-0.108099;,
  0.867155;0.477817;-0.140476;,
  0.986016;0.011041;-0.166287;,
  0.693007;-0.705310;-0.149264;,
  -0.002398;-0.986596;-0.163167;,
  -0.694789;-0.702252;-0.155277;,
  -0.985164;0.012418;-0.171168;,
  -0.866523;0.477799;-0.144382;,
  0.773506;0.633561;-0.017025;,
  0.837493;0.546415;-0.005999;,
  0.991501;0.074086;0.106941;,
  0.722710;-0.634641;0.273718;,
  -0.004413;-0.940278;0.340378;,
  -0.727556;-0.635145;0.259331;,
  -0.992713;0.070607;0.097646;,
  -0.838482;0.544859;-0.008774;,
  0.902513;0.393346;-0.175355;,
  0.894212;0.403670;-0.193485;,
  0.979418;0.094613;-0.178296;,
  0.734792;-0.651754;-0.187877;,
  -0.001390;-0.974726;-0.223399;,
  -0.553080;-0.793269;-0.254612;,
  -0.978153;0.104267;-0.179848;,
  -0.893987;0.404317;-0.193169;,
  0.734288;0.631568;0.248881;,
  0.808590;0.524386;0.266837;,
  0.927922;0.029634;0.371596;,
  0.691780;-0.513860;0.507335;,
  -0.004547;-0.739913;0.672687;,
  -0.667535;-0.535727;0.517101;,
  -0.915940;-0.009779;0.401195;,
  -0.799583;0.523084;0.295044;,
  0.600840;0.155347;0.784129;,
  0.611959;0.580100;0.537578;,
  0.706975;0.434676;0.557891;,
  0.794726;0.174122;0.581457;,
  0.721682;-0.313895;0.616965;,
  0.550978;-0.623125;0.555102;,
  -0.701231;-0.361380;0.614556;,
  -0.791659;0.089277;0.604406;,
  -0.702812;0.427553;0.568555;,
  -0.755059;0.642177;0.132268;,
  -0.773111;0.633899;-0.021710;,
  -0.840195;0.530220;-0.113747;,
  0.911319;0.386261;-0.142480;,
  0.924092;0.352890;-0.146702;,
  0.978402;0.203547;-0.036029;,
  0.997353;-0.024954;0.068303;,
  -0.975025;0.220170;-0.029168;,
  -0.997147;0.005665;0.075272;,
  -0.910736;0.389370;-0.137662;,
  -0.902319;0.394053;-0.174763;,
  -0.923369;0.356202;-0.143213;,
  -0.719540;0.635313;0.280428;,
  -0.575191;-0.600007;0.556010;,
  -0.611096;0.113872;0.783323;,
  -0.590408;0.594234;0.546172;;
  64;
  3;16,8,9;,
  3;16,9,10;,
  3;16,10,11;,
  3;16,11,12;,
  3;16,12,13;,
  3;16,13,14;,
  3;16,14,15;,
  3;16,15,8;,
  4;25,0,1,26;,
  4;25,26,18,17;,
  4;26,1,2,27;,
  4;26,27,19,18;,
  4;27,2,3,28;,
  4;27,28,20,19;,
  4;28,3,4,29;,
  4;28,29,21,20;,
  4;29,4,5,30;,
  4;29,30,22,21;,
  4;30,5,6,31;,
  4;30,31,23,22;,
  4;31,6,7,32;,
  4;31,32,24,23;,
  4;32,7,58,59;,
  4;32,59,60,24;,
  4;34,61,62,33;,
  4;34,33,17,18;,
  4;35,63,61,34;,
  4;35,34,18,19;,
  4;36,64,63,35;,
  4;36,35,19,20;,
  4;37,12,11,36;,
  4;37,36,20,21;,
  4;38,13,12,37;,
  4;38,37,21,22;,
  4;39,65,66,66;,
  4;39,38,22,23;,
  4;40,67,65,39;,
  4;40,39,23,24;,
  4;68,69,67,40;,
  4;68,40,24,60;,
  4;41,42,1,0;,
  4;42,43,2,1;,
  4;43,44,3,2;,
  4;44,45,4,3;,
  4;45,46,5,4;,
  4;46,47,6,5;,
  4;47,48,7,6;,
  4;48,70,58,7;,
  4;50,51,42,41;,
  3;49,51,50;,
  4;51,52,43,42;,
  3;49,52,51;,
  4;52,53,44,43;,
  3;49,53,52;,
  4;53,54,45,44;,
  3;49,54,53;,
  4;71,55,46,45;,
  3;72,55,71;,
  4;55,56,47,46;,
  3;72,56,55;,
  4;56,57,48,47;,
  3;72,57,56;,
  4;57,73,70,48;,
  3;72,73,57;;
 }
}
