xof 0302txt 0064
template Header {
 <3D82AB43-62DA-11cf-AB39-0020AF71E433>
 WORD major;
 WORD minor;
 DWORD flags;
}

template Vector {
 <3D82AB5E-62DA-11cf-AB39-0020AF71E433>
 FLOAT x;
 FLOAT y;
 FLOAT z;
}

template Coords2d {
 <F6F23F44-7686-11cf-8F52-0040333594A3>
 FLOAT u;
 FLOAT v;
}

template Matrix4x4 {
 <F6F23F45-7686-11cf-8F52-0040333594A3>
 array FLOAT matrix[16];
}

template ColorRGBA {
 <35FF44E0-6C7C-11cf-8F52-0040333594A3>
 FLOAT red;
 FLOAT green;
 FLOAT blue;
 FLOAT alpha;
}

template ColorRGB {
 <D3E16E81-7835-11cf-8F52-0040333594A3>
 FLOAT red;
 FLOAT green;
 FLOAT blue;
}

template IndexedColor {
 <1630B820-7842-11cf-8F52-0040333594A3>
 DWORD index;
 ColorRGBA indexColor;
}

template Boolean {
 <4885AE61-78E8-11cf-8F52-0040333594A3>
 WORD truefalse;
}

template Boolean2d {
 <4885AE63-78E8-11cf-8F52-0040333594A3>
 Boolean u;
 Boolean v;
}

template MaterialWrap {
 <4885AE60-78E8-11cf-8F52-0040333594A3>
 Boolean u;
 Boolean v;
}

template TextureFilename {
 <A42790E1-7810-11cf-8F52-0040333594A3>
 STRING filename;
}

template Material {
 <3D82AB4D-62DA-11cf-AB39-0020AF71E433>
 ColorRGBA faceColor;
 FLOAT power;
 ColorRGB specularColor;
 ColorRGB emissiveColor;
 [...]
}

template MeshFace {
 <3D82AB5F-62DA-11cf-AB39-0020AF71E433>
 DWORD nFaceVertexIndices;
 array DWORD faceVertexIndices[nFaceVertexIndices];
}

template MeshFaceWraps {
 <4885AE62-78E8-11cf-8F52-0040333594A3>
 DWORD nFaceWrapValues;
 Boolean2d faceWrapValues;
}

template MeshTextureCoords {
 <F6F23F40-7686-11cf-8F52-0040333594A3>
 DWORD nTextureCoords;
 array Coords2d textureCoords[nTextureCoords];
}

template MeshMaterialList {
 <F6F23F42-7686-11cf-8F52-0040333594A3>
 DWORD nMaterials;
 DWORD nFaceIndexes;
 array DWORD faceIndexes[nFaceIndexes];
 [Material]
}

template MeshNormals {
 <F6F23F43-7686-11cf-8F52-0040333594A3>
 DWORD nNormals;
 array Vector normals[nNormals];
 DWORD nFaceNormals;
 array MeshFace faceNormals[nFaceNormals];
}

template MeshVertexColors {
 <1630B821-7842-11cf-8F52-0040333594A3>
 DWORD nVertexColors;
 array IndexedColor vertexColors[nVertexColors];
}

template Mesh {
 <3D82AB44-62DA-11cf-AB39-0020AF71E433>
 DWORD nVertices;
 array Vector vertices[nVertices];
 DWORD nFaces;
 array MeshFace faces[nFaces];
 [...]
}

Header{
1;
0;
1;
}

Mesh {
 127;
 -1.35921;91.72519;23.09846;,
 -1.31586;68.99821;24.30842;,
 20.94008;52.45783;26.70128;,
 33.74974;72.08065;25.94191;,
 32.57820;-0.21957;28.50950;,
 48.32139;-6.66752;28.85794;,
 -50.83531;-5.43182;26.25256;,
 -30.48000;1.15308;26.60480;,
 -18.84445;52.05494;24.70878;,
 -36.32767;71.57705;23.45122;,
 16.48223;21.50876;-44.33325;,
 14.29819;8.58790;-60.30653;,
 1.55645;15.60435;-62.02448;,
 1.07862;39.61628;-38.62367;,
 -0.20768;49.34017;-10.21115;,
 22.38601;35.45912;-6.88610;,
 1.10385;27.66132;-44.46549;,
 1.56571;13.80407;-61.67440;,
 11.75893;5.81354;-60.09065;,
 13.43120;18.18389;-44.02831;,
 2.23679;33.36471;3.89964;,
 -1.12919;35.58119;3.37547;,
 22.65859;4.82308;-43.24419;,
 19.60344;-5.14811;-58.54382;,
 31.78822;11.12532;-3.38593;,
 16.00316;-5.17552;-58.68069;,
 18.41405;4.82662;-43.15721;,
 3.63751;29.73942;4.42100;,
 16.79475;-14.97554;-42.58296;,
 14.46558;-15.00397;-57.68001;,
 22.49027;-16.02037;-0.98851;,
 11.87177;-12.36992;-58.38744;,
 13.72594;-9.20657;-43.47607;,
 17.96525;-8.55408;-1.84442;,
 1.79113;-21.87941;-40.38285;,
 1.82667;-20.82551;-56.35713;,
 -0.06123;-26.36301;-1.09792;,
 1.76064;-17.02712;-57.32919;,
 1.68126;-14.72261;-41.71523;,
 -0.07596;-16.82825;-1.93188;,
 -13.76193;-15.43275;-41.01608;,
 -11.00565;-15.52167;-57.88142;,
 -22.65599;-16.46976;-3.65010;,
 -8.50521;-12.78400;-58.54852;,
 -10.75399;-9.51945;-42.23218;,
 -18.15174;-8.91370;-3.97370;,
 -20.92809;4.86055;-42.35077;,
 -16.39979;-5.42109;-59.91255;,
 -32.05825;10.48989;-7.15019;,
 -12.79949;-5.39374;-59.77570;,
 -16.45081;4.85665;-42.44271;,
 -5.87433;29.64475;3.86027;,
 -14.56048;21.89437;-43.72286;,
 -11.15996;8.39484;-61.27428;,
 -22.76029;35.00942;-9.54758;,
 -8.60761;5.65916;-60.86500;,
 -11.36453;18.43383;-43.53674;,
 -4.48909;33.29774;3.50310;,
 6.52602;-1.01475;-74.10700;,
 2.08228;2.11661;-74.73152;,
 2.07013;-5.27927;-73.78661;,
 5.64835;-1.97355;-74.03245;,
 8.32003;-5.74482;-73.50167;,
 6.02621;-15.64274;-73.61672;,
 5.12967;-14.73231;-73.86115;,
 1.65763;-17.65491;-73.15930;,
 -2.77776;-15.82158;-73.68611;,
 -1.91350;-14.87546;-73.91681;,
 -4.12418;-5.83933;-73.97476;,
 -2.35276;-1.08212;-74.44451;,
 -1.47055;-2.02770;-74.30310;,
 -1.20166;85.92612;18.54108;,
 31.56358;65.03545;19.62648;,
 -2.26482;36.64753;17.87964;,
 -1.30724;39.79346;16.80953;,
 44.82955;2.22833;22.04795;,
 -0.26403;28.06464;9.21209;,
 -47.95066;2.52719;21.12098;,
 -34.46430;66.55482;18.91906;,
 4.20979;36.75453;8.77864;,
 2.18944;28.17719;9.07146;,
 1.35005;-4.26174;-67.48399;,
 1.98460;14.18962;-92.43137;,
 6.08440;-2.76630;-66.81869;,
 8.38230;1.54957;-64.92282;,
 6.89767;6.15771;-62.90733;,
 2.50017;8.35856;-61.95252;,
 -2.23418;6.86304;-62.61791;,
 -4.53208;2.54708;-64.51359;,
 -3.04745;-2.06094;-66.52927;,
 1.92511;2.04833;-64.71823;,
 -9.32572;29.26688;-26.61877;,
 -9.60104;18.47537;-29.70419;,
 -2.36064;21.63596;-30.01040;,
 0.79975;29.26688;-28.32949;,
 -1.97127;36.89769;-25.64669;,
 -9.05038;40.05858;-23.53319;,
 -16.29081;36.89769;-23.22729;,
 -19.45116;29.26688;-24.90795;,
 -16.68019;21.63596;-27.59099;,
 -12.05406;31.70608;-70.78281;,
 -14.29526;33.04835;-107.13418;,
 -8.47930;32.99617;-70.15551;,
 -6.72784;36.51140;-68.21646;,
 -7.99502;40.26865;-66.05322;,
 -11.61772;41.88720;-65.03297;,
 -15.29239;40.34825;-65.79812;,
 -16.79982;36.73740;-67.79848;,
 -15.43246;33.22875;-69.82369;,
 10.95313;29.26683;-28.09169;,
 11.22845;18.47537;-31.17725;,
 18.30761;21.63596;-29.06407;,
 21.07859;29.26688;-26.38107;,
 17.91823;36.89769;-24.70033;,
 10.67782;40.05858;-25.00620;,
 3.59870;36.89769;-27.11969;,
 0.82768;29.26688;-29.80244;,
 3.98805;21.63596;-31.48338;,
 13.65280;31.55137;-71.61072;,
 15.92267;33.04838;-108.28777;,
 17.06936;33.14055;-70.80960;,
 18.44382;36.69064;-68.83994;,
 16.92848;40.31826;-66.74301;,
 13.20868;41.86122;-65.76256;,
 9.50630;40.20367;-66.59414;,
 8.20348;36.36536;-68.72913;,
 10.00428;32.80602;-70.79548;;
 
 140;
 4;0,1,2,3;,
 4;3,2,4,5;,
 4;6,7,8,9;,
 4;9,8,1,0;,
 4;10,11,12,13;,
 4;10,13,14,15;,
 4;16,17,18,19;,
 4;16,19,20,21;,
 4;22,23,11,10;,
 4;22,10,15,24;,
 4;19,18,25,26;,
 4;19,26,27,20;,
 4;28,29,23,22;,
 4;28,22,24,30;,
 4;26,25,31,32;,
 4;26,32,33,27;,
 4;34,35,29,28;,
 4;34,28,30,36;,
 4;32,31,37,38;,
 4;32,38,39,33;,
 4;40,41,35,34;,
 4;40,34,36,42;,
 4;38,37,43,44;,
 4;38,44,45,39;,
 4;46,47,41,40;,
 4;46,40,42,48;,
 4;44,43,49,50;,
 4;44,50,51,45;,
 4;52,53,47,46;,
 4;52,46,48,54;,
 4;50,49,55,56;,
 4;50,56,57,51;,
 4;13,12,53,52;,
 4;13,52,54,14;,
 4;56,55,17,16;,
 4;56,16,21,57;,
 4;58,59,12,11;,
 4;60,61,18,17;,
 4;59,58,61,60;,
 4;62,58,11,23;,
 4;61,60,25,18;,
 4;58,62,60,61;,
 4;63,62,23,29;,
 4;60,64,31,25;,
 4;62,63,64,60;,
 4;65,63,29,35;,
 4;64,60,37,31;,
 4;63,65,60,64;,
 4;66,65,35,41;,
 4;60,67,43,37;,
 4;65,66,67,60;,
 4;68,66,41,47;,
 4;67,60,49,43;,
 4;66,68,60,67;,
 4;69,68,47,53;,
 4;60,70,55,49;,
 4;68,69,70,60;,
 4;59,69,53,12;,
 4;70,60,17,55;,
 4;69,59,60,70;,
 4;71,0,3,72;,
 4;71,72,15,14;,
 4;73,2,1,74;,
 4;73,74,21,20;,
 4;72,3,5,75;,
 4;72,75,24,15;,
 4;76,4,2,73;,
 4;76,73,20,27;,
 4;77,6,9,78;,
 4;77,78,54,48;,
 4;79,8,7,80;,
 4;79,80,51,57;,
 4;78,9,0,71;,
 4;78,71,14,54;,
 4;74,1,8,79;,
 4;74,79,57,21;,
 3;81,82,83;,
 3;83,82,84;,
 3;84,82,85;,
 3;85,82,86;,
 3;86,82,87;,
 3;87,82,88;,
 3;88,82,89;,
 3;89,82,81;,
 3;90,81,83;,
 3;90,83,84;,
 3;90,84,85;,
 3;90,85,86;,
 3;90,86,87;,
 3;90,87,88;,
 3;90,88,89;,
 3;90,89,81;,
 3;91,92,93;,
 3;91,93,94;,
 3;91,94,95;,
 3;91,95,96;,
 3;91,96,97;,
 3;91,97,98;,
 3;91,98,99;,
 3;91,99,92;,
 3;100,101,102;,
 4;100,102,93,92;,
 3;102,101,103;,
 4;102,103,94,93;,
 3;103,101,104;,
 4;103,104,95,94;,
 3;104,101,105;,
 4;104,105,96,95;,
 3;105,101,106;,
 4;105,106,97,96;,
 3;106,101,107;,
 4;106,107,98,97;,
 3;107,101,108;,
 4;107,108,99,98;,
 3;108,101,100;,
 4;108,100,92,99;,
 3;109,110,111;,
 3;109,111,112;,
 3;109,112,113;,
 3;109,113,114;,
 3;109,114,115;,
 3;109,115,116;,
 3;109,116,117;,
 3;109,117,110;,
 3;118,119,120;,
 4;118,120,111,110;,
 3;120,119,121;,
 4;120,121,112,111;,
 3;121,119,122;,
 4;121,122,113,112;,
 3;122,119,123;,
 4;122,123,114,113;,
 3;123,119,124;,
 4;123,124,115,114;,
 3;124,119,125;,
 4;124,125,116,115;,
 3;125,119,126;,
 4;125,126,117,116;,
 3;126,119,118;,
 4;126,118,110,117;;
 
 MeshMaterialList {
  6;
  140;
  2,
  2,
  2,
  2,
  2,
  2,
  2,
  2,
  2,
  2,
  2,
  2,
  2,
  2,
  2,
  2,
  3,
  3,
  2,
  2,
  3,
  3,
  2,
  2,
  2,
  2,
  2,
  2,
  2,
  2,
  2,
  2,
  2,
  2,
  2,
  2,
  2,
  2,
  2,
  2,
  2,
  2,
  2,
  2,
  2,
  3,
  2,
  2,
  3,
  2,
  2,
  2,
  2,
  2,
  2,
  2,
  2,
  2,
  2,
  2,
  4,
  2,
  2,
  2,
  4,
  2,
  2,
  2,
  4,
  2,
  2,
  2,
  4,
  2,
  2,
  2,
  4,
  4,
  4,
  4,
  4,
  4,
  4,
  4,
  4,
  4,
  4,
  4,
  4,
  4,
  4,
  4,
  4,
  4,
  4,
  4,
  4,
  4,
  4,
  4,
  4,
  4,
  4,
  4,
  4,
  4,
  4,
  4,
  4,
  4,
  4,
  4,
  4,
  4,
  4,
  4,
  4,
  4,
  4,
  4,
  4,
  4,
  4,
  4,
  4,
  4,
  4,
  4,
  4,
  4,
  4,
  4,
  4,
  4,
  4,
  4,
  4,
  4,
  4,
  4;;
  Material {
   0.724800;0.388800;0.006400;1.000000;;
   5.000000;
   0.000000;0.000000;0.000000;;
   0.000000;0.000000;0.000000;;
  }
  Material {
   0.545600;0.540000;0.000000;1.000000;;
   5.000000;
   0.000000;0.000000;0.000000;;
   0.000000;0.000000;0.000000;;
  }
  Material {
   0.633600;0.354400;0.000000;1.000000;;
   5.000000;
   0.000000;0.000000;0.000000;;
   0.000000;0.000000;0.000000;;
  }
  Material {
   0.455200;0.455200;0.455200;1.000000;;
   5.000000;
   0.000000;0.000000;0.000000;;
   0.000000;0.000000;0.000000;;
  }
  Material {
   0.731200;0.731200;0.731200;1.000000;;
   5.000000;
   0.000000;0.000000;0.000000;;
   0.000000;0.000000;0.000000;;
  }
  Material {
   0.000000;0.000000;0.000000;1.000000;;
   5.000000;
   0.000000;0.000000;0.000000;;
   0.000000;0.000000;0.000000;;
  }
 }
 MeshNormals {
  186;
  -0.036398;0.056150;0.997759;,
  -0.027715;0.048954;0.998416;,
  -0.003441;0.034860;0.999386;,
  -0.028745;0.042815;0.998669;,
  -0.024782;0.046045;0.998632;,
  0.016600;0.691889;-0.721813;,
  0.674501;0.456965;-0.579855;,
  0.910736;-0.046892;-0.410318;,
  0.694557;-0.685055;-0.219751;,
  0.019288;-0.991868;-0.125799;,
  -0.669711;-0.705200;-0.232766;,
  -0.892267;-0.058883;-0.447652;,
  -0.646743;0.453956;-0.612901;,
  -0.215423;-0.151897;0.964635;,
  -0.286831;-0.038111;0.957223;,
  -0.314712;-0.162199;0.935226;,
  0.259695;-0.025546;0.965353;,
  0.061824;-0.213668;0.974948;,
  -0.208922;-0.655525;0.725699;,
  -0.658758;-0.391196;0.642653;,
  -0.916343;0.106002;0.386108;,
  -0.834781;0.529107;0.152270;,
  -0.005503;0.999281;0.037519;,
  0.816758;0.548935;0.177701;,
  0.897367;0.115016;0.426032;,
  0.626799;-0.388421;0.675464;,
  0.246310;0.698823;-0.671549;,
  0.739114;0.483128;-0.469359;,
  0.948230;0.074857;-0.308636;,
  0.737093;-0.664042;-0.125463;,
  0.016350;-0.993839;-0.109623;,
  -0.703345;-0.684957;-0.190104;,
  -0.930960;0.066133;-0.359083;,
  -0.712619;0.486686;-0.505283;,
  -0.794441;-0.606489;0.032169;,
  -0.883910;-0.442608;-0.150999;,
  -0.960000;-0.172229;-0.220764;,
  -0.999861;-0.009264;-0.013862;,
  -0.014296;0.998622;0.050485;,
  0.388658;0.919176;0.063721;,
  0.932536;-0.200591;-0.300233;,
  0.792543;-0.605576;0.071784;,
  0.541568;0.701264;-0.463608;,
  0.750109;0.523715;-0.403806;,
  0.974081;-0.019182;-0.225383;,
  0.727679;-0.678902;-0.097850;,
  0.017248;-0.996027;-0.087369;,
  -0.697802;-0.703306;-0.135769;,
  -0.958852;-0.042035;-0.280777;,
  -0.730206;0.518649;-0.444750;,
  -0.582487;-0.743725;0.327997;,
  -0.790312;-0.566665;0.233018;,
  -0.996144;-0.071558;0.050754;,
  -0.780058;0.624298;-0.041968;,
  -0.017592;0.998707;-0.047691;,
  0.757157;0.653225;-0.003060;,
  0.993285;-0.047495;0.105494;,
  0.780923;-0.558975;0.278759;,
  0.034237;0.270028;-0.962243;,
  0.374159;0.163085;-0.912912;,
  0.495510;-0.060830;-0.866470;,
  0.390603;-0.423460;-0.817380;,
  0.020360;-0.982417;-0.185588;,
  -0.632716;-0.673882;-0.381515;,
  -0.444861;-0.067106;-0.893082;,
  -0.307621;0.159446;-0.938055;,
  -0.046828;-0.623434;0.780473;,
  -0.826875;0.069096;0.558125;,
  -0.025778;-0.623370;0.781502;,
  -0.364421;0.909782;0.198731;,
  0.740795;0.230235;0.631042;,
  0.026161;0.603547;-0.796898;,
  0.681447;0.395792;-0.615612;,
  0.885521;0.185718;-0.425865;,
  -0.880006;0.195266;-0.432967;,
  -0.657277;0.406987;-0.634310;,
  -0.397112;-0.372062;0.838971;,
  -0.530572;-0.124661;0.838423;,
  -0.581974;-0.336577;0.740285;,
  0.525026;-0.091633;0.846139;,
  -0.414835;0.909443;0.028724;,
  0.997528;0.039367;0.058198;,
  -0.518846;0.699144;-0.491931;,
  -0.574112;0.738437;-0.353704;,
  0.536777;-0.642640;0.546704;,
  0.569499;-0.737968;0.362041;,
  0.577017;-0.800635;0.161354;,
  0.043980;-0.119282;-0.991886;,
  0.027558;-0.102078;-0.994395;,
  -0.786098;0.222554;0.576645;,
  -0.740449;0.449884;0.499339;,
  0.030795;-0.078742;-0.996419;,
  0.382340;0.901437;0.203046;,
  0.624174;0.628918;0.463538;,
  0.007337;-0.150619;-0.988565;,
  0.002075;-0.090594;-0.995886;,
  0.806308;0.058841;0.588562;,
  0.033229;-0.119326;-0.992299;,
  -0.004717;-0.623029;0.782185;,
  0.022467;0.606255;-0.794953;,
  0.696306;0.394057;-0.599897;,
  -0.922399;-0.248799;-0.295431;,
  -0.934045;-0.354036;-0.047104;,
  0.910958;0.165556;-0.377820;,
  -0.843532;-0.125429;-0.522227;,
  -0.901633;0.165258;-0.399684;,
  -0.672134;0.397786;-0.624502;,
  0.616513;-0.013858;-0.787223;,
  0.524021;-0.213233;-0.824581;,
  -0.256951;-0.755644;0.602476;,
  0.678363;0.186206;-0.710740;,
  -0.080650;-0.800390;-0.594029;,
  0.648225;-0.583052;-0.489749;,
  0.974849;0.008766;-0.222694;,
  0.760380;0.647578;0.049637;,
  0.081523;0.979171;0.185951;,
  -0.647383;0.756315;0.094254;,
  -0.974026;0.159299;-0.160929;,
  -0.759526;-0.474317;-0.445134;,
  -0.001968;-0.401281;0.915953;,
  -0.001967;-0.401289;0.915949;,
  -0.001967;-0.401297;0.915946;,
  -0.001974;-0.401280;0.915954;,
  -0.001962;-0.401266;0.915960;,
  -0.001964;-0.401275;0.915956;,
  -0.001971;-0.401270;0.915958;,
  -0.001967;-0.401281;0.915953;,
  -0.001972;-0.401292;0.915948;,
  0.160169;-0.275122;0.947973;,
  0.160175;-0.275134;0.947969;,
  0.160161;-0.275135;0.947971;,
  0.160167;-0.275128;0.947972;,
  0.160167;-0.275133;0.947971;,
  0.160167;-0.275128;0.947972;,
  0.160172;-0.275134;0.947970;,
  0.160160;-0.275133;0.947972;,
  0.689227;-0.716237;-0.109412;,
  0.160167;-0.275131;0.947971;,
  -0.041472;-0.984615;-0.169745;,
  0.696772;-0.688364;-0.201653;,
  0.982089;0.023326;-0.186969;,
  0.693421;0.706976;-0.139113;,
  0.003260;0.996536;-0.083094;,
  -0.695680;0.716421;-0.052630;,
  -0.997256;0.041980;-0.060978;,
  -0.746605;-0.656591;-0.107097;,
  0.697819;-0.654274;-0.291503;,
  -0.046990;-0.951611;-0.303691;,
  0.983153;0.023645;-0.181249;,
  0.661294;0.714933;-0.227072;,
  0.719537;0.692689;-0.049480;,
  0.007864;0.999021;0.043534;,
  -0.671784;0.726515;-0.144507;,
  -0.713277;0.699740;0.039988;,
  -0.997675;0.040838;-0.054560;,
  -0.730695;-0.682441;-0.018972;,
  -0.756004;-0.625174;-0.193944;,
  -0.160161;-0.275135;0.947971;,
  -0.160145;-0.275142;0.947972;,
  -0.160151;-0.275137;0.947972;,
  -0.160153;-0.275125;0.947975;,
  -0.160165;-0.275123;0.947974;,
  -0.160171;-0.275119;0.947974;,
  -0.160166;-0.275133;0.947971;,
  -0.160175;-0.275143;0.947966;,
  0.735517;-0.677186;-0.020839;,
  -0.160161;-0.275132;0.947972;,
  0.047647;-0.983968;-0.171861;,
  0.748923;-0.653750;-0.108279;,
  0.997191;0.043107;-0.061261;,
  0.693152;0.718894;-0.052273;,
  -0.009500;0.996581;-0.082075;,
  -0.696206;0.704455;-0.137987;,
  -0.982008;0.022452;-0.187498;,
  -0.694164;-0.690327;-0.203923;,
  0.756050;-0.624903;-0.194641;,
  0.047156;-0.951247;-0.304803;,
  0.997661;0.040909;-0.054757;,
  0.666600;0.731351;-0.144117;,
  0.713275;0.699734;0.040138;,
  -0.007877;0.999014;0.043697;,
  -0.667239;0.710186;-0.224563;,
  -0.719485;0.692731;-0.049660;,
  -0.983025;0.023833;-0.181917;,
  -0.684188;-0.720552;-0.112661;,
  -0.697654;-0.653967;-0.292584;;
  140;
  4;0,13,14,1;,
  4;1,14,15,2;,
  4;3,16,17,4;,
  4;4,17,13,0;,
  4;43,6,5,42;,
  4;43,42,26,27;,
  4;50,18,19,51;,
  4;50,51,35,34;,
  4;44,7,6,43;,
  4;44,43,27,28;,
  4;51,19,20,52;,
  4;51,52,36,35;,
  4;45,8,7,44;,
  4;45,44,28,29;,
  4;52,20,21,53;,
  4;52,53,37,36;,
  4;46,9,8,45;,
  4;46,45,29,30;,
  4;53,21,22,54;,
  4;53,54,38,80;,
  4;47,10,9,46;,
  4;47,46,30,31;,
  4;54,22,23,55;,
  4;54,55,39,38;,
  4;48,11,10,47;,
  4;48,47,31,32;,
  4;55,23,24,56;,
  4;55,56,40,81;,
  4;49,12,11,48;,
  4;49,48,32,33;,
  4;56,24,25,57;,
  4;56,57,41,40;,
  4;82,5,12,49;,
  4;82,49,33,83;,
  4;57,25,84,85;,
  4;57,85,86,41;,
  4;59,58,5,6;,
  4;68,66,19,18;,
  4;58,59,87,88;,
  4;60,59,6,7;,
  4;89,90,20,19;,
  4;59,60,88,87;,
  4;61,60,7,8;,
  4;90,67,21,20;,
  4;60,61,91,88;,
  4;62,61,8,9;,
  4;92,93,22,92;,
  4;61,94,88,91;,
  4;63,62,9,10;,
  4;90,69,69,22;,
  4;94,95,95,88;,
  4;64,63,10,11;,
  4;96,96,24,23;,
  4;95,64,88,95;,
  4;65,64,11,12;,
  4;93,70,25,24;,
  4;64,65,97,88;,
  4;58,65,12,5;,
  4;98,68,18,25;,
  4;65,58,88,97;,
  4;71,99,100,72;,
  4;71,72,27,26;,
  4;77,14,13,76;,
  4;101,102,34,35;,
  4;72,100,103,73;,
  4;72,73,28,27;,
  4;78,15,14,77;,
  4;104,101,35,36;,
  4;74,105,106,75;,
  4;74,75,33,32;,
  4;79,17,16,79;,
  4;107,108,40,107;,
  4;75,106,99,71;,
  4;75,71,26,33;,
  4;76,13,17,109;,
  4;110,107,107,110;,
  3;111,112,112;,
  3;112,112,113;,
  3;113,114,114;,
  3;114,114,115;,
  3;115,116,116;,
  3;116,116,117;,
  3;117,118,118;,
  3;118,118,111;,
  3;119,120,121;,
  3;119,121,122;,
  3;119,122,123;,
  3;119,123,124;,
  3;119,124,125;,
  3;119,125,126;,
  3;119,126,127;,
  3;119,127,120;,
  3;137,128,129;,
  3;137,129,130;,
  3;137,130,131;,
  3;137,131,132;,
  3;137,132,133;,
  3;137,133,134;,
  3;137,134,135;,
  3;137,135,128;,
  3;138,136,139;,
  4;138,139,146,147;,
  3;139,136,140;,
  4;139,140,148,146;,
  3;140,149,141;,
  4;140,141,150,148;,
  3;141,149,142;,
  4;141,142,151,150;,
  3;142,152,143;,
  4;142,143,153,151;,
  3;143,152,144;,
  4;143,144,154,153;,
  3;144,155,145;,
  4;144,145,156,154;,
  3;145,155,138;,
  4;145,138,147,156;,
  3;166,157,158;,
  3;166,158,159;,
  3;166,159,160;,
  3;166,160,161;,
  3;166,161,162;,
  3;166,162,163;,
  3;166,163,164;,
  3;166,164,157;,
  3;167,165,168;,
  4;167,168,175,176;,
  3;168,165,169;,
  4;168,169,177,175;,
  3;169,178,170;,
  4;169,170,179,177;,
  3;170,178,171;,
  4;170,171,180,179;,
  3;171,181,172;,
  4;171,172,182,180;,
  3;172,181,173;,
  4;172,173,183,182;,
  3;173,184,174;,
  4;173,174,185,183;,
  3;174,184,167;,
  4;174,167,176,185;;
 }
}
