xof 0302txt 0064
template Header {
 <3D82AB43-62DA-11cf-AB39-0020AF71E433>
 WORD major;
 WORD minor;
 DWORD flags;
}

template Vector {
 <3D82AB5E-62DA-11cf-AB39-0020AF71E433>
 FLOAT x;
 FLOAT y;
 FLOAT z;
}

template Coords2d {
 <F6F23F44-7686-11cf-8F52-0040333594A3>
 FLOAT u;
 FLOAT v;
}

template Matrix4x4 {
 <F6F23F45-7686-11cf-8F52-0040333594A3>
 array FLOAT matrix[16];
}

template ColorRGBA {
 <35FF44E0-6C7C-11cf-8F52-0040333594A3>
 FLOAT red;
 FLOAT green;
 FLOAT blue;
 FLOAT alpha;
}

template ColorRGB {
 <D3E16E81-7835-11cf-8F52-0040333594A3>
 FLOAT red;
 FLOAT green;
 FLOAT blue;
}

template IndexedColor {
 <1630B820-7842-11cf-8F52-0040333594A3>
 DWORD index;
 ColorRGBA indexColor;
}

template Boolean {
 <4885AE61-78E8-11cf-8F52-0040333594A3>
 WORD truefalse;
}

template Boolean2d {
 <4885AE63-78E8-11cf-8F52-0040333594A3>
 Boolean u;
 Boolean v;
}

template MaterialWrap {
 <4885AE60-78E8-11cf-8F52-0040333594A3>
 Boolean u;
 Boolean v;
}

template TextureFilename {
 <A42790E1-7810-11cf-8F52-0040333594A3>
 STRING filename;
}

template Material {
 <3D82AB4D-62DA-11cf-AB39-0020AF71E433>
 ColorRGBA faceColor;
 FLOAT power;
 ColorRGB specularColor;
 ColorRGB emissiveColor;
 [...]
}

template MeshFace {
 <3D82AB5F-62DA-11cf-AB39-0020AF71E433>
 DWORD nFaceVertexIndices;
 array DWORD faceVertexIndices[nFaceVertexIndices];
}

template MeshFaceWraps {
 <4885AE62-78E8-11cf-8F52-0040333594A3>
 DWORD nFaceWrapValues;
 Boolean2d faceWrapValues;
}

template MeshTextureCoords {
 <F6F23F40-7686-11cf-8F52-0040333594A3>
 DWORD nTextureCoords;
 array Coords2d textureCoords[nTextureCoords];
}

template MeshMaterialList {
 <F6F23F42-7686-11cf-8F52-0040333594A3>
 DWORD nMaterials;
 DWORD nFaceIndexes;
 array DWORD faceIndexes[nFaceIndexes];
 [Material]
}

template MeshNormals {
 <F6F23F43-7686-11cf-8F52-0040333594A3>
 DWORD nNormals;
 array Vector normals[nNormals];
 DWORD nFaceNormals;
 array MeshFace faceNormals[nFaceNormals];
}

template MeshVertexColors {
 <1630B821-7842-11cf-8F52-0040333594A3>
 DWORD nVertexColors;
 array IndexedColor vertexColors[nVertexColors];
}

template Mesh {
 <3D82AB44-62DA-11cf-AB39-0020AF71E433>
 DWORD nVertices;
 array Vector vertices[nVertices];
 DWORD nFaces;
 array MeshFace faces[nFaces];
 [...]
}

Header{
1;
0;
1;
}

Mesh {
 64;
 4.15405;2.57322;0.58615;,
 -6.09922;4.84750;10.95641;,
 4.39739;6.29553;14.86449;,
 -10.58962;2.06732;0.97356;,
 -6.44338;-0.41661;-9.23628;,
 3.91069;-1.14905;-13.69225;,
 -1.60977;-34.92696;10.90932;,
 -1.77718;-37.48763;1.08676;,
 5.44377;-36.49153;3.77527;,
 8.99863;-30.49518;10.19725;,
 5.57791;-31.81384;17.22255;,
 -1.03774;-32.32913;20.18011;,
 -8.48668;-31.94393;17.65226;,
 -10.87644;-30.54551;9.68900;,
 -8.94369;-31.16011;1.94866;,
 8.13115;-23.82615;-0.80634;,
 -0.12431;-25.18431;-3.82270;,
 14.40729;0.29891;-9.78416;,
 12.44140;-21.62333;7.02543;,
 18.89774;3.07916;0.19872;,
 8.40791;-19.88355;15.14214;,
 14.75147;5.56301;10.40847;,
 0.26710;-19.60864;18.73183;,
 -7.98837;-20.96675;15.71545;,
 -11.52254;-23.16243;7.85997;,
 -8.26515;-24.90939;-0.23297;,
 -0.55229;6.52745;-15.67094;,
 9.94435;7.97543;-11.76289;,
 -0.30891;10.24979;-1.39260;,
 14.43477;10.75571;-1.78003;,
 10.28851;13.23956;8.42979;,
 -0.06555;13.97208;12.88579;,
 -4.08700;21.63018;-14.95266;,
 9.69299;16.54866;-14.10533;,
 -0.56028;18.82297;-3.73502;,
 14.18341;19.32889;-4.12249;,
 10.03713;21.81276;6.08730;,
 -0.31691;22.54528;10.54328;,
 -1.28620;-30.45682;9.39599;,
 5.90695;-29.03072;1.86512;,
 -1.61955;-28.53720;-0.93326;,
 8.99863;-30.49518;10.19725;,
 5.57791;-31.81384;17.22255;,
 -1.03774;-32.32913;20.18011;,
 -8.48668;-31.94393;17.65226;,
 -10.87644;-30.54551;9.68900;,
 -8.94369;-31.16011;1.94866;,
 -0.19979;-51.93790;5.35515;,
 -0.51377;-50.38120;-10.13218;,
 6.57548;-50.84605;-7.49640;,
 9.69589;-51.84634;5.05278;,
 7.01954;-52.32394;9.42506;,
 0.11419;-52.91832;12.48842;,
 -6.97509;-52.45338;9.85264;,
 -10.09547;-52.02952;5.65748;,
 -7.41914;-50.97550;-7.06881;,
 6.55138;-43.84072;-0.48228;,
 -0.53794;-43.36413;-3.11588;,
 9.67139;-44.99013;6.32776;,
 6.99450;-45.31114;10.72915;,
 0.08873;-45.78646;13.81465;,
 -7.00059;-45.30990;11.18105;,
 -10.12062;-44.98828;6.96687;,
 -7.44372;-43.83940;-0.03039;;
 
 76;
 3;0,1,2;,
 3;0,3,1;,
 3;0,4,3;,
 3;0,5,4;,
 3;6,7,8;,
 3;6,8,9;,
 3;6,9,10;,
 3;6,10,11;,
 3;6,11,12;,
 3;6,12,13;,
 3;6,13,14;,
 3;6,14,7;,
 4;15,8,7,16;,
 4;15,16,5,17;,
 4;18,9,8,15;,
 4;18,15,17,19;,
 4;20,10,9,18;,
 4;20,18,19,21;,
 4;22,11,10,20;,
 4;22,20,21,2;,
 4;23,12,11,22;,
 4;23,22,2,1;,
 4;24,13,12,23;,
 4;24,23,1,3;,
 4;25,14,13,24;,
 4;25,24,3,4;,
 4;16,7,14,25;,
 4;16,25,4,5;,
 4;26,27,17,5;,
 4;28,26,5,0;,
 4;27,29,19,17;,
 4;29,30,21,19;,
 4;31,28,0,2;,
 4;30,31,2,21;,
 4;32,33,27,26;,
 4;34,32,26,28;,
 3;34,33,32;,
 4;33,35,29,27;,
 3;34,35,33;,
 4;35,36,30,29;,
 3;34,36,35;,
 4;37,34,28,31;,
 4;36,37,31,30;,
 3;34,37,36;,
 3;38,39,40;,
 3;38,41,39;,
 3;38,42,41;,
 3;38,43,42;,
 3;38,44,43;,
 3;38,45,44;,
 3;38,46,45;,
 3;38,40,46;,
 3;47,48,49;,
 3;47,49,50;,
 3;47,50,51;,
 3;47,51,52;,
 3;47,52,53;,
 3;47,53,54;,
 3;47,54,55;,
 3;47,55,48;,
 4;56,49,48,57;,
 4;56,57,40,39;,
 4;58,50,49,56;,
 4;58,56,39,41;,
 4;59,51,50,58;,
 4;59,58,41,42;,
 4;60,52,51,59;,
 4;60,59,42,43;,
 4;61,53,52,60;,
 4;61,60,43,44;,
 4;62,54,53,61;,
 4;62,61,44,45;,
 4;63,55,54,62;,
 4;63,62,45,46;,
 4;57,48,55,63;,
 4;57,63,46,40;;
 
 MeshMaterialList {
  6;
  76;
  0,
  0,
  0,
  0,
  0,
  0,
  0,
  0,
  0,
  0,
  0,
  0,
  0,
  0,
  0,
  0,
  0,
  0,
  0,
  0,
  0,
  0,
  0,
  0,
  0,
  0,
  0,
  0,
  0,
  0,
  0,
  0,
  0,
  0,
  0,
  0,
  0,
  0,
  0,
  0,
  0,
  0,
  0,
  0,
  0,
  0,
  0,
  0,
  0,
  0,
  0,
  0,
  5,
  5,
  5,
  5,
  5,
  5,
  5,
  5,
  5,
  0,
  5,
  0,
  5,
  0,
  5,
  0,
  5,
  0,
  5,
  0,
  5,
  0,
  5,
  0;;
  Material {
   0.724800;0.388800;0.006400;1.000000;;
   5.000000;
   0.000000;0.000000;0.000000;;
   0.000000;0.000000;0.000000;;
  }
  Material {
   0.545600;0.540000;0.000000;1.000000;;
   5.000000;
   0.000000;0.000000;0.000000;;
   0.000000;0.000000;0.000000;;
  }
  Material {
   0.633600;0.354400;0.000000;1.000000;;
   5.000000;
   0.000000;0.000000;0.000000;;
   0.000000;0.000000;0.000000;;
  }
  Material {
   0.455200;0.455200;0.455200;1.000000;;
   5.000000;
   0.000000;0.000000;0.000000;;
   0.000000;0.000000;0.000000;;
  }
  Material {
   0.731200;0.731200;0.731200;1.000000;;
   5.000000;
   0.000000;0.000000;0.000000;;
   0.000000;0.000000;0.000000;;
  }
  Material {
   0.000000;0.000000;0.000000;1.000000;;
   5.000000;
   0.000000;0.000000;0.000000;;
   0.000000;0.000000;0.000000;;
  }
 }
 MeshNormals {
  104;
  -0.039792;0.967058;-0.251428;,
  -0.039795;0.967058;-0.251426;,
  0.678336;-0.120839;-0.724747;,
  0.991496;0.120488;-0.049184;,
  0.702149;0.254360;0.665047;,
  -0.039796;0.967057;-0.251430;,
  -0.039793;0.967058;-0.251427;,
  -0.039789;0.967058;-0.251428;,
  -0.039792;0.967057;-0.251429;,
  -0.317726;-0.916182;0.244257;,
  0.204463;-0.894194;0.398262;,
  0.734590;-0.648101;0.200857;,
  0.290494;-0.947119;0.136304;,
  0.022823;-0.963024;0.268447;,
  -0.289606;-0.949017;0.124479;,
  -0.423680;-0.905217;-0.032829;,
  -0.727467;-0.613863;-0.306535;,
  -0.089367;-0.975712;0.200001;,
  -0.010590;-0.369679;-0.929099;,
  0.671707;-0.402616;-0.621860;,
  0.960837;-0.269423;0.064832;,
  0.690953;-0.040474;0.721766;,
  0.028637;0.132180;0.990812;,
  -0.696610;0.150126;0.701568;,
  -0.999760;0.012323;0.018098;,
  -0.726174;-0.197219;-0.658617;,
  -0.953611;-0.280128;0.110244;,
  0.293174;-0.060911;-0.954117;,
  0.642312;0.042059;-0.765289;,
  0.963018;0.256198;-0.083420;,
  0.694972;0.367446;0.618060;,
  -0.963532;-0.254472;0.082762;,
  -0.994042;-0.076251;0.077883;,
  0.231982;-0.085793;-0.968929;,
  0.642847;-0.092612;-0.760376;,
  0.999470;0.023006;-0.023053;,
  0.718198;0.202921;0.665594;,
  -0.999470;-0.023011;0.023034;,
  0.677168;-0.405845;-0.613786;,
  -0.007534;-0.361247;-0.932440;,
  0.118724;-0.265462;-0.956783;,
  0.688854;-0.049658;0.723197;,
  0.037511;0.120324;0.992026;,
  0.151425;0.252713;0.955618;,
  -0.697676;0.120527;0.706202;,
  -0.694948;0.179137;0.696388;,
  -0.999487;-0.013899;0.028838;,
  -0.999212;0.039040;0.007136;,
  -0.718436;-0.192580;-0.668403;,
  -0.942407;-0.305031;0.137203;,
  -0.871290;-0.471067;0.137656;,
  -0.871291;-0.471066;0.137655;,
  -0.871292;-0.471065;0.137654;,
  0.391591;0.344236;0.853322;,
  -0.982777;-0.129044;0.132274;,
  0.055729;0.985379;-0.161005;,
  0.153823;0.986013;-0.064155;,
  0.336222;0.933072;0.127796;,
  -0.039792;0.967058;-0.251428;,
  -0.039791;0.967057;-0.251430;,
  0.397508;0.252681;0.882122;,
  -0.039790;0.967057;-0.251431;,
  -0.039435;0.988524;0.145827;,
  -0.136082;0.973222;0.185258;,
  -0.006803;0.983684;0.179779;,
  -0.010211;0.983946;0.178172;,
  -0.005295;0.984493;0.175342;,
  -0.003711;0.985240;0.171140;,
  -0.005472;0.984970;0.172639;,
  -0.007821;0.998893;0.046387;,
  -0.141455;0.988573;0.052090;,
  0.006302;-0.994954;-0.100135;,
  -0.010762;-0.995858;-0.090280;,
  0.006370;-0.995641;-0.093047;,
  0.015191;-0.992526;-0.121089;,
  0.004899;-0.990645;-0.136373;,
  -0.004294;-0.992734;-0.120250;,
  0.006375;-0.995642;-0.093041;,
  0.023809;-0.995570;-0.090955;,
  0.005987;-0.994384;-0.105666;,
  -0.028931;0.449504;-0.892810;,
  0.704804;0.310358;-0.637911;,
  0.996273;0.020412;0.083805;,
  0.671547;-0.190554;0.716040;,
  0.037086;-0.308391;0.950537;,
  -0.631011;-0.242141;0.737016;,
  -0.991203;-0.057653;0.119132;,
  -0.754758;0.241898;-0.609774;,
  0.691227;0.463893;-0.554084;,
  -0.027422;0.705676;-0.708004;,
  -0.027483;0.140813;-0.989655;,
  0.697186;0.151745;-0.700647;,
  0.993360;0.032773;0.110285;,
  0.998324;0.008056;0.057300;,
  0.662199;-0.134709;0.737120;,
  0.678512;-0.246371;0.692042;,
  0.031714;-0.182623;0.982671;,
  0.041798;-0.428054;0.902786;,
  -0.602327;-0.148018;0.784406;,
  -0.652749;-0.336397;0.678790;,
  -0.984158;0.005881;0.177195;,
  -0.991004;-0.118381;0.062423;,
  -0.730139;0.438461;-0.524070;,
  -0.744782;0.038363;-0.666204;;
  76;
  3;0,6,5;,
  3;0,7,6;,
  3;0,8,7;,
  3;0,1,8;,
  3;17,9,10;,
  3;17,10,11;,
  3;17,11,12;,
  3;17,12,13;,
  3;17,13,14;,
  3;17,14,15;,
  3;17,15,16;,
  3;17,16,9;,
  4;19,38,39,18;,
  4;19,18,40,2;,
  4;20,11,38,19;,
  4;20,19,2,3;,
  4;21,41,11,20;,
  4;21,20,3,4;,
  4;22,42,41,21;,
  4;22,21,4,43;,
  4;23,44,42,22;,
  4;23,22,43,45;,
  4;24,46,44,23;,
  4;24,23,45,47;,
  4;25,16,46,24;,
  4;25,24,47,48;,
  4;18,39,16,25;,
  4;18,25,48,40;,
  4;27,28,2,40;,
  4;26,49,50,51;,
  4;28,29,3,2;,
  4;29,30,4,3;,
  4;31,26,51,52;,
  4;30,53,43,4;,
  4;33,34,28,27;,
  4;32,54,49,26;,
  3;55,56,57;,
  4;34,35,29,28;,
  3;55,58,56;,
  4;35,36,30,29;,
  3;55,59,58;,
  4;37,32,26,31;,
  4;36,60,53,30;,
  3;55,61,59;,
  3;62,64,63;,
  3;62,65,64;,
  3;62,66,65;,
  3;62,67,66;,
  3;62,68,67;,
  3;62,69,68;,
  3;62,70,69;,
  3;62,63,70;,
  3;79,71,72;,
  3;79,72,73;,
  3;79,73,74;,
  3;79,74,75;,
  3;79,75,76;,
  3;79,76,77;,
  3;79,77,78;,
  3;79,78,71;,
  4;81,88,89,80;,
  4;81,80,90,91;,
  4;82,92,88,81;,
  4;82,81,91,93;,
  4;83,94,92,82;,
  4;83,82,93,95;,
  4;84,96,94,83;,
  4;84,83,95,97;,
  4;85,98,96,84;,
  4;85,84,97,99;,
  4;86,100,98,85;,
  4;86,85,99,101;,
  4;87,102,100,86;,
  4;87,86,101,103;,
  4;80,89,102,87;,
  4;80,87,103,90;;
 }
}
