xof 0302txt 0064
template Header {
 <3D82AB43-62DA-11cf-AB39-0020AF71E433>
 WORD major;
 WORD minor;
 DWORD flags;
}

template Vector {
 <3D82AB5E-62DA-11cf-AB39-0020AF71E433>
 FLOAT x;
 FLOAT y;
 FLOAT z;
}

template Coords2d {
 <F6F23F44-7686-11cf-8F52-0040333594A3>
 FLOAT u;
 FLOAT v;
}

template Matrix4x4 {
 <F6F23F45-7686-11cf-8F52-0040333594A3>
 array FLOAT matrix[16];
}

template ColorRGBA {
 <35FF44E0-6C7C-11cf-8F52-0040333594A3>
 FLOAT red;
 FLOAT green;
 FLOAT blue;
 FLOAT alpha;
}

template ColorRGB {
 <D3E16E81-7835-11cf-8F52-0040333594A3>
 FLOAT red;
 FLOAT green;
 FLOAT blue;
}

template IndexedColor {
 <1630B820-7842-11cf-8F52-0040333594A3>
 DWORD index;
 ColorRGBA indexColor;
}

template Boolean {
 <4885AE61-78E8-11cf-8F52-0040333594A3>
 WORD truefalse;
}

template Boolean2d {
 <4885AE63-78E8-11cf-8F52-0040333594A3>
 Boolean u;
 Boolean v;
}

template MaterialWrap {
 <4885AE60-78E8-11cf-8F52-0040333594A3>
 Boolean u;
 Boolean v;
}

template TextureFilename {
 <A42790E1-7810-11cf-8F52-0040333594A3>
 STRING filename;
}

template Material {
 <3D82AB4D-62DA-11cf-AB39-0020AF71E433>
 ColorRGBA faceColor;
 FLOAT power;
 ColorRGB specularColor;
 ColorRGB emissiveColor;
 [...]
}

template MeshFace {
 <3D82AB5F-62DA-11cf-AB39-0020AF71E433>
 DWORD nFaceVertexIndices;
 array DWORD faceVertexIndices[nFaceVertexIndices];
}

template MeshFaceWraps {
 <4885AE62-78E8-11cf-8F52-0040333594A3>
 DWORD nFaceWrapValues;
 Boolean2d faceWrapValues;
}

template MeshTextureCoords {
 <F6F23F40-7686-11cf-8F52-0040333594A3>
 DWORD nTextureCoords;
 array Coords2d textureCoords[nTextureCoords];
}

template MeshMaterialList {
 <F6F23F42-7686-11cf-8F52-0040333594A3>
 DWORD nMaterials;
 DWORD nFaceIndexes;
 array DWORD faceIndexes[nFaceIndexes];
 [Material]
}

template MeshNormals {
 <F6F23F43-7686-11cf-8F52-0040333594A3>
 DWORD nNormals;
 array Vector normals[nNormals];
 DWORD nFaceNormals;
 array MeshFace faceNormals[nFaceNormals];
}

template MeshVertexColors {
 <1630B821-7842-11cf-8F52-0040333594A3>
 DWORD nVertexColors;
 array IndexedColor vertexColors[nVertexColors];
}

template Mesh {
 <3D82AB44-62DA-11cf-AB39-0020AF71E433>
 DWORD nVertices;
 array Vector vertices[nVertices];
 DWORD nFaces;
 array MeshFace faces[nFaces];
 [...]
}

Header{
1;
0;
1;
}

Mesh {
 42;
 -0.81456;12.81348;-0.29667;,
 -9.65884;5.27474;11.54693;,
 -1.54728;13.54550;16.46986;,
 -12.58954;1.42004;-0.31386;,
 -8.62259;4.23947;-12.16453;,
 -0.08182;12.08142;-17.06321;,
 8.02975;20.35216;-12.14030;,
 10.96045;24.20686;-0.27952;,
 6.99350;21.38745;11.57115;,
 -0.17172;-53.25402;2.82022;,
 -0.70424;-49.48017;13.81359;,
 -9.17236;-49.67526;9.34473;,
 -12.36806;-53.28034;2.21752;,
 -8.41928;-53.97567;-13.70929;,
 0.36079;-54.13357;-17.32590;,
 8.82894;-53.93851;-12.85697;,
 12.02462;-53.22771;3.42283;,
 8.07585;-49.63809;10.19699;,
 3.77679;-3.29438;17.43781;,
 -7.58343;-3.41265;12.01691;,
 -9.87156;-22.58705;11.55943;,
 -0.74557;-22.43788;16.37811;,
 -11.85970;-3.48641;-0.06772;,
 -13.31549;-22.90881;0.84457;,
 -6.54713;-3.47242;-11.73713;,
 -9.05998;-23.21477;-9.48972;,
 5.24225;-3.37894;-16.15551;,
 0.40213;-23.32566;-13.38989;,
 16.60235;-3.26067;-10.73468;,
 9.52810;-23.17650;-8.57119;,
 20.87869;-3.18688;1.34997;,
 12.97203;-22.85471;2.14361;,
 15.56610;-3.20088;13.01942;,
 8.71652;-22.54875;12.47795;,
 -9.17236;-41.70761;9.66647;,
 -0.70424;-41.51189;14.13532;,
 -12.36806;-42.21134;1.73426;,
 -8.41928;-42.85149;-7.83961;,
 0.36079;-43.16587;-11.44934;,
 8.82894;-42.97025;-6.98050;,
 12.02462;-42.37920;2.94919;,
 8.07585;-41.82625;10.52555;;
 
 48;
 3;0,1,2;,
 3;0,3,1;,
 3;0,4,3;,
 3;0,5,4;,
 3;0,6,5;,
 3;0,7,6;,
 3;0,8,7;,
 3;0,2,8;,
 3;9,10,11;,
 3;9,11,12;,
 3;9,12,13;,
 3;9,13,14;,
 3;9,14,15;,
 3;9,15,16;,
 3;9,16,17;,
 3;9,17,10;,
 4;18,2,1,19;,
 4;18,19,20,21;,
 4;19,1,3,22;,
 4;19,22,23,20;,
 4;22,3,4,24;,
 4;22,24,25,23;,
 4;24,4,5,26;,
 4;24,26,27,25;,
 4;26,5,6,28;,
 4;26,28,29,27;,
 4;28,6,7,30;,
 4;28,30,31,29;,
 4;30,7,8,32;,
 4;30,32,33,31;,
 4;32,8,2,18;,
 4;32,18,21,33;,
 4;34,11,10,35;,
 4;34,35,21,20;,
 4;36,12,11,34;,
 4;36,34,20,23;,
 4;37,13,12,36;,
 4;37,36,23,25;,
 4;38,14,13,37;,
 4;38,37,25,27;,
 4;39,15,14,38;,
 4;39,38,27,29;,
 4;40,16,15,39;,
 4;40,39,29,31;,
 4;41,17,16,40;,
 4;41,40,31,33;,
 4;35,10,17,41;,
 4;35,41,33,21;;
 
 MeshMaterialList {
  6;
  48;
  0,
  0,
  0,
  0,
  0,
  0,
  0,
  0,
  5,
  5,
  5,
  5,
  5,
  5,
  5,
  5,
  0,
  0,
  0,
  0,
  0,
  0,
  0,
  0,
  0,
  0,
  0,
  0,
  0,
  0,
  0,
  0,
  5,
  0,
  5,
  0,
  5,
  0,
  5,
  0,
  5,
  0,
  5,
  0,
  5,
  0,
  5,
  0;;
  Material {
   0.724800;0.388800;0.006400;1.000000;;
   5.000000;
   0.000000;0.000000;0.000000;;
   0.000000;0.000000;0.000000;;
  }
  Material {
   0.545600;0.540000;0.000000;1.000000;;
   5.000000;
   0.000000;0.000000;0.000000;;
   0.000000;0.000000;0.000000;;
  }
  Material {
   0.633600;0.354400;0.000000;1.000000;;
   5.000000;
   0.000000;0.000000;0.000000;;
   0.000000;0.000000;0.000000;;
  }
  Material {
   0.455200;0.455200;0.455200;1.000000;;
   5.000000;
   0.000000;0.000000;0.000000;;
   0.000000;0.000000;0.000000;;
  }
  Material {
   0.731200;0.731200;0.731200;1.000000;;
   5.000000;
   0.000000;0.000000;0.000000;;
   0.000000;0.000000;0.000000;;
  }
  Material {
   0.000000;0.000000;0.000000;1.000000;;
   5.000000;
   0.000000;0.000000;0.000000;;
   0.000000;0.000000;0.000000;;
  }
 }
 MeshNormals {
  57;
  -0.693997;0.717333;-0.061649;,
  -0.693998;0.717333;-0.061647;,
  -0.875126;0.478479;0.072200;,
  -0.948162;0.312582;-0.057290;,
  -0.693999;0.717332;-0.061649;,
  -0.693997;0.717333;-0.061649;,
  -0.693996;0.717335;-0.061650;,
  -0.693996;0.717335;-0.061650;,
  -0.693997;0.717334;-0.061648;,
  -0.013403;-0.945936;0.324076;,
  -0.083086;-0.917610;0.388700;,
  -0.010622;-0.966313;0.257152;,
  0.000000;-0.999048;0.043617;,
  -0.000003;-0.999048;0.043617;,
  -0.000003;-0.999048;0.043619;,
  -0.010621;-0.966313;0.257152;,
  0.048890;-0.917373;0.395014;,
  -0.008680;-0.975205;0.221132;,
  -0.047688;-0.085884;0.995163;,
  -0.754386;-0.003518;0.656422;,
  -0.999432;0.012246;-0.031395;,
  -0.701312;-0.038655;-0.711806;,
  0.043620;-0.127934;-0.990823;,
  0.744846;-0.200800;-0.636304;,
  0.975548;-0.212567;0.055860;,
  0.678584;-0.168207;0.715003;,
  -0.047584;-0.000645;0.998867;,
  -0.752334;-0.026903;0.658233;,
  -0.997420;-0.058903;-0.041032;,
  -0.689882;-0.098044;-0.717252;,
  0.041501;-0.096151;-0.994501;,
  0.743976;-0.052768;-0.666120;,
  0.999028;-0.013055;0.042099;,
  0.684723;0.008830;0.728750;,
  -0.047645;-0.078524;0.995773;,
  -0.744479;-0.049514;0.665807;,
  -0.999853;-0.013783;0.010205;,
  -0.722892;0.097248;-0.684083;,
  0.047878;0.198388;-0.978954;,
  0.777643;0.091858;-0.621960;,
  0.995502;-0.015582;0.093453;,
  0.677777;-0.050786;0.733511;,
  -0.047253;0.054244;0.997409;,
  -0.438745;-0.072154;0.895710;,
  -0.677788;-0.199878;-0.707568;,
  0.042793;-0.033858;-0.998510;,
  0.719466;0.219780;-0.658836;,
  0.940077;0.339395;0.032660;,
  0.657494;0.270468;0.703241;,
  -0.736874;-0.018321;0.675782;,
  -0.047662;-0.040727;0.998033;,
  -0.998736;0.030747;0.039769;,
  -0.714864;0.279146;-0.641129;,
  0.044519;0.470383;-0.881339;,
  0.766485;0.264298;-0.585361;,
  0.992153;0.025305;0.122442;,
  0.667007;-0.019653;0.744792;;
  48;
  3;0,2,1;,
  3;0,3,2;,
  3;0,4,3;,
  3;0,5,4;,
  3;0,6,5;,
  3;0,7,6;,
  3;0,8,7;,
  3;0,1,8;,
  3;17,9,10;,
  3;17,10,11;,
  3;17,11,12;,
  3;17,12,13;,
  3;17,13,14;,
  3;17,14,15;,
  3;17,15,16;,
  3;17,16,9;,
  4;26,42,43,27;,
  4;26,27,19,18;,
  4;27,2,3,28;,
  4;27,28,20,19;,
  4;28,3,44,29;,
  4;28,29,21,20;,
  4;29,44,45,30;,
  4;29,30,22,21;,
  4;30,45,46,31;,
  4;30,31,23,22;,
  4;31,46,47,32;,
  4;31,32,24,23;,
  4;32,47,48,33;,
  4;32,33,25,24;,
  4;33,48,42,26;,
  4;33,26,18,25;,
  4;35,49,50,34;,
  4;35,34,18,19;,
  4;36,51,49,35;,
  4;36,35,19,20;,
  4;37,52,51,36;,
  4;37,36,20,21;,
  4;38,53,52,37;,
  4;38,37,21,22;,
  4;39,54,53,38;,
  4;39,38,22,23;,
  4;40,55,54,39;,
  4;40,39,23,24;,
  4;41,56,55,40;,
  4;41,40,24,25;,
  4;34,50,56,41;,
  4;34,41,25,18;;
 }
}
