xof 0302txt 0064
template Header {
 <3D82AB43-62DA-11cf-AB39-0020AF71E433>
 WORD major;
 WORD minor;
 DWORD flags;
}

template Vector {
 <3D82AB5E-62DA-11cf-AB39-0020AF71E433>
 FLOAT x;
 FLOAT y;
 FLOAT z;
}

template Coords2d {
 <F6F23F44-7686-11cf-8F52-0040333594A3>
 FLOAT u;
 FLOAT v;
}

template Matrix4x4 {
 <F6F23F45-7686-11cf-8F52-0040333594A3>
 array FLOAT matrix[16];
}

template ColorRGBA {
 <35FF44E0-6C7C-11cf-8F52-0040333594A3>
 FLOAT red;
 FLOAT green;
 FLOAT blue;
 FLOAT alpha;
}

template ColorRGB {
 <D3E16E81-7835-11cf-8F52-0040333594A3>
 FLOAT red;
 FLOAT green;
 FLOAT blue;
}

template IndexedColor {
 <1630B820-7842-11cf-8F52-0040333594A3>
 DWORD index;
 ColorRGBA indexColor;
}

template Boolean {
 <4885AE61-78E8-11cf-8F52-0040333594A3>
 WORD truefalse;
}

template Boolean2d {
 <4885AE63-78E8-11cf-8F52-0040333594A3>
 Boolean u;
 Boolean v;
}

template MaterialWrap {
 <4885AE60-78E8-11cf-8F52-0040333594A3>
 Boolean u;
 Boolean v;
}

template TextureFilename {
 <A42790E1-7810-11cf-8F52-0040333594A3>
 STRING filename;
}

template Material {
 <3D82AB4D-62DA-11cf-AB39-0020AF71E433>
 ColorRGBA faceColor;
 FLOAT power;
 ColorRGB specularColor;
 ColorRGB emissiveColor;
 [...]
}

template MeshFace {
 <3D82AB5F-62DA-11cf-AB39-0020AF71E433>
 DWORD nFaceVertexIndices;
 array DWORD faceVertexIndices[nFaceVertexIndices];
}

template MeshFaceWraps {
 <4885AE62-78E8-11cf-8F52-0040333594A3>
 DWORD nFaceWrapValues;
 Boolean2d faceWrapValues;
}

template MeshTextureCoords {
 <F6F23F40-7686-11cf-8F52-0040333594A3>
 DWORD nTextureCoords;
 array Coords2d textureCoords[nTextureCoords];
}

template MeshMaterialList {
 <F6F23F42-7686-11cf-8F52-0040333594A3>
 DWORD nMaterials;
 DWORD nFaceIndexes;
 array DWORD faceIndexes[nFaceIndexes];
 [Material]
}

template MeshNormals {
 <F6F23F43-7686-11cf-8F52-0040333594A3>
 DWORD nNormals;
 array Vector normals[nNormals];
 DWORD nFaceNormals;
 array MeshFace faceNormals[nFaceNormals];
}

template MeshVertexColors {
 <1630B821-7842-11cf-8F52-0040333594A3>
 DWORD nVertexColors;
 array IndexedColor vertexColors[nVertexColors];
}

template Mesh {
 <3D82AB44-62DA-11cf-AB39-0020AF71E433>
 DWORD nVertices;
 array Vector vertices[nVertices];
 DWORD nFaces;
 array MeshFace faces[nFaces];
 [...]
}

Header{
1;
0;
1;
}

Mesh {
 64;
 -3.14049;0.99379;-4.78965;,
 7.11280;-1.28048;-15.15992;,
 -3.38385;-2.72851;-19.06798;,
 11.60320;1.49971;-5.17709;,
 7.45696;3.98356;5.03272;,
 -2.89711;4.71608;9.48869;,
 5.14593;-36.01266;5.16629;,
 4.97850;-38.57338;-4.65625;,
 11.67168;-37.58213;-1.95160;,
 13.91385;-30.66268;3.53176;,
 12.06194;-32.03937;10.89941;,
 5.21589;-32.69672;14.70046;,
 -1.90884;-32.22958;12.05147;,
 -4.40927;-36.35526;5.41488;,
 -2.14438;-38.06946;-1.59079;,
 10.45993;-26.22865;-6.11589;,
 2.20446;-27.58683;-9.13223;,
 13.99411;-24.03302;1.73964;,
 10.73672;-22.28606;9.83261;,
 2.59588;-22.01116;13.42232;,
 -5.65958;-23.36935;10.40596;,
 -13.39375;3.26810;5.58063;,
 -9.19373;-25.56502;2.55050;,
 -17.88410;0.48787;-4.40224;,
 -5.93638;-27.31191;-5.54248;,
 -13.73790;-1.99607;-14.61205;,
 -0.11810;12.45969;7.28872;,
 -10.61475;11.01168;3.38064;,
 -0.36145;8.73730;-6.98965;,
 -15.10506;8.23145;-6.60223;,
 -10.95891;5.74753;-16.81209;,
 -0.60478;5.01503;-21.26800;,
 -0.36945;21.03287;4.94627;,
 -10.86610;19.58488;1.03819;,
 -0.61280;17.31052;-9.33210;,
 -15.35644;16.80463;-8.94469;,
 -11.21025;14.32076;-19.15447;,
 2.51049;18.87048;-22.36234;,
 3.40783;-30.75989;3.85276;,
 10.60099;-29.33373;-3.67809;,
 3.07446;-28.84023;-6.47649;,
 13.91385;-30.66268;3.53176;,
 12.06194;-32.03937;10.89941;,
 5.21589;-32.69672;14.70046;,
 -1.90884;-32.22958;12.05147;,
 -7.09825;-30.85710;4.17375;,
 -4.25681;-29.47123;-3.22415;,
 2.47403;-52.25958;-0.12635;,
 2.16005;-50.70290;-15.61370;,
 9.24933;-51.16777;-12.97789;,
 12.36974;-52.16812;-0.42872;,
 9.69338;-52.64568;3.94355;,
 2.78802;-53.23999;7.00695;,
 -4.30130;-52.77510;4.37114;,
 -7.42168;-52.35121;0.17597;,
 -4.74533;-51.29723;-12.55033;,
 9.22521;-44.16251;-5.96382;,
 2.13589;-43.68586;-8.59742;,
 12.34526;-45.31182;0.84625;,
 10.65785;-45.62377;5.21740;,
 2.76256;-46.10822;8.33315;,
 -4.32678;-45.63165;5.69954;,
 -7.44681;-45.31003;1.48536;,
 -4.76991;-44.16115;-5.51189;;
 
 76;
 3;0,1,2;,
 3;0,3,1;,
 3;0,4,3;,
 3;0,5,4;,
 3;6,7,8;,
 3;6,8,9;,
 3;6,9,10;,
 3;6,10,11;,
 3;6,11,12;,
 3;6,12,13;,
 3;6,13,14;,
 3;6,14,7;,
 4;15,8,7,16;,
 4;15,16,2,1;,
 4;17,9,8,15;,
 4;17,15,1,3;,
 4;18,10,9,17;,
 4;18,17,3,4;,
 4;19,11,10,18;,
 4;19,18,4,5;,
 4;20,12,11,19;,
 4;20,19,5,21;,
 4;22,13,12,20;,
 4;22,20,21,23;,
 4;24,14,13,22;,
 4;24,22,23,25;,
 4;16,7,14,24;,
 4;16,24,25,2;,
 4;26,27,21,5;,
 4;28,26,5,0;,
 4;27,29,23,21;,
 4;29,30,25,23;,
 4;31,28,0,2;,
 4;30,31,2,25;,
 4;32,33,27,26;,
 4;34,32,26,28;,
 3;34,33,32;,
 4;33,35,29,27;,
 3;34,35,33;,
 4;35,36,30,29;,
 3;34,36,35;,
 4;37,34,28,31;,
 4;36,37,31,30;,
 3;34,37,36;,
 3;38,39,40;,
 3;38,41,39;,
 3;38,42,41;,
 3;38,43,42;,
 3;38,44,43;,
 3;38,45,44;,
 3;38,46,45;,
 3;38,40,46;,
 3;47,48,49;,
 3;47,49,50;,
 3;47,50,51;,
 3;47,51,52;,
 3;47,52,53;,
 3;47,53,54;,
 3;47,54,55;,
 3;47,55,48;,
 4;56,49,48,57;,
 4;56,57,40,39;,
 4;58,50,49,56;,
 4;58,56,39,41;,
 4;59,51,50,58;,
 4;59,58,41,42;,
 4;60,52,51,59;,
 4;60,59,42,43;,
 4;61,53,52,60;,
 4;61,60,43,44;,
 4;62,54,53,61;,
 4;62,61,44,45;,
 4;63,55,54,62;,
 4;63,62,45,46;,
 4;57,48,55,63;,
 4;57,63,46,40;;
 
 MeshMaterialList {
  6;
  76;
  0,
  0,
  0,
  0,
  0,
  0,
  0,
  0,
  0,
  0,
  0,
  0,
  0,
  0,
  0,
  0,
  0,
  0,
  0,
  0,
  0,
  0,
  0,
  0,
  0,
  0,
  0,
  0,
  0,
  0,
  0,
  0,
  0,
  0,
  0,
  0,
  0,
  0,
  0,
  0,
  0,
  0,
  0,
  0,
  0,
  0,
  0,
  0,
  0,
  0,
  0,
  0,
  5,
  5,
  5,
  5,
  5,
  5,
  5,
  5,
  5,
  0,
  5,
  0,
  5,
  0,
  5,
  0,
  5,
  0,
  5,
  0,
  5,
  0,
  5,
  0;;
  Material {
   0.724800;0.388800;0.006400;1.000000;;
   5.000000;
   0.000000;0.000000;0.000000;;
   0.000000;0.000000;0.000000;;
  }
  Material {
   0.545600;0.540000;0.000000;1.000000;;
   5.000000;
   0.000000;0.000000;0.000000;;
   0.000000;0.000000;0.000000;;
  }
  Material {
   0.633600;0.354400;0.000000;1.000000;;
   5.000000;
   0.000000;0.000000;0.000000;;
   0.000000;0.000000;0.000000;;
  }
  Material {
   0.455200;0.455200;0.455200;1.000000;;
   5.000000;
   0.000000;0.000000;0.000000;;
   0.000000;0.000000;0.000000;;
  }
  Material {
   0.731200;0.731200;0.731200;1.000000;;
   5.000000;
   0.000000;0.000000;0.000000;;
   0.000000;0.000000;0.000000;;
  }
  Material {
   0.000000;0.000000;0.000000;1.000000;;
   5.000000;
   0.000000;0.000000;0.000000;;
   0.000000;0.000000;0.000000;;
  }
 }
 MeshNormals {
  106;
  -0.039792;0.967058;-0.251427;,
  -0.039796;0.967057;-0.251429;,
  -0.039794;0.967058;-0.251427;,
  -0.039791;0.967058;-0.251426;,
  -0.039790;0.967058;-0.251428;,
  -0.039788;0.967057;-0.251429;,
  -0.690033;0.183666;0.700087;,
  -0.999818;0.014613;0.012274;,
  -0.712587;-0.194418;-0.674108;,
  0.040711;-0.967025;0.251408;,
  0.285152;-0.847214;0.448238;,
  0.537031;-0.788684;0.299292;,
  0.399003;-0.905245;0.146045;,
  0.041627;-0.943782;0.327938;,
  -0.069474;-0.902632;0.424769;,
  0.043090;-0.921181;0.386741;,
  0.040491;-0.967211;0.250726;,
  0.165715;-0.931118;0.324896;,
  -0.002577;-0.377615;-0.925959;,
  0.703476;-0.173986;-0.689094;,
  0.997948;0.054830;-0.033063;,
  0.731602;0.187880;0.655332;,
  0.036204;0.132508;0.990521;,
  -0.654622;-0.092703;0.750251;,
  -0.937827;-0.328932;0.110836;,
  -0.684342;-0.442620;-0.579452;,
  0.982527;-0.178795;0.051695;,
  0.975216;-0.206083;0.080526;,
  -0.368963;0.305388;0.877841;,
  -0.689395;0.295453;0.661394;,
  -0.988155;0.151711;-0.023084;,
  -0.695593;-0.048566;-0.716793;,
  0.998839;-0.033224;0.034895;,
  0.991697;-0.089240;0.092595;,
  -0.367455;0.235090;0.899839;,
  -0.695269;0.170400;0.698259;,
  -0.999470;-0.023005;0.023052;,
  -0.686687;-0.146128;-0.712115;,
  0.711491;-0.187317;-0.677269;,
  0.001663;-0.383166;-0.923678;,
  -0.148515;-0.289144;-0.945695;,
  0.695209;-0.160616;-0.700633;,
  0.999241;0.027237;-0.027845;,
  0.995834;0.082735;-0.038322;,
  0.744865;0.164487;0.646622;,
  0.717745;0.211138;0.663523;,
  0.047783;0.114075;0.992322;,
  -0.116445;0.235262;0.964931;,
  -0.642581;-0.126119;0.755767;,
  -0.922602;-0.363328;0.129609;,
  -0.683756;-0.461492;-0.565245;,
  0.988284;-0.150957;0.022510;,
  0.945015;-0.320022;0.067322;,
  0.945014;-0.320024;0.067323;,
  0.945014;-0.320026;0.067323;,
  -0.356045;-0.128594;-0.925578;,
  0.999470;0.023009;-0.023033;,
  -0.107918;0.977524;-0.181110;,
  -0.039790;0.967057;-0.251431;,
  -0.039791;0.967057;-0.251432;,
  -0.039789;0.967058;-0.251428;,
  -0.176340;0.978435;-0.107564;,
  -0.311727;-0.141881;-0.939519;,
  -0.305930;0.951190;0.040545;,
  -0.002426;0.983677;0.179928;,
  -0.003513;0.983139;0.182826;,
  -0.003512;0.983139;0.182827;,
  -0.003511;0.983139;0.182826;,
  -0.000352;0.983836;0.179071;,
  0.000974;0.984459;0.175610;,
  -0.002326;0.984569;0.174984;,
  -0.003653;0.983943;0.178445;,
  -0.003512;0.983139;0.182826;,
  0.006304;-0.994954;-0.100134;,
  -0.010768;-0.995858;-0.090281;,
  0.006360;-0.995641;-0.093047;,
  0.015181;-0.992526;-0.121086;,
  0.004897;-0.990646;-0.136371;,
  -0.004290;-0.992734;-0.120252;,
  0.006376;-0.995642;-0.093042;,
  0.023812;-0.995570;-0.090953;,
  0.005985;-0.994384;-0.105666;,
  -0.031272;0.450835;-0.892060;,
  0.704531;0.259472;-0.660538;,
  0.998725;-0.049934;-0.007384;,
  0.714829;-0.249854;0.653140;,
  0.028862;-0.307309;0.951172;,
  -0.609052;-0.191297;0.769715;,
  -0.988616;0.000188;0.150461;,
  -0.740495;0.285863;-0.608234;,
  0.691228;0.463892;-0.554083;,
  -0.027422;0.705677;-0.708003;,
  -0.032009;0.143329;-0.989157;,
  0.681775;0.049053;-0.729916;,
  0.997984;0.005576;0.063218;,
  0.991621;-0.104014;-0.076606;,
  0.683374;-0.176414;0.708433;,
  0.739995;-0.322445;0.590285;,
  0.020398;-0.195209;0.980550;,
  0.036976;-0.415788;0.908710;,
  -0.602328;-0.148017;0.784406;,
  -0.614522;-0.234569;0.753220;,
  -0.984158;0.005883;0.177195;,
  -0.992345;-0.005558;0.123371;,
  -0.730139;0.438462;-0.524069;,
  -0.729079;0.130212;-0.671929;;
  76;
  3;0,2,1;,
  3;0,3,2;,
  3;0,4,3;,
  3;0,5,4;,
  3;17,9,10;,
  3;17,10,11;,
  3;17,11,12;,
  3;17,12,13;,
  3;17,13,14;,
  3;17,14,15;,
  3;17,15,16;,
  3;17,16,9;,
  4;19,38,39,18;,
  4;19,18,40,41;,
  4;20,42,38,19;,
  4;20,19,41,43;,
  4;21,44,42,20;,
  4;21,20,43,45;,
  4;22,46,44,21;,
  4;22,21,45,47;,
  4;23,48,46,22;,
  4;23,22,47,6;,
  4;24,49,48,23;,
  4;24,23,6,7;,
  4;25,50,49,24;,
  4;25,24,7,8;,
  4;18,39,50,25;,
  4;18,25,8,40;,
  4;28,29,6,47;,
  4;26,51,52,53;,
  4;29,30,7,6;,
  4;30,31,8,7;,
  4;27,26,53,54;,
  4;31,55,40,8;,
  4;34,35,29,28;,
  4;32,56,51,26;,
  3;57,58,59;,
  4;35,36,30,29;,
  3;57,60,58;,
  4;36,37,31,30;,
  3;57,61,60;,
  4;33,32,26,27;,
  4;37,62,55,31;,
  3;57,63,61;,
  3;64,66,65;,
  3;64,67,66;,
  3;64,68,67;,
  3;64,69,68;,
  3;64,70,69;,
  3;64,71,70;,
  3;64,72,71;,
  3;64,65,72;,
  3;81,73,74;,
  3;81,74,75;,
  3;81,75,76;,
  3;81,76,77;,
  3;81,77,78;,
  3;81,78,79;,
  3;81,79,80;,
  3;81,80,73;,
  4;83,90,91,82;,
  4;83,82,92,93;,
  4;84,94,90,83;,
  4;84,83,93,95;,
  4;85,96,94,84;,
  4;85,84,95,97;,
  4;86,98,96,85;,
  4;86,85,97,99;,
  4;87,100,98,86;,
  4;87,86,99,101;,
  4;88,102,100,87;,
  4;88,87,101,103;,
  4;89,104,102,88;,
  4;89,88,103,105;,
  4;82,91,104,89;,
  4;82,89,105,92;;
 }
}
