xof 0302txt 0064
template Header {
 <3D82AB43-62DA-11cf-AB39-0020AF71E433>
 WORD major;
 WORD minor;
 DWORD flags;
}

template Vector {
 <3D82AB5E-62DA-11cf-AB39-0020AF71E433>
 FLOAT x;
 FLOAT y;
 FLOAT z;
}

template Coords2d {
 <F6F23F44-7686-11cf-8F52-0040333594A3>
 FLOAT u;
 FLOAT v;
}

template Matrix4x4 {
 <F6F23F45-7686-11cf-8F52-0040333594A3>
 array FLOAT matrix[16];
}

template ColorRGBA {
 <35FF44E0-6C7C-11cf-8F52-0040333594A3>
 FLOAT red;
 FLOAT green;
 FLOAT blue;
 FLOAT alpha;
}

template ColorRGB {
 <D3E16E81-7835-11cf-8F52-0040333594A3>
 FLOAT red;
 FLOAT green;
 FLOAT blue;
}

template IndexedColor {
 <1630B820-7842-11cf-8F52-0040333594A3>
 DWORD index;
 ColorRGBA indexColor;
}

template Boolean {
 <4885AE61-78E8-11cf-8F52-0040333594A3>
 WORD truefalse;
}

template Boolean2d {
 <4885AE63-78E8-11cf-8F52-0040333594A3>
 Boolean u;
 Boolean v;
}

template MaterialWrap {
 <4885AE60-78E8-11cf-8F52-0040333594A3>
 Boolean u;
 Boolean v;
}

template TextureFilename {
 <A42790E1-7810-11cf-8F52-0040333594A3>
 STRING filename;
}

template Material {
 <3D82AB4D-62DA-11cf-AB39-0020AF71E433>
 ColorRGBA faceColor;
 FLOAT power;
 ColorRGB specularColor;
 ColorRGB emissiveColor;
 [...]
}

template MeshFace {
 <3D82AB5F-62DA-11cf-AB39-0020AF71E433>
 DWORD nFaceVertexIndices;
 array DWORD faceVertexIndices[nFaceVertexIndices];
}

template MeshFaceWraps {
 <4885AE62-78E8-11cf-8F52-0040333594A3>
 DWORD nFaceWrapValues;
 Boolean2d faceWrapValues;
}

template MeshTextureCoords {
 <F6F23F40-7686-11cf-8F52-0040333594A3>
 DWORD nTextureCoords;
 array Coords2d textureCoords[nTextureCoords];
}

template MeshMaterialList {
 <F6F23F42-7686-11cf-8F52-0040333594A3>
 DWORD nMaterials;
 DWORD nFaceIndexes;
 array DWORD faceIndexes[nFaceIndexes];
 [Material]
}

template MeshNormals {
 <F6F23F43-7686-11cf-8F52-0040333594A3>
 DWORD nNormals;
 array Vector normals[nNormals];
 DWORD nFaceNormals;
 array MeshFace faceNormals[nFaceNormals];
}

template MeshVertexColors {
 <1630B821-7842-11cf-8F52-0040333594A3>
 DWORD nVertexColors;
 array IndexedColor vertexColors[nVertexColors];
}

template Mesh {
 <3D82AB44-62DA-11cf-AB39-0020AF71E433>
 DWORD nVertices;
 array Vector vertices[nVertices];
 DWORD nFaces;
 array MeshFace faces[nFaces];
 [...]
}

Header{
1;
0;
1;
}

Mesh {
 42;
 -0.71726;11.61508;2.13227;,
 7.61686;3.05644;-9.38370;,
 -0.71726;10.88235;-14.65023;,
 11.06896;0.24409;2.62872;,
 7.61686;4.09270;14.35035;,
 -0.71726;12.34782;18.91477;,
 -9.05138;20.17369;13.64823;,
 -12.50349;22.98603;1.63582;,
 -9.05138;19.13747;-10.08583;,
 -1.36718;-54.46249;5.01731;,
 -1.36718;-55.34269;-15.14192;,
 7.26514;-55.16603;-11.09535;,
 10.84077;-54.46249;5.01731;,
 7.26514;-50.86482;11.97725;,
 -1.36718;-50.68809;16.02390;,
 -9.99950;-50.86482;11.97725;,
 -13.57509;-54.46249;5.01731;,
 -9.99950;-55.16603;-11.09535;,
 -6.04639;-5.96768;-13.91455;,
 5.53942;-5.63489;-9.00423;,
 7.93574;-24.69440;-6.83070;,
 -1.36718;-24.94593;-11.18902;,
 10.33840;-4.66377;2.84301;,
 11.78912;-24.08896;3.69117;,
 5.53942;-3.62315;14.68723;,
 7.93574;-23.48432;14.21307;,
 -6.04639;-3.12268;19.59021;,
 -1.36718;-23.23461;18.57144;,
 -17.63216;-3.45546;14.67993;,
 -10.67008;-23.48615;14.21314;,
 -22.43114;-4.42661;2.83266;,
 -14.52345;-24.09159;3.69128;,
 -17.63216;-5.46721;-9.01155;,
 -10.67008;-24.69619;-6.83065;,
 7.26514;-43.66293;-5.24220;,
 -1.36718;-43.83906;-9.28881;,
 10.84077;-43.39357;4.53401;,
 7.26514;-43.27596;12.31555;,
 -1.36718;-43.25577;16.36896;,
 -9.99950;-43.43181;12.32234;,
 -13.57509;-43.61404;4.54365;,
 -9.99950;-43.81883;-5.23538;;
 
 48;
 3;0,1,2;,
 3;0,3,1;,
 3;0,4,3;,
 3;0,5,4;,
 3;0,6,5;,
 3;0,7,6;,
 3;0,8,7;,
 3;0,2,8;,
 3;9,10,11;,
 3;9,11,12;,
 3;9,12,13;,
 3;9,13,14;,
 3;9,14,15;,
 3;9,15,16;,
 3;9,16,17;,
 3;9,17,10;,
 4;18,2,1,19;,
 4;18,19,20,21;,
 4;19,1,3,22;,
 4;19,22,23,20;,
 4;22,3,4,24;,
 4;22,24,25,23;,
 4;24,4,5,26;,
 4;24,26,27,25;,
 4;26,5,6,28;,
 4;26,28,29,27;,
 4;28,6,7,30;,
 4;28,30,31,29;,
 4;30,7,8,32;,
 4;30,32,33,31;,
 4;32,8,2,18;,
 4;32,18,21,33;,
 4;34,11,10,35;,
 4;34,35,21,20;,
 4;36,12,11,34;,
 4;36,34,20,23;,
 4;37,13,12,36;,
 4;37,36,23,25;,
 4;38,14,13,37;,
 4;38,37,25,27;,
 4;39,15,14,38;,
 4;39,38,27,29;,
 4;40,16,15,39;,
 4;40,39,29,31;,
 4;41,17,16,40;,
 4;41,40,31,33;,
 4;35,10,17,41;,
 4;35,41,33,21;;
 
 MeshMaterialList {
  6;
  48;
  0,
  0,
  0,
  0,
  0,
  0,
  0,
  0,
  5,
  5,
  5,
  5,
  5,
  5,
  5,
  5,
  0,
  0,
  0,
  0,
  0,
  0,
  0,
  0,
  0,
  0,
  0,
  0,
  0,
  0,
  0,
  0,
  5,
  0,
  5,
  0,
  5,
  0,
  5,
  0,
  5,
  0,
  5,
  0,
  5,
  0,
  5,
  0;;
  Material {
   0.724800;0.388800;0.006400;1.000000;;
   5.000000;
   0.000000;0.000000;0.000000;;
   0.000000;0.000000;0.000000;;
  }
  Material {
   0.545600;0.540000;0.000000;1.000000;;
   5.000000;
   0.000000;0.000000;0.000000;;
   0.000000;0.000000;0.000000;;
  }
  Material {
   0.633600;0.354400;0.000000;1.000000;;
   5.000000;
   0.000000;0.000000;0.000000;;
   0.000000;0.000000;0.000000;;
  }
  Material {
   0.455200;0.455200;0.455200;1.000000;;
   5.000000;
   0.000000;0.000000;0.000000;;
   0.000000;0.000000;0.000000;;
  }
  Material {
   0.731200;0.731200;0.731200;1.000000;;
   5.000000;
   0.000000;0.000000;0.000000;;
   0.000000;0.000000;0.000000;;
  }
  Material {
   0.000000;0.000000;0.000000;1.000000;;
   5.000000;
   0.000000;0.000000;0.000000;;
   0.000000;0.000000;0.000000;;
  }
 }
 MeshNormals {
  57;
  0.694658;0.718655;-0.031377;,
  0.694659;0.718655;-0.031377;,
  0.870237;0.468703;-0.151675;,
  0.949161;0.314579;-0.011532;,
  0.694658;0.718655;-0.031377;,
  0.694658;0.718655;-0.031377;,
  0.694657;0.718656;-0.031378;,
  0.694657;0.718657;-0.031376;,
  0.694658;0.718656;-0.031375;,
  0.000000;-0.999048;0.043621;,
  -0.000001;-0.999048;0.043622;,
  0.000000;-0.966297;0.257429;,
  0.066092;-0.917469;0.392278;,
  -0.000000;-0.945927;0.324379;,
  -0.066092;-0.917470;0.392278;,
  0.000000;-0.966297;0.257429;,
  0.000001;-0.999048;0.043622;,
  -0.000000;-0.975195;0.221348;,
  0.001574;-0.126463;-0.991970;,
  0.731058;-0.035414;-0.681396;,
  0.999873;0.013591;0.008293;,
  0.725126;-0.003997;0.688604;,
  0.002635;-0.085475;0.996337;,
  -0.706429;-0.166319;0.687965;,
  -0.976691;-0.213299;0.024030;,
  -0.719606;-0.203173;-0.663993;,
  0.003293;-0.093037;-0.995657;,
  0.722937;-0.087868;-0.685303;,
  0.998370;-0.056975;0.003444;,
  0.720823;-0.034182;0.692276;,
  0.002767;-0.003879;0.999989;,
  -0.714210;0.011493;0.699837;,
  -0.999887;-0.014879;0.002235;,
  -0.715883;-0.058212;-0.695790;,
  -0.000749;0.188086;-0.982152;,
  0.751293;0.088143;-0.654056;,
  0.998544;-0.015531;0.051657;,
  0.712533;-0.049736;0.699874;,
  0.000454;-0.077971;0.996956;,
  -0.712161;-0.049782;0.700249;,
  -0.998549;-0.015139;0.051685;,
  -0.751810;0.089069;-0.653337;,
  0.003640;-0.032943;-0.999451;,
  0.399430;-0.150743;-0.904286;,
  0.708358;-0.138769;0.692078;,
  0.000825;0.053337;0.998576;,
  -0.690447;0.277694;0.667958;,
  -0.941252;0.337050;-0.021040;,
  -0.688030;0.209426;-0.694807;,
  0.743253;0.260588;-0.616173;,
  -0.001624;0.454826;-0.890579;,
  0.996383;0.026341;0.080796;,
  0.703501;-0.021595;0.710366;,
  0.000349;-0.045917;0.998945;,
  -0.703202;-0.022256;0.710642;,
  -0.996371;0.026586;0.080856;,
  -0.744282;0.261908;-0.614368;;
  48;
  3;0,2,1;,
  3;0,3,2;,
  3;0,4,3;,
  3;0,5,4;,
  3;0,6,5;,
  3;0,7,6;,
  3;0,8,7;,
  3;0,1,8;,
  3;17,9,10;,
  3;17,10,11;,
  3;17,11,12;,
  3;17,12,13;,
  3;17,13,14;,
  3;17,14,15;,
  3;17,15,16;,
  3;17,16,9;,
  4;26,42,43,27;,
  4;26,27,19,18;,
  4;27,2,3,28;,
  4;27,28,20,19;,
  4;28,3,44,29;,
  4;28,29,21,20;,
  4;29,44,45,30;,
  4;29,30,22,21;,
  4;30,45,46,31;,
  4;30,31,23,22;,
  4;31,46,47,32;,
  4;31,32,24,23;,
  4;32,47,48,33;,
  4;32,33,25,24;,
  4;33,48,42,26;,
  4;33,26,18,25;,
  4;35,49,50,34;,
  4;35,34,18,19;,
  4;36,51,49,35;,
  4;36,35,19,20;,
  4;37,52,51,36;,
  4;37,36,20,21;,
  4;38,53,52,37;,
  4;38,37,21,22;,
  4;39,54,53,38;,
  4;39,38,22,23;,
  4;40,55,54,39;,
  4;40,39,23,24;,
  4;41,56,55,40;,
  4;41,40,24,25;,
  4;34,50,56,41;,
  4;34,41,25,18;;
 }
}
