xof 0302txt 0064
template Header {
 <3D82AB43-62DA-11cf-AB39-0020AF71E433>
 WORD major;
 WORD minor;
 DWORD flags;
}

template Vector {
 <3D82AB5E-62DA-11cf-AB39-0020AF71E433>
 FLOAT x;
 FLOAT y;
 FLOAT z;
}

template Coords2d {
 <F6F23F44-7686-11cf-8F52-0040333594A3>
 FLOAT u;
 FLOAT v;
}

template Matrix4x4 {
 <F6F23F45-7686-11cf-8F52-0040333594A3>
 array FLOAT matrix[16];
}

template ColorRGBA {
 <35FF44E0-6C7C-11cf-8F52-0040333594A3>
 FLOAT red;
 FLOAT green;
 FLOAT blue;
 FLOAT alpha;
}

template ColorRGB {
 <D3E16E81-7835-11cf-8F52-0040333594A3>
 FLOAT red;
 FLOAT green;
 FLOAT blue;
}

template IndexedColor {
 <1630B820-7842-11cf-8F52-0040333594A3>
 DWORD index;
 ColorRGBA indexColor;
}

template Boolean {
 <4885AE61-78E8-11cf-8F52-0040333594A3>
 WORD truefalse;
}

template Boolean2d {
 <4885AE63-78E8-11cf-8F52-0040333594A3>
 Boolean u;
 Boolean v;
}

template MaterialWrap {
 <4885AE60-78E8-11cf-8F52-0040333594A3>
 Boolean u;
 Boolean v;
}

template TextureFilename {
 <A42790E1-7810-11cf-8F52-0040333594A3>
 STRING filename;
}

template Material {
 <3D82AB4D-62DA-11cf-AB39-0020AF71E433>
 ColorRGBA faceColor;
 FLOAT power;
 ColorRGB specularColor;
 ColorRGB emissiveColor;
 [...]
}

template MeshFace {
 <3D82AB5F-62DA-11cf-AB39-0020AF71E433>
 DWORD nFaceVertexIndices;
 array DWORD faceVertexIndices[nFaceVertexIndices];
}

template MeshFaceWraps {
 <4885AE62-78E8-11cf-8F52-0040333594A3>
 DWORD nFaceWrapValues;
 Boolean2d faceWrapValues;
}

template MeshTextureCoords {
 <F6F23F40-7686-11cf-8F52-0040333594A3>
 DWORD nTextureCoords;
 array Coords2d textureCoords[nTextureCoords];
}

template MeshMaterialList {
 <F6F23F42-7686-11cf-8F52-0040333594A3>
 DWORD nMaterials;
 DWORD nFaceIndexes;
 array DWORD faceIndexes[nFaceIndexes];
 [Material]
}

template MeshNormals {
 <F6F23F43-7686-11cf-8F52-0040333594A3>
 DWORD nNormals;
 array Vector normals[nNormals];
 DWORD nFaceNormals;
 array MeshFace faceNormals[nFaceNormals];
}

template MeshVertexColors {
 <1630B821-7842-11cf-8F52-0040333594A3>
 DWORD nVertexColors;
 array IndexedColor vertexColors[nVertexColors];
}

template Mesh {
 <3D82AB44-62DA-11cf-AB39-0020AF71E433>
 DWORD nVertices;
 array Vector vertices[nVertices];
 DWORD nFaces;
 array MeshFace faces[nFaces];
 [...]
}

Header{
1;
0;
1;
}

Mesh {
 66;
 0.27750;4.13926;2.07596;,
 16.96119;2.22316;3.30521;,
 0.27750;-10.10989;2.07596;,
 17.23635;5.20543;0.77701;,
 15.55158;19.18857;-1.51801;,
 0.89750;35.08742;-2.60121;,
 -14.89944;18.29366;-0.62983;,
 -16.46398;4.66580;0.83918;,
 -15.08331;2.19622;3.20907;,
 6.36589;-12.04457;50.74468;,
 5.39067;-12.66160;64.82901;,
 0.27750;-14.77889;64.77359;,
 0.27750;-14.55886;50.42094;,
 0.27750;-11.51594;34.79666;,
 7.38392;-8.57822;35.06053;,
 8.88778;-5.95751;50.87695;,
 7.50861;-7.55024;64.96280;,
 10.32750;-1.47474;35.26397;,
 6.36589;0.13663;50.74026;,
 5.39067;-2.43865;65.09671;,
 7.38392;5.63348;35.28810;,
 0.27750;8.23074;50.39651;,
 0.27750;4.52479;65.12923;,
 0.27750;14.80322;35.10931;,
 -5.81090;0.15366;50.09095;,
 -4.83568;-2.43865;65.09671;,
 -6.82892;5.64473;34.85497;,
 -8.33279;-5.93342;49.95875;,
 -6.95362;-7.55024;64.96280;,
 -9.77250;-1.45875;34.65135;,
 -5.81090;-12.02753;50.09542;,
 -4.83568;-12.66160;64.82901;,
 -6.82892;-8.56696;34.62726;,
 0.27750;-12.18848;18.66550;,
 9.76784;-8.25997;18.81301;,
 13.69888;1.22651;19.08550;,
 9.76784;10.71397;19.32337;,
 0.27750;26.13145;19.23599;,
 -9.21286;10.71611;19.23987;,
 -13.14390;1.22961;18.96738;,
 -9.21286;-8.25781;18.72949;,
 5.39064;-12.91271;74.41794;,
 0.27750;-15.03001;74.36245;,
 7.50861;-7.80134;74.55178;,
 5.39066;-2.68979;74.68566;,
 0.27750;4.27366;74.71826;,
 -4.83566;-2.68979;74.68566;,
 -6.95362;-7.80134;74.55178;,
 -4.83564;-12.91271;74.41794;,
 3.44519;-9.65375;90.58708;,
 0.27750;-10.96545;90.55290;,
 4.75734;-6.48707;90.67021;,
 3.39451;-3.26976;90.75371;,
 0.27750;1.09498;90.77460;,
 -2.83951;-3.26976;90.75371;,
 -4.20234;-6.48707;90.67021;,
 -2.89019;-9.65375;90.58708;,
 0.93247;-3.03602;100.69035;,
 0.27750;-3.30717;100.68329;,
 0.27750;-2.36937;100.70758;,
 1.20372;-2.38104;100.70753;,
 0.90870;-1.70269;100.72504;,
 0.27750;-0.78721;100.72938;,
 -0.35371;-1.70269;100.72504;,
 -0.64872;-2.38104;100.70753;,
 -0.37748;-3.03602;100.69035;;
 
 72;
 3;0,1,2;,
 3;0,3,1;,
 3;0,4,3;,
 3;0,5,4;,
 3;0,6,5;,
 3;0,7,6;,
 3;0,8,7;,
 3;0,2,8;,
 4;9,10,11,12;,
 4;9,12,13,14;,
 4;15,16,10,9;,
 4;15,9,14,17;,
 4;18,19,16,15;,
 4;18,15,17,20;,
 4;21,22,19,18;,
 4;21,18,20,23;,
 4;24,25,22,21;,
 4;24,21,23,26;,
 4;27,28,25,24;,
 4;27,24,26,29;,
 4;30,31,28,27;,
 4;30,27,29,32;,
 4;12,11,31,30;,
 4;12,30,32,13;,
 4;33,2,1,34;,
 4;33,34,14,13;,
 4;34,1,3,35;,
 4;34,35,17,14;,
 4;35,3,4,36;,
 4;35,36,20,17;,
 4;36,4,5,37;,
 4;36,37,23,20;,
 4;37,5,6,38;,
 4;37,38,26,23;,
 4;38,6,7,39;,
 4;38,39,29,26;,
 4;39,7,8,40;,
 4;39,40,32,29;,
 4;40,8,2,33;,
 4;40,33,13,32;,
 4;41,42,11,10;,
 4;43,41,10,16;,
 4;44,43,16,19;,
 4;45,44,19,22;,
 4;46,45,22,25;,
 4;47,46,25,28;,
 4;48,47,28,31;,
 4;42,48,31,11;,
 4;49,50,42,41;,
 4;51,49,41,43;,
 4;52,51,43,44;,
 4;53,52,44,45;,
 4;54,53,45,46;,
 4;55,54,46,47;,
 4;56,55,47,48;,
 4;50,56,48,42;,
 4;57,58,50,49;,
 3;59,58,57;,
 4;60,57,49,51;,
 3;59,57,60;,
 4;61,60,51,52;,
 3;59,60,61;,
 4;62,61,52,53;,
 3;59,61,62;,
 4;63,62,53,54;,
 3;59,62,63;,
 4;64,63,54,55;,
 3;59,63,64;,
 4;65,64,55,56;,
 3;59,64,65;,
 4;58,65,56,50;,
 3;59,65,58;;
 
 MeshMaterialList {
  6;
  72;
  0,
  0,
  0,
  0,
  0,
  0,
  0,
  0,
  0,
  0,
  0,
  0,
  0,
  0,
  0,
  1,
  0,
  1,
  0,
  0,
  0,
  0,
  0,
  0,
  3,
  3,
  0,
  0,
  0,
  0,
  1,
  0,
  1,
  0,
  0,
  0,
  0,
  0,
  3,
  3,
  0,
  0,
  0,
  1,
  1,
  0,
  0,
  0,
  0,
  0,
  0,
  0,
  0,
  0,
  0,
  0,
  0,
  0,
  0,
  0,
  0,
  0,
  0,
  0,
  0,
  0,
  0,
  0,
  0,
  0,
  0,
  0;;
  Material {
   0.724800;0.388800;0.006400;1.000000;;
   5.000000;
   0.000000;0.000000;0.000000;;
   0.000000;0.000000;0.000000;;
  }
  Material {
   0.545600;0.540000;0.000000;1.000000;;
   5.000000;
   0.000000;0.000000;0.000000;;
   0.000000;0.000000;0.000000;;
  }
  Material {
   0.633600;0.354400;0.000000;1.000000;;
   5.000000;
   0.000000;0.000000;0.000000;;
   0.000000;0.000000;0.000000;;
  }
  Material {
   0.455200;0.455200;0.455200;1.000000;;
   5.000000;
   0.000000;0.000000;0.000000;;
   0.000000;0.000000;0.000000;;
  }
  Material {
   0.731200;0.731200;0.731200;1.000000;;
   5.000000;
   0.000000;0.000000;0.000000;;
   0.000000;0.000000;0.000000;;
  }
  Material {
   0.000000;0.000000;0.000000;1.000000;;
   5.000000;
   0.000000;0.000000;0.000000;;
   0.000000;0.000000;0.000000;;
  }
 }
 MeshNormals {
  89;
  -0.004067;-0.248701;-0.968572;,
  -0.000043;0.000000;-1.000000;,
  0.029628;-0.344087;-0.938470;,
  -0.042802;-0.422308;-0.905441;,
  -0.075773;-0.158206;-0.984495;,
  -0.025360;-0.148888;-0.988529;,
  0.052920;-0.132465;-0.989774;,
  0.053734;-0.419744;-0.906050;,
  -0.022118;-0.367373;-0.929811;,
  -0.000124;-0.999784;-0.020764;,
  0.706863;-0.707351;-0.000336;,
  0.998829;-0.001165;0.048370;,
  0.867698;0.490827;0.078672;,
  0.800751;0.592894;0.085294;,
  -0.868693;0.489482;0.076019;,
  -0.998950;-0.001379;0.045798;,
  -0.707165;-0.707047;-0.001166;,
  0.002525;-0.997143;-0.075496;,
  0.708027;-0.706119;-0.009734;,
  0.988999;-0.005573;0.147816;,
  0.842219;0.473125;0.258496;,
  0.770356;0.566786;0.292071;,
  -0.845155;0.466895;0.260233;,
  -0.988571;-0.007693;0.150563;,
  -0.706502;-0.707651;-0.009203;,
  0.002891;-0.994586;-0.103881;,
  0.708423;-0.704320;-0.045497;,
  0.995561;-0.002591;0.094087;,
  0.852208;0.489087;0.185836;,
  0.778945;0.592120;0.206490;,
  -0.855709;0.483964;0.183145;,
  -0.995771;-0.004428;0.091765;,
  -0.706519;-0.706126;-0.047079;,
  -0.004710;-0.996412;-0.084504;,
  0.765258;-0.641942;0.047866;,
  0.973837;0.026101;0.225743;,
  0.842220;0.442361;0.308190;,
  0.757711;0.557424;0.339341;,
  -0.845143;0.440274;0.303136;,
  -0.978388;-0.043980;0.202046;,
  -0.728864;-0.684450;0.016898;,
  0.000000;-0.993928;0.110033;,
  0.702812;-0.703918;0.102739;,
  0.996398;0.000050;0.084805;,
  0.869976;0.488338;0.068318;,
  0.806307;0.587666;0.067216;,
  -0.869976;0.488338;0.068318;,
  -0.996397;0.000050;0.084806;,
  -0.702812;-0.703918;0.102739;,
  0.000001;-0.900848;0.434135;,
  0.654571;-0.649866;0.386279;,
  0.968415;0.008621;0.249196;,
  0.865997;0.482658;0.130731;,
  0.809240;0.576353;0.113788;,
  -0.865997;0.482658;0.130731;,
  -0.968415;0.008620;0.249196;,
  -0.654571;-0.649865;0.386280;,
  0.000001;-0.446361;0.894853;,
  0.331543;-0.340452;0.879870;,
  0.944434;0.017132;0.328253;,
  0.865909;0.480815;0.137906;,
  0.813948;0.570656;0.108813;,
  -0.865910;0.480814;0.137906;,
  -0.944435;0.017131;0.328252;,
  -0.440742;-0.442328;0.781084;,
  -0.000000;-0.022927;0.999737;,
  -0.802161;0.591263;0.083338;,
  -0.784399;0.585836;0.203750;,
  -0.775792;0.559329;0.292058;,
  0.489574;-0.852461;-0.183380;,
  0.823605;-0.567149;0.004213;,
  0.967324;0.058601;0.246677;,
  0.843024;0.427064;0.326998;,
  0.739618;0.573309;0.352538;,
  -0.759394;0.559939;0.331344;,
  -0.739757;0.583612;0.334898;,
  -0.847883;0.427700;0.313317;,
  -0.977529;-0.078186;0.195766;,
  -0.749832;-0.659218;-0.056427;,
  -0.504474;-0.841370;-0.193915;,
  -0.806307;0.587666;0.067216;,
  -0.809239;0.576355;0.113788;,
  -0.000275;-0.026017;0.999662;,
  -0.006686;-0.019847;0.999781;,
  -0.000000;-0.013778;0.999905;,
  -0.813946;0.570659;0.108813;,
  0.006686;-0.019847;0.999781;,
  0.000275;-0.026017;0.999662;,
  0.000276;-0.026118;0.999659;;
  72;
  3;0,2,1;,
  3;0,3,2;,
  3;0,4,3;,
  3;0,5,4;,
  3;0,6,5;,
  3;0,7,6;,
  3;0,8,7;,
  3;0,1,8;,
  4;26,10,9,25;,
  4;26,25,17,18;,
  4;27,11,10,26;,
  4;27,26,18,19;,
  4;28,12,11,27;,
  4;28,27,19,20;,
  4;29,13,12,28;,
  4;29,28,20,21;,
  4;30,14,66,67;,
  4;30,67,68,22;,
  4;31,15,14,30;,
  4;31,30,22,23;,
  4;32,16,15,31;,
  4;32,31,23,24;,
  4;25,9,16,32;,
  4;25,32,24,17;,
  4;33,69,70,34;,
  4;33,34,18,17;,
  4;34,70,71,35;,
  4;34,35,19,18;,
  4;35,71,72,36;,
  4;35,36,20,19;,
  4;36,72,73,37;,
  4;36,37,21,20;,
  4;74,75,76,38;,
  4;74,38,22,68;,
  4;38,76,77,39;,
  4;38,39,23,22;,
  4;39,77,78,40;,
  4;39,40,24,23;,
  4;40,78,79,33;,
  4;40,33,17,24;,
  4;42,41,9,10;,
  4;43,42,10,11;,
  4;44,43,11,12;,
  4;45,44,12,13;,
  4;46,80,66,14;,
  4;47,46,14,15;,
  4;48,47,15,16;,
  4;41,48,16,9;,
  4;50,49,41,42;,
  4;51,50,42,43;,
  4;52,51,43,44;,
  4;53,52,44,45;,
  4;54,81,80,46;,
  4;55,54,46,47;,
  4;56,55,47,48;,
  4;49,56,48,41;,
  4;58,57,49,50;,
  3;65,57,58;,
  4;59,58,50,51;,
  3;65,58,82;,
  4;60,59,51,52;,
  3;65,82,83;,
  4;61,60,52,53;,
  3;65,83,84;,
  4;62,85,81,54;,
  3;65,84,86;,
  4;63,62,54,55;,
  3;65,86,87;,
  4;64,63,55,56;,
  3;65,87,88;,
  4;57,64,56,49;,
  3;65,64,57;;
 }
}
