xof 0302txt 0064
template Header {
 <3D82AB43-62DA-11cf-AB39-0020AF71E433>
 WORD major;
 WORD minor;
 DWORD flags;
}

template Vector {
 <3D82AB5E-62DA-11cf-AB39-0020AF71E433>
 FLOAT x;
 FLOAT y;
 FLOAT z;
}

template Coords2d {
 <F6F23F44-7686-11cf-8F52-0040333594A3>
 FLOAT u;
 FLOAT v;
}

template Matrix4x4 {
 <F6F23F45-7686-11cf-8F52-0040333594A3>
 array FLOAT matrix[16];
}

template ColorRGBA {
 <35FF44E0-6C7C-11cf-8F52-0040333594A3>
 FLOAT red;
 FLOAT green;
 FLOAT blue;
 FLOAT alpha;
}

template ColorRGB {
 <D3E16E81-7835-11cf-8F52-0040333594A3>
 FLOAT red;
 FLOAT green;
 FLOAT blue;
}

template IndexedColor {
 <1630B820-7842-11cf-8F52-0040333594A3>
 DWORD index;
 ColorRGBA indexColor;
}

template Boolean {
 <4885AE61-78E8-11cf-8F52-0040333594A3>
 WORD truefalse;
}

template Boolean2d {
 <4885AE63-78E8-11cf-8F52-0040333594A3>
 Boolean u;
 Boolean v;
}

template MaterialWrap {
 <4885AE60-78E8-11cf-8F52-0040333594A3>
 Boolean u;
 Boolean v;
}

template TextureFilename {
 <A42790E1-7810-11cf-8F52-0040333594A3>
 STRING filename;
}

template Material {
 <3D82AB4D-62DA-11cf-AB39-0020AF71E433>
 ColorRGBA faceColor;
 FLOAT power;
 ColorRGB specularColor;
 ColorRGB emissiveColor;
 [...]
}

template MeshFace {
 <3D82AB5F-62DA-11cf-AB39-0020AF71E433>
 DWORD nFaceVertexIndices;
 array DWORD faceVertexIndices[nFaceVertexIndices];
}

template MeshFaceWraps {
 <4885AE62-78E8-11cf-8F52-0040333594A3>
 DWORD nFaceWrapValues;
 Boolean2d faceWrapValues;
}

template MeshTextureCoords {
 <F6F23F40-7686-11cf-8F52-0040333594A3>
 DWORD nTextureCoords;
 array Coords2d textureCoords[nTextureCoords];
}

template MeshMaterialList {
 <F6F23F42-7686-11cf-8F52-0040333594A3>
 DWORD nMaterials;
 DWORD nFaceIndexes;
 array DWORD faceIndexes[nFaceIndexes];
 [Material]
}

template MeshNormals {
 <F6F23F43-7686-11cf-8F52-0040333594A3>
 DWORD nNormals;
 array Vector normals[nNormals];
 DWORD nFaceNormals;
 array MeshFace faceNormals[nFaceNormals];
}

template MeshVertexColors {
 <1630B821-7842-11cf-8F52-0040333594A3>
 DWORD nVertexColors;
 array IndexedColor vertexColors[nVertexColors];
}

template Mesh {
 <3D82AB44-62DA-11cf-AB39-0020AF71E433>
 DWORD nVertices;
 array Vector vertices[nVertices];
 DWORD nFaces;
 array MeshFace faces[nFaces];
 [...]
}

Header{
1;
0;
1;
}

Mesh {
 310;
 33.22636;-2.39929;-33.79424;,
 23.62723;25.33961;-34.80296;,
 23.62721;26.08221;-17.79262;,
 33.22635;-6.25884;-16.58292;,
 1.51687;1.38787;-33.95963;,
 1.95759;0.37993;-33.91561;,
 26.67165;-6.25884;-16.58293;,
 18.99233;15.90593;-17.55067;,
 0.45285;36.96329;-35.51285;,
 0.45286;32.92318;-18.29361;,
 0.45285;1.91479;-33.98263;,
 0.45286;25.08677;-17.95152;,
 -22.72150;25.33961;-34.80296;,
 -22.72150;26.08221;-17.79263;,
 -0.61116;1.38787;-33.95964;,
 -18.08662;15.90593;-17.55067;,
 -32.32065;-2.39929;-33.79424;,
 -32.32063;-6.25884;-16.58293;,
 -1.05187;0.37993;-33.91560;,
 -25.76593;-6.25884;-16.58293;,
 -22.72149;-19.60592;-33.04300;,
 -22.72149;-23.46550;-15.83163;,
 -0.61115;-0.28954;-33.88638;,
 -18.08662;-17.92444;-16.07360;,
 0.45286;-31.08209;-32.54197;,
 0.45286;-34.94175;-15.33063;,
 0.45285;-0.81645;-33.86341;,
 0.45286;-27.10533;-15.67275;,
 23.62722;-19.60592;-33.04299;,
 23.62723;-23.46549;-15.83163;,
 1.51687;-0.28954;-33.88638;,
 18.99234;-17.92444;-16.07360;,
 23.62723;27.30080;2.82302;,
 33.22636;-5.04040;4.03264;,
 26.67163;-5.04040;4.03264;,
 18.99233;17.12434;3.06494;,
 0.45286;34.14169;2.32193;,
 0.45285;26.30519;2.66406;,
 -22.72150;27.30080;2.82301;,
 -18.08662;17.12434;3.06493;,
 -32.32064;-5.04040;4.03265;,
 -25.76592;-5.04040;4.03265;,
 -22.72150;-22.24705;4.78389;,
 -18.08662;-16.70589;4.54198;,
 0.45286;-33.72322;5.28495;,
 0.45286;-25.88685;4.94282;,
 23.62721;-22.24700;4.78394;,
 18.99233;-16.70589;4.54198;,
 23.62722;34.19475;19.55375;,
 33.22634;1.85358;20.76340;,
 4.37336;6.31829;20.56849;,
 3.22508;9.63257;20.42378;,
 0.45286;41.03570;19.05269;,
 0.45286;11.00542;20.36384;,
 -22.72150;34.19475;19.55374;,
 -2.31936;9.63257;20.42378;,
 -32.32067;1.85358;20.76342;,
 -3.46766;6.31829;20.56850;,
 -22.72150;-15.35309;21.51463;,
 -2.31936;4.57393;20.64458;,
 0.45286;-26.82925;22.01577;,
 0.45286;3.20115;20.70459;,
 23.62722;-15.35309;21.51464;,
 3.22507;4.57393;20.64457;,
 31.78772;3.76740;22.76850;,
 20.01253;27.82770;21.88252;,
 20.01252;32.99492;32.96717;,
 31.78772;11.11867;28.90378;,
 16.10060;19.49797;22.08183;,
 25.52076;3.76740;22.76849;,
 25.52075;11.11867;28.90376;,
 16.10058;22.83735;33.16630;,
 0.45285;38.10409;21.26935;,
 0.45286;36.84655;32.55465;,
 0.45285;27.05591;21.75176;,
 0.45285;30.39544;32.83630;,
 -19.10681;27.82770;21.88251;,
 -19.10682;32.99492;32.96717;,
 -15.19487;19.49797;22.08182;,
 -15.19486;22.83735;33.16628;,
 -30.88201;3.76740;22.76851;,
 -30.88202;11.11867;28.90378;,
 -24.61504;3.76740;22.76851;,
 -24.61504;11.11867;28.90376;,
 -21.70426;-13.40444;23.51824;,
 -21.70426;-6.61144;29.67788;,
 -17.27281;-8.44910;23.30187;,
 -17.27281;-1.09780;29.43714;,
 0.45285;-24.82362;24.01683;,
 0.45285;-18.03041;30.17647;,
 0.45285;-17.02602;23.67640;,
 0.45286;-10.23296;29.83605;,
 22.60996;-13.40443;23.51825;,
 22.60997;-6.61136;29.67788;,
 18.17853;-8.44910;23.30187;,
 18.17855;-1.09780;29.43714;,
 18.24409;29.87371;39.33950;,
 28.95467;13.66896;39.96727;,
 23.25433;13.66896;39.96729;,
 14.68584;23.89670;39.52074;,
 0.45286;36.63932;38.96433;,
 0.45285;30.77137;39.22056;,
 -17.33837;29.87371;39.33949;,
 -13.78013;23.89670;39.52076;,
 -28.04896;13.66896;39.96726;,
 -22.34861;13.66896;39.96727;,
 -19.70098;-2.45812;40.67131;,
 -15.67020;2.55699;40.45234;,
 0.45286;-12.84474;41.12485;,
 0.45285;-5.75232;40.81523;,
 20.60669;-2.45815;40.67133;,
 16.57591;2.55699;40.45237;,
 17.37853;29.73076;56.13184;,
 27.56801;14.31442;56.72900;,
 2.95551;13.33873;56.77164;,
 2.01504;14.46127;56.72263;,
 0.45285;36.16718;55.77481;,
 0.45285;15.21584;56.68955;,
 -16.47278;29.73076;56.13181;,
 -1.10930;14.46127;56.72258;,
 -26.66226;14.31442;56.72896;,
 -2.04977;13.33873;56.77162;,
 -18.72043;-1.02807;57.39901;,
 -1.31676;12.11905;56.82480;,
 0.45286;-10.90940;57.83034;,
 0.45285;11.20703;56.86470;,
 19.62618;-1.02803;57.39905;,
 2.22249;12.11905;56.82480;,
 21.58330;-0.59332;-70.83982;,
 18.06751;17.50037;-71.47553;,
 18.06751;18.00369;-59.94740;,
 25.36374;-0.08999;-59.31172;,
 10.34235;11.05438;-71.34837;,
 13.30175;4.98743;-71.08349;,
 20.38156;-0.08999;-59.31171;,
 14.54458;11.55771;-59.82026;,
 0.45286;19.99704;-71.73873;,
 0.45285;31.78044;-60.45436;,
 0.45287;15.87905;-71.55895;,
 0.45286;16.38235;-60.03086;,
 -17.16178;17.50037;-71.47553;,
 -17.16180;18.00369;-59.94741;,
 -9.43661;11.05438;-71.34836;,
 -13.63886;11.55771;-59.82025;,
 -20.67756;-0.59332;-70.83975;,
 -24.45804;-0.08999;-59.31170;,
 -12.39600;4.98743;-71.08347;,
 -19.47584;-0.08999;-59.31170;,
 -17.16178;-4.41038;-70.67316;,
 -17.16179;-14.64959;-58.67601;,
 -2.75078;-3.36239;-70.71892;,
 -13.63886;-11.73768;-58.80316;,
 0.45286;-10.44118;-70.40987;,
 0.45285;-20.68038;-58.41272;,
 0.45285;-4.45921;-70.67104;,
 0.45286;-16.56232;-58.59248;,
 18.06750;-4.41038;-70.67322;,
 18.06752;-14.64959;-58.67600;,
 3.65651;-3.36239;-70.71892;,
 14.54458;-11.73768;-58.80316;,
 18.06751;18.50698;-48.41921;,
 25.36374;0.41337;-47.78349;,
 20.38156;0.41337;-47.78348;,
 14.54458;12.06105;-48.29204;,
 0.45286;32.28373;-48.92617;,
 0.45286;16.88569;-48.50267;,
 -17.16180;18.50698;-48.41921;,
 -13.63887;12.06105;-48.29206;,
 -24.45802;0.41334;-47.78348;,
 -19.47584;0.41334;-47.78348;,
 -17.16180;-14.14629;-47.14782;,
 -13.63887;-11.23436;-47.27495;,
 0.45286;-20.17706;-46.88450;,
 0.45285;-16.05900;-47.06430;,
 18.06751;-14.14626;-47.14781;,
 14.54458;-11.23436;-47.27494;,
 18.06753;19.01032;-36.89098;,
 25.36374;0.91669;-36.25529;,
 10.21920;1.95879;-36.30081;,
 10.95231;12.56439;-36.76386;,
 0.45285;37.13713;-37.58789;,
 0.45285;17.38902;-36.97450;,
 -17.16180;19.01032;-36.89098;,
 -10.04659;12.56439;-36.76385;,
 -24.45803;0.91669;-36.25528;,
 -9.31350;1.95879;-36.30079;,
 -17.16181;-21.29727;-35.47503;,
 -6.45299;-3.74933;-36.05157;,
 0.45286;-27.32811;-35.21167;,
 0.45285;-6.11371;-35.94834;,
 18.06752;-21.29727;-35.47504;,
 7.35870;-3.74933;-36.05156;,
 18.19621;15.50049;-53.26892;,
 18.62769;14.24742;-50.06944;,
 21.26465;15.15533;-50.06944;,
 20.83321;16.40845;-53.26893;,
 19.66932;11.22227;-48.74416;,
 22.30627;12.13021;-48.74418;,
 20.71095;8.19712;-50.06944;,
 23.34796;9.10504;-50.06945;,
 21.14242;6.94401;-53.26893;,
 23.77940;7.85197;-53.26893;,
 20.71095;8.19712;-56.46845;,
 23.34797;9.10504;-56.46848;,
 19.66931;11.22227;-57.79367;,
 22.30629;12.13021;-57.79365;,
 18.62770;14.24742;-56.46848;,
 21.26464;15.15533;-56.46847;,
 19.66930;11.22227;-53.26892;,
 22.30628;12.13021;-53.26892;,
 -20.06432;16.40396;-53.26893;,
 -20.38495;15.11804;-50.06944;,
 -17.67887;14.44329;-50.06944;,
 -17.35827;15.72917;-53.26893;,
 -21.15892;12.01359;-48.74417;,
 -18.45291;11.33887;-48.74416;,
 -21.93300;8.90914;-50.06946;,
 -19.22693;8.23442;-50.06943;,
 -22.25359;7.62331;-53.26893;,
 -19.54757;6.94851;-53.26895;,
 -21.93301;8.90914;-56.46848;,
 -19.22693;8.23442;-56.46846;,
 -21.15893;12.01359;-57.79369;,
 -18.45290;11.33887;-57.79370;,
 -20.38494;15.11804;-56.46842;,
 -17.67887;14.44329;-56.46846;,
 -21.15893;12.01359;-53.26895;,
 -18.45292;11.33887;-53.26890;,
 0.45288;6.59816;-81.59660;,
 4.68325;9.85902;-81.73896;,
 6.43555;6.59816;-81.59662;,
 0.45288;11.20972;-81.79788;,
 -3.77750;9.85902;-81.73898;,
 -5.52980;6.59816;-81.59661;,
 -3.77750;3.33730;-81.45416;,
 0.45287;1.98665;-81.39521;,
 4.68326;3.33730;-81.45418;,
 12.84484;8.35180;-48.05480;,
 9.21530;15.08572;-48.81549;,
 9.21531;16.68217;-12.25089;,
 12.84484;9.93504;-11.79257;,
 0.45285;17.83110;-50.13601;,
 0.45286;19.47343;-12.52031;,
 -8.30960;14.97974;-51.24291;,
 -8.30960;16.67377;-12.44295;,
 -11.93913;8.20192;-51.48774;,
 -11.93912;9.92321;-12.06419;,
 -8.30960;1.46803;-50.72705;,
 0.45285;-1.27736;-49.40647;,
 0.45286;0.38482;-11.33645;,
 -8.30959;3.17609;-11.60585;,
 9.21531;1.57400;-48.29963;,
 9.21531;3.18447;-11.41378;,
 9.21531;18.43890;27.98428;,
 5.96328;17.59384;66.15309;,
 8.24573;13.34632;66.33848;,
 12.84483;11.66610;27.85569;,
 0.45285;21.28485;28.96812;,
 0.45288;19.35316;66.07626;,
 -8.30959;18.53693;30.23079;,
 -5.05749;17.59384;66.15305;,
 -11.93911;11.80484;31.03265;,
 -7.33997;13.34631;66.33847;,
 0.45286;2.18614;29.92010;,
 0.45287;7.33943;66.60079;,
 -5.05752;9.09883;66.52396;,
 -8.30960;5.03210;30.90399;,
 9.21531;4.93401;28.65747;,
 5.96327;9.09883;66.52395;,
 -26.33521;4.08353;31.36973;,
 -22.70566;-2.68921;31.24108;,
 -26.33520;2.20187;-11.72707;,
 -22.70567;-4.54522;-11.26873;,
 23.61138;-2.78729;28.99459;,
 27.24091;3.94483;28.19277;,
 23.61138;-4.53685;-11.07666;,
 27.24092;2.21376;-11.45545;,
 -13.05724;-1.07837;-50.61589;,
 -16.68675;5.65554;-51.37653;,
 -13.05724;0.62969;-11.49467;,
 -16.68676;7.37681;-11.95302;,
 17.59247;5.80543;-47.94365;,
 13.96295;-0.97238;-48.18846;,
 17.59247;7.38866;-11.68140;,
 13.96295;0.63810;-11.30260;,
 2.20265;15.36650;81.65580;,
 2.92747;14.01761;81.71478;,
 0.45288;14.01764;81.71485;,
 0.45287;15.92517;81.63152;,
 -1.29692;15.36650;81.65579;,
 -2.02171;14.01764;81.71479;,
 -1.29690;12.66893;81.77374;,
 0.45289;12.11025;81.79813;,
 2.20269;12.66893;81.77371;,
 -8.70315;7.14924;67.08114;,
 -11.95523;3.08251;31.46117;,
 -10.98562;11.39672;66.89577;,
 -15.58476;9.85526;31.58980;,
 11.90746;11.41799;66.86330;,
 16.50656;9.73779;28.38040;,
 9.62499;7.17050;67.04868;,
 12.87704;3.00568;29.18221;,
 -17.46810;-3.44413;-50.51256;,
 -21.09762;3.28978;-51.27324;,
 -17.46810;-1.73606;-11.39138;,
 -21.09762;5.01105;-11.84973;,
 22.00332;3.43968;-47.84038;,
 18.37381;-3.33813;-48.08516;,
 22.00334;5.02289;-11.57810;,
 18.37381;-1.72765;-11.19931;;
 
 328;
 4;0,1,2,3;,
 4;4,5,6,7;,
 4;1,8,9,2;,
 4;10,4,7,11;,
 4;8,12,13,9;,
 4;14,10,11,15;,
 4;12,16,17,13;,
 4;18,14,15,19;,
 4;16,20,21,17;,
 4;22,18,19,23;,
 4;20,24,25,21;,
 4;26,22,23,27;,
 4;24,28,29,25;,
 4;30,26,27,31;,
 4;28,0,3,29;,
 4;5,30,31,6;,
 4;3,2,32,33;,
 4;7,6,34,35;,
 4;2,9,36,32;,
 4;11,7,35,37;,
 4;9,13,38,36;,
 4;15,11,37,39;,
 4;13,17,40,38;,
 4;19,15,39,41;,
 4;17,21,42,40;,
 4;23,19,41,43;,
 4;21,25,44,42;,
 4;27,23,43,45;,
 4;25,29,46,44;,
 4;31,27,45,47;,
 4;29,3,33,46;,
 4;6,31,47,34;,
 4;33,32,48,49;,
 4;35,34,50,51;,
 4;32,36,52,48;,
 4;37,35,51,53;,
 4;36,38,54,52;,
 4;39,37,53,55;,
 4;38,40,56,54;,
 4;41,39,55,57;,
 4;40,42,58,56;,
 4;43,41,57,59;,
 4;42,44,60,58;,
 4;45,43,59,61;,
 4;44,46,62,60;,
 4;47,45,61,63;,
 4;46,33,49,62;,
 4;34,47,63,50;,
 4;0,5,4,1;,
 4;49,48,51,50;,
 4;1,4,10,8;,
 4;48,52,53,51;,
 4;8,10,14,12;,
 4;52,54,55,53;,
 4;12,14,18,16;,
 4;54,56,57,55;,
 4;16,18,22,20;,
 4;56,58,59,57;,
 4;20,22,26,24;,
 4;58,60,61,59;,
 4;24,26,30,28;,
 4;60,62,63,61;,
 4;28,30,5,0;,
 4;62,49,50,63;,
 4;64,65,66,67;,
 4;68,69,70,71;,
 4;65,72,73,66;,
 4;74,68,71,75;,
 4;72,76,77,73;,
 4;78,74,75,79;,
 4;76,80,81,77;,
 4;82,78,79,83;,
 4;80,84,85,81;,
 4;86,82,83,87;,
 4;84,88,89,85;,
 4;90,86,87,91;,
 4;88,92,93,89;,
 4;94,90,91,95;,
 4;92,64,67,93;,
 4;69,94,95,70;,
 4;67,66,96,97;,
 4;71,70,98,99;,
 4;66,73,100,96;,
 4;75,71,99,101;,
 4;73,77,102,100;,
 4;79,75,101,103;,
 4;77,81,104,102;,
 4;83,79,103,105;,
 4;81,85,106,104;,
 4;87,83,105,107;,
 4;85,89,108,106;,
 4;91,87,107,109;,
 4;89,93,110,108;,
 4;95,91,109,111;,
 4;93,67,97,110;,
 4;70,95,111,98;,
 4;97,96,112,113;,
 4;99,98,114,115;,
 4;96,100,116,112;,
 4;101,99,115,117;,
 4;100,102,118,116;,
 4;103,101,117,119;,
 4;102,104,120,118;,
 4;105,103,119,121;,
 4;104,106,122,120;,
 4;107,105,121,123;,
 4;106,108,124,122;,
 4;109,107,123,125;,
 4;108,110,126,124;,
 4;111,109,125,127;,
 4;110,97,113,126;,
 4;98,111,127,114;,
 4;64,69,68,65;,
 4;113,112,115,114;,
 4;65,68,74,72;,
 4;112,116,117,115;,
 4;72,74,78,76;,
 4;116,118,119,117;,
 4;76,78,82,80;,
 4;118,120,121,119;,
 4;80,82,86,84;,
 4;120,122,123,121;,
 4;84,86,90,88;,
 4;122,124,125,123;,
 4;88,90,94,92;,
 4;124,126,127,125;,
 4;92,94,69,64;,
 4;126,113,114,127;,
 4;128,129,130,131;,
 4;132,133,134,135;,
 4;129,136,137,130;,
 4;138,132,135,139;,
 4;136,140,141,137;,
 4;142,138,139,143;,
 4;140,144,145,141;,
 4;146,142,143,147;,
 4;144,148,149,145;,
 4;150,146,147,151;,
 4;148,152,153,149;,
 4;154,150,151,155;,
 4;152,156,157,153;,
 4;158,154,155,159;,
 4;156,128,131,157;,
 4;133,158,159,134;,
 4;131,130,160,161;,
 4;135,134,162,163;,
 4;130,137,164,160;,
 4;139,135,163,165;,
 4;137,141,166,164;,
 4;143,139,165,167;,
 4;141,145,168,166;,
 4;147,143,167,169;,
 4;145,149,170,168;,
 4;151,147,169,171;,
 4;149,153,172,170;,
 4;155,151,171,173;,
 4;153,157,174,172;,
 4;159,155,173,175;,
 4;157,131,161,174;,
 4;134,159,175,162;,
 4;161,160,176,177;,
 4;163,162,178,179;,
 4;160,164,180,176;,
 4;165,163,179,181;,
 4;164,166,182,180;,
 4;167,165,181,183;,
 4;166,168,184,182;,
 4;169,167,183,185;,
 4;168,170,186,184;,
 4;171,169,185,187;,
 4;170,172,188,186;,
 4;173,171,187,189;,
 4;172,174,190,188;,
 4;175,173,189,191;,
 4;174,161,177,190;,
 4;162,175,191,178;,
 4;128,133,132,129;,
 4;177,176,179,178;,
 4;129,132,138,136;,
 4;176,180,181,179;,
 4;136,138,142,140;,
 4;180,182,183,181;,
 4;140,142,146,144;,
 4;182,184,185,183;,
 4;144,146,150,148;,
 4;184,186,187,185;,
 4;148,150,154,152;,
 4;186,188,189,187;,
 4;152,154,158,156;,
 4;188,190,191,189;,
 4;156,158,133,128;,
 4;190,177,178,191;,
 4;192,193,194,195;,
 4;193,196,197,194;,
 4;196,198,199,197;,
 4;198,200,201,199;,
 4;200,202,203,201;,
 4;202,204,205,203;,
 4;204,206,207,205;,
 4;206,192,195,207;,
 3;208,193,192;,
 3;208,196,193;,
 3;208,198,196;,
 3;208,200,198;,
 3;208,202,200;,
 3;208,204,202;,
 3;208,206,204;,
 3;208,192,206;,
 3;209,195,194;,
 3;209,194,197;,
 3;209,197,199;,
 3;209,199,201;,
 3;209,201,203;,
 3;209,203,205;,
 3;209,205,207;,
 3;209,207,195;,
 4;210,211,212,213;,
 4;211,214,215,212;,
 4;214,216,217,215;,
 4;216,218,219,217;,
 4;218,220,221,219;,
 4;220,222,223,221;,
 4;222,224,225,223;,
 4;224,210,213,225;,
 3;226,211,210;,
 3;226,214,211;,
 3;226,216,214;,
 3;226,218,216;,
 3;226,220,218;,
 3;226,222,220;,
 3;226,224,222;,
 3;226,210,224;,
 3;227,213,212;,
 3;227,212,215;,
 3;227,215,217;,
 3;227,217,219;,
 3;227,219,221;,
 3;227,221,223;,
 3;227,223,225;,
 3;227,225,213;,
 3;228,229,230;,
 3;228,231,229;,
 3;228,232,231;,
 3;228,233,232;,
 3;228,234,233;,
 3;228,235,234;,
 3;228,236,235;,
 3;228,230,236;,
 4;237,230,229,238;,
 4;237,238,239,240;,
 4;238,229,231,241;,
 4;238,241,242,239;,
 4;241,231,232,243;,
 4;241,243,244,242;,
 4;243,232,233,245;,
 4;243,245,246,244;,
 4;245,233,234,247;,
 4;247,234,235,248;,
 4;247,248,249,250;,
 4;248,235,236,251;,
 4;248,251,252,249;,
 4;251,236,230,237;,
 4;253,254,255,256;,
 4;253,256,240,239;,
 4;257,258,254,253;,
 4;257,253,239,242;,
 4;259,260,258,257;,
 4;259,257,242,244;,
 4;261,262,260,259;,
 4;261,259,244,246;,
 4;263,264,265,266;,
 4;263,266,250,249;,
 4;267,268,264,263;,
 4;267,263,249,252;,
 4;269,270,266,261;,
 4;271,269,261,246;,
 4;272,271,246,250;,
 4;270,272,250,266;,
 4;270,269,271,272;,
 4;273,274,256,267;,
 4;275,273,267,252;,
 4;276,275,252,240;,
 4;274,276,240,256;,
 4;274,273,275,276;,
 4;277,278,245,247;,
 4;279,277,247,250;,
 4;280,279,250,246;,
 4;278,280,246,245;,
 4;281,282,251,237;,
 4;283,281,237,240;,
 4;284,283,240,252;,
 4;282,284,252,251;,
 4;285,286,255,254;,
 3;287,286,285;,
 4;288,285,254,258;,
 3;287,285,288;,
 4;289,288,258,260;,
 3;287,288,289;,
 4;290,289,260,262;,
 3;287,289,290;,
 4;291,290,262,265;,
 3;287,290,291;,
 4;292,291,265,264;,
 3;287,291,292;,
 4;293,292,264,268;,
 3;287,292,293;,
 4;286,293,268,255;,
 3;287,293,286;,
 4;294,295,266,265;,
 4;296,294,265,262;,
 4;297,296,262,261;,
 4;295,297,261,266;,
 4;295,294,296,297;,
 4;298,299,256,255;,
 4;300,298,255,268;,
 4;301,300,268,267;,
 4;299,301,267,256;,
 4;299,298,300,301;,
 4;302,303,278,277;,
 4;304,302,277,279;,
 4;305,304,279,280;,
 4;303,305,280,278;,
 4;303,302,304,305;,
 4;306,307,282,281;,
 4;308,306,281,283;,
 4;309,308,283,284;,
 4;307,309,284,282;,
 4;307,306,308,309;;
 
 MeshMaterialList {
  4;
  328;
  1,
  1,
  1,
  1,
  1,
  1,
  1,
  1,
  1,
  1,
  1,
  1,
  1,
  1,
  1,
  1,
  1,
  1,
  1,
  1,
  1,
  1,
  1,
  1,
  1,
  1,
  1,
  1,
  1,
  1,
  1,
  1,
  1,
  1,
  1,
  1,
  1,
  1,
  1,
  1,
  1,
  1,
  1,
  1,
  1,
  1,
  1,
  1,
  1,
  1,
  1,
  1,
  1,
  1,
  1,
  1,
  1,
  1,
  1,
  1,
  1,
  1,
  1,
  1,
  1,
  1,
  1,
  1,
  1,
  1,
  1,
  1,
  1,
  1,
  1,
  1,
  1,
  1,
  1,
  1,
  1,
  1,
  1,
  1,
  1,
  1,
  1,
  1,
  1,
  1,
  1,
  1,
  1,
  1,
  1,
  1,
  1,
  1,
  1,
  1,
  1,
  1,
  1,
  1,
  1,
  1,
  1,
  1,
  1,
  1,
  1,
  1,
  1,
  1,
  1,
  1,
  1,
  1,
  1,
  1,
  1,
  1,
  1,
  1,
  1,
  1,
  1,
  1,
  1,
  1,
  1,
  1,
  1,
  1,
  1,
  1,
  1,
  1,
  1,
  1,
  1,
  1,
  1,
  1,
  1,
  1,
  1,
  1,
  1,
  1,
  1,
  1,
  1,
  1,
  1,
  1,
  1,
  1,
  1,
  1,
  1,
  1,
  1,
  1,
  1,
  1,
  1,
  1,
  1,
  1,
  1,
  1,
  1,
  1,
  1,
  1,
  1,
  1,
  1,
  1,
  1,
  1,
  1,
  1,
  1,
  1,
  1,
  1,
  1,
  1,
  1,
  1,
  2,
  2,
  2,
  2,
  2,
  2,
  2,
  2,
  2,
  2,
  2,
  2,
  2,
  2,
  2,
  2,
  2,
  2,
  2,
  2,
  2,
  2,
  2,
  2,
  2,
  2,
  2,
  2,
  2,
  2,
  2,
  2,
  2,
  2,
  2,
  2,
  2,
  2,
  2,
  2,
  2,
  2,
  2,
  2,
  2,
  2,
  2,
  2,
  0,
  0,
  0,
  0,
  0,
  0,
  0,
  0,
  0,
  0,
  0,
  0,
  0,
  0,
  0,
  0,
  0,
  0,
  0,
  0,
  0,
  0,
  0,
  0,
  0,
  0,
  0,
  0,
  0,
  0,
  0,
  0,
  0,
  0,
  0,
  0,
  0,
  0,
  0,
  0,
  0,
  0,
  0,
  0,
  0,
  0,
  0,
  0,
  0,
  0,
  0,
  0,
  0,
  0,
  0,
  0,
  0,
  0,
  0,
  0,
  0,
  0,
  0,
  0,
  0,
  0,
  0,
  0,
  0,
  0,
  0,
  0,
  0,
  0,
  0,
  0,
  0,
  0,
  0,
  0,
  0,
  0,
  0,
  0,
  0,
  0,
  0,
  0;;
  Material {
   0.000000;0.000000;0.000000;1.000000;;
   5.000000;
   0.000000;0.000000;0.000000;;
   0.000000;0.000000;0.000000;;
  }
  Material {
   0.800000;0.800000;0.800000;1.000000;;
   5.000000;
   0.000000;0.000000;0.000000;;
   0.100000;0.100000;0.100000;;
  }
  Material {
   0.228800;0.800000;0.800000;1.000000;;
   5.000000;
   0.000000;0.000000;0.000000;;
   0.286000;1.000000;1.000000;;
  }
  Material {
   0.200200;0.678300;0.700000;0.800000;;
   5.000000;
   0.000000;0.000000;0.000000;;
   0.062920;0.213180;0.220000;;
  }
 }
 MeshNormals {
  418;
  0.994003;-0.099130;-0.046174;,
  0.727505;0.683496;0.059740;,
  0.000000;0.996031;0.089008;,
  -0.727505;0.683496;0.059739;,
  -0.994003;-0.099130;-0.046174;,
  -0.679242;-0.716130;-0.160590;,
  -0.000000;-0.975767;-0.218814;,
  0.679242;-0.716129;-0.160590;,
  0.994335;-0.104446;-0.019748;,
  0.718340;0.695624;0.009711;,
  0.000000;0.999902;0.013982;,
  -0.718340;0.695624;0.009711;,
  -0.994335;-0.104446;-0.019748;,
  -0.688098;-0.723194;-0.059254;,
  0.000000;-0.996701;-0.081166;,
  0.688098;-0.723194;-0.059254;,
  0.993879;-0.107631;0.024904;,
  0.706198;0.689957;-0.158885;,
  0.000000;0.974732;-0.223376;,
  -0.706198;0.689957;-0.158885;,
  -0.993879;-0.107631;0.024903;,
  -0.685637;-0.709278;0.163787;,
  0.000000;-0.974591;0.223994;,
  0.685637;-0.709278;0.163787;,
  0.993461;-0.105561;0.043498;,
  0.695663;0.664192;-0.273682;,
  0.000000;0.924584;-0.380979;,
  -0.695663;0.664192;-0.273683;,
  -0.993461;-0.105562;0.043496;,
  -0.671296;-0.685292;0.282376;,
  0.000000;-0.924584;0.380977;,
  0.671297;-0.685292;0.282376;,
  -0.549604;0.080249;0.831562;,
  -0.446658;-0.379227;0.810360;,
  -0.000001;-0.568946;0.822375;,
  0.446658;-0.379225;0.810361;,
  0.549605;0.080250;0.831561;,
  0.368810;0.453873;0.811159;,
  0.000000;0.569012;0.822329;,
  -0.368810;0.453874;0.811158;,
  -0.867139;0.115011;0.484605;,
  -0.661404;-0.573749;0.483071;,
  -0.000000;-0.863524;0.504308;,
  0.661404;-0.573748;0.483071;,
  0.867140;0.115012;0.484604;,
  0.584298;0.680766;0.441762;,
  -0.584298;0.680766;0.441761;,
  -0.879891;0.072790;-0.469568;,
  -0.686923;-0.631081;-0.360380;,
  0.000000;-0.943823;-0.330450;,
  0.686923;-0.631081;-0.360379;,
  0.879891;0.072790;-0.469568;,
  0.580477;0.632243;-0.513144;,
  0.000000;0.831829;-0.555033;,
  -0.580477;0.632241;-0.513145;,
  -0.592346;0.009970;-0.805622;,
  -0.518878;-0.505420;-0.689432;,
  0.000000;-0.756534;-0.653954;,
  0.518878;-0.505421;-0.689431;,
  0.592346;0.009970;-0.805622;,
  0.366022;0.373719;-0.852269;,
  0.000000;0.476416;-0.879220;,
  -0.366022;0.373717;-0.852270;,
  0.829413;0.439714;-0.344567;,
  0.622151;0.738090;-0.261060;,
  0.000000;0.988751;-0.149573;,
  -0.622150;0.738090;-0.261061;,
  -0.829412;0.439714;-0.344568;,
  -0.591973;-0.536539;0.601411;,
  0.000000;-0.671721;0.740804;,
  0.591972;-0.536538;0.601412;,
  0.975391;0.195356;0.102220;,
  0.627295;0.778581;0.017664;,
  0.000000;0.998052;0.062379;,
  -0.627295;0.778581;0.017664;,
  -0.975390;0.195356;0.102221;,
  -0.635422;-0.597913;0.488610;,
  0.000000;-0.800733;0.599022;,
  0.635423;-0.597913;0.488609;,
  0.975672;0.045654;0.214428;,
  0.608594;0.775809;0.166534;,
  -0.000000;0.988589;0.150636;,
  -0.608594;0.775809;0.166535;,
  -0.975672;0.045655;0.214430;,
  -0.692537;-0.681524;0.236470;,
  0.000000;-0.961021;0.276476;,
  0.692537;-0.681524;0.236468;,
  0.832448;0.552054;0.047608;,
  0.623583;0.780795;0.038790;,
  -0.000000;0.999606;0.028074;,
  -0.623583;0.780794;0.038791;,
  -0.832448;0.552054;0.047610;,
  -0.704929;-0.702002;0.101336;,
  -0.000000;-0.993356;0.115083;,
  0.704929;-0.702002;0.101336;,
  -0.751989;-0.551705;0.360742;,
  -0.604752;-0.729403;0.319760;,
  0.000000;-0.957490;0.288465;,
  0.604753;-0.729402;0.319760;,
  0.751989;-0.551705;0.360742;,
  0.303751;0.271972;-0.913108;,
  0.000000;0.319335;-0.947642;,
  -0.303752;0.271972;-0.913108;,
  -0.779099;-0.605088;0.163932;,
  -0.619992;-0.767040;0.165106;,
  0.000000;-0.984541;0.175153;,
  0.619992;-0.767040;0.165106;,
  0.779099;-0.605088;0.163932;,
  0.614486;0.621975;-0.485340;,
  0.000000;0.809755;-0.586768;,
  -0.614486;0.621975;-0.485340;,
  -0.705021;-0.598393;-0.380620;,
  -0.568753;-0.743552;-0.351639;,
  0.000002;-0.941295;-0.337586;,
  0.568755;-0.743551;-0.351638;,
  0.705021;-0.598395;-0.380617;,
  0.586552;0.607060;-0.536130;,
  0.000001;0.822668;-0.568522;,
  -0.586550;0.607062;-0.536130;,
  -0.634407;-0.087321;-0.768052;,
  -0.444665;-0.605753;-0.659800;,
  0.000004;-0.746830;-0.665015;,
  0.444668;-0.605752;-0.659799;,
  0.634407;-0.087328;-0.768050;,
  0.486308;0.498628;-0.717548;,
  0.000001;0.687346;-0.726330;,
  -0.486306;0.498633;-0.717546;,
  0.955977;-0.156269;-0.248372;,
  0.717575;0.632381;-0.291855;,
  0.000000;0.921116;-0.389289;,
  -0.717575;0.632381;-0.291857;,
  -0.955976;-0.156269;-0.248375;,
  -0.302109;-0.407723;-0.861680;,
  -0.000001;-0.432559;-0.901606;,
  0.302107;-0.407723;-0.861680;,
  0.987322;-0.099102;-0.123989;,
  0.767336;0.622013;-0.155867;,
  0.000000;0.971910;-0.235353;,
  -0.767336;0.622013;-0.155867;,
  -0.987322;-0.099102;-0.123990;,
  -0.622274;-0.745635;-0.238334;,
  0.000000;-0.943961;-0.330058;,
  0.622274;-0.745636;-0.238332;,
  0.999374;-0.022673;-0.027154;,
  0.808875;0.585036;-0.058773;,
  0.640674;0.761562;-0.097773;,
  -0.808875;0.585036;-0.058772;,
  -0.999374;-0.022673;-0.027154;,
  -0.673214;-0.724589;-0.147493;,
  0.000000;-0.967522;-0.252788;,
  0.673214;-0.724589;-0.147492;,
  0.998439;-0.005097;-0.055625;,
  0.817422;0.568800;-0.091039;,
  0.661667;0.732378;-0.160685;,
  -0.817422;0.568800;-0.091038;,
  -0.998439;-0.005097;-0.055624;,
  -0.665078;-0.670689;-0.328402;,
  0.000000;-0.852708;-0.522388;,
  0.665078;-0.670688;-0.328403;,
  -0.851509;-0.406561;0.331122;,
  -0.662732;-0.712291;0.231145;,
  0.000000;-0.994245;0.107129;,
  0.662732;-0.712290;0.231146;,
  0.851509;-0.406559;0.331124;,
  0.398487;0.596065;0.697076;,
  0.000000;0.706389;0.707824;,
  -0.398486;0.596066;0.697076;,
  -0.980840;-0.151056;0.123027;,
  -0.663865;-0.735942;0.132934;,
  -0.000000;-0.997180;0.075044;,
  0.663866;-0.735942;0.132935;,
  0.980840;-0.151055;0.123027;,
  0.571004;0.731313;0.373008;,
  0.000000;0.929448;0.368953;,
  -0.571004;0.731314;0.373007;,
  -0.948230;0.040681;-0.314969;,
  -0.697581;-0.707061;-0.115954;,
  0.000000;-0.999859;0.016768;,
  0.697581;-0.707061;-0.115953;,
  0.948230;0.040681;-0.314968;,
  0.613748;0.689206;-0.385108;,
  0.000000;0.924680;-0.380745;,
  -0.613748;0.689206;-0.385108;,
  -0.811934;0.074775;-0.578940;,
  -0.870929;-0.173039;-0.459935;,
  0.000000;-0.999944;-0.010599;,
  0.371151;-0.928520;-0.009842;,
  0.811935;0.074775;-0.578940;,
  0.494652;0.542822;-0.678722;,
  0.000000;0.745261;-0.666773;,
  -0.494652;0.542822;-0.678722;,
  -0.945520;-0.325565;0.000000;,
  -0.325552;0.945524;0.000003;,
  -0.230198;0.668587;0.707107;,
  0.000004;0.000002;1.000000;,
  0.230202;-0.668585;0.707108;,
  0.325551;-0.945524;0.000003;,
  0.230195;-0.668582;-0.707113;,
  0.000000;0.000000;-1.000000;,
  -0.230196;0.668582;-0.707112;,
  0.945518;0.325569;0.000001;,
  -0.970296;0.241923;-0.000000;,
  0.241945;0.970290;0.000001;,
  0.171080;0.686101;0.707105;,
  -0.000004;0.000001;1.000000;,
  -0.171083;-0.686102;0.707102;,
  -0.241945;-0.970290;0.000002;,
  -0.171077;-0.686100;-0.707107;,
  -0.000001;0.000006;-1.000000;,
  0.171074;0.686101;-0.707106;,
  0.970295;-0.241925;0.000000;,
  -0.000000;-0.043623;-0.999048;,
  -0.000004;-0.043625;-0.999048;,
  -0.000006;-0.043609;-0.999049;,
  0.000003;-0.043607;-0.999049;,
  0.000008;-0.043614;-0.999048;,
  0.000003;-0.043632;-0.999048;,
  -0.000003;-0.043636;-0.999048;,
  -0.000003;-0.043629;-0.999048;,
  -0.000001;-0.043633;-0.999048;,
  0.890973;0.407051;0.201188;,
  0.627257;0.761187;0.164752;,
  0.002778;0.990934;0.134319;,
  -0.623447;0.763734;0.167404;,
  -0.890000;0.407411;0.204735;,
  -0.511858;-0.818578;0.260638;,
  0.002786;-0.975426;0.220309;,
  0.515221;-0.816840;0.259458;,
  0.707107;0.706433;-0.030843;,
  0.639397;0.768145;-0.033538;,
  -0.000001;0.999048;-0.043619;,
  -0.639397;0.768145;-0.033538;,
  -0.707107;0.706433;-0.030844;,
  0.091557;-0.994852;0.043436;,
  -0.000000;-0.999048;0.043619;,
  -0.091557;-0.994852;0.043436;,
  0.911768;0.394001;-0.115943;,
  0.639593;0.759171;-0.120748;,
  0.005133;0.992136;-0.125062;,
  -0.632953;0.763778;-0.126547;,
  -0.910146;0.395011;-0.124903;,
  -0.521735;-0.849636;-0.076882;,
  0.004578;-0.999556;-0.029430;,
  0.530686;-0.844640;-0.070390;,
  0.705123;0.708998;0.011136;,
  0.639978;0.768153;0.019240;,
  0.002776;0.999987;0.004358;,
  -0.636434;0.771021;0.021880;,
  -0.704798;0.709260;0.014530;,
  0.094629;-0.992792;0.073551;,
  0.002784;-0.995789;0.091628;,
  -0.090155;-0.993264;0.072786;,
  -0.005176;-0.053249;-0.998568;,
  -0.473005;0.880221;-0.038431;,
  0.010083;-0.062372;-0.998002;,
  -0.473005;-0.880221;0.038431;,
  0.031209;0.101600;0.994336;,
  0.026092;-0.005007;0.999647;,
  0.473004;0.880222;-0.038431;,
  -0.010083;0.062372;0.998002;,
  0.473005;-0.880221;0.038431;,
  0.005176;0.053250;0.998568;,
  0.033216;0.018305;-0.999281;,
  0.028683;-0.096922;-0.994879;,
  0.945164;0.014242;0.326286;,
  0.610317;0.749732;0.255764;,
  -0.000000;0.976567;0.215213;,
  -0.610317;0.749732;0.255764;,
  -0.945163;0.014241;0.326287;,
  -0.610312;-0.724591;0.320136;,
  0.000001;-0.954092;0.299513;,
  0.610315;-0.724589;0.320135;,
  0.000002;0.043654;0.999047;,
  0.464004;0.885674;0.016784;,
  0.099620;0.096766;0.990309;,
  0.477526;-0.876799;0.056506;,
  -0.092968;0.093233;0.991294;,
  -0.468778;0.883029;0.022512;,
  -0.471522;-0.880055;0.056299;,
  0.473005;0.880221;-0.038431;,
  -0.010084;0.062372;0.998002;,
  0.473005;-0.880221;0.038431;,
  0.005175;0.053250;0.998568;,
  0.033217;0.018303;-0.999281;,
  0.028683;-0.096921;-0.994879;,
  -0.000000;0.998258;-0.059004;,
  0.001721;-0.041068;-0.999155;,
  0.004619;-0.039618;-0.999204;,
  -0.000445;0.041922;0.999121;,
  -0.003342;0.040473;0.999175;,
  0.000001;-0.040722;-0.999171;,
  -0.000000;0.040708;0.999171;,
  -0.004620;-0.039620;-0.999204;,
  0.003342;0.040474;0.999175;,
  -0.001725;-0.041068;-0.999155;,
  0.000446;0.041922;0.999121;,
  -0.000011;-0.043618;-0.999048;,
  -0.000000;0.043613;0.999049;,
  -0.000003;-0.043613;-0.999049;,
  0.000000;0.043621;0.999048;,
  0.000006;-0.043614;-0.999048;,
  0.000001;0.043614;0.999048;,
  -0.794923;-0.398198;0.457751;,
  0.746497;0.426348;-0.510852;,
  0.793412;0.459416;-0.399292;,
  0.794922;-0.398198;0.457753;,
  -0.746498;0.426348;-0.510850;,
  -0.793413;0.459416;-0.399291;,
  0.741678;0.423039;-0.520530;,
  -0.741677;0.423042;-0.520529;,
  -0.886018;-0.454671;0.090808;,
  0.886019;-0.454671;0.090806;,
  0.004614;-0.039155;-0.999223;,
  0.008655;-0.035141;-0.999345;,
  -0.000637;0.041851;0.999124;,
  -0.002165;0.041039;0.999155;,
  0.000000;-0.035596;-0.999366;,
  -0.000005;0.041974;0.999119;,
  -0.008655;-0.035141;-0.999345;,
  0.002163;0.041038;0.999155;,
  -0.004614;-0.039155;-0.999223;,
  0.000637;0.041856;0.999124;,
  -0.000000;-0.043620;-0.999048;,
  0.000005;0.043624;0.999048;,
  0.000000;-0.043620;-0.999048;,
  -0.000001;0.043642;0.999047;,
  0.000001;-0.043620;-0.999048;,
  -0.000009;0.043623;0.999048;,
  0.556298;0.480936;0.677667;,
  -0.556297;0.480938;0.677667;,
  -0.640674;0.761562;-0.097773;,
  -0.371151;-0.928520;-0.009842;,
  -0.661667;0.732378;-0.160685;,
  0.870930;-0.173040;-0.459934;,
  0.005198;-0.039442;-0.999208;,
  0.009224;-0.035674;-0.999321;,
  -0.001952;0.038138;0.999271;,
  -0.006279;0.033357;0.999424;,
  -0.000000;-0.036080;-0.999349;,
  0.000000;0.029406;0.999568;,
  -0.009226;-0.035675;-0.999321;,
  0.006279;0.033357;0.999424;,
  -0.005202;-0.039444;-0.999208;,
  0.001952;0.038137;0.999271;,
  -0.000003;-0.043614;-0.999048;,
  -0.002134;0.036834;0.999319;,
  -0.000002;-0.043611;-0.999049;,
  -0.000000;0.034703;0.999398;,
  -0.000001;-0.043611;-0.999049;,
  0.002134;0.036835;0.999319;,
  -0.945521;-0.325563;0.000005;,
  -0.945520;-0.325564;-0.000001;,
  -0.945520;-0.325564;0.000003;,
  -0.945519;-0.325567;0.000003;,
  -0.945519;-0.325567;0.000000;,
  -0.945519;-0.325567;-0.000003;,
  -0.945520;-0.325563;-0.000002;,
  -0.945521;-0.325561;-0.000005;,
  0.945521;0.325560;-0.000001;,
  0.945520;0.325564;0.000006;,
  0.945517;0.325572;0.000003;,
  0.945517;0.325573;-0.000002;,
  0.945518;0.325569;0.000002;,
  0.945517;0.325573;0.000005;,
  0.945516;0.325575;0.000001;,
  0.945519;0.325566;-0.000006;,
  -0.970298;0.241911;-0.000003;,
  -0.970297;0.241916;-0.000002;,
  -0.970296;0.241921;0.000002;,
  -0.970293;0.241932;-0.000001;,
  -0.970294;0.241929;0.000002;,
  -0.970293;0.241934;0.000003;,
  -0.970295;0.241925;-0.000002;,
  -0.970298;0.241914;0.000001;,
  0.970295;-0.241927;0.000000;,
  0.970294;-0.241928;-0.000003;,
  0.970295;-0.241924;-0.000002;,
  0.970296;-0.241922;-0.000005;,
  0.970295;-0.241924;-0.000000;,
  0.970296;-0.241923;0.000005;,
  0.970295;-0.241925;0.000004;,
  0.970294;-0.241927;0.000005;,
  0.982013;-0.008300;-0.188633;,
  0.634894;0.744416;-0.206772;,
  0.010226;0.978591;-0.205562;,
  -0.621018;0.752780;-0.218310;,
  -0.978490;-0.008834;-0.206104;,
  -0.623381;-0.769571;-0.138410;,
  0.009127;-0.994717;-0.102250;,
  0.636004;-0.760921;-0.128441;,
  0.473005;-0.880221;0.038431;,
  -0.881059;-0.472556;0.020632;,
  0.473003;0.880222;-0.038431;,
  0.881060;-0.472553;0.020632;,
  0.028684;-0.096922;-0.994879;,
  0.473006;-0.880221;0.038431;,
  -0.010083;0.062373;0.998002;,
  -0.473005;0.880221;-0.038431;,
  0.033216;0.018307;-0.999281;,
  0.005176;0.053250;0.998568;,
  -0.473004;-0.880222;0.038431;,
  -0.473003;-0.880222;0.038431;,
  0.000030;0.043670;0.999046;,
  0.000051;0.043671;0.999046;,
  -0.000003;0.043644;0.999047;,
  -0.000052;0.043679;0.999046;,
  -0.000025;0.043683;0.999045;,
  -0.000013;0.043637;0.999047;,
  0.000007;0.043622;0.999048;,
  0.000023;0.043631;0.999048;,
  -0.125531;-0.048451;-0.990906;,
  -0.873922;-0.467353;0.133571;,
  0.061921;-0.150890;-0.986609;,
  0.877780;-0.462257;0.125785;,
  -0.473004;0.880222;-0.038431;,
  -0.881061;-0.472553;0.020632;,
  -0.473005;-0.880221;0.038431;,
  0.881060;-0.472555;0.020632;;
  328;
  4;0,1,9,8;,
  4;33,32,40,41;,
  4;1,2,10,9;,
  4;34,33,41,42;,
  4;2,3,11,10;,
  4;35,34,42,43;,
  4;3,4,12,11;,
  4;36,35,43,44;,
  4;4,5,13,12;,
  4;37,36,44,45;,
  4;5,6,14,13;,
  4;38,37,45,38;,
  4;6,7,15,14;,
  4;39,38,38,46;,
  4;7,0,8,15;,
  4;32,39,46,40;,
  4;8,9,17,16;,
  4;41,40,47,48;,
  4;9,10,18,17;,
  4;42,41,48,49;,
  4;10,11,19,18;,
  4;43,42,49,50;,
  4;11,12,20,19;,
  4;44,43,50,51;,
  4;12,13,21,20;,
  4;45,44,51,52;,
  4;13,14,22,21;,
  4;285,45,52,53;,
  4;14,15,23,22;,
  4;46,285,53,54;,
  4;15,8,16,23;,
  4;40,46,54,47;,
  4;16,17,25,24;,
  4;48,47,55,56;,
  4;17,18,26,25;,
  4;49,48,56,57;,
  4;18,19,27,26;,
  4;50,49,57,58;,
  4;19,20,28,27;,
  4;51,50,58,59;,
  4;20,21,29,28;,
  4;52,51,59,60;,
  4;21,22,30,29;,
  4;53,52,60,61;,
  4;22,23,31,30;,
  4;54,53,61,62;,
  4;23,16,24,31;,
  4;47,54,62,55;,
  4;286,286,287,287;,
  4;288,289,289,288;,
  4;287,287,290,290;,
  4;289,291,291,289;,
  4;290,290,292,292;,
  4;291,293,293,291;,
  4;292,292,294,294;,
  4;293,295,295,293;,
  4;294,294,296,296;,
  4;295,297,297,295;,
  4;296,296,298,298;,
  4;297,299,299,297;,
  4;298,298,300,300;,
  4;299,301,301,299;,
  4;300,300,286,286;,
  4;301,288,288,301;,
  4;63,64,72,71;,
  4;96,95,103,104;,
  4;64,65,73,72;,
  4;97,96,104,105;,
  4;65,66,74,73;,
  4;98,97,105,106;,
  4;66,67,75,74;,
  4;99,98,106,107;,
  4;302,68,76,302;,
  4;100,303,304,108;,
  4;68,69,77,76;,
  4;101,100,108,109;,
  4;69,70,78,77;,
  4;102,101,109,110;,
  4;70,305,305,78;,
  4;306,102,110,307;,
  4;71,72,80,79;,
  4;104,103,111,112;,
  4;72,73,81,80;,
  4;105,104,112,113;,
  4;73,74,82,81;,
  4;106,105,113,114;,
  4;74,75,83,82;,
  4;107,106,114,115;,
  4;75,76,84,83;,
  4;108,304,308,116;,
  4;76,77,85,84;,
  4;109,108,116,117;,
  4;77,78,86,85;,
  4;110,109,117,118;,
  4;78,71,79,86;,
  4;307,110,118,309;,
  4;79,80,88,87;,
  4;112,111,119,120;,
  4;80,81,89,88;,
  4;113,112,120,121;,
  4;81,82,90,89;,
  4;114,113,121,122;,
  4;82,83,91,90;,
  4;115,114,122,123;,
  4;83,84,92,310;,
  4;116,308,123,124;,
  4;84,85,93,92;,
  4;117,116,124,125;,
  4;85,86,94,93;,
  4;118,117,125,126;,
  4;86,79,311,94;,
  4;309,118,126,119;,
  4;312,312,313,313;,
  4;314,315,315,314;,
  4;313,313,316,316;,
  4;315,317,317,315;,
  4;316,316,318,318;,
  4;317,319,319,317;,
  4;318,318,320,320;,
  4;319,321,321,319;,
  4;320,320,100,322;,
  4;321,323,323,321;,
  4;322,100,101,324;,
  4;323,325,325,323;,
  4;324,101,102,326;,
  4;325,327,327,325;,
  4;326,102,312,312;,
  4;327,314,314,327;,
  4;127,128,136,135;,
  4;160,159,167,168;,
  4;128,129,137,136;,
  4;161,160,168,169;,
  4;129,130,138,137;,
  4;162,161,169,170;,
  4;130,131,139,138;,
  4;163,162,170,171;,
  4;131,132,140,139;,
  4;164,328,328,172;,
  4;132,133,141,140;,
  4;165,164,172,173;,
  4;133,134,142,141;,
  4;166,165,173,174;,
  4;134,127,135,142;,
  4;329,166,174,329;,
  4;135,136,144,143;,
  4;168,167,175,176;,
  4;136,137,145,144;,
  4;169,168,176,177;,
  4;137,138,146,330;,
  4;170,169,177,178;,
  4;138,139,147,146;,
  4;171,170,178,179;,
  4;139,140,148,147;,
  4;172,171,179,180;,
  4;140,141,149,148;,
  4;173,172,180,181;,
  4;141,142,150,149;,
  4;174,173,181,182;,
  4;142,135,143,150;,
  4;167,174,182,175;,
  4;143,144,152,151;,
  4;176,175,183,184;,
  4;144,145,153,152;,
  4;177,176,331,185;,
  4;330,146,154,332;,
  4;178,177,185,186;,
  4;146,147,155,154;,
  4;179,178,333,187;,
  4;147,148,156,155;,
  4;180,179,187,188;,
  4;148,149,157,156;,
  4;181,180,188,189;,
  4;149,150,158,157;,
  4;182,181,189,190;,
  4;150,143,151,158;,
  4;175,182,190,183;,
  4;334,334,335,335;,
  4;336,337,337,336;,
  4;335,335,338,338;,
  4;337,339,339,337;,
  4;338,338,340,340;,
  4;339,341,341,339;,
  4;340,340,342,342;,
  4;341,343,343,341;,
  4;342,342,344,132;,
  4;343,345,345,343;,
  4;132,344,346,133;,
  4;345,347,347,345;,
  4;133,346,348,134;,
  4;347,349,349,347;,
  4;134,348,334,334;,
  4;349,336,336,349;,
  4;192,193,193,192;,
  4;193,194,194,193;,
  4;194,195,195,194;,
  4;195,196,196,195;,
  4;196,197,197,196;,
  4;197,198,198,197;,
  4;198,199,199,198;,
  4;199,192,192,199;,
  3;191,350,351;,
  3;191,352,350;,
  3;191,353,352;,
  3;191,354,353;,
  3;191,355,354;,
  3;191,356,355;,
  3;191,357,356;,
  3;191,351,357;,
  3;200,358,359;,
  3;200,359,360;,
  3;200,360,361;,
  3;200,361,362;,
  3;200,362,363;,
  3;200,363,364;,
  3;200,364,365;,
  3;200,365,358;,
  4;202,203,203,202;,
  4;203,204,204,203;,
  4;204,205,205,204;,
  4;205,206,206,205;,
  4;206,207,207,206;,
  4;207,208,208,207;,
  4;208,209,209,208;,
  4;209,202,202,209;,
  3;201,366,367;,
  3;201,368,366;,
  3;201,369,368;,
  3;201,370,369;,
  3;201,371,370;,
  3;201,372,371;,
  3;201,373,372;,
  3;201,367,373;,
  3;210,374,375;,
  3;210,375,376;,
  3;210,376,377;,
  3;210,377,378;,
  3;210,378,379;,
  3;210,379,380;,
  3;210,380,381;,
  3;210,381,374;,
  3;211,213,212;,
  3;211,214,213;,
  3;211,215,214;,
  3;211,216,215;,
  3;211,217,216;,
  3;211,218,217;,
  3;211,219,218;,
  3;211,212,219;,
  4;236,382,383,237;,
  4;236,237,229,228;,
  4;237,383,384,238;,
  4;237,238,230,229;,
  4;238,384,385,239;,
  4;238,239,231,230;,
  4;239,385,386,240;,
  4;239,240,232,231;,
  4;240,386,387,241;,
  4;241,387,388,242;,
  4;241,242,234,233;,
  4;242,388,389,243;,
  4;242,243,235,234;,
  4;243,389,382,236;,
  4;245,221,220,244;,
  4;245,244,228,229;,
  4;246,222,221,245;,
  4;246,245,229,230;,
  4;247,223,222,246;,
  4;247,246,230,231;,
  4;248,224,223,247;,
  4;248,247,231,232;,
  4;250,226,225,249;,
  4;250,249,233,234;,
  4;251,227,226,250;,
  4;251,250,234,235;,
  4;257,257,257,257;,
  4;253,253,248,232;,
  4;254,254,254,254;,
  4;390,390,233,249;,
  4;391,391,391,391;,
  4;256,256,256,256;,
  4;255,255,251,235;,
  4;252,252,252,252;,
  4;392,392,228,244;,
  4;393,393,393,393;,
  4;263,263,394,394;,
  4;260,260,395,233;,
  4;259,259,396,396;,
  4;397,397,232,240;,
  4;262,262,398,398;,
  4;258,258,236,228;,
  4;261,261,399,399;,
  4;400,400,235,401;,
  4;265,264,220,221;,
  3;272,402,403;,
  4;266,265,221,222;,
  3;272,403,404;,
  4;267,266,222,223;,
  3;272,404,405;,
  4;268,267,223,224;,
  3;272,405,406;,
  4;269,268,224,225;,
  3;272,406,407;,
  4;270,269,225,226;,
  3;272,407,408;,
  4;271,270,226,227;,
  3;272,408,409;,
  4;264,271,227,220;,
  3;272,409,402;,
  4;275,275,249,275;,
  4;274,274,274,274;,
  4;277,277,224,248;,
  4;410,410,410,410;,
  4;411,411,411,411;,
  4;273,273,244,220;,
  4;276,276,276,276;,
  4;278,278,278,251;,
  4;412,412,412,412;,
  4;413,413,413,413;,
  4;284,284,263,263;,
  4;281,281,260,260;,
  4;280,280,259,259;,
  4;414,414,397,397;,
  4;415,415,415,415;,
  4;283,283,262,262;,
  4;279,279,258,258;,
  4;282,282,261,261;,
  4;416,416,400,400;,
  4;417,417,417,417;;
 }
}
