xof 0302txt 0064
template Header {
 <3D82AB43-62DA-11cf-AB39-0020AF71E433>
 WORD major;
 WORD minor;
 DWORD flags;
}

template Vector {
 <3D82AB5E-62DA-11cf-AB39-0020AF71E433>
 FLOAT x;
 FLOAT y;
 FLOAT z;
}

template Coords2d {
 <F6F23F44-7686-11cf-8F52-0040333594A3>
 FLOAT u;
 FLOAT v;
}

template Matrix4x4 {
 <F6F23F45-7686-11cf-8F52-0040333594A3>
 array FLOAT matrix[16];
}

template ColorRGBA {
 <35FF44E0-6C7C-11cf-8F52-0040333594A3>
 FLOAT red;
 FLOAT green;
 FLOAT blue;
 FLOAT alpha;
}

template ColorRGB {
 <D3E16E81-7835-11cf-8F52-0040333594A3>
 FLOAT red;
 FLOAT green;
 FLOAT blue;
}

template IndexedColor {
 <1630B820-7842-11cf-8F52-0040333594A3>
 DWORD index;
 ColorRGBA indexColor;
}

template Boolean {
 <4885AE61-78E8-11cf-8F52-0040333594A3>
 WORD truefalse;
}

template Boolean2d {
 <4885AE63-78E8-11cf-8F52-0040333594A3>
 Boolean u;
 Boolean v;
}

template MaterialWrap {
 <4885AE60-78E8-11cf-8F52-0040333594A3>
 Boolean u;
 Boolean v;
}

template TextureFilename {
 <A42790E1-7810-11cf-8F52-0040333594A3>
 STRING filename;
}

template Material {
 <3D82AB4D-62DA-11cf-AB39-0020AF71E433>
 ColorRGBA faceColor;
 FLOAT power;
 ColorRGB specularColor;
 ColorRGB emissiveColor;
 [...]
}

template MeshFace {
 <3D82AB5F-62DA-11cf-AB39-0020AF71E433>
 DWORD nFaceVertexIndices;
 array DWORD faceVertexIndices[nFaceVertexIndices];
}

template MeshFaceWraps {
 <4885AE62-78E8-11cf-8F52-0040333594A3>
 DWORD nFaceWrapValues;
 Boolean2d faceWrapValues;
}

template MeshTextureCoords {
 <F6F23F40-7686-11cf-8F52-0040333594A3>
 DWORD nTextureCoords;
 array Coords2d textureCoords[nTextureCoords];
}

template MeshMaterialList {
 <F6F23F42-7686-11cf-8F52-0040333594A3>
 DWORD nMaterials;
 DWORD nFaceIndexes;
 array DWORD faceIndexes[nFaceIndexes];
 [Material]
}

template MeshNormals {
 <F6F23F43-7686-11cf-8F52-0040333594A3>
 DWORD nNormals;
 array Vector normals[nNormals];
 DWORD nFaceNormals;
 array MeshFace faceNormals[nFaceNormals];
}

template MeshVertexColors {
 <1630B821-7842-11cf-8F52-0040333594A3>
 DWORD nVertexColors;
 array IndexedColor vertexColors[nVertexColors];
}

template Mesh {
 <3D82AB44-62DA-11cf-AB39-0020AF71E433>
 DWORD nVertices;
 array Vector vertices[nVertices];
 DWORD nFaces;
 array MeshFace faces[nFaces];
 [...]
}

Header{
1;
0;
1;
}

Mesh {
 248;
 14.55996;5.14053;-10.36547;,
 10.42792;2.08597;-2.25115;,
 10.42792;-5.10225;-5.36652;,
 14.55996;-2.04775;-13.48062;,
 8.43277;2.69690;-3.87399;,
 11.73841;5.14053;-10.36547;,
 11.73841;-2.04775;-13.48061;,
 8.43277;-4.49135;-6.98941;,
 0.45221;0.82076;1.10997;,
 0.45221;-6.36751;-2.00535;,
 0.45221;1.68471;-1.18514;,
 0.45221;-5.50355;-4.30050;,
 -9.52347;2.08597;-2.25115;,
 -9.52346;-5.10225;-5.36653;,
 -7.52834;2.69690;-3.87400;,
 -7.52834;-4.49135;-6.98940;,
 -13.65553;5.14053;-10.36547;,
 -13.65553;-2.04775;-13.48062;,
 -10.83399;5.14053;-10.36546;,
 -10.83398;-2.04775;-13.48062;,
 -9.52346;8.19507;-18.47983;,
 -9.52347;1.00682;-21.59515;,
 -7.52834;7.58417;-16.85694;,
 -7.52833;0.39590;-19.97229;,
 0.45221;9.46029;-19.92249;,
 0.45221;2.27205;-24.95627;,
 0.45222;8.59638;-19.54584;,
 0.45221;1.40811;-22.66109;,
 10.42791;8.19507;-18.47985;,
 10.42792;1.00682;-21.59514;,
 8.43276;7.58417;-16.85693;,
 8.43277;0.39590;-19.97229;,
 10.71623;-14.53517;-14.95766;,
 14.61355;-9.35269;-21.82957;,
 11.79299;-9.36437;-21.76526;,
 8.67513;-13.51039;-16.26761;,
 0.84068;-16.71608;-11.92272;,
 0.77469;-15.25510;-13.83966;,
 -9.22814;-14.61786;-14.50244;,
 -7.28037;-13.57652;-15.90342;,
 -13.59206;-9.46965;-21.18578;,
 -10.77151;-9.45793;-21.25018;,
 -9.69475;-6.51439;-26.42246;,
 -7.65365;-7.53920;-25.11246;,
 0.18080;-4.33350;-29.45739;,
 0.24679;-5.79448;-27.54040;,
 10.24963;-6.43167;-26.87776;,
 8.30186;-7.47303;-25.47661;,
 9.39336;-20.72563;-26.44637;,
 12.05298;-15.02889;-31.19863;,
 10.19812;-15.05755;-31.10270;,
 7.59344;-19.61491;-27.30095;,
 0.86561;-23.16919;-24.19696;,
 0.77123;-21.56978;-25.50142;,
 -7.93858;-20.92829;-25.76811;,
 -6.27212;-19.77708;-26.75830;,
 -11.26558;-15.31556;-30.23949;,
 -9.41072;-15.28693;-30.33538;,
 -8.60597;-11.41927;-32.71763;,
 -6.80602;-11.58200;-33.23020;,
 -0.07821;-10.06183;-34.31250;,
 0.01617;-9.62711;-35.02981;,
 8.72597;-11.21657;-33.39592;,
 7.05951;-11.41985;-33.77281;,
 5.34173;-22.67892;-33.65859;,
 7.17868;-19.36450;-36.24555;,
 5.79065;-19.38385;-36.18980;,
 4.32110;-22.03534;-34.12033;,
 0.51538;-24.10842;-32.42372;,
 0.46000;-23.17894;-33.13231;,
 -4.47317;-22.81561;-33.26428;,
 -3.53083;-22.14474;-33.80469;,
 -6.70167;-19.55785;-35.68768;,
 -5.31363;-19.53851;-35.74359;,
 -4.86471;-16.24343;-38.27467;,
 -3.84406;-16.88700;-37.81304;,
 -0.03836;-14.81393;-39.50957;,
 0.01700;-15.74339;-38.80096;,
 4.95018;-16.10673;-38.66913;,
 4.00784;-16.77761;-38.12860;,
 3.21410;-23.39102;-37.20942;,
 4.31308;-21.40810;-38.75712;,
 3.48265;-21.41970;-38.72367;,
 2.60349;-23.00602;-37.48560;,
 0.32664;-24.24622;-36.47071;,
 0.29353;-23.69019;-36.89458;,
 -2.65784;-23.47281;-36.97343;,
 -2.09408;-23.07142;-37.29681;,
 -3.99108;-21.52379;-38.42334;,
 -3.16065;-21.51223;-38.45678;,
 -2.89209;-19.54088;-39.97108;,
 -2.28147;-19.92594;-39.69481;,
 -0.00465;-18.68563;-40.70990;,
 0.02848;-19.24173;-40.28596;,
 2.97983;-19.45907;-40.20698;,
 2.41608;-19.86046;-39.88370;,
 13.87425;-1.91194;-15.88604;,
 9.94320;6.25172;-16.24251;,
 9.94321;6.48293;-10.94763;,
 13.87425;-1.68074;-10.59117;,
 8.04515;4.61906;-16.17119;,
 11.18998;-1.91194;-15.88605;,
 11.18997;-1.68074;-10.59117;,
 8.04514;4.85017;-10.87636;,
 0.45286;9.63323;-16.39008;,
 0.45286;9.86447;-11.09530;,
 0.45285;7.32422;-16.28937;,
 0.45286;7.55539;-10.99452;,
 -9.03750;6.25172;-16.24251;,
 -9.03750;6.48293;-10.94764;,
 -7.13944;4.61906;-16.17120;,
 -7.13943;4.85017;-10.87636;,
 -12.96854;-1.91194;-15.88604;,
 -12.96854;-1.68074;-10.59117;,
 -10.28427;-1.91194;-15.88605;,
 -10.28426;-1.68074;-10.59117;,
 -9.03751;-10.07563;-15.52968;,
 -9.03750;-9.84445;-10.23478;,
 -7.13942;-8.44290;-15.60082;,
 -7.13942;-8.21173;-10.30613;,
 0.45285;-13.45715;-15.38193;,
 0.45285;-13.22594;-10.08714;,
 0.45285;-11.14810;-15.48279;,
 0.45285;-10.91691;-10.18796;,
 9.94321;-10.07563;-15.52965;,
 9.94321;-9.84445;-10.23478;,
 8.04513;-8.44290;-15.60083;,
 8.04513;-8.21173;-10.30614;,
 9.94322;6.71415;-5.65289;,
 13.87425;-1.44955;-5.29651;,
 11.18997;-1.44955;-5.29651;,
 8.04515;5.08140;-5.58163;,
 0.45286;10.09563;-5.80051;,
 0.45286;7.78659;-5.69977;,
 -9.03751;6.71415;-5.65289;,
 -7.13944;5.08140;-5.58163;,
 -12.96854;-1.44955;-5.29651;,
 -10.28426;-1.44955;-5.29651;,
 -9.03751;-9.61327;-4.94008;,
 -7.13942;-7.98053;-5.01132;,
 0.45285;-12.99476;-4.79242;,
 0.45285;-10.68573;-4.89323;,
 9.94322;-9.61326;-4.94005;,
 8.04513;-7.98053;-5.01132;,
 9.94321;6.94535;-0.35802;,
 13.87424;-1.21838;-0.00162;,
 9.42527;-1.21838;-0.00161;,
 6.79731;4.23915;-0.23987;,
 0.45285;10.32682;-0.50567;,
 0.45285;6.49979;-0.33860;,
 -9.03750;6.94535;-0.35803;,
 -5.89160;4.23915;-0.23987;,
 -12.96854;-1.21838;-0.00162;,
 -8.51955;-1.21838;-0.00161;,
 -9.03750;-9.38206;0.35480;,
 -5.89160;-6.67592;0.23668;,
 0.45285;-12.76362;0.50248;,
 0.45285;-8.93654;0.33536;,
 9.94322;-9.38206;0.35479;,
 6.79732;-6.67592;0.23668;,
 -16.68477;16.02993;-19.56827;,
 -16.68478;16.02993;-18.72154;,
 -2.77855;8.32156;-18.72153;,
 -2.77855;8.32156;-19.56827;,
 -21.67954;7.01914;-18.72154;,
 -7.77332;-0.68921;-18.72153;,
 -21.67955;7.01914;-19.56827;,
 -7.77332;-0.68921;-19.56828;,
 19.65472;8.59719;-19.22260;,
 19.62485;8.58525;-18.37647;,
 7.19788;-1.31620;-18.95445;,
 7.22774;-1.30429;-19.80050;,
 13.20836;16.64500;-18.48927;,
 0.78143;6.74350;-19.06719;,
 13.23822;16.65693;-19.33538;,
 0.81127;6.75543;-19.91332;,
 5.84062;-7.62891;-26.48764;,
 0.45286;3.95921;-34.15774;,
 4.26257;-4.91716;-22.39067;,
 0.45285;-3.79393;-20.69363;,
 -3.35686;-4.91716;-22.39069;,
 -4.93490;-7.62891;-26.48764;,
 -3.35686;-10.34067;-30.58472;,
 0.45286;-11.46391;-32.28180;,
 4.26257;-10.34066;-30.58471;,
 0.45286;-7.62891;-26.48763;,
 5.81380;-1.89164;-49.55218;,
 0.45286;15.09702;-58.49080;,
 4.24363;-0.31963;-46.10270;,
 0.45286;0.33149;-44.67393;,
 -3.33791;-0.31963;-46.10269;,
 -4.90811;-1.89164;-49.55217;,
 -3.33791;-3.46365;-53.00159;,
 0.45286;-4.11479;-54.43043;,
 4.24363;-3.46365;-53.00158;,
 4.24362;-4.75303;-42.89319;,
 5.81382;-7.47991;-45.52650;,
 0.45286;-3.62355;-41.80247;,
 -3.33792;-4.75303;-42.89320;,
 -4.90809;-7.47991;-45.52652;,
 -3.33791;-10.20676;-48.15978;,
 0.45285;-11.33622;-49.25050;,
 4.24362;-10.20676;-48.15977;,
 4.24362;-14.82414;-30.19596;,
 5.81382;-17.91028;-32.39730;,
 0.45286;-17.91028;-32.39729;,
 0.45286;-13.54584;-29.28417;,
 -3.33791;-14.82414;-30.19596;,
 -4.90810;-17.91028;-32.39729;,
 -3.33791;-20.99642;-34.59866;,
 0.45286;-22.27474;-35.51037;,
 4.24363;-20.99642;-34.59865;,
 13.09978;1.68282;-14.39441;,
 13.09978;0.98638;-12.71304;,
 14.56537;0.98634;-12.71305;,
 14.56537;1.68278;-14.39442;,
 13.09977;-0.69497;-12.01662;,
 14.56536;-0.69500;-12.01663;,
 13.09978;-2.37632;-12.71304;,
 14.56537;-2.37635;-12.71305;,
 13.09978;-3.07275;-14.39441;,
 14.56537;-3.07281;-14.39442;,
 13.09977;-2.37632;-16.07578;,
 14.56537;-2.37635;-16.07579;,
 13.09977;-0.69497;-16.77220;,
 14.56536;-0.69500;-16.77220;,
 13.09977;0.98638;-16.07578;,
 14.56537;0.98634;-16.07579;,
 13.09978;-0.69497;-14.39441;,
 14.56537;-0.69500;-14.39442;,
 -13.72607;1.68282;-14.39441;,
 -13.72608;0.98638;-12.71304;,
 -12.26048;0.98634;-12.71305;,
 -12.26050;1.68278;-14.39441;,
 -13.72608;-0.69497;-12.01663;,
 -12.26050;-0.69500;-12.01663;,
 -13.72608;-2.37632;-12.71304;,
 -12.26050;-2.37635;-12.71306;,
 -13.72607;-3.07275;-14.39441;,
 -12.26048;-3.07281;-14.39441;,
 -13.72608;-2.37632;-16.07580;,
 -12.26050;-2.37635;-16.07578;,
 -13.72608;-0.69497;-16.77219;,
 -12.26050;-0.69500;-16.77220;,
 -13.72608;0.98638;-16.07580;,
 -12.26048;0.98634;-16.07579;,
 -13.72607;-0.69497;-14.39441;,
 -12.26050;-0.69500;-14.39441;;
 
 268;
 4;0,1,2,3;,
 4;4,5,6,7;,
 4;1,8,9,2;,
 4;10,4,7,11;,
 4;8,12,13,9;,
 4;14,10,11,15;,
 4;12,16,17,13;,
 4;18,14,15,19;,
 4;16,20,21,17;,
 4;22,18,19,23;,
 4;20,24,25,21;,
 4;26,22,23,27;,
 4;24,28,29,25;,
 4;30,26,27,31;,
 4;28,0,3,29;,
 4;5,30,31,6;,
 4;3,2,32,33;,
 4;7,6,34,35;,
 4;2,9,36,32;,
 4;11,7,35,37;,
 4;9,13,38,36;,
 4;15,11,37,39;,
 4;13,17,40,38;,
 4;19,15,39,41;,
 4;17,21,42,40;,
 4;23,19,41,43;,
 4;21,25,44,42;,
 4;27,23,43,45;,
 4;25,29,46,44;,
 4;31,27,45,47;,
 4;29,3,33,46;,
 4;6,31,47,34;,
 4;33,32,48,49;,
 4;35,34,50,51;,
 4;32,36,52,48;,
 4;37,35,51,53;,
 4;36,38,54,52;,
 4;39,37,53,55;,
 4;38,40,56,54;,
 4;41,39,55,57;,
 4;40,42,58,56;,
 4;43,41,57,59;,
 4;42,44,60,58;,
 4;45,43,59,61;,
 4;44,46,62,60;,
 4;47,45,61,63;,
 4;46,33,49,62;,
 4;34,47,63,50;,
 4;0,5,4,1;,
 4;1,4,10,8;,
 4;8,10,14,12;,
 4;12,14,18,16;,
 4;16,18,22,20;,
 4;20,22,26,24;,
 4;24,26,30,28;,
 4;28,30,5,0;,
 4;64,65,49,48;,
 4;66,67,51,50;,
 4;68,64,48,52;,
 4;67,69,53,51;,
 4;70,68,52,54;,
 4;69,71,55,53;,
 4;72,70,54,56;,
 4;71,73,57,55;,
 4;74,72,56,58;,
 4;73,75,59,57;,
 4;76,74,58,60;,
 4;75,77,61,59;,
 4;78,76,60,62;,
 4;77,79,63,61;,
 4;65,78,62,49;,
 4;79,66,50,63;,
 4;80,81,65,64;,
 4;82,83,67,66;,
 4;81,80,83,82;,
 4;84,80,64,68;,
 4;83,85,69,67;,
 4;80,84,85,83;,
 4;86,84,68,70;,
 4;85,87,71,69;,
 4;84,86,87,85;,
 4;88,86,70,72;,
 4;87,89,73,71;,
 4;86,88,89,87;,
 4;90,88,72,74;,
 4;89,91,75,73;,
 4;88,90,91,89;,
 4;92,90,74,76;,
 4;91,93,77,75;,
 4;90,92,93,91;,
 4;94,92,76,78;,
 4;93,95,79,77;,
 4;92,94,95,93;,
 4;81,94,78,65;,
 4;95,82,66,79;,
 4;94,81,82,95;,
 4;96,97,98,99;,
 4;100,101,102,103;,
 4;97,104,105,98;,
 4;106,100,103,107;,
 4;104,108,109,105;,
 4;110,106,107,111;,
 4;108,112,113,109;,
 4;114,110,111,115;,
 4;112,116,117,113;,
 4;118,114,115,119;,
 4;116,120,121,117;,
 4;122,118,119,123;,
 4;120,124,125,121;,
 4;126,122,123,127;,
 4;124,96,99,125;,
 4;101,126,127,102;,
 4;99,98,128,129;,
 4;103,102,130,131;,
 4;98,105,132,128;,
 4;107,103,131,133;,
 4;105,109,134,132;,
 4;111,107,133,135;,
 4;109,113,136,134;,
 4;115,111,135,137;,
 4;113,117,138,136;,
 4;119,115,137,139;,
 4;117,121,140,138;,
 4;123,119,139,141;,
 4;121,125,142,140;,
 4;127,123,141,143;,
 4;125,99,129,142;,
 4;102,127,143,130;,
 4;129,128,144,145;,
 4;131,130,146,147;,
 4;128,132,148,144;,
 4;133,131,147,149;,
 4;132,134,150,148;,
 4;135,133,149,151;,
 4;134,136,152,150;,
 4;137,135,151,153;,
 4;136,138,154,152;,
 4;139,137,153,155;,
 4;138,140,156,154;,
 4;141,139,155,157;,
 4;140,142,158,156;,
 4;143,141,157,159;,
 4;142,129,145,158;,
 4;130,143,159,146;,
 4;96,101,100,97;,
 4;145,144,147,146;,
 4;97,100,106,104;,
 4;144,148,149,147;,
 4;104,106,110,108;,
 4;148,150,151,149;,
 4;108,110,114,112;,
 4;150,152,153,151;,
 4;112,114,118,116;,
 4;152,154,155,153;,
 4;116,118,122,120;,
 4;154,156,157,155;,
 4;120,122,126,124;,
 4;156,158,159,157;,
 4;124,126,101,96;,
 4;158,145,146,159;,
 4;160,161,162,163;,
 4;161,164,165,162;,
 4;164,166,167,165;,
 4;166,160,163,167;,
 4;166,164,161,160;,
 4;163,162,165,167;,
 4;168,169,170,171;,
 4;169,172,173,170;,
 4;172,174,175,173;,
 4;174,168,171,175;,
 4;174,172,169,168;,
 4;171,170,173,175;,
 3;176,177,178;,
 3;178,177,179;,
 3;179,177,180;,
 3;180,177,181;,
 3;181,177,182;,
 3;182,177,183;,
 3;183,177,184;,
 3;184,177,176;,
 3;185,176,178;,
 3;185,178,179;,
 3;185,179,180;,
 3;185,180,181;,
 3;185,181,182;,
 3;185,182,183;,
 3;185,183,184;,
 3;185,184,176;,
 3;186,187,188;,
 3;188,187,189;,
 3;189,187,190;,
 3;190,187,191;,
 3;191,187,192;,
 3;192,187,193;,
 3;193,187,194;,
 3;194,187,186;,
 4;195,196,186,188;,
 4;197,195,188,189;,
 4;198,197,189,190;,
 4;199,198,190,191;,
 4;200,199,191,192;,
 4;201,200,192,193;,
 4;202,201,193,194;,
 4;196,202,194,186;,
 4;203,204,196,195;,
 3;205,204,203;,
 4;206,203,195,197;,
 3;205,203,206;,
 4;207,206,197,198;,
 3;205,206,207;,
 4;208,207,198,199;,
 3;205,207,208;,
 4;209,208,199,200;,
 3;205,208,209;,
 4;210,209,200,201;,
 3;205,209,210;,
 4;211,210,201,202;,
 3;205,210,211;,
 4;204,211,202,196;,
 3;205,211,204;,
 4;212,213,214,215;,
 4;213,216,217,214;,
 4;216,218,219,217;,
 4;218,220,221,219;,
 4;220,222,223,221;,
 4;222,224,225,223;,
 4;224,226,227,225;,
 4;226,212,215,227;,
 3;228,213,212;,
 3;228,216,213;,
 3;228,218,216;,
 3;228,220,218;,
 3;228,222,220;,
 3;228,224,222;,
 3;228,226,224;,
 3;228,212,226;,
 3;229,215,214;,
 3;229,214,217;,
 3;229,217,219;,
 3;229,219,221;,
 3;229,221,223;,
 3;229,223,225;,
 3;229,225,227;,
 3;229,227,215;,
 4;230,231,232,233;,
 4;231,234,235,232;,
 4;234,236,237,235;,
 4;236,238,239,237;,
 4;238,240,241,239;,
 4;240,242,243,241;,
 4;242,244,245,243;,
 4;244,230,233,245;,
 3;246,231,230;,
 3;246,234,231;,
 3;246,236,234;,
 3;246,238,236;,
 3;246,240,238;,
 3;246,242,240;,
 3;246,244,242;,
 3;246,230,244;,
 3;247,233,232;,
 3;247,232,235;,
 3;247,235,237;,
 3;247,237,239;,
 3;247,239,241;,
 3;247,241,243;,
 3;247,243,245;,
 3;247,245,233;;
 
 MeshMaterialList {
  4;
  268;
  1,
  1,
  1,
  1,
  1,
  1,
  1,
  1,
  1,
  1,
  1,
  1,
  1,
  1,
  1,
  1,
  1,
  1,
  1,
  1,
  1,
  1,
  1,
  1,
  1,
  1,
  1,
  1,
  1,
  1,
  1,
  1,
  1,
  1,
  1,
  1,
  1,
  1,
  1,
  1,
  1,
  1,
  1,
  1,
  1,
  1,
  1,
  1,
  1,
  1,
  1,
  1,
  1,
  1,
  1,
  1,
  1,
  1,
  1,
  1,
  1,
  1,
  1,
  1,
  1,
  1,
  1,
  1,
  1,
  1,
  1,
  1,
  1,
  1,
  1,
  1,
  1,
  1,
  1,
  1,
  1,
  1,
  1,
  1,
  1,
  1,
  1,
  1,
  1,
  1,
  1,
  1,
  1,
  1,
  1,
  1,
  1,
  1,
  1,
  1,
  1,
  1,
  1,
  1,
  1,
  1,
  1,
  1,
  1,
  1,
  1,
  1,
  1,
  1,
  1,
  1,
  1,
  1,
  1,
  1,
  1,
  1,
  1,
  1,
  1,
  1,
  1,
  1,
  1,
  1,
  1,
  1,
  1,
  1,
  1,
  1,
  1,
  1,
  1,
  1,
  1,
  1,
  1,
  1,
  1,
  1,
  1,
  1,
  1,
  1,
  1,
  1,
  1,
  1,
  1,
  1,
  1,
  1,
  1,
  1,
  0,
  0,
  0,
  0,
  0,
  0,
  0,
  0,
  0,
  0,
  0,
  0,
  2,
  2,
  2,
  2,
  2,
  2,
  2,
  2,
  2,
  2,
  2,
  2,
  2,
  2,
  2,
  2,
  2,
  2,
  2,
  2,
  2,
  2,
  2,
  2,
  2,
  2,
  2,
  2,
  2,
  2,
  2,
  2,
  2,
  2,
  2,
  2,
  2,
  2,
  2,
  2,
  2,
  2,
  2,
  2,
  2,
  2,
  2,
  2,
  2,
  2,
  2,
  2,
  2,
  2,
  2,
  2,
  2,
  2,
  2,
  2,
  2,
  2,
  2,
  2,
  2,
  2,
  2,
  2,
  2,
  2,
  2,
  2,
  2,
  2,
  2,
  2,
  2,
  2,
  2,
  2,
  2,
  2,
  2,
  2,
  2,
  2,
  2,
  2,
  2,
  2,
  2,
  2,
  2,
  2,
  2,
  2;;
  Material {
   0.000000;0.000000;0.000000;1.000000;;
   5.000000;
   0.000000;0.000000;0.000000;;
   0.000000;0.000000;0.000000;;
  }
  Material {
   0.800000;0.800000;0.800000;1.000000;;
   5.000000;
   0.000000;0.000000;0.000000;;
   0.100000;0.100000;0.100000;;
  }
  Material {
   0.228800;0.800000;0.800000;1.000000;;
   5.000000;
   0.000000;0.000000;0.000000;;
   0.286000;1.000000;1.000000;;
  }
  Material {
   0.200200;0.678300;0.700000;0.800000;;
   5.000000;
   0.000000;0.000000;0.000000;;
   0.062920;0.213180;0.220000;;
  }
 }
 MeshNormals {
  314;
  1.000000;-0.000003;0.000004;,
  0.670875;-0.294887;0.680418;,
  -0.000001;-0.397655;0.917535;,
  -0.670875;-0.294887;0.680418;,
  -1.000000;-0.000003;0.000005;,
  -0.638934;0.353445;-0.683257;,
  -0.000000;0.486310;-0.873786;,
  0.638934;0.353443;-0.683257;,
  0.999551;0.010469;-0.028064;,
  0.674465;-0.413332;0.611762;,
  0.005351;-0.556993;0.830500;,
  -0.665144;-0.421744;0.616211;,
  -0.999803;-0.004926;-0.019240;,
  -0.641448;0.403260;-0.652630;,
  -0.005770;0.524061;-0.851661;,
  0.629557;0.413207;-0.657965;,
  0.989875;-0.001108;-0.141935;,
  0.673806;-0.616381;0.407506;,
  0.016757;-0.803487;0.595086;,
  -0.643382;-0.634702;0.428033;,
  -0.993525;-0.047149;-0.103367;,
  -0.625663;0.494346;-0.603463;,
  -0.020662;0.637585;-0.770102;,
  0.581349;0.523661;-0.622746;,
  0.881510;-0.345945;-0.321343;,
  0.627362;-0.773070;0.093697;,
  0.020565;-0.957261;0.288494;,
  -0.595606;-0.791316;0.138102;,
  -0.927344;-0.206961;-0.311771;,
  -0.601924;0.465808;-0.648622;,
  -0.033887;0.704786;-0.708610;,
  0.529876;0.505178;-0.681195;,
  -1.000000;0.000003;-0.000005;,
  -0.670873;0.294890;-0.680419;,
  0.000000;0.397658;-0.917534;,
  0.670873;0.294890;-0.680419;,
  1.000000;0.000004;-0.000005;,
  0.670877;-0.294882;0.680418;,
  -0.000000;-0.397649;0.917538;,
  -0.670877;-0.294883;0.680418;,
  -0.999326;-0.013828;0.033994;,
  -0.674375;0.415688;-0.610264;,
  -0.005311;0.560896;-0.827869;,
  0.665154;0.424283;-0.614454;,
  0.999681;0.001998;0.025191;,
  0.653319;-0.376454;0.656854;,
  0.005788;-0.480918;0.876747;,
  -0.641437;-0.386745;0.662560;,
  -0.899046;0.377766;-0.221379;,
  -0.668903;0.611932;-0.422028;,
  -0.016842;0.802091;-0.596964;,
  0.638135;0.630357;-0.442079;,
  0.997082;0.015986;0.074646;,
  0.632675;-0.566854;0.527636;,
  0.017820;-0.746431;0.665225;,
  -0.592639;-0.593376;0.544687;,
  -0.899800;0.349149;0.261639;,
  -0.634303;0.756967;-0.157034;,
  -0.022446;0.940013;-0.340399;,
  0.598344;0.775508;-0.201425;,
  0.901982;0.388086;0.189254;,
  0.636304;-0.490215;0.595656;,
  0.033323;-0.731895;0.680602;,
  -0.570796;-0.524224;0.631966;,
  0.781242;-0.323272;-0.534000;,
  0.546817;-0.828958;-0.117559;,
  0.016955;-0.997255;0.072075;,
  -0.527692;-0.846891;-0.065696;,
  -0.810781;-0.363703;-0.458644;,
  -0.580617;0.240586;-0.777819;,
  -0.042049;0.514400;-0.856519;,
  0.503776;0.273247;-0.819479;,
  -0.828957;0.299618;0.472291;,
  -0.581389;0.813192;0.026563;,
  -0.020816;0.985390;-0.169034;,
  0.554366;0.831818;-0.027529;,
  0.854619;0.338159;0.394049;,
  0.605476;-0.229630;0.762017;,
  0.042393;-0.458859;0.887497;,
  -0.530696;-0.257391;0.807535;,
  0.385173;-0.545356;-0.744465;,
  0.272925;-0.800107;-0.534173;,
  -0.004644;-0.899355;-0.437195;,
  -0.290867;-0.811213;-0.507277;,
  -0.428048;-0.563456;-0.706606;,
  -0.315339;-0.296834;-0.901361;,
  -0.037276;-0.185091;-0.982014;,
  0.248524;-0.284020;-0.926050;,
  -0.814268;0.321658;0.483223;,
  -0.572203;0.818194;0.056054;,
  -0.020049;0.990812;-0.133752;,
  0.546560;0.837415;0.002645;,
  0.840547;0.358163;0.406448;,
  0.596971;-0.177524;0.782376;,
  0.043280;-0.390247;0.919692;,
  -0.522006;-0.202212;0.828625;,
  1.000000;0.000001;-0.000002;,
  0.668728;0.742799;-0.032437;,
  0.000000;0.999048;-0.043628;,
  -0.668728;0.742799;-0.032437;,
  -1.000000;0.000001;0.000000;,
  -0.668729;-0.742799;0.032434;,
  0.000000;-0.999048;0.043622;,
  0.668729;-0.742799;0.032433;,
  1.000000;0.000001;-0.000001;,
  0.668728;0.742799;-0.032436;,
  0.000000;0.999048;-0.043625;,
  -0.668728;0.742799;-0.032436;,
  -1.000000;0.000001;-0.000001;,
  -0.668728;-0.742799;0.032433;,
  0.000000;-0.999048;0.043622;,
  0.668728;-0.742799;0.032433;,
  1.000000;0.000000;-0.000000;,
  0.668728;0.742799;-0.032434;,
  0.000000;0.999048;-0.043623;,
  -0.668728;0.742799;-0.032434;,
  -1.000000;0.000000;-0.000001;,
  -0.668729;-0.742799;0.032432;,
  0.000000;-0.999048;0.043619;,
  0.668729;-0.742799;0.032432;,
  1.000000;-0.000000;0.000001;,
  0.668728;0.742800;-0.032433;,
  -0.000000;0.999048;-0.043622;,
  -0.668728;0.742800;-0.032433;,
  -1.000000;-0.000000;0.000001;,
  -0.668729;-0.742798;0.032431;,
  0.000000;-0.999048;0.043617;,
  0.668730;-0.742798;0.032430;,
  -1.000000;0.000001;-0.000002;,
  -0.668728;-0.742799;0.032426;,
  -0.000000;-0.999049;0.043612;,
  0.668728;-0.742800;0.032426;,
  1.000000;0.000000;-0.000002;,
  0.668728;0.742800;-0.032432;,
  -0.000000;0.999048;-0.043619;,
  -0.668728;0.742800;-0.032432;,
  -1.000000;0.000000;-0.000001;,
  -0.668728;-0.742799;0.032432;,
  -0.000000;-0.999048;0.043620;,
  0.668728;-0.742799;0.032432;,
  1.000000;-0.000000;-0.000001;,
  0.668728;0.742799;-0.032433;,
  0.000000;0.999048;-0.043621;,
  -0.668728;0.742799;-0.032433;,
  -0.986991;-0.007013;-0.160624;,
  -0.660643;-0.741509;-0.117111;,
  -0.000000;-0.995370;-0.096119;,
  0.660643;-0.741509;-0.117111;,
  0.986991;-0.007013;-0.160624;,
  0.660643;0.728480;-0.181297;,
  0.000000;0.983203;-0.182513;,
  -0.660643;0.728480;-0.181297;,
  -0.948787;-0.013780;-0.315615;,
  -0.637926;-0.723749;-0.263131;,
  -0.000000;-0.972381;-0.233399;,
  0.637926;-0.723749;-0.263131;,
  0.948787;-0.013780;-0.315615;,
  0.637926;0.698061;-0.325210;,
  0.000000;0.948338;-0.317263;,
  -0.637926;0.698061;-0.325210;,
  0.484811;0.874619;0.000001;,
  -0.000000;0.000000;1.000000;,
  -0.484810;-0.874620;0.000002;,
  0.622805;-0.782300;0.010958;,
  -0.035253;-0.014083;0.999279;,
  -0.622808;0.782298;-0.010942;,
  0.932377;0.301440;-0.199515;,
  0.706590;0.655764;0.265903;,
  -0.000001;0.866593;0.499016;,
  -0.706590;0.655764;0.265903;,
  -0.932377;0.301441;-0.199515;,
  -0.706596;0.011464;-0.707525;,
  0.000003;-0.120742;-0.992684;,
  0.706597;0.011463;-0.707523;,
  0.852248;0.522485;0.026136;,
  -0.000000;-0.833887;0.551935;,
  0.990624;0.123853;-0.057665;,
  0.691078;0.488613;0.532605;,
  0.000023;0.636470;0.771302;,
  -0.691060;0.488623;0.532619;,
  -0.990624;0.123853;-0.057665;,
  -0.706982;-0.248309;-0.662208;,
  0.000001;-0.403454;-0.915000;,
  0.706984;-0.248308;-0.662206;,
  0.674665;0.556000;0.485479;,
  1.000000;0.000209;-0.000188;,
  0.707845;0.488237;0.510470;,
  0.000021;0.691600;0.722281;,
  -0.707831;0.488245;0.510482;,
  -1.000000;0.000207;-0.000188;,
  -0.707892;-0.486804;-0.511771;,
  0.000003;-0.689201;-0.724570;,
  0.707894;-0.486803;-0.511770;,
  1.000000;0.000092;-0.000127;,
  0.706351;0.554591;0.439882;,
  -0.000004;0.783576;0.621296;,
  -0.706356;0.554588;0.439879;,
  -1.000000;0.000091;-0.000127;,
  -0.706350;-0.553929;-0.440718;,
  0.000004;-0.782444;-0.622721;,
  0.706352;-0.553927;-0.440717;,
  0.000000;-0.580703;0.814115;,
  -1.000000;-0.000000;-0.000000;,
  0.000029;1.000000;0.000000;,
  0.000022;0.707105;0.707109;,
  0.000005;0.000001;1.000000;,
  -0.000017;-0.707102;0.707111;,
  -0.000031;-1.000000;0.000000;,
  -0.000023;-0.707102;-0.707112;,
  -0.000004;0.000001;-1.000000;,
  0.000016;0.707104;-0.707110;,
  1.000000;-0.000000;-0.000000;,
  -1.000000;0.000000;-0.000000;,
  0.000030;1.000000;0.000003;,
  0.000021;0.707104;0.707110;,
  0.000005;-0.000001;1.000000;,
  -0.000016;-0.707102;0.707111;,
  -0.000029;-1.000000;0.000003;,
  -0.000017;-0.707100;-0.707114;,
  0.000002;-0.000001;-1.000000;,
  0.000020;0.707101;-0.707112;,
  1.000000;-0.000001;-0.000000;,
  -0.807270;-0.425204;0.409288;,
  0.834889;-0.425068;0.349682;,
  0.787463;0.400602;-0.468422;,
  -0.782756;-0.484984;0.389979;,
  0.000004;0.935886;0.352303;,
  0.000003;0.935886;0.352304;,
  0.000000;0.935886;0.352303;,
  -0.000003;0.935886;0.352304;,
  -0.000003;0.935886;0.352303;,
  0.053857;0.839330;0.540949;,
  -0.000000;0.706559;0.707654;,
  -0.053857;0.839330;0.540948;,
  -0.023468;-0.606985;-0.794366;,
  -0.023457;-0.606985;-0.794367;,
  -0.023471;-0.606983;-0.794368;,
  -0.023495;-0.607000;-0.794355;,
  -0.023485;-0.607006;-0.794350;,
  -0.023465;-0.607007;-0.794350;,
  -0.023452;-0.606982;-0.794369;,
  -0.023437;-0.606965;-0.794383;,
  -0.000012;-0.043618;-0.999048;,
  0.000000;-0.043616;-0.999048;,
  0.000004;0.043616;0.999048;,
  -0.000001;0.043617;0.999048;,
  -0.000001;-0.043605;-0.999049;,
  0.000000;0.043617;0.999048;,
  -0.000001;-0.043612;-0.999049;,
  0.000001;0.043616;0.999048;,
  0.000015;-0.043616;-0.999048;,
  -0.000002;0.043617;0.999048;,
  0.000017;-0.043601;-0.999049;,
  -0.000002;0.043618;0.999048;,
  0.000004;-0.043601;-0.999049;,
  0.000000;0.043619;0.999048;,
  -0.000011;-0.043611;-0.999049;,
  0.000003;0.043618;0.999048;,
  0.000000;0.000000;-1.000000;,
  -0.874619;0.484810;0.000003;,
  0.874619;-0.484811;0.000002;,
  0.035253;0.014080;-0.999279;,
  0.781583;0.622740;0.036364;,
  -0.781584;-0.622740;-0.036346;,
  -0.852248;0.522485;0.026136;,
  0.000002;-0.833886;0.551937;,
  0.000004;-0.833884;0.551940;,
  -0.000001;-0.833885;0.551938;,
  -0.000004;-0.833884;0.551940;,
  -0.000001;-0.833886;0.551937;,
  0.000001;-0.833890;0.551931;,
  0.000000;-0.833891;0.551930;,
  -0.000000;-0.833890;0.551931;,
  -0.674662;0.556002;0.485482;,
  -0.686736;-0.073616;-0.723170;,
  0.686739;-0.073616;-0.723167;,
  0.000001;-0.580707;0.814113;,
  -0.000001;-0.580704;0.814115;,
  -0.000000;-0.580702;0.814116;,
  0.000001;-0.580703;0.814116;,
  0.000000;-0.580707;0.814112;,
  -0.000009;-0.580703;0.814115;,
  -0.000000;-0.580696;0.814121;,
  0.000009;-0.580703;0.814116;,
  -1.000000;0.000003;-0.000003;,
  -1.000000;0.000000;0.000002;,
  -1.000000;-0.000000;-0.000005;,
  -1.000000;-0.000003;-0.000003;,
  -1.000000;0.000001;0.000002;,
  -1.000000;0.000000;0.000001;,
  -1.000000;-0.000001;0.000002;,
  1.000000;0.000000;0.000000;,
  1.000000;-0.000002;0.000002;,
  1.000000;-0.000000;0.000004;,
  1.000000;0.000002;0.000002;,
  1.000000;0.000002;-0.000002;,
  1.000000;-0.000000;-0.000004;,
  1.000000;-0.000002;-0.000002;,
  -1.000000;-0.000002;-0.000004;,
  -1.000000;0.000000;-0.000000;,
  -1.000000;0.000000;-0.000002;,
  -1.000000;0.000002;-0.000004;,
  -1.000000;0.000000;-0.000000;,
  -1.000000;0.000001;0.000004;,
  -1.000000;0.000000;0.000003;,
  -1.000000;-0.000001;0.000004;,
  1.000000;0.000000;-0.000000;,
  1.000000;-0.000005;-0.000005;,
  1.000000;-0.000005;-0.000000;,
  1.000000;0.000002;0.000003;,
  1.000000;0.000005;0.000001;,
  1.000000;0.000003;-0.000003;,
  1.000000;-0.000004;-0.000001;,
  1.000000;-0.000005;0.000003;;
  268;
  4;0,1,9,8;,
  4;33,32,40,41;,
  4;1,2,10,9;,
  4;34,33,41,42;,
  4;2,3,11,10;,
  4;35,34,42,43;,
  4;3,4,12,11;,
  4;36,35,43,44;,
  4;4,5,13,12;,
  4;37,36,44,45;,
  4;5,6,14,13;,
  4;38,37,45,46;,
  4;6,7,15,14;,
  4;39,38,46,47;,
  4;7,0,8,15;,
  4;32,39,47,40;,
  4;8,9,17,16;,
  4;41,40,48,49;,
  4;9,10,18,17;,
  4;42,41,49,50;,
  4;10,11,19,18;,
  4;43,42,50,51;,
  4;11,12,20,19;,
  4;44,43,51,52;,
  4;12,13,21,20;,
  4;45,44,52,53;,
  4;13,14,22,21;,
  4;46,45,53,54;,
  4;14,15,23,22;,
  4;47,46,54,55;,
  4;15,8,16,23;,
  4;40,47,55,222;,
  4;16,17,25,24;,
  4;49,48,56,57;,
  4;17,18,26,25;,
  4;50,49,57,58;,
  4;18,19,27,26;,
  4;51,50,58,59;,
  4;19,20,28,27;,
  4;52,51,59,60;,
  4;20,21,29,28;,
  4;53,52,223,61;,
  4;21,22,30,29;,
  4;54,53,61,62;,
  4;22,23,31,30;,
  4;55,54,62,63;,
  4;23,16,224,31;,
  4;222,55,63,225;,
  4;226,226,227,227;,
  4;227,227,228,228;,
  4;228,228,229,229;,
  4;229,229,230,230;,
  4;230,230,231,231;,
  4;231,231,232,232;,
  4;232,232,233,233;,
  4;233,233,226,226;,
  4;65,64,24,25;,
  4;72,73,57,56;,
  4;66,65,25,26;,
  4;73,74,58,57;,
  4;67,66,26,27;,
  4;74,75,59,58;,
  4;68,67,27,28;,
  4;75,76,60,59;,
  4;69,68,28,29;,
  4;76,77,61,60;,
  4;70,69,29,30;,
  4;77,78,62,61;,
  4;71,70,30,31;,
  4;78,79,63,62;,
  4;64,71,31,24;,
  4;79,72,56,63;,
  4;81,80,64,65;,
  4;88,89,73,72;,
  4;80,81,234,235;,
  4;82,81,65,66;,
  4;89,90,74,73;,
  4;81,82,236,234;,
  4;83,82,66,67;,
  4;90,91,75,74;,
  4;82,83,237,236;,
  4;84,83,67,68;,
  4;91,92,76,75;,
  4;83,84,238,237;,
  4;85,84,68,69;,
  4;92,93,77,76;,
  4;84,85,239,238;,
  4;86,85,69,70;,
  4;93,94,78,77;,
  4;85,86,240,239;,
  4;87,86,70,71;,
  4;94,95,79,78;,
  4;86,87,241,240;,
  4;80,87,71,64;,
  4;95,88,72,79;,
  4;87,80,235,241;,
  4;96,97,105,104;,
  4;129,128,136,137;,
  4;97,98,106,105;,
  4;130,129,137,138;,
  4;98,99,107,106;,
  4;131,130,138,139;,
  4;99,100,108,107;,
  4;132,131,139,140;,
  4;100,101,109,108;,
  4;133,132,140,141;,
  4;101,102,110,109;,
  4;134,133,141,142;,
  4;102,103,111,110;,
  4;135,134,142,143;,
  4;103,96,104,111;,
  4;128,135,143,136;,
  4;104,105,113,112;,
  4;137,136,144,145;,
  4;105,106,114,113;,
  4;138,137,145,146;,
  4;106,107,115,114;,
  4;139,138,146,147;,
  4;107,108,116,115;,
  4;140,139,147,148;,
  4;108,109,117,116;,
  4;141,140,148,149;,
  4;109,110,118,117;,
  4;142,141,149,150;,
  4;110,111,119,118;,
  4;143,142,150,151;,
  4;111,104,112,119;,
  4;136,143,151,144;,
  4;112,113,121,120;,
  4;145,144,152,153;,
  4;113,114,122,121;,
  4;146,145,153,154;,
  4;114,115,123,122;,
  4;147,146,154,155;,
  4;115,116,124,123;,
  4;148,147,155,156;,
  4;116,117,125,124;,
  4;149,148,156,157;,
  4;117,118,126,125;,
  4;150,149,157,158;,
  4;118,119,127,126;,
  4;151,150,158,159;,
  4;119,112,120,127;,
  4;144,151,159,152;,
  4;242,242,243,243;,
  4;244,245,245,244;,
  4;243,243,246,246;,
  4;245,247,247,245;,
  4;246,246,248,248;,
  4;247,249,249,247;,
  4;248,248,250,250;,
  4;249,251,251,249;,
  4;250,250,252,252;,
  4;251,253,253,251;,
  4;252,252,254,254;,
  4;253,255,255,253;,
  4;254,254,256,256;,
  4;255,257,257,255;,
  4;256,256,242,242;,
  4;257,244,244,257;,
  4;160,160,160,160;,
  4;161,161,161,161;,
  4;162,162,162,162;,
  4;258,258,258,258;,
  4;259,259,259,259;,
  4;260,260,260,260;,
  4;163,163,163,163;,
  4;164,164,164,164;,
  4;165,165,165,165;,
  4;261,261,261,261;,
  4;262,262,262,262;,
  4;263,263,263,263;,
  3;166,174,167;,
  3;167,174,168;,
  3;168,264,169;,
  3;169,264,170;,
  3;170,264,171;,
  3;171,172,172;,
  3;172,172,173;,
  3;173,174,166;,
  3;175,265,266;,
  3;175,266,267;,
  3;175,267,268;,
  3;175,268,269;,
  3;175,269,270;,
  3;175,270,271;,
  3;175,271,272;,
  3;175,272,265;,
  3;176,184,177;,
  3;177,184,178;,
  3;178,273,179;,
  3;179,273,180;,
  3;180,274,181;,
  3;181,274,182;,
  3;182,275,183;,
  3;183,275,176;,
  4;186,185,176,177;,
  4;187,186,177,178;,
  4;188,187,178,179;,
  4;189,188,179,180;,
  4;190,189,180,181;,
  4;191,190,181,182;,
  4;192,191,182,183;,
  4;185,192,183,176;,
  4;194,193,185,186;,
  3;201,276,277;,
  4;195,194,186,187;,
  3;201,277,278;,
  4;196,195,187,188;,
  3;201,278,279;,
  4;197,196,188,189;,
  3;201,279,280;,
  4;198,197,189,190;,
  3;201,280,281;,
  4;199,198,190,191;,
  3;201,281,282;,
  4;200,199,191,192;,
  3;201,282,283;,
  4;193,200,192,185;,
  3;201,283,276;,
  4;203,204,204,203;,
  4;204,205,205,204;,
  4;205,206,206,205;,
  4;206,207,207,206;,
  4;207,208,208,207;,
  4;208,209,209,208;,
  4;209,210,210,209;,
  4;210,203,203,210;,
  3;202,284,285;,
  3;202,286,284;,
  3;202,287,286;,
  3;202,285,287;,
  3;202,288,285;,
  3;202,289,288;,
  3;202,290,289;,
  3;202,285,290;,
  3;211,291,292;,
  3;211,292,293;,
  3;211,293,294;,
  3;211,294,291;,
  3;211,291,295;,
  3;211,295,296;,
  3;211,296,297;,
  3;211,297,291;,
  4;213,214,214,213;,
  4;214,215,215,214;,
  4;215,216,216,215;,
  4;216,217,217,216;,
  4;217,218,218,217;,
  4;218,219,219,218;,
  4;219,220,220,219;,
  4;220,213,213,220;,
  3;212,298,299;,
  3;212,300,298;,
  3;212,301,300;,
  3;212,302,301;,
  3;212,303,302;,
  3;212,304,303;,
  3;212,305,304;,
  3;212,299,305;,
  3;221,306,307;,
  3;221,307,308;,
  3;221,308,309;,
  3;221,309,310;,
  3;221,310,311;,
  3;221,311,312;,
  3;221,312,313;,
  3;221,313,306;;
 }
}
