xof 0302txt 0064
template Header {
 <3D82AB43-62DA-11cf-AB39-0020AF71E433>
 WORD major;
 WORD minor;
 DWORD flags;
}

template Vector {
 <3D82AB5E-62DA-11cf-AB39-0020AF71E433>
 FLOAT x;
 FLOAT y;
 FLOAT z;
}

template Coords2d {
 <F6F23F44-7686-11cf-8F52-0040333594A3>
 FLOAT u;
 FLOAT v;
}

template Matrix4x4 {
 <F6F23F45-7686-11cf-8F52-0040333594A3>
 array FLOAT matrix[16];
}

template ColorRGBA {
 <35FF44E0-6C7C-11cf-8F52-0040333594A3>
 FLOAT red;
 FLOAT green;
 FLOAT blue;
 FLOAT alpha;
}

template ColorRGB {
 <D3E16E81-7835-11cf-8F52-0040333594A3>
 FLOAT red;
 FLOAT green;
 FLOAT blue;
}

template IndexedColor {
 <1630B820-7842-11cf-8F52-0040333594A3>
 DWORD index;
 ColorRGBA indexColor;
}

template Boolean {
 <4885AE61-78E8-11cf-8F52-0040333594A3>
 WORD truefalse;
}

template Boolean2d {
 <4885AE63-78E8-11cf-8F52-0040333594A3>
 Boolean u;
 Boolean v;
}

template MaterialWrap {
 <4885AE60-78E8-11cf-8F52-0040333594A3>
 Boolean u;
 Boolean v;
}

template TextureFilename {
 <A42790E1-7810-11cf-8F52-0040333594A3>
 STRING filename;
}

template Material {
 <3D82AB4D-62DA-11cf-AB39-0020AF71E433>
 ColorRGBA faceColor;
 FLOAT power;
 ColorRGB specularColor;
 ColorRGB emissiveColor;
 [...]
}

template MeshFace {
 <3D82AB5F-62DA-11cf-AB39-0020AF71E433>
 DWORD nFaceVertexIndices;
 array DWORD faceVertexIndices[nFaceVertexIndices];
}

template MeshFaceWraps {
 <4885AE62-78E8-11cf-8F52-0040333594A3>
 DWORD nFaceWrapValues;
 Boolean2d faceWrapValues;
}

template MeshTextureCoords {
 <F6F23F40-7686-11cf-8F52-0040333594A3>
 DWORD nTextureCoords;
 array Coords2d textureCoords[nTextureCoords];
}

template MeshMaterialList {
 <F6F23F42-7686-11cf-8F52-0040333594A3>
 DWORD nMaterials;
 DWORD nFaceIndexes;
 array DWORD faceIndexes[nFaceIndexes];
 [Material]
}

template MeshNormals {
 <F6F23F43-7686-11cf-8F52-0040333594A3>
 DWORD nNormals;
 array Vector normals[nNormals];
 DWORD nFaceNormals;
 array MeshFace faceNormals[nFaceNormals];
}

template MeshVertexColors {
 <1630B821-7842-11cf-8F52-0040333594A3>
 DWORD nVertexColors;
 array IndexedColor vertexColors[nVertexColors];
}

template Mesh {
 <3D82AB44-62DA-11cf-AB39-0020AF71E433>
 DWORD nVertices;
 array Vector vertices[nVertices];
 DWORD nFaces;
 array MeshFace faces[nFaces];
 [...]
}

Header{
1;
0;
1;
}

Mesh {
 114;
 -0.40580;-24.03440;8.29011;,
 -0.60837;-23.04822;11.10633;,
 -0.98079;-32.39323;14.35182;,
 -0.77823;-33.37931;11.53580;,
 -3.59000;-23.00872;10.87789;,
 -3.96242;-32.35370;14.12357;,
 -3.38742;-23.99483;8.06180;,
 -3.75985;-33.33979;11.30751;,
 13.98105;-24.22512;9.39181;,
 13.77849;-23.23897;12.20793;,
 13.40605;-32.58392;15.45362;,
 13.60863;-33.57006;12.63742;,
 10.79688;-23.19944;11.97967;,
 10.42445;-32.54437;15.22531;,
 10.99944;-24.18560;9.16348;,
 10.62701;-33.53055;12.40913;,
 13.29651;-36.35393;13.58995;,
 13.09395;-35.36779;16.40601;,
 -3.90448;-35.14248;15.10426;,
 -3.70191;-36.12862;12.28814;,
 13.20646;-32.54476;15.42549;,
 -3.79196;-32.31937;14.12389;,
 13.40901;-33.53086;12.60938;,
 -3.58939;-33.30552;11.30776;,
 13.85967;-24.36235;9.43111;,
 13.65707;-23.37621;12.24734;,
 -3.51173;-23.14860;10.93251;,
 -3.30916;-24.13474;8.11638;,
 13.76960;-20.55315;11.26680;,
 -3.39922;-20.32556;9.95204;,
 13.97218;-21.53929;8.45063;,
 -3.19665;-21.31168;7.13587;,
 4.28793;-33.13418;20.02698;,
 1.96209;-33.02869;20.06392;,
 2.26071;-29.35749;16.79960;,
 4.57601;-29.59265;16.87801;,
 0.96791;-32.83521;20.50685;,
 1.29200;-28.85096;16.96438;,
 1.88781;-32.66708;21.09650;,
 2.23735;-28.36982;17.27562;,
 4.18288;-32.62283;21.48727;,
 4.54301;-28.19594;17.55100;,
 6.50872;-32.72835;21.45037;,
 6.85830;-28.43108;17.62941;,
 7.50290;-32.92183;21.00723;,
 7.82700;-28.93757;17.46481;,
 6.58302;-33.08991;20.41780;,
 6.88165;-29.41873;17.15349;,
 2.63956;-29.07894;11.90052;,
 4.94148;-29.32394;12.15191;,
 1.70317;-28.54865;11.64750;,
 2.68081;-28.04374;11.54096;,
 4.99981;-27.86000;11.64347;,
 7.30175;-28.10503;11.89487;,
 8.23815;-28.63531;12.14787;,
 7.26049;-29.14017;12.25442;,
 2.87671;-32.35620;8.23630;,
 5.17023;-32.48539;8.61715;,
 1.96052;-32.10532;7.67090;,
 2.95838;-31.87986;7.25197;,
 5.28577;-31.81185;7.22495;,
 7.57931;-31.94111;7.60580;,
 8.49549;-32.19193;8.17136;,
 7.49763;-32.41744;8.59015;,
 2.83320;-37.26937;7.95360;,
 5.12830;-37.22513;8.34438;,
 1.91335;-37.43760;7.36397;,
 2.90749;-37.63101;6.92099;,
 5.23335;-37.73652;6.88399;,
 7.52844;-37.69227;7.27482;,
 8.44829;-37.52416;7.86442;,
 7.45414;-37.33066;8.30747;,
 2.53458;-40.94064;11.21775;,
 4.84022;-40.76668;11.49338;,
 1.58922;-41.42175;10.90665;,
 2.55794;-41.92825;10.74201;,
 4.87323;-42.16346;10.82026;,
 7.17884;-41.98955;11.09585;,
 8.12420;-41.50840;11.40709;,
 7.15550;-41.00186;11.57168;,
 2.15574;-41.21918;16.11702;,
 4.47474;-41.03543;16.21948;,
 1.17808;-41.72405;16.22351;,
 2.11448;-42.25435;16.47652;,
 4.41640;-42.49937;16.72784;,
 6.73540;-42.31558;16.83038;,
 7.71309;-41.81069;16.72390;,
 6.77666;-41.28046;16.47083;,
 1.91860;-37.94196;19.78109;,
 4.24598;-37.87391;19.75425;,
 0.92073;-38.16740;20.20013;,
 1.83691;-38.41824;20.76552;,
 4.13046;-38.54754;21.14625;,
 6.45784;-38.47952;21.11932;,
 7.45571;-38.25400;20.70052;,
 6.53952;-38.00320;20.13495;,
 7.53482;2.78200;-0.16722;,
 5.42741;4.52213;4.61373;,
 10.24615;-25.25524;14.86512;,
 12.12518;-26.80677;10.60225;,
 0.33966;5.24288;6.59413;,
 5.70983;-24.61257;16.63078;,
 -4.74807;4.52213;4.61373;,
 1.17349;-25.25524;14.86512;,
 -6.85548;2.78200;-0.16721;,
 -0.70552;-26.80677;10.60225;,
 -4.74806;1.04187;-4.94815;,
 1.17350;-28.35830;6.33945;,
 0.33967;0.32109;-6.92846;,
 5.70983;-29.00098;4.57376;,
 5.42740;1.04187;-4.94815;,
 10.24616;-28.35830;6.33945;,
 0.33966;2.78200;-0.16720;,
 5.70982;-26.80677;10.60225;;
 
 112;
 4;0,1,2,3;,
 4;1,4,5,2;,
 4;4,6,7,5;,
 4;6,0,3,7;,
 4;6,4,1,0;,
 4;3,2,5,7;,
 4;8,9,10,11;,
 4;9,12,13,10;,
 4;12,14,15,13;,
 4;14,8,11,15;,
 4;14,12,9,8;,
 4;11,10,13,15;,
 4;16,17,18,19;,
 4;17,20,21,18;,
 4;20,22,23,21;,
 4;22,16,19,23;,
 4;22,20,17,16;,
 4;19,18,21,23;,
 4;24,25,26,27;,
 4;25,28,29,26;,
 4;28,30,31,29;,
 4;30,24,27,31;,
 4;30,28,25,24;,
 4;27,26,29,31;,
 4;32,33,34,35;,
 4;33,36,37,34;,
 4;36,38,39,37;,
 4;38,40,41,39;,
 4;40,42,43,41;,
 4;42,44,45,43;,
 4;44,46,47,45;,
 4;46,32,35,47;,
 4;35,34,48,49;,
 4;34,37,50,48;,
 4;37,39,51,50;,
 4;39,41,52,51;,
 4;41,43,53,52;,
 4;43,45,54,53;,
 4;45,47,55,54;,
 4;47,35,49,55;,
 4;49,48,56,57;,
 4;48,50,58,56;,
 4;50,51,59,58;,
 4;51,52,60,59;,
 4;52,53,61,60;,
 4;53,54,62,61;,
 4;54,55,63,62;,
 4;55,49,57,63;,
 4;57,56,64,65;,
 4;56,58,66,64;,
 4;58,59,67,66;,
 4;59,60,68,67;,
 4;60,61,69,68;,
 4;61,62,70,69;,
 4;62,63,71,70;,
 4;63,57,65,71;,
 4;65,64,72,73;,
 4;64,66,74,72;,
 4;66,67,75,74;,
 4;67,68,76,75;,
 4;68,69,77,76;,
 4;69,70,78,77;,
 4;70,71,79,78;,
 4;71,65,73,79;,
 4;73,72,80,81;,
 4;72,74,82,80;,
 4;74,75,83,82;,
 4;75,76,84,83;,
 4;76,77,85,84;,
 4;77,78,86,85;,
 4;78,79,87,86;,
 4;79,73,81,87;,
 4;81,80,88,89;,
 4;80,82,90,88;,
 4;82,83,91,90;,
 4;83,84,92,91;,
 4;84,85,93,92;,
 4;85,86,94,93;,
 4;86,87,95,94;,
 4;87,81,89,95;,
 4;89,88,33,32;,
 4;88,90,36,33;,
 4;90,91,38,36;,
 4;91,92,40,38;,
 4;92,93,42,40;,
 4;93,94,44,42;,
 4;94,95,46,44;,
 4;95,89,32,46;,
 4;96,97,98,99;,
 4;97,100,101,98;,
 4;100,102,103,101;,
 4;102,104,105,103;,
 4;104,106,107,105;,
 4;106,108,109,107;,
 4;108,110,111,109;,
 4;110,96,99,111;,
 3;112,97,96;,
 3;112,100,97;,
 3;112,102,100;,
 3;112,104,102;,
 3;112,106,104;,
 3;112,108,106;,
 3;112,110,108;,
 3;112,96,110;,
 3;113,99,98;,
 3;113,98,101;,
 3;113,101,103;,
 3;113,103,105;,
 3;113,105,107;,
 3;113,107,109;,
 3;113,109,111;,
 3;113,111,99;;
 
 MeshMaterialList {
  4;
  112;
  0,
  0,
  0,
  0,
  0,
  0,
  0,
  0,
  0,
  0,
  0,
  0,
  0,
  0,
  0,
  0,
  0,
  0,
  0,
  0,
  0,
  0,
  0,
  0,
  2,
  2,
  2,
  2,
  2,
  2,
  2,
  2,
  2,
  2,
  2,
  2,
  2,
  2,
  2,
  2,
  2,
  2,
  2,
  2,
  2,
  2,
  2,
  2,
  2,
  2,
  2,
  2,
  2,
  2,
  2,
  2,
  2,
  2,
  2,
  2,
  2,
  2,
  2,
  2,
  2,
  2,
  2,
  2,
  2,
  2,
  2,
  2,
  2,
  2,
  2,
  2,
  2,
  2,
  2,
  2,
  2,
  2,
  2,
  2,
  2,
  2,
  2,
  2,
  1,
  1,
  1,
  1,
  1,
  1,
  1,
  1,
  1,
  1,
  1,
  1,
  1,
  1,
  1,
  1,
  1,
  1,
  1,
  1,
  1,
  1,
  1,
  1;;
  Material {
   0.000000;0.000000;0.000000;1.000000;;
   5.000000;
   0.000000;0.000000;0.000000;;
   0.000000;0.000000;0.000000;;
  }
  Material {
   0.800000;0.800000;0.800000;1.000000;;
   5.000000;
   0.000000;0.000000;0.000000;;
   0.100000;0.100000;0.100000;;
  }
  Material {
   0.228800;0.800000;0.800000;1.000000;;
   5.000000;
   0.000000;0.000000;0.000000;;
   0.286000;1.000000;1.000000;;
  }
  Material {
   0.200200;0.678300;0.700000;0.800000;;
   5.000000;
   0.000000;0.000000;0.000000;;
   0.062920;0.213180;0.220000;;
  }
 }
 MeshNormals {
  130;
  0.996994;-0.013219;0.076343;,
  -0.067745;0.329738;0.941639;,
  -0.996994;0.013217;-0.076347;,
  0.996994;-0.013218;0.076344;,
  -0.067723;0.329746;0.941637;,
  -0.996994;0.013220;-0.076341;,
  -0.037620;-0.943978;0.327856;,
  -0.067736;0.329730;0.941642;,
  0.037619;0.943981;-0.327849;,
  -0.037621;-0.943982;0.327846;,
  -0.067740;0.329749;0.941635;,
  0.037620;0.943982;-0.327846;,
  0.067742;-0.329742;-0.941637;,
  -0.239842;-0.309970;-0.919997;,
  -0.435687;-0.279770;-0.855515;,
  -0.368840;0.318036;0.873390;,
  -0.067732;0.329741;0.941639;,
  0.239843;0.309967;0.919998;,
  0.435687;0.279766;0.855516;,
  0.368838;-0.318038;-0.873390;,
  0.021302;-0.900659;-0.434003;,
  -0.284069;-0.853632;-0.436597;,
  -0.476015;-0.775506;-0.414730;,
  -0.324622;0.861701;0.389989;,
  -0.021290;0.900658;0.434007;,
  0.284064;0.853634;0.436596;,
  0.476008;0.775511;0.414729;,
  0.324621;-0.861703;-0.389986;,
  -0.037618;-0.943980;0.327852;,
  -0.340171;-0.894886;0.288899;,
  -0.527169;-0.813126;0.246819;,
  -0.268530;0.902954;-0.335507;,
  0.037623;0.943981;-0.327849;,
  0.340172;0.894886;-0.288896;,
  0.527164;0.813129;-0.246819;,
  0.268520;-0.902956;0.335510;,
  -0.074499;-0.434335;0.897666;,
  -0.375290;-0.409568;0.831512;,
  -0.559183;-0.370592;0.741604;,
  -0.233424;0.417636;-0.878119;,
  0.074496;0.434338;-0.897664;,
  0.375311;0.409570;-0.831501;,
  0.559211;0.370590;-0.741584;,
  0.233398;-0.417638;0.878125;,
  -0.067740;0.329742;0.941638;,
  -0.368858;0.318035;0.873383;,
  -0.553314;0.292880;0.779785;,
  -0.239851;-0.309974;-0.919993;,
  0.067729;-0.329746;-0.941637;,
  0.368875;-0.318040;-0.873374;,
  0.553339;-0.292881;-0.779767;,
  0.239840;0.309969;0.919998;,
  -0.021300;0.900656;0.434011;,
  -0.324628;0.861701;0.389985;,
  -0.512976;0.788631;0.338995;,
  -0.284068;-0.853634;-0.436594;,
  0.021291;-0.900660;-0.434003;,
  0.324631;-0.861703;-0.389978;,
  0.512984;-0.788628;-0.338989;,
  0.284068;0.853632;0.436597;,
  0.037618;0.943978;-0.327856;,
  -0.268523;0.902955;-0.335511;,
  -0.461829;0.826242;-0.322549;,
  -0.340166;-0.894887;0.288900;,
  -0.037618;-0.943979;0.327855;,
  0.268515;-0.902957;0.335513;,
  0.461814;-0.826248;0.322556;,
  0.340167;0.894887;-0.288900;,
  0.074498;0.434334;-0.897666;,
  -0.233411;0.417634;-0.878124;,
  -0.429829;0.383692;-0.817330;,
  -0.375275;-0.409569;0.831518;,
  -0.074494;-0.434338;0.897664;,
  0.233400;-0.417640;0.878124;,
  0.429803;-0.383701;0.817339;,
  0.375279;0.409567;-0.831517;,
  -0.000000;0.939693;-0.342020;,
  0.989540;0.135557;-0.049340;,
  0.702718;0.330603;0.629992;,
  0.000615;0.318752;0.947838;,
  -0.698023;0.105044;0.708329;,
  -0.981455;-0.180131;0.065560;,
  -0.698020;-0.374839;-0.610134;,
  0.000615;-0.365083;-0.930975;,
  0.702715;-0.151697;-0.695111;,
  0.000000;-0.939693;0.342018;,
  0.067726;-0.329750;-0.941636;,
  0.037628;0.943980;-0.327852;,
  -0.037613;-0.943982;0.327846;,
  0.067733;-0.329744;-0.941638;,
  0.037616;0.943979;-0.327854;,
  -0.037617;-0.943980;0.327852;,
  0.067739;-0.329738;-0.941639;,
  0.996994;-0.013217;0.076340;,
  -0.996994;0.013224;-0.076347;,
  0.067737;-0.329746;-0.941636;,
  0.996993;-0.013220;0.076350;,
  -0.996994;0.013218;-0.076344;,
  -0.553313;0.292877;0.779787;,
  -0.512999;0.788616;0.338996;,
  0.553293;-0.292883;-0.779799;,
  0.512977;-0.788627;-0.339001;,
  -0.461847;0.826232;-0.322548;,
  0.461827;-0.826242;0.322553;,
  -0.429823;0.383697;-0.817330;,
  0.429793;-0.383703;0.817343;,
  -0.435660;-0.279783;-0.855525;,
  0.435663;0.279771;0.855527;,
  -0.475983;-0.775525;-0.414730;,
  0.475998;0.775518;0.414728;,
  -0.527154;-0.813134;0.246823;,
  0.527158;0.813132;-0.246820;,
  -0.559172;-0.370590;0.741613;,
  0.559179;0.370587;-0.741610;,
  -0.000004;0.939693;-0.342018;,
  -0.000001;0.939692;-0.342022;,
  -0.000000;0.939695;-0.342014;,
  0.000004;0.939693;-0.342018;,
  0.000000;0.939692;-0.342022;,
  0.000000;0.939692;-0.342022;,
  -0.000000;0.939692;-0.342021;,
  -0.000000;0.939692;-0.342022;,
  0.000000;-0.939694;0.342016;,
  -0.000002;-0.939694;0.342016;,
  0.000000;-0.939693;0.342019;,
  0.000003;-0.939694;0.342016;,
  -0.000000;-0.939694;0.342016;,
  -0.000002;-0.939693;0.342020;,
  -0.000000;-0.939692;0.342022;,
  0.000002;-0.939693;0.342020;;
  112;
  4;0,0,0,0;,
  4;1,1,1,1;,
  4;2,2,2,2;,
  4;86,86,86,86;,
  4;87,87,87,87;,
  4;88,88,88,88;,
  4;3,3,3,3;,
  4;4,4,4,4;,
  4;5,5,5,5;,
  4;89,89,89,89;,
  4;90,90,90,90;,
  4;91,91,91,91;,
  4;6,6,6,6;,
  4;7,7,7,7;,
  4;8,8,8,8;,
  4;92,92,92,92;,
  4;93,93,93,93;,
  4;94,94,94,94;,
  4;9,9,9,9;,
  4;10,10,10,10;,
  4;11,11,11,11;,
  4;95,95,95,95;,
  4;96,96,96,96;,
  4;97,97,97,97;,
  4;12,13,21,20;,
  4;13,14,22,21;,
  4;98,15,23,99;,
  4;15,16,24,23;,
  4;16,17,25,24;,
  4;17,18,26,25;,
  4;100,19,27,101;,
  4;19,12,20,27;,
  4;20,21,29,28;,
  4;21,22,30,29;,
  4;99,23,31,102;,
  4;23,24,32,31;,
  4;24,25,33,32;,
  4;25,26,34,33;,
  4;101,27,35,103;,
  4;27,20,28,35;,
  4;28,29,37,36;,
  4;29,30,38,37;,
  4;102,31,39,104;,
  4;31,32,40,39;,
  4;32,33,41,40;,
  4;33,34,42,41;,
  4;103,35,43,105;,
  4;35,28,36,43;,
  4;36,37,45,44;,
  4;37,38,46,45;,
  4;104,39,47,106;,
  4;39,40,48,47;,
  4;40,41,49,48;,
  4;41,42,50,49;,
  4;105,43,51,107;,
  4;43,36,44,51;,
  4;44,45,53,52;,
  4;45,46,54,53;,
  4;106,47,55,108;,
  4;47,48,56,55;,
  4;48,49,57,56;,
  4;49,50,58,57;,
  4;107,51,59,109;,
  4;51,44,52,59;,
  4;52,53,61,60;,
  4;53,54,62,61;,
  4;108,55,63,110;,
  4;55,56,64,63;,
  4;56,57,65,64;,
  4;57,58,66,65;,
  4;109,59,67,111;,
  4;59,52,60,67;,
  4;60,61,69,68;,
  4;61,62,70,69;,
  4;110,63,71,112;,
  4;63,64,72,71;,
  4;64,65,73,72;,
  4;65,66,74,73;,
  4;111,67,75,113;,
  4;67,60,68,75;,
  4;68,69,13,12;,
  4;69,70,14,13;,
  4;112,71,15,98;,
  4;71,72,16,15;,
  4;72,73,17,16;,
  4;73,74,18,17;,
  4;113,75,19,100;,
  4;75,68,12,19;,
  4;77,78,78,77;,
  4;78,79,79,78;,
  4;79,80,80,79;,
  4;80,81,81,80;,
  4;81,82,82,81;,
  4;82,83,83,82;,
  4;83,84,84,83;,
  4;84,77,77,84;,
  3;76,114,115;,
  3;76,116,114;,
  3;76,117,116;,
  3;76,118,117;,
  3;76,119,118;,
  3;76,120,119;,
  3;76,121,120;,
  3;76,115,121;,
  3;85,122,123;,
  3;85,123,124;,
  3;85,124,125;,
  3;85,125,126;,
  3;85,126,127;,
  3;85,127,128;,
  3;85,128,129;,
  3;85,129,122;;
 }
}
