xof 0302txt 0064
template Header {
 <3D82AB43-62DA-11cf-AB39-0020AF71E433>
 WORD major;
 WORD minor;
 DWORD flags;
}

template Vector {
 <3D82AB5E-62DA-11cf-AB39-0020AF71E433>
 FLOAT x;
 FLOAT y;
 FLOAT z;
}

template Coords2d {
 <F6F23F44-7686-11cf-8F52-0040333594A3>
 FLOAT u;
 FLOAT v;
}

template Matrix4x4 {
 <F6F23F45-7686-11cf-8F52-0040333594A3>
 array FLOAT matrix[16];
}

template ColorRGBA {
 <35FF44E0-6C7C-11cf-8F52-0040333594A3>
 FLOAT red;
 FLOAT green;
 FLOAT blue;
 FLOAT alpha;
}

template ColorRGB {
 <D3E16E81-7835-11cf-8F52-0040333594A3>
 FLOAT red;
 FLOAT green;
 FLOAT blue;
}

template IndexedColor {
 <1630B820-7842-11cf-8F52-0040333594A3>
 DWORD index;
 ColorRGBA indexColor;
}

template Boolean {
 <4885AE61-78E8-11cf-8F52-0040333594A3>
 WORD truefalse;
}

template Boolean2d {
 <4885AE63-78E8-11cf-8F52-0040333594A3>
 Boolean u;
 Boolean v;
}

template MaterialWrap {
 <4885AE60-78E8-11cf-8F52-0040333594A3>
 Boolean u;
 Boolean v;
}

template TextureFilename {
 <A42790E1-7810-11cf-8F52-0040333594A3>
 STRING filename;
}

template Material {
 <3D82AB4D-62DA-11cf-AB39-0020AF71E433>
 ColorRGBA faceColor;
 FLOAT power;
 ColorRGB specularColor;
 ColorRGB emissiveColor;
 [...]
}

template MeshFace {
 <3D82AB5F-62DA-11cf-AB39-0020AF71E433>
 DWORD nFaceVertexIndices;
 array DWORD faceVertexIndices[nFaceVertexIndices];
}

template MeshFaceWraps {
 <4885AE62-78E8-11cf-8F52-0040333594A3>
 DWORD nFaceWrapValues;
 Boolean2d faceWrapValues;
}

template MeshTextureCoords {
 <F6F23F40-7686-11cf-8F52-0040333594A3>
 DWORD nTextureCoords;
 array Coords2d textureCoords[nTextureCoords];
}

template MeshMaterialList {
 <F6F23F42-7686-11cf-8F52-0040333594A3>
 DWORD nMaterials;
 DWORD nFaceIndexes;
 array DWORD faceIndexes[nFaceIndexes];
 [Material]
}

template MeshNormals {
 <F6F23F43-7686-11cf-8F52-0040333594A3>
 DWORD nNormals;
 array Vector normals[nNormals];
 DWORD nFaceNormals;
 array MeshFace faceNormals[nFaceNormals];
}

template MeshVertexColors {
 <1630B821-7842-11cf-8F52-0040333594A3>
 DWORD nVertexColors;
 array IndexedColor vertexColors[nVertexColors];
}

template Mesh {
 <3D82AB44-62DA-11cf-AB39-0020AF71E433>
 DWORD nVertices;
 array Vector vertices[nVertices];
 DWORD nFaces;
 array MeshFace faces[nFaces];
 [...]
}

Header{
1;
0;
1;
}

Mesh {
 114;
 8.09543;4.60140;0.76630;,
 6.08338;1.65359;5.61942;,
 2.36920;-20.51616;-8.69457;,
 3.81693;-18.39517;-12.18648;,
 0.66047;-0.00894;7.64892;,
 -1.53264;-21.71238;-7.23432;,
 -4.99661;0.58768;5.66596;,
 -5.60300;-21.28307;-8.66111;,
 -7.57403;3.09402;0.83211;,
 -7.45750;-19.47974;-12.13911;,
 -5.56197;6.04184;-4.02101;,
 -6.00979;-17.35873;-15.63102;,
 -0.13907;7.70436;-6.05051;,
 -2.10793;-16.16254;-17.09126;,
 5.51802;7.10771;-4.06754;,
 1.96243;-16.59184;-15.66451;,
 0.26071;3.84771;0.79922;,
 -1.82029;-18.93747;-12.16278;,
 -6.04728;-16.32782;-11.05931;,
 -6.04728;-17.80782;-8.59617;,
 -6.04728;-25.96147;-13.49540;,
 -6.04728;-24.48143;-15.95855;,
 -8.92092;-17.80782;-8.59618;,
 -8.92092;-25.96147;-13.49540;,
 -8.92091;-16.32782;-11.05931;,
 -8.92092;-24.48143;-15.95854;,
 7.81854;-16.32782;-11.05932;,
 7.81853;-17.80782;-8.59618;,
 7.81854;-25.96147;-13.49541;,
 7.81853;-24.48143;-15.95853;,
 4.94489;-17.80782;-8.59618;,
 4.94489;-25.96147;-13.49541;,
 4.94489;-16.32782;-11.05932;,
 4.94489;-24.48143;-15.95854;,
 7.62473;-26.91273;-17.41941;,
 7.62472;-28.39282;-14.95627;,
 -8.75803;-28.39282;-14.95626;,
 -8.75803;-26.91273;-17.41939;,
 7.62473;-25.92962;-13.47621;,
 -8.75802;-25.92962;-13.47621;,
 7.62472;-24.44958;-15.93941;,
 -8.75802;-24.44958;-15.93942;,
 7.70686;-16.44891;-11.13208;,
 7.70686;-17.92893;-8.66892;,
 -8.84015;-17.92893;-8.66891;,
 -8.84016;-16.44891;-11.13209;,
 7.70686;-15.46573;-7.18887;,
 -8.84016;-15.46573;-7.18887;,
 7.70686;-13.98571;-9.65209;,
 -8.84016;-13.98571;-9.65209;,
 -0.57413;-30.25391;-10.75799;,
 -2.80092;-30.36631;-10.57096;,
 -2.80091;-25.68912;-9.87197;,
 -0.57412;-25.74193;-10.08372;,
 -3.72327;-30.63763;-10.11937;,
 -3.72327;-25.56173;-9.36072;,
 -2.80092;-30.90899;-9.66775;,
 -2.80092;-25.43425;-8.84955;,
 -0.57412;-31.02137;-9.48075;,
 -0.57412;-25.38143;-8.63782;,
 1.65266;-30.90899;-9.66775;,
 1.65266;-25.43425;-8.84956;,
 2.57502;-30.63763;-10.11937;,
 2.57502;-25.56175;-9.36074;,
 1.65266;-30.36631;-10.57096;,
 1.65266;-25.68912;-9.87196;,
 -2.80092;-21.88766;-12.68494;,
 -0.57412;-22.07469;-12.79735;,
 -3.72328;-21.43604;-12.41359;,
 -2.80092;-20.98443;-12.14222;,
 -0.57413;-20.79740;-12.02988;,
 1.65266;-20.98443;-12.14222;,
 2.57502;-21.43604;-12.41359;,
 1.65266;-21.88766;-12.68494;,
 -2.80092;-21.18864;-17.36211;,
 -0.57413;-21.40040;-17.30928;,
 -3.72327;-20.67746;-17.48950;,
 -2.80092;-20.16625;-17.61695;,
 -0.57413;-19.95450;-17.66979;,
 1.65266;-20.16625;-17.61696;,
 2.57502;-20.67746;-17.48951;,
 1.65266;-21.18864;-17.36211;,
 -2.80091;-24.00161;-21.16356;,
 -0.57414;-24.11398;-20.97651;,
 -3.72328;-23.73024;-21.61519;,
 -2.80092;-23.45890;-22.06678;,
 -0.57413;-23.34651;-22.25384;,
 1.65266;-23.45890;-22.06678;,
 2.57502;-23.73024;-21.61518;,
 1.65266;-24.00161;-21.16357;,
 -2.80092;-28.67872;-21.86264;,
 -0.57412;-28.62598;-21.65079;,
 -3.72327;-28.80624;-22.37378;,
 -2.80091;-28.93369;-22.88495;,
 -0.57413;-28.98644;-23.09669;,
 1.65266;-28.93370;-22.88494;,
 2.57502;-28.80624;-22.37378;,
 1.65266;-28.67872;-21.86263;,
 -2.80091;-32.48028;-19.04962;,
 -0.57412;-32.29317;-18.93721;,
 -3.72327;-32.93187;-19.32096;,
 -2.80092;-33.38347;-19.59233;,
 -0.57413;-33.57050;-19.70473;,
 1.65266;-33.38347;-19.59232;,
 2.57502;-32.93187;-19.32096;,
 1.65266;-32.48028;-19.04960;,
 -2.80091;-33.17925;-14.37247;,
 -0.57413;-32.96751;-14.42529;,
 -3.72328;-33.69049;-14.24499;,
 -2.80092;-34.20169;-14.11757;,
 -0.57412;-34.41340;-14.06475;,
 1.65266;-34.20167;-14.11756;,
 2.57502;-33.69048;-14.24498;,
 1.65266;-33.17925;-14.37248;;
 
 112;
 4;0,1,2,3;,
 4;1,4,5,2;,
 4;4,6,7,5;,
 4;6,8,9,7;,
 4;8,10,11,9;,
 4;10,12,13,11;,
 4;12,14,15,13;,
 4;14,0,3,15;,
 3;16,1,0;,
 3;16,4,1;,
 3;16,6,4;,
 3;16,8,6;,
 3;16,10,8;,
 3;16,12,10;,
 3;16,14,12;,
 3;16,0,14;,
 3;17,3,2;,
 3;17,2,5;,
 3;17,5,7;,
 3;17,7,9;,
 3;17,9,11;,
 3;17,11,13;,
 3;17,13,15;,
 3;17,15,3;,
 4;18,19,20,21;,
 4;19,22,23,20;,
 4;22,24,25,23;,
 4;24,18,21,25;,
 4;24,22,19,18;,
 4;21,20,23,25;,
 4;26,27,28,29;,
 4;27,30,31,28;,
 4;30,32,33,31;,
 4;32,26,29,33;,
 4;32,30,27,26;,
 4;29,28,31,33;,
 4;34,35,36,37;,
 4;35,38,39,36;,
 4;38,40,41,39;,
 4;40,34,37,41;,
 4;40,38,35,34;,
 4;37,36,39,41;,
 4;42,43,44,45;,
 4;43,46,47,44;,
 4;46,48,49,47;,
 4;48,42,45,49;,
 4;48,46,43,42;,
 4;45,44,47,49;,
 4;50,51,52,53;,
 4;51,54,55,52;,
 4;54,56,57,55;,
 4;56,58,59,57;,
 4;58,60,61,59;,
 4;60,62,63,61;,
 4;62,64,65,63;,
 4;64,50,53,65;,
 4;53,52,66,67;,
 4;52,55,68,66;,
 4;55,57,69,68;,
 4;57,59,70,69;,
 4;59,61,71,70;,
 4;61,63,72,71;,
 4;63,65,73,72;,
 4;65,53,67,73;,
 4;67,66,74,75;,
 4;66,68,76,74;,
 4;68,69,77,76;,
 4;69,70,78,77;,
 4;70,71,79,78;,
 4;71,72,80,79;,
 4;72,73,81,80;,
 4;73,67,75,81;,
 4;75,74,82,83;,
 4;74,76,84,82;,
 4;76,77,85,84;,
 4;77,78,86,85;,
 4;78,79,87,86;,
 4;79,80,88,87;,
 4;80,81,89,88;,
 4;81,75,83,89;,
 4;83,82,90,91;,
 4;82,84,92,90;,
 4;84,85,93,92;,
 4;85,86,94,93;,
 4;86,87,95,94;,
 4;87,88,96,95;,
 4;88,89,97,96;,
 4;89,83,91,97;,
 4;91,90,98,99;,
 4;90,92,100,98;,
 4;92,93,101,100;,
 4;93,94,102,101;,
 4;94,95,103,102;,
 4;95,96,104,103;,
 4;96,97,105,104;,
 4;97,91,99,105;,
 4;99,98,106,107;,
 4;98,100,108,106;,
 4;100,101,109,108;,
 4;101,102,110,109;,
 4;102,103,111,110;,
 4;103,104,112,111;,
 4;104,105,113,112;,
 4;105,99,107,113;,
 4;107,106,51,50;,
 4;106,108,54,51;,
 4;108,109,56,54;,
 4;109,110,58,56;,
 4;110,111,60,58;,
 4;111,112,62,60;,
 4;112,113,64,62;,
 4;113,107,50,64;;
 
 MeshMaterialList {
  4;
  112;
  1,
  1,
  1,
  1,
  1,
  1,
  1,
  1,
  1,
  1,
  1,
  1,
  1,
  1,
  1,
  1,
  1,
  1,
  1,
  1,
  1,
  1,
  1,
  1,
  0,
  0,
  0,
  0,
  0,
  0,
  0,
  0,
  0,
  0,
  0,
  0,
  0,
  0,
  0,
  0,
  0,
  0,
  0,
  0,
  0,
  0,
  0,
  0,
  2,
  2,
  2,
  2,
  2,
  2,
  2,
  2,
  2,
  2,
  2,
  2,
  2,
  2,
  2,
  2,
  2,
  2,
  2,
  2,
  2,
  2,
  2,
  2,
  2,
  2,
  2,
  2,
  2,
  2,
  2,
  2,
  2,
  2,
  2,
  2,
  2,
  2,
  2,
  2,
  2,
  2,
  2,
  2,
  2,
  2,
  2,
  2,
  2,
  2,
  2,
  2,
  2,
  2,
  2,
  2,
  2,
  2,
  2,
  2,
  2,
  2,
  2,
  2;;
  Material {
   0.000000;0.000000;0.000000;1.000000;;
   5.000000;
   0.000000;0.000000;0.000000;;
   0.000000;0.000000;0.000000;;
  }
  Material {
   0.800000;0.800000;0.800000;1.000000;;
   5.000000;
   0.000000;0.000000;0.000000;;
   0.100000;0.100000;0.100000;;
  }
  Material {
   0.228800;0.800000;0.800000;1.000000;;
   5.000000;
   0.000000;0.000000;0.000000;;
   0.286000;1.000000;1.000000;;
  }
  Material {
   0.200200;0.678300;0.700000;0.800000;;
   5.000000;
   0.000000;0.000000;0.000000;;
   0.062920;0.213180;0.220000;;
  }
 }
 MeshNormals {
  130;
  -0.081283;0.866456;0.492592;,
  0.985860;-0.114512;-0.122339;,
  0.738951;-0.448455;0.502832;,
  0.055944;-0.568505;0.820776;,
  -0.669342;-0.394043;0.629850;,
  -0.998692;-0.029249;0.041929;,
  -0.741799;0.309394;-0.594987;,
  -0.046249;0.422541;-0.905163;,
  0.668838;0.243382;-0.702440;,
  0.081281;-0.866456;-0.492592;,
  1.000000;0.000000;-0.000000;,
  -0.000002;-0.515039;0.857167;,
  -1.000000;0.000001;-0.000001;,
  1.000000;-0.000001;0.000001;,
  -0.000000;-0.515040;0.857166;,
  -1.000000;-0.000000;-0.000000;,
  -0.000001;-0.857155;-0.515059;,
  0.000000;-0.515042;0.857165;,
  -0.000000;0.857167;0.515038;,
  -0.000000;-0.857167;-0.515038;,
  0.000000;-0.515039;0.857167;,
  0.000000;0.857172;0.515029;,
  0.000001;0.515039;-0.857167;,
  -0.305271;0.490454;-0.816250;,
  -0.496000;0.447220;-0.744297;,
  -0.305258;-0.490454;0.816255;,
  0.000001;-0.515037;0.857168;,
  0.305257;-0.490454;0.816255;,
  0.495986;-0.447222;0.744305;,
  0.305270;0.490454;-0.816251;,
  0.000001;-0.241927;-0.970294;,
  -0.305271;-0.230377;-0.923979;,
  -0.495999;-0.210068;-0.842530;,
  -0.305260;0.230373;0.923983;,
  0.000001;0.241922;0.970296;,
  0.305263;0.230372;0.923982;,
  0.495995;0.210063;0.842533;,
  0.305268;-0.230378;-0.923979;,
  0.000000;-0.857169;-0.515036;,
  -0.305268;-0.816253;-0.490451;,
  -0.495991;-0.744303;-0.447220;,
  -0.305267;0.816253;0.490453;,
  0.000000;0.857168;0.515037;,
  0.305269;0.816252;0.490452;,
  0.496003;0.744296;0.447218;,
  0.305265;-0.816254;-0.490452;,
  0.000000;-0.970296;0.241922;,
  -0.305264;-0.923981;0.230375;,
  -0.495985;-0.842538;0.210069;,
  -0.305268;0.923980;-0.230373;,
  -0.000000;0.970296;-0.241920;,
  0.305268;0.923980;-0.230373;,
  0.495994;0.842533;-0.210067;,
  0.305264;-0.923981;0.230375;,
  0.000001;-0.515040;0.857166;,
  -0.305265;-0.490456;0.816251;,
  -0.495975;-0.447230;0.744308;,
  -0.305264;0.490453;-0.816253;,
  0.000000;0.515036;-0.857169;,
  0.305265;0.490452;-0.816253;,
  0.495984;0.447223;-0.744306;,
  0.305264;-0.490456;0.816252;,
  -0.000001;0.241921;0.970296;,
  -0.305271;0.230372;0.923980;,
  -0.495977;0.210067;0.842543;,
  -0.305257;-0.230376;-0.923983;,
  0.000000;-0.241923;-0.970296;,
  0.305258;-0.230377;-0.923983;,
  0.495977;-0.210071;-0.842542;,
  0.305271;0.230372;0.923980;,
  -0.000001;0.857168;0.515037;,
  -0.305274;0.816251;0.490451;,
  -0.495989;0.744303;0.447222;,
  -0.305260;-0.816252;-0.490458;,
  0.000001;-0.857165;-0.515041;,
  0.305258;-0.816253;-0.490457;,
  0.495984;-0.744305;-0.447225;,
  0.305275;0.816251;0.490451;,
  -0.000000;0.970297;-0.241919;,
  -0.305272;0.923979;-0.230374;,
  -0.495996;0.842531;-0.210070;,
  -0.305261;-0.923982;0.230376;,
  0.000002;-0.970295;0.241923;,
  0.305259;-0.923982;0.230377;,
  0.495988;-0.842536;0.210070;,
  0.305272;0.923979;-0.230373;,
  -0.081283;0.866456;0.492592;,
  -0.081281;0.866457;0.492591;,
  -0.081285;0.866455;0.492593;,
  -0.081285;0.866455;0.492594;,
  -0.081284;0.866455;0.492594;,
  -0.081283;0.866456;0.492591;,
  -0.081282;0.866457;0.492591;,
  -0.081282;0.866457;0.492591;,
  0.081282;-0.866458;-0.492590;,
  0.081283;-0.866457;-0.492590;,
  0.081284;-0.866456;-0.492591;,
  0.081282;-0.866456;-0.492593;,
  0.081280;-0.866455;-0.492594;,
  0.081280;-0.866456;-0.492593;,
  0.081279;-0.866456;-0.492593;,
  0.081281;-0.866457;-0.492592;,
  -0.000002;0.515041;-0.857165;,
  -0.000000;0.857166;0.515040;,
  -0.000000;-0.857162;-0.515048;,
  -0.000000;0.515040;-0.857166;,
  0.000001;0.857167;0.515039;,
  0.000001;-0.857160;-0.515050;,
  -0.000000;0.515032;-0.857171;,
  1.000000;0.000000;-0.000001;,
  -1.000000;0.000002;0.000001;,
  0.000000;0.515027;-0.857174;,
  1.000000;-0.000000;-0.000000;,
  -1.000000;-0.000001;0.000000;,
  -0.495990;-0.447221;0.744303;,
  -0.495991;0.210065;0.842535;,
  0.495998;0.447220;-0.744299;,
  0.495992;-0.210070;-0.842533;,
  -0.495999;0.744298;0.447219;,
  0.495986;-0.744305;-0.447222;,
  -0.495994;0.842533;-0.210066;,
  0.495983;-0.842539;0.210069;,
  -0.495982;0.447224;-0.744306;,
  0.495972;-0.447229;0.744310;,
  -0.495977;-0.210071;-0.842542;,
  0.495979;0.210066;0.842542;,
  -0.495988;-0.744302;-0.447226;,
  0.495993;0.744302;0.447219;,
  -0.495995;-0.842532;0.210069;,
  0.495996;0.842531;-0.210069;;
  112;
  4;1,2,2,1;,
  4;2,3,3,2;,
  4;3,4,4,3;,
  4;4,5,5,4;,
  4;5,6,6,5;,
  4;6,7,7,6;,
  4;7,8,8,7;,
  4;8,1,1,8;,
  3;0,86,87;,
  3;0,88,86;,
  3;0,89,88;,
  3;0,90,89;,
  3;0,91,90;,
  3;0,92,91;,
  3;0,93,92;,
  3;0,87,93;,
  3;9,94,95;,
  3;9,95,96;,
  3;9,96,97;,
  3;9,97,98;,
  3;9,98,99;,
  3;9,99,100;,
  3;9,100,101;,
  3;9,101,94;,
  4;10,10,10,10;,
  4;11,11,11,11;,
  4;12,12,12,12;,
  4;102,102,102,102;,
  4;103,103,103,103;,
  4;104,104,104,104;,
  4;13,13,13,13;,
  4;14,14,14,14;,
  4;15,15,15,15;,
  4;105,105,105,105;,
  4;106,106,106,106;,
  4;107,107,107,107;,
  4;16,16,16,16;,
  4;17,17,17,17;,
  4;18,18,18,18;,
  4;108,108,108,108;,
  4;109,109,109,109;,
  4;110,110,110,110;,
  4;19,19,19,19;,
  4;20,20,20,20;,
  4;21,21,21,21;,
  4;111,111,111,111;,
  4;112,112,112,112;,
  4;113,113,113,113;,
  4;22,23,31,30;,
  4;23,24,32,31;,
  4;114,25,33,115;,
  4;25,26,34,33;,
  4;26,27,35,34;,
  4;27,28,36,35;,
  4;116,29,37,117;,
  4;29,22,30,37;,
  4;30,31,39,38;,
  4;31,32,40,39;,
  4;115,33,41,118;,
  4;33,34,42,41;,
  4;34,35,43,42;,
  4;35,36,44,43;,
  4;117,37,45,119;,
  4;37,30,38,45;,
  4;38,39,47,46;,
  4;39,40,48,47;,
  4;118,41,49,120;,
  4;41,42,50,49;,
  4;42,43,51,50;,
  4;43,44,52,51;,
  4;119,45,53,121;,
  4;45,38,46,53;,
  4;46,47,55,54;,
  4;47,48,56,55;,
  4;120,49,57,122;,
  4;49,50,58,57;,
  4;50,51,59,58;,
  4;51,52,60,59;,
  4;121,53,61,123;,
  4;53,46,54,61;,
  4;54,55,63,62;,
  4;55,56,64,63;,
  4;122,57,65,124;,
  4;57,58,66,65;,
  4;58,59,67,66;,
  4;59,60,68,67;,
  4;123,61,69,125;,
  4;61,54,62,69;,
  4;62,63,71,70;,
  4;63,64,72,71;,
  4;124,65,73,126;,
  4;65,66,74,73;,
  4;66,67,75,74;,
  4;67,68,76,75;,
  4;125,69,77,127;,
  4;69,62,70,77;,
  4;70,71,79,78;,
  4;71,72,80,79;,
  4;126,73,81,128;,
  4;73,74,82,81;,
  4;74,75,83,82;,
  4;75,76,84,83;,
  4;127,77,85,129;,
  4;77,70,78,85;,
  4;78,79,23,22;,
  4;79,80,24,23;,
  4;128,81,25,114;,
  4;81,82,26,25;,
  4;82,83,27,26;,
  4;83,84,28,27;,
  4;129,85,29,116;,
  4;85,78,22,29;;
 }
}
