xof 0302txt 0064
template Header {
 <3D82AB43-62DA-11cf-AB39-0020AF71E433>
 WORD major;
 WORD minor;
 DWORD flags;
}

template Vector {
 <3D82AB5E-62DA-11cf-AB39-0020AF71E433>
 FLOAT x;
 FLOAT y;
 FLOAT z;
}

template Coords2d {
 <F6F23F44-7686-11cf-8F52-0040333594A3>
 FLOAT u;
 FLOAT v;
}

template Matrix4x4 {
 <F6F23F45-7686-11cf-8F52-0040333594A3>
 array FLOAT matrix[16];
}

template ColorRGBA {
 <35FF44E0-6C7C-11cf-8F52-0040333594A3>
 FLOAT red;
 FLOAT green;
 FLOAT blue;
 FLOAT alpha;
}

template ColorRGB {
 <D3E16E81-7835-11cf-8F52-0040333594A3>
 FLOAT red;
 FLOAT green;
 FLOAT blue;
}

template IndexedColor {
 <1630B820-7842-11cf-8F52-0040333594A3>
 DWORD index;
 ColorRGBA indexColor;
}

template Boolean {
 <4885AE61-78E8-11cf-8F52-0040333594A3>
 WORD truefalse;
}

template Boolean2d {
 <4885AE63-78E8-11cf-8F52-0040333594A3>
 Boolean u;
 Boolean v;
}

template MaterialWrap {
 <4885AE60-78E8-11cf-8F52-0040333594A3>
 Boolean u;
 Boolean v;
}

template TextureFilename {
 <A42790E1-7810-11cf-8F52-0040333594A3>
 STRING filename;
}

template Material {
 <3D82AB4D-62DA-11cf-AB39-0020AF71E433>
 ColorRGBA faceColor;
 FLOAT power;
 ColorRGB specularColor;
 ColorRGB emissiveColor;
 [...]
}

template MeshFace {
 <3D82AB5F-62DA-11cf-AB39-0020AF71E433>
 DWORD nFaceVertexIndices;
 array DWORD faceVertexIndices[nFaceVertexIndices];
}

template MeshFaceWraps {
 <4885AE62-78E8-11cf-8F52-0040333594A3>
 DWORD nFaceWrapValues;
 Boolean2d faceWrapValues;
}

template MeshTextureCoords {
 <F6F23F40-7686-11cf-8F52-0040333594A3>
 DWORD nTextureCoords;
 array Coords2d textureCoords[nTextureCoords];
}

template MeshMaterialList {
 <F6F23F42-7686-11cf-8F52-0040333594A3>
 DWORD nMaterials;
 DWORD nFaceIndexes;
 array DWORD faceIndexes[nFaceIndexes];
 [Material]
}

template MeshNormals {
 <F6F23F43-7686-11cf-8F52-0040333594A3>
 DWORD nNormals;
 array Vector normals[nNormals];
 DWORD nFaceNormals;
 array MeshFace faceNormals[nFaceNormals];
}

template MeshVertexColors {
 <1630B821-7842-11cf-8F52-0040333594A3>
 DWORD nVertexColors;
 array IndexedColor vertexColors[nVertexColors];
}

template Mesh {
 <3D82AB44-62DA-11cf-AB39-0020AF71E433>
 DWORD nVertices;
 array Vector vertices[nVertices];
 DWORD nFaces;
 array MeshFace faces[nFaces];
 [...]
}

Header{
1;
0;
1;
}

Mesh {
 114;
 7.59092;2.19384;0.87141;,
 4.76516;-0.05322;5.69393;,
 3.38295;-21.52338;-8.65060;,
 5.41614;-19.90661;-12.12047;,
 -0.93131;-0.10505;7.65310;,
 -0.71573;-21.56066;-7.24092;,
 -6.16156;2.06869;5.60126;,
 -4.47897;-19.99662;-8.71724;,
 -7.86180;5.19468;0.74038;,
 -5.70232;-17.74746;-12.21473;,
 -5.03605;7.44172;-4.08214;,
 -3.66917;-16.13068;-15.68463;,
 0.66042;7.49351;-6.04132;,
 0.42953;-16.09339;-17.09430;,
 5.89068;5.31979;-3.98947;,
 4.19279;-17.65741;-15.61796;,
 -0.13545;3.69425;0.80590;,
 -0.14310;-18.82702;-12.16762;,
 -7.67120;-16.32782;-11.05932;,
 -7.67120;-17.80782;-8.59619;,
 -7.67120;-25.96147;-13.49541;,
 -7.67120;-24.48143;-15.95856;,
 -10.54483;-17.80782;-8.59618;,
 -10.54483;-25.96147;-13.49540;,
 -10.54483;-16.32782;-11.05932;,
 -10.54483;-24.48143;-15.95854;,
 6.19463;-16.32782;-11.05932;,
 6.19462;-17.80782;-8.59618;,
 6.19462;-25.96147;-13.49540;,
 6.19462;-24.48143;-15.95854;,
 3.32097;-17.80782;-8.59617;,
 3.32098;-25.96147;-13.49540;,
 3.32097;-16.32782;-11.05931;,
 3.32097;-24.48143;-15.95855;,
 6.00082;-26.91273;-17.41940;,
 6.00082;-28.39282;-14.95628;,
 -10.38195;-28.39282;-14.95625;,
 -10.38197;-26.91273;-17.41941;,
 6.00083;-25.92962;-13.47621;,
 -10.38195;-25.92962;-13.47620;,
 6.00083;-24.44958;-15.93941;,
 -10.38195;-24.44958;-15.93941;,
 6.08295;-16.44891;-11.13208;,
 6.08295;-17.92893;-8.66892;,
 -10.46407;-17.92893;-8.66891;,
 -10.46408;-16.44891;-11.13209;,
 6.08295;-15.46573;-7.18887;,
 -10.46408;-15.46573;-7.18887;,
 6.08295;-13.98571;-9.65209;,
 -10.46408;-13.98571;-9.65208;,
 -2.19805;-30.25391;-10.75800;,
 -4.42483;-30.36631;-10.57096;,
 -4.42483;-25.68912;-9.87196;,
 -2.19805;-25.74193;-10.08372;,
 -5.34720;-30.63763;-10.11937;,
 -5.34720;-25.56173;-9.36073;,
 -4.42483;-30.90899;-9.66775;,
 -4.42482;-25.43425;-8.84955;,
 -2.19805;-31.02137;-9.48074;,
 -2.19805;-25.38143;-8.63782;,
 0.02874;-30.90899;-9.66774;,
 0.02874;-25.43425;-8.84955;,
 0.95111;-30.63763;-10.11937;,
 0.95111;-25.56175;-9.36075;,
 0.02874;-30.36631;-10.57096;,
 0.02873;-25.68912;-9.87196;,
 -4.42482;-21.88766;-12.68494;,
 -2.19805;-22.07469;-12.79737;,
 -5.34720;-21.43604;-12.41360;,
 -4.42483;-20.98443;-12.14222;,
 -2.19805;-20.79740;-12.02987;,
 0.02874;-20.98443;-12.14222;,
 0.95111;-21.43604;-12.41359;,
 0.02874;-21.88766;-12.68494;,
 -4.42482;-21.18864;-17.36210;,
 -2.19805;-21.40040;-17.30925;,
 -5.34719;-20.67746;-17.48951;,
 -4.42483;-20.16625;-17.61697;,
 -2.19805;-19.95450;-17.66980;,
 0.02874;-20.16625;-17.61697;,
 0.95111;-20.67746;-17.48951;,
 0.02873;-21.18864;-17.36210;,
 -4.42483;-24.00161;-21.16358;,
 -2.19805;-24.11398;-20.97651;,
 -5.34720;-23.73024;-21.61519;,
 -4.42482;-23.45890;-22.06678;,
 -2.19805;-23.34651;-22.25385;,
 0.02873;-23.45890;-22.06678;,
 0.95111;-23.73024;-21.61519;,
 0.02874;-24.00161;-21.16358;,
 -4.42482;-28.67872;-21.86264;,
 -2.19805;-28.62598;-21.65079;,
 -5.34719;-28.80624;-22.37377;,
 -4.42483;-28.93369;-22.88494;,
 -2.19805;-28.98644;-23.09671;,
 0.02872;-28.93370;-22.88493;,
 0.95111;-28.80624;-22.37376;,
 0.02874;-28.67872;-21.86264;,
 -4.42482;-32.48028;-19.04960;,
 -2.19806;-32.29317;-18.93723;,
 -5.34720;-32.93187;-19.32096;,
 -4.42482;-33.38347;-19.59232;,
 -2.19805;-33.57050;-19.70474;,
 0.02874;-33.38347;-19.59232;,
 0.95110;-32.93187;-19.32096;,
 0.02873;-32.48028;-19.04961;,
 -4.42483;-33.17925;-14.37248;,
 -2.19805;-32.96751;-14.42528;,
 -5.34719;-33.69049;-14.24499;,
 -4.42483;-34.20169;-14.11757;,
 -2.19806;-34.41340;-14.06474;,
 0.02874;-34.20167;-14.11756;,
 0.95111;-33.69048;-14.24498;,
 0.02873;-33.17925;-14.37247;;
 
 112;
 4;0,1,2,3;,
 4;1,4,5,2;,
 4;4,6,7,5;,
 4;6,8,9,7;,
 4;8,10,11,9;,
 4;10,12,13,11;,
 4;12,14,15,13;,
 4;14,0,3,15;,
 3;16,1,0;,
 3;16,4,1;,
 3;16,6,4;,
 3;16,8,6;,
 3;16,10,8;,
 3;16,12,10;,
 3;16,14,12;,
 3;16,0,14;,
 3;17,3,2;,
 3;17,2,5;,
 3;17,5,7;,
 3;17,7,9;,
 3;17,9,11;,
 3;17,11,13;,
 3;17,13,15;,
 3;17,15,3;,
 4;18,19,20,21;,
 4;19,22,23,20;,
 4;22,24,25,23;,
 4;24,18,21,25;,
 4;24,22,19,18;,
 4;21,20,23,25;,
 4;26,27,28,29;,
 4;27,30,31,28;,
 4;30,32,33,31;,
 4;32,26,29,33;,
 4;32,30,27,26;,
 4;29,28,31,33;,
 4;34,35,36,37;,
 4;35,38,39,36;,
 4;38,40,41,39;,
 4;40,34,37,41;,
 4;40,38,35,34;,
 4;37,36,39,41;,
 4;42,43,44,45;,
 4;43,46,47,44;,
 4;46,48,49,47;,
 4;48,42,45,49;,
 4;48,46,43,42;,
 4;45,44,47,49;,
 4;50,51,52,53;,
 4;51,54,55,52;,
 4;54,56,57,55;,
 4;56,58,59,57;,
 4;58,60,61,59;,
 4;60,62,63,61;,
 4;62,64,65,63;,
 4;64,50,53,65;,
 4;53,52,66,67;,
 4;52,55,68,66;,
 4;55,57,69,68;,
 4;57,59,70,69;,
 4;59,61,71,70;,
 4;61,63,72,71;,
 4;63,65,73,72;,
 4;65,53,67,73;,
 4;67,66,74,75;,
 4;66,68,76,74;,
 4;68,69,77,76;,
 4;69,70,78,77;,
 4;70,71,79,78;,
 4;71,72,80,79;,
 4;72,73,81,80;,
 4;73,67,75,81;,
 4;75,74,82,83;,
 4;74,76,84,82;,
 4;76,77,85,84;,
 4;77,78,86,85;,
 4;78,79,87,86;,
 4;79,80,88,87;,
 4;80,81,89,88;,
 4;81,75,83,89;,
 4;83,82,90,91;,
 4;82,84,92,90;,
 4;84,85,93,92;,
 4;85,86,94,93;,
 4;86,87,95,94;,
 4;87,88,96,95;,
 4;88,89,97,96;,
 4;89,83,91,97;,
 4;91,90,98,99;,
 4;90,92,100,98;,
 4;92,93,101,100;,
 4;93,94,102,101;,
 4;94,95,103,102;,
 4;95,96,104,103;,
 4;96,97,105,104;,
 4;97,91,99,105;,
 4;99,98,106,107;,
 4;98,100,108,106;,
 4;100,101,109,108;,
 4;101,102,110,109;,
 4;102,103,111,110;,
 4;103,104,112,111;,
 4;104,105,113,112;,
 4;105,99,107,113;,
 4;107,106,51,50;,
 4;106,108,54,51;,
 4;108,109,56,54;,
 4;109,110,58,56;,
 4;110,111,60,58;,
 4;111,112,62,60;,
 4;112,113,64,62;,
 4;113,107,50,64;;
 
 MeshMaterialList {
  4;
  112;
  1,
  1,
  1,
  1,
  1,
  1,
  1,
  1,
  1,
  1,
  1,
  1,
  1,
  1,
  1,
  1,
  1,
  1,
  1,
  1,
  1,
  1,
  1,
  1,
  0,
  0,
  0,
  0,
  0,
  0,
  0,
  0,
  0,
  0,
  0,
  0,
  0,
  0,
  0,
  0,
  0,
  0,
  0,
  0,
  0,
  0,
  0,
  0,
  2,
  2,
  2,
  2,
  2,
  2,
  2,
  2,
  2,
  2,
  2,
  2,
  2,
  2,
  2,
  2,
  2,
  2,
  2,
  2,
  2,
  2,
  2,
  2,
  2,
  2,
  2,
  2,
  2,
  2,
  2,
  2,
  2,
  2,
  2,
  2,
  2,
  2,
  2,
  2,
  2,
  2,
  2,
  2,
  2,
  2,
  2,
  2,
  2,
  2,
  2,
  2,
  2,
  2,
  2,
  2,
  2,
  2,
  2,
  2,
  2,
  2,
  2,
  2;;
  Material {
   0.000000;0.000000;0.000000;1.000000;;
   5.000000;
   0.000000;0.000000;0.000000;;
   0.000000;0.000000;0.000000;;
  }
  Material {
   0.800000;0.800000;0.800000;1.000000;;
   5.000000;
   0.000000;0.000000;0.000000;;
   0.100000;0.100000;0.100000;;
  }
  Material {
   0.228800;0.800000;0.800000;1.000000;;
   5.000000;
   0.000000;0.000000;0.000000;;
   0.286000;1.000000;1.000000;;
  }
  Material {
   0.200200;0.678300;0.700000;0.800000;;
   5.000000;
   0.000000;0.000000;0.000000;;
   0.062920;0.213180;0.220000;;
  }
 }
 MeshNormals {
  130;
  0.161814;0.854790;0.493103;,
  0.991118;-0.124699;0.046216;,
  0.625123;-0.461034;0.629817;,
  -0.114635;-0.567266;0.815517;,
  -0.780631;-0.381014;0.495423;,
  -0.991590;-0.021245;-0.127664;,
  -0.639289;0.309426;-0.703964;,
  0.091247;0.421825;-0.902074;,
  0.771148;0.241202;-0.589197;,
  -0.161815;-0.854791;-0.493100;,
  1.000000;-0.000000;0.000000;,
  0.000003;-0.515039;0.857167;,
  -1.000000;0.000000;-0.000001;,
  1.000000;-0.000000;0.000000;,
  0.000000;-0.515039;0.857166;,
  -1.000000;-0.000001;0.000001;,
  -0.000000;-0.857155;-0.515059;,
  0.000001;-0.515043;0.857164;,
  0.000000;0.857167;0.515038;,
  -0.000000;-0.857167;-0.515038;,
  0.000000;-0.515039;0.857167;,
  0.000000;0.857172;0.515031;,
  0.000000;0.515039;-0.857167;,
  -0.305269;0.490454;-0.816251;,
  -0.495993;0.447222;-0.744301;,
  -0.305256;-0.490455;0.816256;,
  -0.000000;-0.515037;0.857168;,
  0.305257;-0.490455;0.816255;,
  0.495987;-0.447223;0.744304;,
  0.305266;0.490454;-0.816252;,
  -0.000000;-0.241928;-0.970294;,
  -0.305268;-0.230378;-0.923979;,
  -0.495988;-0.210070;-0.842536;,
  -0.305258;0.230373;0.923983;,
  -0.000001;0.241922;0.970296;,
  0.305263;0.230373;0.923982;,
  0.495997;0.210064;0.842532;,
  0.305264;-0.230379;-0.923980;,
  -0.000000;-0.857169;-0.515035;,
  -0.305264;-0.816254;-0.490452;,
  -0.495981;-0.744308;-0.447223;,
  -0.305265;0.816253;0.490452;,
  -0.000001;0.857168;0.515037;,
  0.305267;0.816253;0.490453;,
  0.496000;0.744298;0.447218;,
  0.305261;-0.816255;-0.490453;,
  -0.000000;-0.970296;0.241921;,
  -0.305262;-0.923982;0.230374;,
  -0.495979;-0.842542;0.210069;,
  -0.305266;0.923981;-0.230374;,
  -0.000000;0.970296;-0.241921;,
  0.305265;0.923981;-0.230374;,
  0.495988;0.842536;-0.210068;,
  0.305261;-0.923982;0.230374;,
  0.000000;-0.515040;0.857166;,
  -0.305263;-0.490456;0.816252;,
  -0.495968;-0.447230;0.744312;,
  -0.305264;0.490452;-0.816254;,
  0.000000;0.515036;-0.857169;,
  0.305262;0.490452;-0.816255;,
  0.495974;0.447224;-0.744312;,
  0.305260;-0.490456;0.816253;,
  0.000001;0.241922;0.970296;,
  -0.305266;0.230373;0.923981;,
  -0.495970;0.210068;0.842547;,
  -0.305259;-0.230375;-0.923983;,
  -0.000000;-0.241922;-0.970296;,
  0.305257;-0.230376;-0.923983;,
  0.495968;-0.210072;-0.842547;,
  0.305262;0.230373;0.923982;,
  0.000000;0.857168;0.515037;,
  -0.305271;0.816252;0.490452;,
  -0.495986;0.744305;0.447222;,
  -0.305258;-0.816252;-0.490458;,
  0.000000;-0.857166;-0.515041;,
  0.305259;-0.816253;-0.490457;,
  0.495981;-0.744306;-0.447226;,
  0.305269;0.816252;0.490452;,
  -0.000000;0.970296;-0.241919;,
  -0.305270;0.923979;-0.230374;,
  -0.495993;0.842533;-0.210069;,
  -0.305259;-0.923983;0.230376;,
  0.000001;-0.970295;0.241923;,
  0.305258;-0.923983;0.230377;,
  0.495984;-0.842538;0.210070;,
  0.305268;0.923980;-0.230374;,
  0.161815;0.854789;0.493105;,
  0.161814;0.854790;0.493103;,
  0.161813;0.854789;0.493104;,
  0.161813;0.854789;0.493105;,
  0.161815;0.854789;0.493105;,
  0.161817;0.854790;0.493101;,
  0.161816;0.854792;0.493099;,
  0.161813;0.854792;0.493100;,
  -0.161816;-0.854789;-0.493103;,
  -0.161818;-0.854791;-0.493100;,
  -0.161817;-0.854792;-0.493099;,
  -0.161815;-0.854792;-0.493099;,
  -0.161815;-0.854791;-0.493100;,
  -0.161816;-0.854791;-0.493100;,
  -0.161813;-0.854792;-0.493100;,
  -0.161813;-0.854790;-0.493102;,
  -0.000002;0.515041;-0.857165;,
  0.000000;0.857166;0.515040;,
  -0.000003;-0.857162;-0.515047;,
  0.000002;0.515041;-0.857165;,
  0.000000;0.857167;0.515039;,
  0.000001;-0.857162;-0.515048;,
  0.000000;0.515034;-0.857170;,
  1.000000;-0.000002;-0.000003;,
  -1.000000;0.000003;0.000005;,
  0.000000;0.515029;-0.857173;,
  1.000000;0.000001;0.000000;,
  -1.000000;-0.000001;0.000001;,
  -0.495984;-0.447223;0.744306;,
  -0.495988;0.210065;0.842537;,
  0.495989;0.447223;-0.744303;,
  0.495982;-0.210071;-0.842539;,
  -0.495995;0.744301;0.447219;,
  0.495978;-0.744309;-0.447225;,
  -0.495989;0.842535;-0.210068;,
  0.495977;-0.842542;0.210069;,
  -0.495977;0.447224;-0.744310;,
  0.495963;-0.447231;0.744316;,
  -0.495970;-0.210072;-0.842546;,
  0.495963;0.210069;0.842551;,
  -0.495981;-0.744305;-0.447228;,
  0.495981;0.744307;0.447224;,
  -0.495988;-0.842536;0.210069;,
  0.495989;0.842535;-0.210071;;
  112;
  4;1,2,2,1;,
  4;2,3,3,2;,
  4;3,4,4,3;,
  4;4,5,5,4;,
  4;5,6,6,5;,
  4;6,7,7,6;,
  4;7,8,8,7;,
  4;8,1,1,8;,
  3;0,86,87;,
  3;0,88,86;,
  3;0,89,88;,
  3;0,90,89;,
  3;0,91,90;,
  3;0,92,91;,
  3;0,93,92;,
  3;0,87,93;,
  3;9,94,95;,
  3;9,95,96;,
  3;9,96,97;,
  3;9,97,98;,
  3;9,98,99;,
  3;9,99,100;,
  3;9,100,101;,
  3;9,101,94;,
  4;10,10,10,10;,
  4;11,11,11,11;,
  4;12,12,12,12;,
  4;102,102,102,102;,
  4;103,103,103,103;,
  4;104,104,104,104;,
  4;13,13,13,13;,
  4;14,14,14,14;,
  4;15,15,15,15;,
  4;105,105,105,105;,
  4;106,106,106,106;,
  4;107,107,107,107;,
  4;16,16,16,16;,
  4;17,17,17,17;,
  4;18,18,18,18;,
  4;108,108,108,108;,
  4;109,109,109,109;,
  4;110,110,110,110;,
  4;19,19,19,19;,
  4;20,20,20,20;,
  4;21,21,21,21;,
  4;111,111,111,111;,
  4;112,112,112,112;,
  4;113,113,113,113;,
  4;22,23,31,30;,
  4;23,24,32,31;,
  4;114,25,33,115;,
  4;25,26,34,33;,
  4;26,27,35,34;,
  4;27,28,36,35;,
  4;116,29,37,117;,
  4;29,22,30,37;,
  4;30,31,39,38;,
  4;31,32,40,39;,
  4;115,33,41,118;,
  4;33,34,42,41;,
  4;34,35,43,42;,
  4;35,36,44,43;,
  4;117,37,45,119;,
  4;37,30,38,45;,
  4;38,39,47,46;,
  4;39,40,48,47;,
  4;118,41,49,120;,
  4;41,42,50,49;,
  4;42,43,51,50;,
  4;43,44,52,51;,
  4;119,45,53,121;,
  4;45,38,46,53;,
  4;46,47,55,54;,
  4;47,48,56,55;,
  4;120,49,57,122;,
  4;49,50,58,57;,
  4;50,51,59,58;,
  4;51,52,60,59;,
  4;121,53,61,123;,
  4;53,46,54,61;,
  4;54,55,63,62;,
  4;55,56,64,63;,
  4;122,57,65,124;,
  4;57,58,66,65;,
  4;58,59,67,66;,
  4;59,60,68,67;,
  4;123,61,69,125;,
  4;61,54,62,69;,
  4;62,63,71,70;,
  4;63,64,72,71;,
  4;124,65,73,126;,
  4;65,66,74,73;,
  4;66,67,75,74;,
  4;67,68,76,75;,
  4;125,69,77,127;,
  4;69,62,70,77;,
  4;70,71,79,78;,
  4;71,72,80,79;,
  4;126,73,81,128;,
  4;73,74,82,81;,
  4;74,75,83,82;,
  4;75,76,84,83;,
  4;127,77,85,129;,
  4;77,70,78,85;,
  4;78,79,23,22;,
  4;79,80,24,23;,
  4;128,81,25,114;,
  4;81,82,26,25;,
  4;82,83,27,26;,
  4;83,84,28,27;,
  4;129,85,29,116;,
  4;85,78,22,29;;
 }
}
