xof 0302txt 0064
template Header {
 <3D82AB43-62DA-11cf-AB39-0020AF71E433>
 WORD major;
 WORD minor;
 DWORD flags;
}

template Vector {
 <3D82AB5E-62DA-11cf-AB39-0020AF71E433>
 FLOAT x;
 FLOAT y;
 FLOAT z;
}

template Coords2d {
 <F6F23F44-7686-11cf-8F52-0040333594A3>
 FLOAT u;
 FLOAT v;
}

template Matrix4x4 {
 <F6F23F45-7686-11cf-8F52-0040333594A3>
 array FLOAT matrix[16];
}

template ColorRGBA {
 <35FF44E0-6C7C-11cf-8F52-0040333594A3>
 FLOAT red;
 FLOAT green;
 FLOAT blue;
 FLOAT alpha;
}

template ColorRGB {
 <D3E16E81-7835-11cf-8F52-0040333594A3>
 FLOAT red;
 FLOAT green;
 FLOAT blue;
}

template IndexedColor {
 <1630B820-7842-11cf-8F52-0040333594A3>
 DWORD index;
 ColorRGBA indexColor;
}

template Boolean {
 <4885AE61-78E8-11cf-8F52-0040333594A3>
 WORD truefalse;
}

template Boolean2d {
 <4885AE63-78E8-11cf-8F52-0040333594A3>
 Boolean u;
 Boolean v;
}

template MaterialWrap {
 <4885AE60-78E8-11cf-8F52-0040333594A3>
 Boolean u;
 Boolean v;
}

template TextureFilename {
 <A42790E1-7810-11cf-8F52-0040333594A3>
 STRING filename;
}

template Material {
 <3D82AB4D-62DA-11cf-AB39-0020AF71E433>
 ColorRGBA faceColor;
 FLOAT power;
 ColorRGB specularColor;
 ColorRGB emissiveColor;
 [...]
}

template MeshFace {
 <3D82AB5F-62DA-11cf-AB39-0020AF71E433>
 DWORD nFaceVertexIndices;
 array DWORD faceVertexIndices[nFaceVertexIndices];
}

template MeshFaceWraps {
 <4885AE62-78E8-11cf-8F52-0040333594A3>
 DWORD nFaceWrapValues;
 Boolean2d faceWrapValues;
}

template MeshTextureCoords {
 <F6F23F40-7686-11cf-8F52-0040333594A3>
 DWORD nTextureCoords;
 array Coords2d textureCoords[nTextureCoords];
}

template MeshMaterialList {
 <F6F23F42-7686-11cf-8F52-0040333594A3>
 DWORD nMaterials;
 DWORD nFaceIndexes;
 array DWORD faceIndexes[nFaceIndexes];
 [Material]
}

template MeshNormals {
 <F6F23F43-7686-11cf-8F52-0040333594A3>
 DWORD nNormals;
 array Vector normals[nNormals];
 DWORD nFaceNormals;
 array MeshFace faceNormals[nFaceNormals];
}

template MeshVertexColors {
 <1630B821-7842-11cf-8F52-0040333594A3>
 DWORD nVertexColors;
 array IndexedColor vertexColors[nVertexColors];
}

template Mesh {
 <3D82AB44-62DA-11cf-AB39-0020AF71E433>
 DWORD nVertices;
 array Vector vertices[nVertices];
 DWORD nFaces;
 array MeshFace faces[nFaces];
 [...]
}

Header{
1;
0;
1;
}

Mesh {
 114;
 7.47880;2.78200;-0.16721;,
 5.37140;4.52213;4.61373;,
 -2.36187;-25.25524;14.86512;,
 -0.48286;-26.80677;10.60225;,
 0.28365;5.24288;6.59414;,
 -6.89820;-24.61257;16.63078;,
 -4.80408;4.52213;4.61373;,
 -11.43453;-25.25524;14.86512;,
 -6.91150;2.78200;-0.16722;,
 -13.31354;-26.80677;10.60225;,
 -4.80408;1.04187;-4.94815;,
 -11.43453;-28.35830;6.33945;,
 0.28365;0.32109;-6.92846;,
 -6.89820;-29.00098;4.57376;,
 5.37138;1.04187;-4.94816;,
 -2.36187;-28.35830;6.33944;,
 0.28365;2.78200;-0.16720;,
 -6.89820;-26.80677;10.60225;,
 -12.60007;-24.03440;8.29011;,
 -12.80266;-23.04822;11.10633;,
 -13.17507;-32.39323;14.35183;,
 -12.97252;-33.37931;11.53580;,
 -15.78427;-23.00872;10.87789;,
 -16.15670;-32.35370;14.12357;,
 -15.58169;-23.99483;8.06181;,
 -15.95411;-33.33979;11.30751;,
 1.78678;-24.22512;9.39180;,
 1.58423;-23.23897;12.20793;,
 1.21178;-32.58392;15.45362;,
 1.41436;-33.57006;12.63742;,
 -1.39740;-23.19944;11.97967;,
 -1.76984;-32.54437;15.22531;,
 -1.19485;-24.18560;9.16348;,
 -1.56728;-33.53055;12.40913;,
 1.10222;-36.35393;13.58995;,
 0.89965;-35.36779;16.40602;,
 -16.09876;-35.14248;15.10426;,
 -15.89619;-36.12862;12.28814;,
 1.01219;-32.54476;15.42549;,
 -15.98623;-32.31937;14.12389;,
 1.21473;-33.53086;12.60938;,
 -15.78366;-33.30552;11.30776;,
 1.66539;-24.36235;9.43111;,
 1.46281;-23.37621;12.24735;,
 -15.70601;-23.14860;10.93251;,
 -15.50345;-24.13474;8.11638;,
 1.57532;-20.55315;11.26680;,
 -15.59349;-20.32556;9.95204;,
 1.77789;-21.53929;8.45063;,
 -15.39092;-21.31168;7.13587;,
 -7.90632;-33.13418;20.02697;,
 -10.23219;-33.02869;20.06391;,
 -9.93355;-29.35749;16.79960;,
 -7.61826;-29.59265;16.87801;,
 -11.22636;-32.83521;20.50685;,
 -10.90227;-28.85096;16.96438;,
 -10.30646;-32.66708;21.09649;,
 -9.95691;-28.36982;17.27561;,
 -8.01139;-32.62283;21.48728;,
 -7.65126;-28.19594;17.55099;,
 -5.68555;-32.72835;21.45037;,
 -5.33599;-28.43108;17.62941;,
 -4.69137;-32.92183;21.00724;,
 -4.36728;-28.93757;17.46481;,
 -5.61125;-33.08991;20.41781;,
 -5.31264;-29.41873;17.15349;,
 -9.55470;-29.07894;11.90052;,
 -7.25280;-29.32394;12.15191;,
 -10.49112;-28.54865;11.64750;,
 -9.51346;-28.04374;11.54097;,
 -7.19444;-27.86000;11.64347;,
 -4.89253;-28.10503;11.89486;,
 -3.95613;-28.63531;12.14787;,
 -4.93377;-29.14017;12.25442;,
 -9.31757;-32.35620;8.23631;,
 -7.02403;-32.48539;8.61715;,
 -10.23376;-32.10532;7.67090;,
 -9.23589;-31.87986;7.25197;,
 -6.90849;-31.81185;7.22495;,
 -4.61495;-31.94111;7.60579;,
 -3.69878;-32.19193;8.17136;,
 -4.69666;-32.41744;8.59015;,
 -9.36105;-37.26937;7.95360;,
 -7.06596;-37.22513;8.34438;,
 -10.28094;-37.43760;7.36397;,
 -9.28678;-37.63101;6.92099;,
 -6.96093;-37.73652;6.88399;,
 -4.66583;-37.69227;7.27482;,
 -3.74597;-37.52416;7.86442;,
 -4.74013;-37.33066;8.30747;,
 -9.65971;-40.94064;11.21775;,
 -7.35407;-40.76668;11.49338;,
 -10.60504;-41.42175;10.90665;,
 -9.63634;-41.92825;10.74201;,
 -7.32103;-42.16346;10.82026;,
 -5.01541;-41.98955;11.09585;,
 -4.07005;-41.50840;11.40709;,
 -5.03876;-41.00186;11.57168;,
 -10.03853;-41.21918;16.11702;,
 -7.71953;-41.03543;16.21948;,
 -11.01619;-41.72405;16.22352;,
 -10.07979;-42.25435;16.47653;,
 -7.77787;-42.49937;16.72784;,
 -5.45886;-42.31558;16.83038;,
 -4.48119;-41.81069;16.72390;,
 -5.41761;-41.28046;16.47083;,
 -10.27568;-37.94196;19.78109;,
 -7.94829;-37.87391;19.75425;,
 -11.27355;-38.16740;20.20013;,
 -10.35737;-38.41824;20.76552;,
 -8.06381;-38.54754;21.14625;,
 -5.73643;-38.47952;21.11931;,
 -4.73855;-38.25400;20.70053;,
 -5.65475;-38.00320;20.13494;;
 
 112;
 4;0,1,2,3;,
 4;1,4,5,2;,
 4;4,6,7,5;,
 4;6,8,9,7;,
 4;8,10,11,9;,
 4;10,12,13,11;,
 4;12,14,15,13;,
 4;14,0,3,15;,
 3;16,1,0;,
 3;16,4,1;,
 3;16,6,4;,
 3;16,8,6;,
 3;16,10,8;,
 3;16,12,10;,
 3;16,14,12;,
 3;16,0,14;,
 3;17,3,2;,
 3;17,2,5;,
 3;17,5,7;,
 3;17,7,9;,
 3;17,9,11;,
 3;17,11,13;,
 3;17,13,15;,
 3;17,15,3;,
 4;18,19,20,21;,
 4;19,22,23,20;,
 4;22,24,25,23;,
 4;24,18,21,25;,
 4;24,22,19,18;,
 4;21,20,23,25;,
 4;26,27,28,29;,
 4;27,30,31,28;,
 4;30,32,33,31;,
 4;32,26,29,33;,
 4;32,30,27,26;,
 4;29,28,31,33;,
 4;34,35,36,37;,
 4;35,38,39,36;,
 4;38,40,41,39;,
 4;40,34,37,41;,
 4;40,38,35,34;,
 4;37,36,39,41;,
 4;42,43,44,45;,
 4;43,46,47,44;,
 4;46,48,49,47;,
 4;48,42,45,49;,
 4;48,46,43,42;,
 4;45,44,47,49;,
 4;50,51,52,53;,
 4;51,54,55,52;,
 4;54,56,57,55;,
 4;56,58,59,57;,
 4;58,60,61,59;,
 4;60,62,63,61;,
 4;62,64,65,63;,
 4;64,50,53,65;,
 4;53,52,66,67;,
 4;52,55,68,66;,
 4;55,57,69,68;,
 4;57,59,70,69;,
 4;59,61,71,70;,
 4;61,63,72,71;,
 4;63,65,73,72;,
 4;65,53,67,73;,
 4;67,66,74,75;,
 4;66,68,76,74;,
 4;68,69,77,76;,
 4;69,70,78,77;,
 4;70,71,79,78;,
 4;71,72,80,79;,
 4;72,73,81,80;,
 4;73,67,75,81;,
 4;75,74,82,83;,
 4;74,76,84,82;,
 4;76,77,85,84;,
 4;77,78,86,85;,
 4;78,79,87,86;,
 4;79,80,88,87;,
 4;80,81,89,88;,
 4;81,75,83,89;,
 4;83,82,90,91;,
 4;82,84,92,90;,
 4;84,85,93,92;,
 4;85,86,94,93;,
 4;86,87,95,94;,
 4;87,88,96,95;,
 4;88,89,97,96;,
 4;89,83,91,97;,
 4;91,90,98,99;,
 4;90,92,100,98;,
 4;92,93,101,100;,
 4;93,94,102,101;,
 4;94,95,103,102;,
 4;95,96,104,103;,
 4;96,97,105,104;,
 4;97,91,99,105;,
 4;99,98,106,107;,
 4;98,100,108,106;,
 4;100,101,109,108;,
 4;101,102,110,109;,
 4;102,103,111,110;,
 4;103,104,112,111;,
 4;104,105,113,112;,
 4;105,99,107,113;,
 4;107,106,51,50;,
 4;106,108,54,51;,
 4;108,109,56,54;,
 4;109,110,58,56;,
 4;110,111,60,58;,
 4;111,112,62,60;,
 4;112,113,64,62;,
 4;113,107,50,64;;
 
 MeshMaterialList {
  4;
  112;
  1,
  1,
  1,
  1,
  1,
  1,
  1,
  1,
  1,
  1,
  1,
  1,
  1,
  1,
  1,
  1,
  1,
  1,
  1,
  1,
  1,
  1,
  1,
  1,
  0,
  0,
  0,
  0,
  0,
  0,
  0,
  0,
  0,
  0,
  0,
  0,
  0,
  0,
  0,
  0,
  0,
  0,
  0,
  0,
  0,
  0,
  0,
  0,
  2,
  2,
  2,
  2,
  2,
  2,
  2,
  2,
  2,
  2,
  2,
  2,
  2,
  2,
  2,
  2,
  2,
  2,
  2,
  2,
  2,
  2,
  2,
  2,
  2,
  2,
  2,
  2,
  2,
  2,
  2,
  2,
  2,
  2,
  2,
  2,
  2,
  2,
  2,
  2,
  2,
  2,
  2,
  2,
  2,
  2,
  2,
  2,
  2,
  2,
  2,
  2,
  2,
  2,
  2,
  2,
  2,
  2,
  2,
  2,
  2,
  2,
  2,
  2;;
  Material {
   0.000000;0.000000;0.000000;1.000000;;
   5.000000;
   0.000000;0.000000;0.000000;;
   0.000000;0.000000;0.000000;;
  }
  Material {
   0.800000;0.800000;0.800000;1.000000;;
   5.000000;
   0.000000;0.000000;0.000000;;
   0.100000;0.100000;0.100000;;
  }
  Material {
   0.228800;0.800000;0.800000;1.000000;;
   5.000000;
   0.000000;0.000000;0.000000;;
   0.286000;1.000000;1.000000;;
  }
  Material {
   0.200200;0.678300;0.700000;0.800000;;
   5.000000;
   0.000000;0.000000;0.000000;;
   0.062920;0.213180;0.220000;;
  }
 }
 MeshNormals {
  130;
  -0.000000;0.939693;-0.342020;,
  0.969489;-0.230352;0.083839;,
  0.692304;0.067540;0.718438;,
  -0.000821;0.318829;0.947812;,
  -0.698440;0.367032;0.614385;,
  -0.979950;0.187226;-0.068146;,
  -0.698438;-0.113759;-0.706571;,
  -0.000821;-0.365006;-0.931005;,
  0.692301;-0.410066;-0.593772;,
  -0.000000;-0.939693;0.342018;,
  0.996994;-0.013219;0.076345;,
  -0.067745;0.329738;0.941639;,
  -0.996994;0.013215;-0.076350;,
  0.996994;-0.013219;0.076344;,
  -0.067722;0.329747;0.941637;,
  -0.996994;0.013220;-0.076341;,
  -0.037620;-0.943978;0.327856;,
  -0.067736;0.329731;0.941642;,
  0.037619;0.943981;-0.327849;,
  -0.037621;-0.943982;0.327846;,
  -0.067740;0.329750;0.941635;,
  0.037620;0.943982;-0.327847;,
  0.067744;-0.329742;-0.941637;,
  -0.239844;-0.309970;-0.919997;,
  -0.435691;-0.279770;-0.855513;,
  -0.368841;0.318037;0.873389;,
  -0.067732;0.329741;0.941639;,
  0.239839;0.309967;0.919999;,
  0.435678;0.279769;0.855520;,
  0.368835;-0.318037;-0.873392;,
  0.021303;-0.900659;-0.434003;,
  -0.284068;-0.853632;-0.436597;,
  -0.476013;-0.775507;-0.414730;,
  -0.324619;0.861702;0.389989;,
  -0.021291;0.900658;0.434006;,
  0.284061;0.853635;0.436596;,
  0.476002;0.775514;0.414730;,
  0.324619;-0.861704;-0.389986;,
  -0.037618;-0.943980;0.327852;,
  -0.340168;-0.894887;0.288900;,
  -0.527164;-0.813128;0.246820;,
  -0.268528;0.902955;-0.335507;,
  0.037623;0.943981;-0.327849;,
  0.340173;0.894887;-0.288895;,
  0.527164;0.813129;-0.246818;,
  0.268520;-0.902957;0.335509;,
  -0.074499;-0.434335;0.897665;,
  -0.375285;-0.409569;0.831513;,
  -0.559176;-0.370593;0.741608;,
  -0.233422;0.417636;-0.878120;,
  0.074495;0.434338;-0.897664;,
  0.375313;0.409570;-0.831500;,
  0.559214;0.370589;-0.741582;,
  0.233400;-0.417638;0.878125;,
  -0.067740;0.329742;0.941638;,
  -0.368853;0.318035;0.873385;,
  -0.553306;0.292880;0.779791;,
  -0.239852;-0.309974;-0.919993;,
  0.067729;-0.329747;-0.941637;,
  0.368874;-0.318040;-0.873374;,
  0.553339;-0.292881;-0.779767;,
  0.239840;0.309969;0.919998;,
  -0.021300;0.900656;0.434011;,
  -0.324628;0.861700;0.389986;,
  -0.512975;0.788630;0.338996;,
  -0.284069;-0.853634;-0.436594;,
  0.021291;-0.900660;-0.434003;,
  0.324632;-0.861703;-0.389978;,
  0.512985;-0.788627;-0.338988;,
  0.284067;0.853632;0.436598;,
  0.037617;0.943978;-0.327857;,
  -0.268525;0.902954;-0.335511;,
  -0.461831;0.826240;-0.322550;,
  -0.340167;-0.894887;0.288900;,
  -0.037618;-0.943979;0.327855;,
  0.268516;-0.902956;0.335513;,
  0.461815;-0.826247;0.322557;,
  0.340168;0.894887;-0.288900;,
  0.074497;0.434334;-0.897666;,
  -0.233413;0.417633;-0.878124;,
  -0.429832;0.383691;-0.817328;,
  -0.375277;-0.409569;0.831517;,
  -0.074493;-0.434338;0.897664;,
  0.233398;-0.417640;0.878124;,
  0.429799;-0.383702;0.817340;,
  0.375279;0.409567;-0.831517;,
  -0.000004;0.939693;-0.342018;,
  -0.000001;0.939692;-0.342022;,
  -0.000000;0.939695;-0.342014;,
  0.000004;0.939694;-0.342018;,
  0.000001;0.939692;-0.342022;,
  0.000000;0.939692;-0.342022;,
  -0.000000;0.939692;-0.342021;,
  -0.000000;0.939692;-0.342021;,
  -0.000000;-0.939694;0.342016;,
  -0.000003;-0.939694;0.342016;,
  -0.000000;-0.939693;0.342019;,
  0.000003;-0.939694;0.342017;,
  0.000000;-0.939694;0.342016;,
  -0.000002;-0.939693;0.342020;,
  0.000000;-0.939692;0.342022;,
  0.000002;-0.939693;0.342020;,
  0.067726;-0.329750;-0.941636;,
  0.037628;0.943980;-0.327852;,
  -0.037613;-0.943982;0.327846;,
  0.067733;-0.329744;-0.941638;,
  0.037616;0.943979;-0.327854;,
  -0.037617;-0.943980;0.327852;,
  0.067739;-0.329738;-0.941639;,
  0.996994;-0.013221;0.076342;,
  -0.996993;0.013227;-0.076348;,
  0.067737;-0.329746;-0.941637;,
  0.996994;-0.013217;0.076344;,
  -0.996994;0.013225;-0.076343;,
  -0.553311;0.292879;0.779787;,
  -0.512993;0.788618;0.338998;,
  0.553287;-0.292883;-0.779803;,
  0.512971;-0.788630;-0.339003;,
  -0.461843;0.826234;-0.322548;,
  0.461827;-0.826242;0.322552;,
  -0.429821;0.383698;-0.817331;,
  0.429797;-0.383703;0.817341;,
  -0.435662;-0.279782;-0.855524;,
  0.435664;0.279772;0.855526;,
  -0.475987;-0.775524;-0.414728;,
  0.475996;0.775518;0.414729;,
  -0.527156;-0.813133;0.246822;,
  0.527160;0.813131;-0.246819;,
  -0.559175;-0.370589;0.741612;,
  0.559178;0.370587;-0.741610;;
  112;
  4;1,2,2,1;,
  4;2,3,3,2;,
  4;3,4,4,3;,
  4;4,5,5,4;,
  4;5,6,6,5;,
  4;6,7,7,6;,
  4;7,8,8,7;,
  4;8,1,1,8;,
  3;0,86,87;,
  3;0,88,86;,
  3;0,89,88;,
  3;0,90,89;,
  3;0,91,90;,
  3;0,92,91;,
  3;0,93,92;,
  3;0,87,93;,
  3;9,94,95;,
  3;9,95,96;,
  3;9,96,97;,
  3;9,97,98;,
  3;9,98,99;,
  3;9,99,100;,
  3;9,100,101;,
  3;9,101,94;,
  4;10,10,10,10;,
  4;11,11,11,11;,
  4;12,12,12,12;,
  4;102,102,102,102;,
  4;103,103,103,103;,
  4;104,104,104,104;,
  4;13,13,13,13;,
  4;14,14,14,14;,
  4;15,15,15,15;,
  4;105,105,105,105;,
  4;106,106,106,106;,
  4;107,107,107,107;,
  4;16,16,16,16;,
  4;17,17,17,17;,
  4;18,18,18,18;,
  4;108,108,108,108;,
  4;109,109,109,109;,
  4;110,110,110,110;,
  4;19,19,19,19;,
  4;20,20,20,20;,
  4;21,21,21,21;,
  4;111,111,111,111;,
  4;112,112,112,112;,
  4;113,113,113,113;,
  4;22,23,31,30;,
  4;23,24,32,31;,
  4;114,25,33,115;,
  4;25,26,34,33;,
  4;26,27,35,34;,
  4;27,28,36,35;,
  4;116,29,37,117;,
  4;29,22,30,37;,
  4;30,31,39,38;,
  4;31,32,40,39;,
  4;115,33,41,118;,
  4;33,34,42,41;,
  4;34,35,43,42;,
  4;35,36,44,43;,
  4;117,37,45,119;,
  4;37,30,38,45;,
  4;38,39,47,46;,
  4;39,40,48,47;,
  4;118,41,49,120;,
  4;41,42,50,49;,
  4;42,43,51,50;,
  4;43,44,52,51;,
  4;119,45,53,121;,
  4;45,38,46,53;,
  4;46,47,55,54;,
  4;47,48,56,55;,
  4;120,49,57,122;,
  4;49,50,58,57;,
  4;50,51,59,58;,
  4;51,52,60,59;,
  4;121,53,61,123;,
  4;53,46,54,61;,
  4;54,55,63,62;,
  4;55,56,64,63;,
  4;122,57,65,124;,
  4;57,58,66,65;,
  4;58,59,67,66;,
  4;59,60,68,67;,
  4;123,61,69,125;,
  4;61,54,62,69;,
  4;62,63,71,70;,
  4;63,64,72,71;,
  4;124,65,73,126;,
  4;65,66,74,73;,
  4;66,67,75,74;,
  4;67,68,76,75;,
  4;125,69,77,127;,
  4;69,62,70,77;,
  4;70,71,79,78;,
  4;71,72,80,79;,
  4;126,73,81,128;,
  4;73,74,82,81;,
  4;74,75,83,82;,
  4;75,76,84,83;,
  4;127,77,85,129;,
  4;77,70,78,85;,
  4;78,79,23,22;,
  4;79,80,24,23;,
  4;128,81,25,114;,
  4;81,82,26,25;,
  4;82,83,27,26;,
  4;83,84,28,27;,
  4;129,85,29,116;,
  4;85,78,22,29;;
 }
}
