xof 0302txt 0064
template Header {
 <3D82AB43-62DA-11cf-AB39-0020AF71E433>
 WORD major;
 WORD minor;
 DWORD flags;
}

template Vector {
 <3D82AB5E-62DA-11cf-AB39-0020AF71E433>
 FLOAT x;
 FLOAT y;
 FLOAT z;
}

template Coords2d {
 <F6F23F44-7686-11cf-8F52-0040333594A3>
 FLOAT u;
 FLOAT v;
}

template Matrix4x4 {
 <F6F23F45-7686-11cf-8F52-0040333594A3>
 array FLOAT matrix[16];
}

template ColorRGBA {
 <35FF44E0-6C7C-11cf-8F52-0040333594A3>
 FLOAT red;
 FLOAT green;
 FLOAT blue;
 FLOAT alpha;
}

template ColorRGB {
 <D3E16E81-7835-11cf-8F52-0040333594A3>
 FLOAT red;
 FLOAT green;
 FLOAT blue;
}

template IndexedColor {
 <1630B820-7842-11cf-8F52-0040333594A3>
 DWORD index;
 ColorRGBA indexColor;
}

template Boolean {
 <4885AE61-78E8-11cf-8F52-0040333594A3>
 WORD truefalse;
}

template Boolean2d {
 <4885AE63-78E8-11cf-8F52-0040333594A3>
 Boolean u;
 Boolean v;
}

template MaterialWrap {
 <4885AE60-78E8-11cf-8F52-0040333594A3>
 Boolean u;
 Boolean v;
}

template TextureFilename {
 <A42790E1-7810-11cf-8F52-0040333594A3>
 STRING filename;
}

template Material {
 <3D82AB4D-62DA-11cf-AB39-0020AF71E433>
 ColorRGBA faceColor;
 FLOAT power;
 ColorRGB specularColor;
 ColorRGB emissiveColor;
 [...]
}

template MeshFace {
 <3D82AB5F-62DA-11cf-AB39-0020AF71E433>
 DWORD nFaceVertexIndices;
 array DWORD faceVertexIndices[nFaceVertexIndices];
}

template MeshFaceWraps {
 <4885AE62-78E8-11cf-8F52-0040333594A3>
 DWORD nFaceWrapValues;
 Boolean2d faceWrapValues;
}

template MeshTextureCoords {
 <F6F23F40-7686-11cf-8F52-0040333594A3>
 DWORD nTextureCoords;
 array Coords2d textureCoords[nTextureCoords];
}

template MeshMaterialList {
 <F6F23F42-7686-11cf-8F52-0040333594A3>
 DWORD nMaterials;
 DWORD nFaceIndexes;
 array DWORD faceIndexes[nFaceIndexes];
 [Material]
}

template MeshNormals {
 <F6F23F43-7686-11cf-8F52-0040333594A3>
 DWORD nNormals;
 array Vector normals[nNormals];
 DWORD nFaceNormals;
 array MeshFace faceNormals[nFaceNormals];
}

template MeshVertexColors {
 <1630B821-7842-11cf-8F52-0040333594A3>
 DWORD nVertexColors;
 array IndexedColor vertexColors[nVertexColors];
}

template Mesh {
 <3D82AB44-62DA-11cf-AB39-0020AF71E433>
 DWORD nVertices;
 array Vector vertices[nVertices];
 DWORD nFaces;
 array MeshFace faces[nFaces];
 [...]
}

Header{
1;
0;
1;
}

Mesh {
 186;
 -0.47320;17.70142;-0.86900;,
 -7.59334;22.40908;6.25112;,
 -0.47320;22.40908;9.20038;,
 -0.47320;17.70142;-0.86900;,
 -10.54258;22.40908;-0.86900;,
 -0.47320;17.70142;-0.86900;,
 -7.59334;22.40908;-7.98912;,
 -0.47320;17.70142;-0.86900;,
 -0.47320;22.40908;-10.93838;,
 -0.47320;17.70142;-0.86900;,
 6.64692;22.40908;-7.98912;,
 -0.47320;17.70142;-0.86900;,
 9.59620;22.40908;-0.86900;,
 -0.47320;17.70142;-0.86900;,
 6.64692;22.40908;6.25112;,
 -0.47320;17.70142;-0.86900;,
 -0.47320;22.40908;9.20038;,
 -0.47320;19.17694;19.28240;,
 -14.72242;19.17694;13.38022;,
 -16.74508;13.74990;15.40288;,
 -0.47320;13.74990;22.14288;,
 -20.62460;19.17694;-0.86900;,
 -23.48510;13.74990;-0.86900;,
 -14.72242;19.17694;-15.11822;,
 -16.74508;13.74990;-17.14088;,
 -0.47320;19.17694;-21.02040;,
 -0.47320;13.74990;-23.88088;,
 13.77598;19.17694;-15.11822;,
 15.79868;13.74990;-17.14088;,
 19.67822;19.17694;-0.86900;,
 22.53868;13.74990;-0.86900;,
 13.77600;19.17694;13.38020;,
 15.79868;13.74990;15.40286;,
 -0.47320;19.17694;19.28240;,
 -0.47320;13.74990;22.14288;,
 -18.08576;4.21806;16.74354;,
 -0.47320;4.21806;24.03890;,
 -25.38112;4.21806;-0.86900;,
 -18.08576;4.21806;-18.48156;,
 -0.47320;4.21806;-25.77692;,
 17.13934;4.21806;-18.48154;,
 24.43470;4.21806;-0.86900;,
 17.13934;4.21806;16.74354;,
 -0.47320;4.21806;24.03890;,
 -16.74508;-5.31376;15.40288;,
 -0.47320;-5.31376;22.14288;,
 -23.48510;-5.31376;-0.86900;,
 -16.74508;-5.31376;-17.14088;,
 -0.47320;-5.31376;-23.88088;,
 15.79868;-5.31376;-17.14088;,
 22.53868;-5.31376;-0.86900;,
 15.79868;-5.31376;15.40286;,
 -0.47320;-5.31376;22.14288;,
 -12.92714;-13.39446;11.58494;,
 -0.47320;-13.39446;16.74354;,
 -18.08576;-13.39446;-0.86900;,
 -12.92716;-13.39446;-13.32294;,
 -0.47320;-13.39446;-18.48154;,
 11.98076;-13.39446;-13.32294;,
 17.13934;-13.39446;-0.86900;,
 11.98076;-13.39446;11.58494;,
 -0.47320;-13.39446;16.74354;,
 -7.21322;-18.79380;5.87102;,
 -0.47320;-18.79380;8.66282;,
 -10.00506;-18.79380;-0.86900;,
 -7.21322;-18.79380;-7.60904;,
 -0.47320;-18.79380;-10.40086;,
 6.26682;-18.79380;-7.60904;,
 9.05864;-18.79380;-0.86900;,
 6.26682;-18.79380;5.87102;,
 -0.47320;-18.79380;8.66282;,
 -0.47320;-20.68980;-0.86900;,
 -0.47320;-20.68980;-0.86900;,
 -0.47320;-20.68980;-0.86900;,
 -0.47320;-20.68980;-0.86900;,
 -0.47320;-20.68980;-0.86900;,
 -0.47320;-20.68980;-0.86900;,
 -0.47320;-20.68980;-0.86900;,
 -0.47320;-20.68980;-0.86900;,
 -11.42432;22.31400;10.08214;,
 -15.96044;22.31400;-0.86900;,
 -0.47320;22.31400;14.61822;,
 -11.42434;22.31400;-11.82014;,
 -0.47320;22.31400;14.61822;,
 10.47794;22.31400;10.08214;,
 -0.47320;22.31400;-16.35622;,
 15.01404;22.31400;-0.86900;,
 10.47792;22.31400;-11.82014;,
 -0.47400;14.62682;-0.87000;,
 -0.47400;14.62682;0.78196;,
 -1.64212;14.62682;0.29812;,
 -0.47400;14.62682;-0.87000;,
 -2.12596;14.62682;-0.87000;,
 -0.47400;14.62682;-0.87000;,
 -1.64212;14.62682;-2.03812;,
 -0.47400;14.62682;-0.87000;,
 -0.47400;14.62682;-2.52196;,
 -0.47400;14.62682;-0.87000;,
 0.69412;14.62682;-2.03812;,
 -0.47400;14.62682;-0.87000;,
 1.17796;14.62682;-0.87000;,
 -0.47400;14.62682;-0.87000;,
 0.69412;14.62682;0.29812;,
 -0.47400;14.62682;-0.87000;,
 -0.47400;14.62682;0.78196;,
 0.19358;27.16646;1.37306;,
 5.59162;34.53864;2.43576;,
 5.28736;34.71806;1.58256;,
 -0.29026;27.16646;0.20494;,
 1.36170;27.16646;1.85690;,
 6.30948;34.07800;2.78960;,
 5.57494;34.51120;0.72978;,
 0.19358;27.16646;-0.96318;,
 1.36170;27.16646;1.85690;,
 2.52980;27.16646;1.37306;,
 7.02048;33.60600;2.43680;,
 6.30948;34.07800;2.78960;,
 6.28592;34.03920;0.37698;,
 1.36170;27.16646;-1.44702;,
 3.01364;27.16646;0.20494;,
 7.30804;33.39914;1.58402;,
 7.00378;33.57856;0.73080;,
 2.52980;27.16646;-0.96318;,
 12.51710;40.57555;4.35858;,
 12.07434;41.13637;4.05706;,
 12.50718;40.55929;3.34550;,
 11.88516;41.35917;3.33872;,
 12.50718;40.55929;3.34550;,
 12.06034;41.11335;2.62434;,
 12.50718;40.55929;3.34550;,
 12.49730;40.54298;2.33240;,
 12.50718;40.55929;3.34550;,
 12.93998;39.98219;2.63392;,
 12.50718;40.55929;3.34550;,
 13.12916;39.75941;3.35228;,
 12.50718;40.55929;3.34550;,
 12.95400;40.00520;4.06666;,
 12.50718;40.55929;3.34550;,
 12.51710;40.57555;4.35858;,
 12.50718;40.55929;3.34550;,
 14.76100;31.38422;6.12492;,
 19.28820;33.82100;12.13552;,
 18.49686;33.11412;13.01814;,
 13.96964;30.67736;7.00750;,
 5.23850;33.55638;1.48496;,
 6.02990;34.26327;0.60234;,
 7.45696;41.06982;7.33304;,
 6.02990;34.26327;0.60234;,
 5.23850;33.55638;1.48496;,
 6.66562;40.36290;8.21568;,
 10.28942;43.55544;14.02162;,
 11.08080;44.26229;13.13900;,
 9.71284;36.32206;7.71162;,
 13.96964;30.67736;7.00750;,
 18.49686;33.11412;13.01814;,
 17.64370;40.03373;17.79492;,
 10.28942;43.55544;14.02162;,
 6.66562;40.36290;8.21568;,
 17.67570;40.06233;17.75922;,
 19.28820;33.82100;12.13552;,
 14.76100;31.38422;6.12492;,
 9.74490;36.35064;7.67588;,
 7.45696;41.06982;7.33304;,
 11.08080;44.26229;13.13900;,
 6.02990;34.26327;0.60234;,
 6.02990;34.26327;0.60234;,
 5.23850;33.55638;1.48496;,
 5.23850;33.55638;1.48496;,
 20.98320;37.87871;19.06320;,
 20.31546;41.61910;21.46012;,
 17.64370;40.03373;17.79492;,
 21.77454;38.58558;18.18056;,
 20.75376;42.01053;20.97140;,
 17.67570;40.06233;17.75922;,
 18.37532;44.32347;19.72820;,
 11.08080;44.26229;13.13900;,
 17.58396;43.61657;20.61080;,
 10.28942;43.55544;14.02162;,
 22.93822;43.07690;22.82090;,
 22.14686;42.37004;23.70348;,
 22.14686;42.37004;23.70348;,
 22.93822;43.07690;22.82090;,
 22.93822;43.07690;22.82090;,
 22.14686;42.37004;23.70348;,
 22.14686;42.37004;23.70348;,
 22.93822;43.07690;22.82090;;
 
 136;
 3;0,1,2;,
 3;3,4,1;,
 3;5,6,4;,
 3;7,8,6;,
 3;9,10,8;,
 3;11,12,10;,
 3;13,14,12;,
 3;15,16,14;,
 4;17,18,19,20;,
 4;18,21,22,19;,
 4;21,23,24,22;,
 4;23,25,26,24;,
 4;25,27,28,26;,
 4;27,29,30,28;,
 4;29,31,32,30;,
 4;31,33,34,32;,
 4;20,19,35,36;,
 4;19,22,37,35;,
 4;22,24,38,37;,
 4;24,26,39,38;,
 4;26,28,40,39;,
 4;28,30,41,40;,
 4;30,32,42,41;,
 4;32,34,43,42;,
 4;36,35,44,45;,
 4;35,37,46,44;,
 4;37,38,47,46;,
 4;38,39,48,47;,
 4;39,40,49,48;,
 4;40,41,50,49;,
 4;41,42,51,50;,
 4;42,43,52,51;,
 4;45,44,53,54;,
 4;44,46,55,53;,
 4;46,47,56,55;,
 4;47,48,57,56;,
 4;48,49,58,57;,
 4;49,50,59,58;,
 4;50,51,60,59;,
 4;51,52,61,60;,
 4;54,53,62,63;,
 4;53,55,64,62;,
 4;55,56,65,64;,
 4;56,57,66,65;,
 4;57,58,67,66;,
 4;58,59,68,67;,
 4;59,60,69,68;,
 4;60,61,70,69;,
 3;63,62,71;,
 3;62,64,72;,
 3;64,65,73;,
 3;65,66,74;,
 3;66,67,75;,
 3;67,68,76;,
 3;68,69,77;,
 3;69,70,78;,
 4;79,1,4,80;,
 4;79,80,21,18;,
 4;79,18,17,81;,
 4;79,81,2,1;,
 4;80,4,6,82;,
 4;80,82,23,21;,
 4;83,33,31,84;,
 4;83,84,14,16;,
 4;82,6,8,85;,
 4;82,85,25,23;,
 4;84,31,29,86;,
 4;84,86,12,14;,
 4;85,8,10,87;,
 4;85,87,27,25;,
 4;86,29,27,87;,
 4;86,87,10,12;,
 3;88,89,90;,
 3;91,90,92;,
 3;93,92,94;,
 3;95,94,96;,
 3;97,96,98;,
 3;99,98,100;,
 3;101,100,102;,
 3;103,102,104;,
 4;105,106,107,108;,
 4;105,108,92,90;,
 4;105,90,89,109;,
 4;105,109,110,106;,
 4;108,107,111,112;,
 4;108,112,94,92;,
 4;113,104,102,114;,
 4;113,114,115,116;,
 4;112,111,117,118;,
 4;112,118,96,94;,
 4;114,102,100,119;,
 4;114,119,120,115;,
 4;118,117,121,122;,
 4;118,122,98,96;,
 4;119,100,98,122;,
 4;119,122,121,120;,
 4;123,124,106,110;,
 3;125,124,123;,
 4;124,126,107,106;,
 3;127,126,124;,
 4;126,128,111,107;,
 3;129,128,126;,
 4;128,130,117,111;,
 3;131,130,128;,
 4;130,132,121,117;,
 3;133,132,130;,
 4;132,134,120,121;,
 3;135,134,132;,
 4;134,136,115,120;,
 3;137,136,134;,
 4;136,138,116,115;,
 3;139,138,136;,
 4;140,141,142,143;,
 4;140,143,144,145;,
 4;146,147,148,149;,
 4;146,149,150,151;,
 4;152,153,154,155;,
 4;152,155,156,157;,
 4;158,159,160,161;,
 4;158,161,162,163;,
 3;164,161,160;,
 3;165,162,161;,
 3;166,152,157;,
 3;167,153,152;,
 4;168,169,170,154;,
 4;171,168,154,159;,
 4;172,171,159,173;,
 4;174,172,173,175;,
 4;176,174,175,177;,
 4;169,176,177,170;,
 4;178,179,168,171;,
 4;180,181,174,176;,
 3;182,172,174;,
 3;183,176,169;,
 3;184,169,168;,
 3;185,171,172;;
 
 MeshMaterialList {
  5;
  136;
  0,
  0,
  0,
  0,
  0,
  0,
  0,
  0,
  0,
  0,
  0,
  0,
  0,
  0,
  0,
  0,
  0,
  0,
  0,
  0,
  0,
  0,
  0,
  0,
  0,
  0,
  0,
  0,
  0,
  0,
  0,
  0,
  0,
  0,
  0,
  0,
  0,
  0,
  0,
  0,
  0,
  0,
  0,
  0,
  0,
  0,
  0,
  0,
  0,
  0,
  0,
  0,
  0,
  0,
  0,
  0,
  0,
  0,
  0,
  0,
  0,
  0,
  0,
  0,
  0,
  0,
  0,
  0,
  0,
  0,
  0,
  0,
  1,
  1,
  1,
  1,
  1,
  1,
  1,
  1,
  1,
  1,
  1,
  1,
  1,
  1,
  1,
  1,
  1,
  1,
  1,
  1,
  1,
  1,
  1,
  1,
  1,
  1,
  1,
  1,
  1,
  1,
  1,
  1,
  1,
  1,
  1,
  1,
  1,
  1,
  1,
  1,
  2,
  2,
  2,
  2,
  2,
  2,
  2,
  2,
  2,
  2,
  2,
  2,
  2,
  2,
  2,
  2,
  2,
  2,
  2,
  2,
  2,
  2,
  2,
  2;;
  Material {
   0.920000;0.075440;0.000000;1.000000;;
   5.000000;
   0.000000;0.000000;0.000000;;
   0.180000;0.014760;0.000000;;
  }
  Material {
   0.585480;0.264040;0.000000;1.000000;;
   5.000000;
   0.000000;0.000000;0.000000;;
   0.000000;0.000000;0.000000;;
  }
  Material {
   0.075350;0.351450;0.135850;1.000000;;
   5.000000;
   0.000000;0.000000;0.000000;;
   0.000000;0.000000;0.000000;;
  }
  Material {
   0.800000;0.737600;0.348000;1.000000;;
   5.000000;
   0.000000;0.000000;0.000000;;
   0.000000;0.000000;0.000000;;
  }
  Material {
   0.000000;0.000000;0.000000;1.000000;;
   5.000000;
   0.000000;0.000000;0.000000;;
   0.000000;0.000000;0.000000;;
  }
 }
 MeshNormals {
  140;
  0.000000;1.000000;0.000000;,
  -0.000000;0.978417;-0.206641;,
  0.146117;0.978417;-0.146117;,
  0.206641;0.978417;0.000000;,
  0.146117;0.978417;0.146117;,
  -0.000000;0.978417;0.206641;,
  -0.146117;0.978417;0.146118;,
  -0.206641;0.978417;-0.000000;,
  -0.146117;0.978417;-0.146118;,
  0.000001;0.671734;0.740793;,
  -0.523819;0.671735;0.523819;,
  -0.740792;0.671734;0.000000;,
  -0.523819;0.671735;-0.523819;,
  0.000000;0.671734;-0.740792;,
  0.523819;0.671735;-0.523819;,
  0.740793;0.671734;-0.000000;,
  0.523819;0.671734;0.523820;,
  0.000000;0.335076;0.942191;,
  -0.666229;0.335076;0.666230;,
  -0.942191;0.335076;0.000000;,
  -0.666229;0.335077;-0.666230;,
  0.000000;0.335076;-0.942191;,
  0.666230;0.335076;-0.666230;,
  0.942191;0.335075;0.000000;,
  0.666230;0.335076;0.666230;,
  0.000000;-0.000000;1.000000;,
  -0.707107;-0.000000;0.707107;,
  -1.000000;-0.000000;0.000000;,
  -0.707107;-0.000000;-0.707107;,
  0.000000;-0.000000;-1.000000;,
  0.707107;-0.000000;-0.707107;,
  1.000000;-0.000000;0.000000;,
  0.707107;-0.000000;0.707107;,
  0.000000;-0.384551;0.923104;,
  -0.652732;-0.384552;0.652733;,
  -0.923104;-0.384552;0.000000;,
  -0.652732;-0.384552;-0.652733;,
  0.000000;-0.384552;-0.923103;,
  0.652733;-0.384551;-0.652733;,
  0.923104;-0.384551;0.000000;,
  0.652733;-0.384551;0.652733;,
  0.000000;-0.709231;0.704976;,
  -0.498493;-0.709231;0.498494;,
  -0.704976;-0.709231;0.000000;,
  -0.498493;-0.709231;-0.498494;,
  0.000000;-0.709231;-0.704976;,
  0.498494;-0.709231;-0.498493;,
  0.704976;-0.709231;0.000000;,
  0.498493;-0.709231;0.498493;,
  -0.000000;-0.924736;0.380610;,
  -0.269132;-0.924735;0.269133;,
  -0.380610;-0.924736;0.000000;,
  -0.269132;-0.924735;-0.269132;,
  0.000000;-0.924735;-0.380610;,
  0.269132;-0.924735;-0.269132;,
  0.380610;-0.924736;0.000000;,
  0.269132;-0.924736;0.269132;,
  0.000000;-1.000000;0.000000;,
  -0.209624;0.955047;0.209624;,
  -0.296454;0.955047;0.000000;,
  0.000000;0.955047;0.296454;,
  -0.209624;0.955047;-0.209624;,
  0.209624;0.955047;0.209625;,
  0.000000;0.955047;-0.296454;,
  0.296454;0.955047;-0.000000;,
  0.209624;0.955047;-0.209625;,
  -0.080192;-0.118202;0.989746;,
  -0.608980;0.382873;0.694659;,
  -0.757853;0.652424;0.001265;,
  -0.468237;0.570873;-0.674432;,
  0.108815;0.178958;-0.977821;,
  0.640015;-0.325671;-0.695931;,
  0.784405;-0.620247;-0.001487;,
  0.494554;-0.536258;0.683992;,
  0.000000;-1.000000;-0.000000;,
  -0.675360;0.202690;0.709088;,
  -0.923416;0.383780;0.003887;,
  -0.020738;-0.098707;0.994900;,
  -0.627886;0.361322;-0.689352;,
  0.638070;-0.335344;0.693117;,
  0.035957;0.144757;-0.988814;,
  0.931520;-0.363665;-0.004323;,
  0.687581;-0.161836;-0.707843;,
  0.789358;0.613681;-0.017578;,
  -0.119689;-0.123711;0.985074;,
  -0.590612;0.407393;0.696569;,
  -0.708852;0.705349;-0.003269;,
  -0.401723;0.595755;-0.695482;,
  0.146690;0.153625;-0.977180;,
  0.619556;-0.370319;-0.692108;,
  0.737186;-0.675679;0.003716;,
  0.427646;-0.572781;0.699315;,
  -0.522398;0.829821;0.196209;,
  0.092063;-0.815859;-0.570876;,
  0.685756;-0.727105;0.032512;,
  0.360034;-0.858632;-0.364866;,
  -0.753557;0.636010;-0.166265;,
  -0.573366;-0.512154;0.639492;,
  -0.573365;-0.512155;0.639492;,
  0.543154;0.485114;-0.685308;,
  0.635052;0.516100;-0.574760;,
  0.611958;0.205259;-0.763790;,
  -0.245436;0.852053;0.462348;,
  0.782374;-0.573956;0.241798;,
  -0.573357;-0.512158;0.639497;,
  -0.573360;-0.512154;0.639497;,
  0.471270;0.451518;-0.757652;,
  0.799876;-0.518867;0.301620;,
  -0.989474;0.144698;0.001784;,
  -0.705737;0.042692;0.707186;,
  -0.001813;-0.085146;0.996367;,
  -0.697072;0.161922;-0.698478;,
  0.697073;-0.161921;0.698477;,
  0.001815;0.085146;-0.996367;,
  0.989474;-0.144696;-0.001784;,
  0.705738;-0.042691;-0.707185;,
  0.789343;0.613701;-0.017559;,
  0.789350;0.613692;-0.017579;,
  0.789355;0.613686;-0.017575;,
  0.789345;0.613698;-0.017593;,
  0.789353;0.613688;-0.017577;,
  0.789374;0.613662;-0.017574;,
  0.789375;0.613659;-0.017580;,
  0.789372;0.613663;-0.017584;,
  -0.805924;0.493040;-0.327717;,
  -0.573365;-0.512155;0.639492;,
  -0.573365;-0.512154;0.639493;,
  -0.573365;-0.512156;0.639491;,
  -0.573367;-0.512153;0.639492;,
  0.384022;0.662835;-0.642789;,
  0.496582;0.674867;-0.545858;,
  0.744826;0.333962;-0.577671;,
  0.670311;0.279078;-0.687603;,
  0.676216;0.530111;-0.511580;,
  -0.573366;-0.512154;0.639491;,
  0.292848;0.661257;-0.690637;,
  -0.573363;-0.512150;0.639498;,
  -0.139226;0.830078;0.539988;,
  0.449326;0.433937;-0.780900;,
  -0.573355;-0.512152;0.639503;;
  136;
  3;0,2,1;,
  3;0,3,2;,
  3;0,4,3;,
  3;0,5,4;,
  3;0,6,5;,
  3;0,7,6;,
  3;0,8,7;,
  3;0,1,8;,
  4;9,10,18,17;,
  4;10,11,19,18;,
  4;11,12,20,19;,
  4;12,13,21,20;,
  4;13,14,22,21;,
  4;14,15,23,22;,
  4;15,16,24,23;,
  4;16,9,17,24;,
  4;17,18,26,25;,
  4;18,19,27,26;,
  4;19,20,28,27;,
  4;20,21,29,28;,
  4;21,22,30,29;,
  4;22,23,31,30;,
  4;23,24,32,31;,
  4;24,17,25,32;,
  4;25,26,34,33;,
  4;26,27,35,34;,
  4;27,28,36,35;,
  4;28,29,37,36;,
  4;29,30,38,37;,
  4;30,31,39,38;,
  4;31,32,40,39;,
  4;32,25,33,40;,
  4;33,34,42,41;,
  4;34,35,43,42;,
  4;35,36,44,43;,
  4;36,37,45,44;,
  4;37,38,46,45;,
  4;38,39,47,46;,
  4;39,40,48,47;,
  4;40,33,41,48;,
  4;41,42,50,49;,
  4;42,43,51,50;,
  4;43,44,52,51;,
  4;44,45,53,52;,
  4;45,46,54,53;,
  4;46,47,55,54;,
  4;47,48,56,55;,
  4;48,41,49,56;,
  3;49,50,57;,
  3;50,51,57;,
  3;51,52,57;,
  3;52,53,57;,
  3;53,54,57;,
  3;54,55,57;,
  3;55,56,57;,
  3;56,49,57;,
  4;58,2,3,59;,
  4;58,59,11,10;,
  4;58,10,9,60;,
  4;58,60,1,2;,
  4;59,3,4,61;,
  4;59,61,12,11;,
  4;60,9,16,62;,
  4;60,62,8,1;,
  4;61,4,5,63;,
  4;61,63,13,12;,
  4;62,16,15,64;,
  4;62,64,7,8;,
  4;63,5,6,65;,
  4;63,65,14,13;,
  4;64,15,14,65;,
  4;64,65,6,7;,
  3;74,74,74;,
  3;74,74,74;,
  3;74,74,74;,
  3;74,74,74;,
  3;74,74,74;,
  3;74,74,74;,
  3;74,74,74;,
  3;74,74,74;,
  4;75,67,68,76;,
  4;75,76,108,109;,
  4;75,109,110,77;,
  4;75,77,66,67;,
  4;76,68,69,78;,
  4;76,78,111,108;,
  4;77,110,112,79;,
  4;77,79,73,66;,
  4;78,69,70,80;,
  4;78,80,113,111;,
  4;79,112,114,81;,
  4;79,81,72,73;,
  4;80,70,71,82;,
  4;80,82,115,113;,
  4;81,114,115,82;,
  4;81,82,71,72;,
  4;84,85,67,66;,
  3;83,116,117;,
  4;85,86,68,67;,
  3;83,118,116;,
  4;86,87,69,68;,
  3;83,119,118;,
  4;87,88,70,69;,
  3;83,120,119;,
  4;88,89,71,70;,
  3;83,121,120;,
  4;89,90,72,71;,
  3;83,122,121;,
  4;90,91,73,72;,
  3;83,123,122;,
  4;91,84,66,73;,
  3;83,117,123;,
  4;95,94,94,95;,
  4;95,95,93,93;,
  4;96,124,124,96;,
  4;96,96,92,92;,
  4;97,125,126,98;,
  4;97,98,127,128;,
  4;99,129,130,100;,
  4;99,100,131,132;,
  3;133,100,130;,
  3;133,131,100;,
  3;134,97,128;,
  3;134,125,97;,
  4;104,105,98,126;,
  4;103,103,94,94;,
  4;106,135,129,99;,
  4;101,106,99,132;,
  4;102,102,92,92;,
  4;105,136,127,98;,
  4;107,107,103,103;,
  4;137,137,102,102;,
  3;138,106,101;,
  3;139,136,105;,
  3;139,105,104;,
  3;138,135,106;;
 }
 MeshTextureCoords {
  186;
  0.062500;0.000000;,
  0.125000;0.125000;,
  0.000000;0.125000;,
  0.187500;0.000000;,
  0.250000;0.125000;,
  0.312500;0.000000;,
  0.375000;0.125000;,
  0.437500;0.000000;,
  0.500000;0.125000;,
  0.562500;0.000000;,
  0.625000;0.125000;,
  0.687500;0.000000;,
  0.750000;0.125000;,
  0.812500;0.000000;,
  0.875000;0.125000;,
  0.937500;0.000000;,
  1.000000;0.125000;,
  0.000000;0.250000;,
  0.125000;0.250000;,
  0.125000;0.375000;,
  0.000000;0.375000;,
  0.250000;0.250000;,
  0.250000;0.375000;,
  0.375000;0.250000;,
  0.375000;0.375000;,
  0.500000;0.250000;,
  0.500000;0.375000;,
  0.625000;0.250000;,
  0.625000;0.375000;,
  0.750000;0.250000;,
  0.750000;0.375000;,
  0.875000;0.250000;,
  0.875000;0.375000;,
  1.000000;0.250000;,
  1.000000;0.375000;,
  0.125000;0.500000;,
  0.000000;0.500000;,
  0.250000;0.500000;,
  0.375000;0.500000;,
  0.500000;0.500000;,
  0.625000;0.500000;,
  0.750000;0.500000;,
  0.875000;0.500000;,
  1.000000;0.500000;,
  0.125000;0.625000;,
  0.000000;0.625000;,
  0.250000;0.625000;,
  0.375000;0.625000;,
  0.500000;0.625000;,
  0.625000;0.625000;,
  0.750000;0.625000;,
  0.875000;0.625000;,
  1.000000;0.625000;,
  0.125000;0.750000;,
  0.000000;0.750000;,
  0.250000;0.750000;,
  0.375000;0.750000;,
  0.500000;0.750000;,
  0.625000;0.750000;,
  0.750000;0.750000;,
  0.875000;0.750000;,
  1.000000;0.750000;,
  0.125000;0.875000;,
  0.000000;0.875000;,
  0.250000;0.875000;,
  0.375000;0.875000;,
  0.500000;0.875000;,
  0.625000;0.875000;,
  0.750000;0.875000;,
  0.875000;0.875000;,
  1.000000;0.875000;,
  0.062500;1.000000;,
  0.187500;1.000000;,
  0.312500;1.000000;,
  0.437500;1.000000;,
  0.562500;1.000000;,
  0.687500;1.000000;,
  0.812500;1.000000;,
  0.937500;1.000000;,
  0.125000;0.181780;,
  0.250000;0.181780;,
  0.000000;0.181780;,
  0.375000;0.181780;,
  1.000000;0.181780;,
  0.875000;0.181780;,
  0.500000;0.181780;,
  0.750000;0.181780;,
  0.625000;0.181780;,
  0.062500;1.000000;,
  0.000000;1.000000;,
  0.125000;1.000000;,
  0.187500;1.000000;,
  0.250000;1.000000;,
  0.312500;1.000000;,
  0.375000;1.000000;,
  0.437500;1.000000;,
  0.500000;1.000000;,
  0.562500;1.000000;,
  0.625000;1.000000;,
  0.687500;1.000000;,
  0.750000;1.000000;,
  0.812500;1.000000;,
  0.875000;1.000000;,
  0.937500;1.000000;,
  1.000000;1.000000;,
  0.125000;0.204940;,
  0.125000;0.000000;,
  0.250000;0.000000;,
  0.250000;0.204940;,
  0.000000;0.204940;,
  0.000000;0.000000;,
  0.375000;0.000000;,
  0.375000;0.204940;,
  1.000000;0.204940;,
  0.875000;0.204940;,
  0.875000;0.000000;,
  1.000000;0.000000;,
  0.500000;0.000000;,
  0.500000;0.204940;,
  0.750000;0.204940;,
  0.750000;0.000000;,
  0.625000;0.000000;,
  0.625000;0.204940;,
  0.000000;0.000000;,
  0.125000;0.000000;,
  0.062500;0.000000;,
  0.250000;0.000000;,
  0.187500;0.000000;,
  0.375000;0.000000;,
  0.312500;0.000000;,
  0.500000;0.000000;,
  0.437500;0.000000;,
  0.625000;0.000000;,
  0.562500;0.000000;,
  0.750000;0.000000;,
  0.687500;0.000000;,
  0.875000;0.000000;,
  0.812500;0.000000;,
  1.000000;0.000000;,
  0.937500;0.000000;,
  0.447540;0.000000;,
  1.000000;0.000000;,
  1.000000;1.000000;,
  0.447540;1.000000;,
  0.000000;1.000000;,
  0.000000;0.000000;,
  0.552460;0.000000;,
  1.000000;0.000000;,
  1.000000;1.000000;,
  0.552460;1.000000;,
  0.000000;1.000000;,
  0.000000;0.000000;,
  0.552460;0.417200;,
  0.552460;1.000000;,
  0.000000;1.000000;,
  0.000000;0.417200;,
  0.000000;0.000000;,
  0.552460;0.000000;,
  0.000000;0.582800;,
  0.000000;0.000000;,
  0.552460;0.000000;,
  0.552460;0.582800;,
  0.552460;1.000000;,
  0.000000;1.000000;,
  1.000000;0.291400;,
  1.000000;0.791400;,
  1.000000;0.208600;,
  1.000000;0.708600;,
  0.000000;1.000000;,
  0.582800;1.000000;,
  0.582800;1.000000;,
  0.000000;0.000000;,
  0.582800;0.000000;,
  0.582800;0.000000;,
  1.000000;0.000000;,
  1.000000;0.000000;,
  1.000000;1.000000;,
  1.000000;1.000000;,
  0.000000;0.000000;,
  0.000000;1.000000;,
  1.000000;1.000000;,
  1.000000;0.000000;,
  0.791400;0.000000;,
  0.791400;1.000000;,
  0.291400;1.000000;,
  0.291400;0.000000;;
 }
}
