xof 0302txt 0064
template Header {
 <3D82AB43-62DA-11cf-AB39-0020AF71E433>
 WORD major;
 WORD minor;
 DWORD flags;
}

template Vector {
 <3D82AB5E-62DA-11cf-AB39-0020AF71E433>
 FLOAT x;
 FLOAT y;
 FLOAT z;
}

template Coords2d {
 <F6F23F44-7686-11cf-8F52-0040333594A3>
 FLOAT u;
 FLOAT v;
}

template Matrix4x4 {
 <F6F23F45-7686-11cf-8F52-0040333594A3>
 array FLOAT matrix[16];
}

template ColorRGBA {
 <35FF44E0-6C7C-11cf-8F52-0040333594A3>
 FLOAT red;
 FLOAT green;
 FLOAT blue;
 FLOAT alpha;
}

template ColorRGB {
 <D3E16E81-7835-11cf-8F52-0040333594A3>
 FLOAT red;
 FLOAT green;
 FLOAT blue;
}

template IndexedColor {
 <1630B820-7842-11cf-8F52-0040333594A3>
 DWORD index;
 ColorRGBA indexColor;
}

template Boolean {
 <4885AE61-78E8-11cf-8F52-0040333594A3>
 WORD truefalse;
}

template Boolean2d {
 <4885AE63-78E8-11cf-8F52-0040333594A3>
 Boolean u;
 Boolean v;
}

template MaterialWrap {
 <4885AE60-78E8-11cf-8F52-0040333594A3>
 Boolean u;
 Boolean v;
}

template TextureFilename {
 <A42790E1-7810-11cf-8F52-0040333594A3>
 STRING filename;
}

template Material {
 <3D82AB4D-62DA-11cf-AB39-0020AF71E433>
 ColorRGBA faceColor;
 FLOAT power;
 ColorRGB specularColor;
 ColorRGB emissiveColor;
 [...]
}

template MeshFace {
 <3D82AB5F-62DA-11cf-AB39-0020AF71E433>
 DWORD nFaceVertexIndices;
 array DWORD faceVertexIndices[nFaceVertexIndices];
}

template MeshFaceWraps {
 <4885AE62-78E8-11cf-8F52-0040333594A3>
 DWORD nFaceWrapValues;
 Boolean2d faceWrapValues;
}

template MeshTextureCoords {
 <F6F23F40-7686-11cf-8F52-0040333594A3>
 DWORD nTextureCoords;
 array Coords2d textureCoords[nTextureCoords];
}

template MeshMaterialList {
 <F6F23F42-7686-11cf-8F52-0040333594A3>
 DWORD nMaterials;
 DWORD nFaceIndexes;
 array DWORD faceIndexes[nFaceIndexes];
 [Material]
}

template MeshNormals {
 <F6F23F43-7686-11cf-8F52-0040333594A3>
 DWORD nNormals;
 array Vector normals[nNormals];
 DWORD nFaceNormals;
 array MeshFace faceNormals[nFaceNormals];
}

template MeshVertexColors {
 <1630B821-7842-11cf-8F52-0040333594A3>
 DWORD nVertexColors;
 array IndexedColor vertexColors[nVertexColors];
}

template Mesh {
 <3D82AB44-62DA-11cf-AB39-0020AF71E433>
 DWORD nVertices;
 array Vector vertices[nVertices];
 DWORD nFaces;
 array MeshFace faces[nFaces];
 [...]
}

Header{
1;
0;
1;
}

Mesh {
 90;
 -0.00529;0.38785;2.91064;,
 -0.00529;-14.66123;2.91064;,
 2.66805;-14.66123;1.80332;,
 2.66805;0.38785;1.80332;,
 3.77537;-14.66123;-0.87000;,
 3.77537;0.38785;-0.87000;,
 2.66805;-14.66123;-3.54332;,
 2.66805;0.38785;-3.54332;,
 -0.00527;-14.66123;-4.65064;,
 -0.00527;0.38785;-4.65064;,
 -2.67859;-14.66123;-3.54332;,
 -2.67859;0.38785;-3.54332;,
 -3.78593;-14.66123;-0.87000;,
 -3.78593;0.38785;-0.87000;,
 -2.67861;-14.66123;1.80332;,
 -2.67861;0.38785;1.80332;,
 -0.00529;-14.66123;2.91064;,
 -0.00529;0.38785;2.91064;,
 -0.00527;0.38785;-0.87000;,
 -0.00527;0.38785;-0.87000;,
 -0.00527;0.38785;-0.87000;,
 -0.00527;0.38785;-0.87000;,
 -0.00527;0.38785;-0.87000;,
 -0.00527;0.38785;-0.87000;,
 -0.00527;0.38785;-0.87000;,
 -0.00527;0.38785;-0.87000;,
 -0.00527;-14.66123;-0.87000;,
 -0.00527;-14.66123;-0.87000;,
 -0.00527;-14.66123;-0.87000;,
 -0.00527;-14.66123;-0.87000;,
 -0.00527;-14.66123;-0.87000;,
 -0.00527;-14.66123;-0.87000;,
 -0.00527;-14.66123;-0.87000;,
 -0.00527;-14.66123;-0.87000;,
 0.07439;-11.27015;3.51568;,
 0.07439;-11.27015;-6.04304;,
 -4.03863;-11.27015;-3.88704;,
 -3.80191;-11.27015;2.21170;,
 3.87335;-11.27015;2.21170;,
 4.11003;-11.27015;-3.88704;,
 0.07439;-18.96979;3.51568;,
 0.07439;-18.96979;-6.04304;,
 4.81507;-18.96979;-6.04304;,
 4.81507;-18.96979;3.51568;,
 -4.74367;-18.96979;3.51568;,
 -4.74367;-18.96979;-6.04304;,
 0.07439;-13.26607;-7.69002;,
 -4.74367;-13.26607;-6.04304;,
 -4.03863;-11.27015;-3.88704;,
 0.07439;-11.27015;-6.04304;,
 4.11003;-11.27015;-3.88704;,
 4.81507;-13.26607;-6.04304;,
 -4.74367;-13.26607;-6.04304;,
 -4.74367;-13.26607;3.51568;,
 -3.80191;-11.27015;2.21170;,
 -4.74367;-18.96979;3.51568;,
 4.81507;-13.26607;-6.04304;,
 4.81507;-13.26607;3.51568;,
 4.81507;-18.96979;3.51568;,
 3.87335;-11.27015;2.21170;,
 -4.74367;-13.26607;3.51568;,
 0.07439;-13.26607;3.51568;,
 0.07439;-11.27015;3.51568;,
 -3.80191;-11.27015;2.21170;,
 -4.74367;-18.96979;3.51568;,
 0.07439;-18.96979;3.51568;,
 4.81507;-13.26607;3.51568;,
 4.81507;-18.96979;3.51568;,
 3.87335;-11.27015;2.21170;,
 0.07437;-16.62129;-20.30908;,
 0.07437;-18.96979;-20.30908;,
 -3.45495;-18.96979;-20.30908;,
 -3.45495;-16.62129;-20.30908;,
 3.52637;-16.62129;-20.30908;,
 3.52637;-18.96979;-20.30908;,
 0.07439;-14.98539;-14.68512;,
 -3.65181;-15.47523;-13.86836;,
 3.72323;-15.47523;-13.86836;,
 -4.74367;-18.96979;-12.08746;,
 4.81507;-18.96979;-12.08746;,
 0.07439;-18.96979;-12.08746;,
 -4.74365;-18.21161;-7.55918;,
 0.07439;-18.21161;-6.53394;,
 0.07439;-18.96979;-6.04304;,
 -4.74367;-18.96979;-6.04304;,
 4.81507;-18.21161;-7.55918;,
 4.81507;-18.96979;-6.04304;,
 -4.74367;-18.21161;-11.68410;,
 0.07439;-18.21161;-11.68410;,
 4.81507;-18.21161;-11.68410;;
 
 60;
 4;0,1,2,3;,
 4;3,2,4,5;,
 4;5,4,6,7;,
 4;7,6,8,9;,
 4;9,8,10,11;,
 4;11,10,12,13;,
 4;13,12,14,15;,
 4;15,14,16,17;,
 3;18,0,3;,
 3;19,3,5;,
 3;20,5,7;,
 3;21,7,9;,
 3;22,9,11;,
 3;23,11,13;,
 3;24,13,15;,
 3;25,15,17;,
 3;26,2,1;,
 3;27,4,2;,
 3;28,6,4;,
 3;29,8,6;,
 3;30,10,8;,
 3;31,12,10;,
 3;32,14,12;,
 3;33,16,14;,
 4;34,35,36,37;,
 4;34,38,39,35;,
 4;40,41,42,43;,
 4;40,44,45,41;,
 4;46,47,48,49;,
 4;46,49,50,51;,
 4;52,53,54,36;,
 4;52,45,55,53;,
 4;56,57,58,42;,
 4;56,39,59,57;,
 4;60,61,62,63;,
 4;60,64,65,61;,
 4;66,61,65,67;,
 4;66,68,62,61;,
 4;69,70,71,72;,
 4;69,73,74,70;,
 4;75,69,72,76;,
 4;75,77,73,69;,
 4;76,72,71,78;,
 4;77,79,74,73;,
 4;78,71,70,80;,
 4;79,80,70,74;,
 4;81,82,83,84;,
 4;82,85,86,83;,
 4;87,88,82,81;,
 4;87,78,80,88;,
 4;87,81,47,76;,
 4;88,89,85,82;,
 4;88,80,79,89;,
 4;76,47,46,75;,
 4;89,77,51,85;,
 4;75,46,51,77;,
 3;47,81,84;,
 3;76,78,87;,
 3;51,86,85;,
 3;77,89,79;;
 
 MeshMaterialList {
  5;
  60;
  3,
  3,
  3,
  3,
  3,
  3,
  3,
  3,
  3,
  3,
  3,
  3,
  3,
  3,
  3,
  3,
  3,
  3,
  3,
  3,
  3,
  3,
  3,
  3,
  1,
  1,
  1,
  1,
  1,
  1,
  1,
  1,
  1,
  1,
  1,
  1,
  1,
  1,
  1,
  1,
  1,
  1,
  1,
  1,
  1,
  1,
  1,
  1,
  1,
  1,
  1,
  1,
  1,
  1,
  1,
  1,
  1,
  1,
  1,
  1;;
  Material {
   0.920000;0.075440;0.000000;1.000000;;
   5.000000;
   0.000000;0.000000;0.000000;;
   0.180000;0.014760;0.000000;;
  }
  Material {
   0.585480;0.264040;0.000000;1.000000;;
   5.000000;
   0.000000;0.000000;0.000000;;
   0.000000;0.000000;0.000000;;
  }
  Material {
   0.075350;0.351450;0.135850;1.000000;;
   5.000000;
   0.000000;0.000000;0.000000;;
   0.000000;0.000000;0.000000;;
  }
  Material {
   0.800000;0.737600;0.348000;1.000000;;
   5.000000;
   0.000000;0.000000;0.000000;;
   0.000000;0.000000;0.000000;;
  }
  Material {
   0.000000;0.000000;0.000000;1.000000;;
   5.000000;
   0.000000;0.000000;0.000000;;
   0.000000;0.000000;0.000000;;
  }
 }
 MeshNormals {
  53;
  0.000000;1.000000;0.000000;,
  -0.000001;0.000000;1.000000;,
  0.707106;0.000000;0.707108;,
  1.000000;0.000000;0.000000;,
  0.707107;0.000000;-0.707107;,
  0.000000;0.000000;-1.000000;,
  -0.707105;0.000000;-0.707109;,
  -1.000000;0.000000;-0.000003;,
  -0.707107;0.000000;0.707107;,
  0.000000;-1.000000;-0.000000;,
  0.156935;0.917631;-0.365136;,
  -0.026747;-0.933770;-0.356873;,
  -0.154506;0.917770;-0.365823;,
  0.026320;-0.933782;-0.356874;,
  0.001218;0.929034;-0.369993;,
  -0.000213;-0.934105;-0.356999;,
  -0.979985;0.198874;0.008879;,
  0.979986;0.198869;0.008877;,
  0.000802;0.147110;0.989120;,
  -0.973031;0.132668;-0.188707;,
  0.973032;0.132666;-0.188705;,
  -0.948078;0.268560;-0.170366;,
  0.001872;0.869897;-0.493230;,
  0.815359;0.523579;-0.247092;,
  -0.110399;0.963343;-0.244505;,
  0.001105;0.969256;-0.246053;,
  0.112596;0.963081;-0.244533;,
  -0.920740;0.389787;0.017402;,
  -1.000000;0.000000;-0.000007;,
  -1.000000;0.000000;0.000000;,
  1.000000;0.000000;0.000000;,
  0.920744;0.389778;0.017399;,
  -0.085412;0.146516;0.985514;,
  0.001597;0.293117;0.956075;,
  -0.168349;0.288788;0.942475;,
  0.000000;-0.000000;1.000000;,
  0.087023;0.146607;0.985360;,
  0.171498;0.288921;0.941867;,
  0.000876;0.973089;-0.230426;,
  -0.083623;0.969689;-0.229586;,
  0.085368;0.969530;-0.229618;,
  -0.979168;0.126321;-0.158976;,
  -0.989385;0.112897;-0.091495;,
  0.979168;0.126320;-0.158974;,
  0.989385;0.112895;-0.091494;,
  0.000000;-0.469680;0.882837;,
  0.000000;-0.469680;0.882837;,
  -0.972248;0.132834;-0.192584;,
  -0.997140;0.056828;-0.049828;,
  0.000000;-0.469680;0.882837;,
  -0.137067;0.956052;-0.259185;,
  0.972249;0.132833;-0.192582;,
  0.997140;0.056828;-0.049821;;
  60;
  4;1,1,2,2;,
  4;2,2,3,3;,
  4;3,3,4,4;,
  4;4,4,5,5;,
  4;5,5,6,6;,
  4;6,6,7,7;,
  4;7,7,8,8;,
  4;8,8,1,1;,
  3;0,0,0;,
  3;0,0,0;,
  3;0,0,0;,
  3;0,0,0;,
  3;0,0,0;,
  3;0,0,0;,
  3;0,0,0;,
  3;0,0,0;,
  3;9,9,9;,
  3;9,9,9;,
  3;9,9,9;,
  3;9,9,9;,
  3;9,9,9;,
  3;9,9,9;,
  3;9,9,9;,
  3;9,9,9;,
  4;0,14,12,0;,
  4;0,0,10,14;,
  4;9,15,11,9;,
  4;9,9,13,15;,
  4;22,21,12,14;,
  4;22,14,10,23;,
  4;21,16,27,27;,
  4;21,28,29,16;,
  4;30,17,30,30;,
  4;23,31,31,17;,
  4;32,18,33,34;,
  4;32,35,35,18;,
  4;36,18,35,35;,
  4;36,37,33,18;,
  4;5,5,5,5;,
  4;5,5,5,5;,
  4;25,38,39,24;,
  4;25,26,40,38;,
  4;41,42,42,19;,
  4;43,20,44,44;,
  4;9,9,9,9;,
  4;9,9,9,9;,
  4;13,15,15,13;,
  4;15,11,11,15;,
  4;9,9,15,13;,
  4;45,45,46,46;,
  4;47,48,21,41;,
  4;9,9,11,15;,
  4;46,46,49,49;,
  4;24,50,22,25;,
  4;51,43,23,52;,
  4;25,22,23,26;,
  3;21,48,28;,
  3;41,19,47;,
  3;23,30,52;,
  3;43,51,20;;
 }
 MeshTextureCoords {
  90;
  0.000000;0.000000;,
  0.000000;1.000000;,
  0.125000;1.000000;,
  0.125000;0.000000;,
  0.250000;1.000000;,
  0.250000;0.000000;,
  0.375000;1.000000;,
  0.375000;0.000000;,
  0.500000;1.000000;,
  0.500000;0.000000;,
  0.625000;1.000000;,
  0.625000;0.000000;,
  0.750000;1.000000;,
  0.750000;0.000000;,
  0.875000;1.000000;,
  0.875000;0.000000;,
  1.000000;1.000000;,
  1.000000;0.000000;,
  0.062500;0.000000;,
  0.187500;0.000000;,
  0.312500;0.000000;,
  0.437500;0.000000;,
  0.562500;0.000000;,
  0.687500;0.000000;,
  0.812500;0.000000;,
  0.937500;0.000000;,
  0.062500;1.000000;,
  0.187500;1.000000;,
  0.312500;1.000000;,
  0.437500;1.000000;,
  0.562500;1.000000;,
  0.687500;1.000000;,
  0.812500;1.000000;,
  0.937500;1.000000;,
  0.504050;1.000000;,
  0.504050;0.000000;,
  0.000000;0.000000;,
  0.000000;1.000000;,
  1.000000;1.000000;,
  1.000000;0.000000;,
  0.504050;0.000000;,
  0.504050;1.000000;,
  1.000000;1.000000;,
  1.000000;0.000000;,
  0.000000;0.000000;,
  0.000000;1.000000;,
  0.495950;0.208810;,
  1.000000;0.208810;,
  1.000000;0.000000;,
  0.495950;0.000000;,
  0.000000;0.000000;,
  0.000000;0.208810;,
  0.000000;0.208810;,
  1.000000;0.208810;,
  1.000000;0.000000;,
  1.000000;1.000000;,
  1.000000;0.208810;,
  0.000000;0.208810;,
  0.000000;1.000000;,
  0.000000;0.000000;,
  0.000000;0.208810;,
  0.504050;0.208810;,
  0.504050;0.000000;,
  0.000000;0.000000;,
  0.000000;1.000000;,
  0.504050;1.000000;,
  1.000000;0.208810;,
  1.000000;1.000000;,
  1.000000;0.000000;,
  0.495950;0.208810;,
  0.495950;1.000000;,
  1.000000;1.000000;,
  1.000000;0.208810;,
  0.000000;0.208810;,
  0.000000;1.000000;,
  0.495950;0.208810;,
  1.000000;0.208810;,
  0.000000;0.208810;,
  1.000000;1.000000;,
  0.000000;1.000000;,
  0.495950;1.000000;,
  1.000000;1.000000;,
  0.495950;1.000000;,
  0.495950;1.000000;,
  1.000000;1.000000;,
  0.000000;1.000000;,
  0.000000;1.000000;,
  1.000000;1.000000;,
  0.495950;1.000000;,
  0.000000;1.000000;;
 }
}
