xof 0302txt 0064
template Header {
 <3D82AB43-62DA-11cf-AB39-0020AF71E433>
 WORD major;
 WORD minor;
 DWORD flags;
}

template Vector {
 <3D82AB5E-62DA-11cf-AB39-0020AF71E433>
 FLOAT x;
 FLOAT y;
 FLOAT z;
}

template Coords2d {
 <F6F23F44-7686-11cf-8F52-0040333594A3>
 FLOAT u;
 FLOAT v;
}

template Matrix4x4 {
 <F6F23F45-7686-11cf-8F52-0040333594A3>
 array FLOAT matrix[16];
}

template ColorRGBA {
 <35FF44E0-6C7C-11cf-8F52-0040333594A3>
 FLOAT red;
 FLOAT green;
 FLOAT blue;
 FLOAT alpha;
}

template ColorRGB {
 <D3E16E81-7835-11cf-8F52-0040333594A3>
 FLOAT red;
 FLOAT green;
 FLOAT blue;
}

template IndexedColor {
 <1630B820-7842-11cf-8F52-0040333594A3>
 DWORD index;
 ColorRGBA indexColor;
}

template Boolean {
 <4885AE61-78E8-11cf-8F52-0040333594A3>
 WORD truefalse;
}

template Boolean2d {
 <4885AE63-78E8-11cf-8F52-0040333594A3>
 Boolean u;
 Boolean v;
}

template MaterialWrap {
 <4885AE60-78E8-11cf-8F52-0040333594A3>
 Boolean u;
 Boolean v;
}

template TextureFilename {
 <A42790E1-7810-11cf-8F52-0040333594A3>
 STRING filename;
}

template Material {
 <3D82AB4D-62DA-11cf-AB39-0020AF71E433>
 ColorRGBA faceColor;
 FLOAT power;
 ColorRGB specularColor;
 ColorRGB emissiveColor;
 [...]
}

template MeshFace {
 <3D82AB5F-62DA-11cf-AB39-0020AF71E433>
 DWORD nFaceVertexIndices;
 array DWORD faceVertexIndices[nFaceVertexIndices];
}

template MeshFaceWraps {
 <4885AE62-78E8-11cf-8F52-0040333594A3>
 DWORD nFaceWrapValues;
 Boolean2d faceWrapValues;
}

template MeshTextureCoords {
 <F6F23F40-7686-11cf-8F52-0040333594A3>
 DWORD nTextureCoords;
 array Coords2d textureCoords[nTextureCoords];
}

template MeshMaterialList {
 <F6F23F42-7686-11cf-8F52-0040333594A3>
 DWORD nMaterials;
 DWORD nFaceIndexes;
 array DWORD faceIndexes[nFaceIndexes];
 [Material]
}

template MeshNormals {
 <F6F23F43-7686-11cf-8F52-0040333594A3>
 DWORD nNormals;
 array Vector normals[nNormals];
 DWORD nFaceNormals;
 array MeshFace faceNormals[nFaceNormals];
}

template MeshVertexColors {
 <1630B821-7842-11cf-8F52-0040333594A3>
 DWORD nVertexColors;
 array IndexedColor vertexColors[nVertexColors];
}

template Mesh {
 <3D82AB44-62DA-11cf-AB39-0020AF71E433>
 DWORD nVertices;
 array Vector vertices[nVertices];
 DWORD nFaces;
 array MeshFace faces[nFaces];
 [...]
}

Header{
1;
0;
1;
}

Mesh {
 147;
 -8.83574;0.25512;2.09092;,
 -8.89054;2.34810;1.22370;,
 -21.77936;2.01060;1.22372;,
 -21.72455;-0.08237;2.09094;,
 -8.91325;3.21506;-0.87000;,
 -21.80209;2.87756;-0.87000;,
 -8.89053;2.34807;-2.96370;,
 -21.77936;2.01060;-2.96370;,
 -8.83574;0.25512;-3.83092;,
 -21.72455;-0.08237;-3.83094;,
 -8.78095;-1.83784;-2.96370;,
 -21.66974;-2.17536;-2.96370;,
 -8.75824;-2.70479;-0.87000;,
 -21.64705;-3.04228;-0.87000;,
 -8.78094;-1.83785;1.22372;,
 -21.66976;-2.17534;1.22370;,
 -8.83574;0.25512;2.09092;,
 -21.72455;-0.08237;2.09094;,
 -8.83574;0.25512;-0.87000;,
 -8.83574;0.25512;-0.87000;,
 -8.83574;0.25512;-0.87000;,
 -8.83574;0.25512;-0.87000;,
 -8.83574;0.25512;-0.87000;,
 -8.83574;0.25512;-0.87000;,
 -8.83574;0.25512;-0.87000;,
 -8.83574;0.25512;-0.87000;,
 -21.72455;-0.08237;-0.87000;,
 -21.72455;-0.08237;-0.87000;,
 -21.72455;-0.08237;-0.87000;,
 -21.72455;-0.08237;-0.87000;,
 -21.72455;-0.08237;-0.87000;,
 -21.72455;-0.08237;-0.87000;,
 -21.72455;-0.08237;-0.87000;,
 -21.72455;-0.08237;-0.87000;,
 1.06027;0.15089;-0.87000;,
 -0.30320;3.51452;1.09194;,
 -0.21424;0.11752;3.05388;,
 1.06027;0.15089;-0.87000;,
 -0.30321;3.51454;-2.83194;,
 1.06027;0.15089;-0.87000;,
 -0.21425;0.11754;-4.79388;,
 1.06027;0.15089;-0.87000;,
 -0.12529;-3.27947;-2.83194;,
 1.06027;0.15089;-0.87000;,
 -0.12529;-3.27947;1.09194;,
 1.06027;0.15089;-0.87000;,
 -0.21424;0.11752;3.05388;,
 -3.69489;5.52661;2.30450;,
 -3.55093;0.03015;5.47896;,
 -3.69489;5.52661;-4.04448;,
 -3.55093;0.03015;-7.21896;,
 -3.40699;-5.46634;-4.04448;,
 -3.40700;-5.46632;2.30448;,
 -3.55093;0.03015;5.47896;,
 -7.81926;5.41867;2.30448;,
 -7.67534;-0.07785;5.47898;,
 -7.81926;5.41864;-4.04450;,
 -7.67534;-0.07785;-7.21896;,
 -7.53139;-5.57433;-4.04448;,
 -7.53139;-5.57433;2.30448;,
 -7.67534;-0.07785;5.47898;,
 -9.25908;3.28002;1.09194;,
 -9.17012;-0.11696;3.05388;,
 -9.25910;3.28004;-2.83194;,
 -9.17012;-0.11698;-4.79388;,
 -9.08117;-3.51399;-2.83194;,
 -9.08117;-3.51399;1.09194;,
 -9.17012;-0.11696;3.05388;,
 -12.28656;-0.19861;-0.87000;,
 -12.28656;-0.19861;-0.87000;,
 -12.28656;-0.19861;-0.87000;,
 -12.28656;-0.19861;-0.87000;,
 -12.28656;-0.19861;-0.87000;,
 -12.28656;-0.19861;-0.87000;,
 -23.25625;-3.24269;2.18040;,
 -23.25625;-3.24267;-4.39534;,
 -19.11917;-3.13432;-4.39534;,
 -19.11917;-3.13432;2.18040;,
 -23.79585;2.84705;3.02828;,
 -19.27887;2.96534;3.02828;,
 -19.27888;2.96535;-5.24320;,
 -23.79587;2.84708;-5.24320;,
 -23.67500;-1.76871;3.02830;,
 -23.25625;-3.24269;2.18040;,
 -19.11917;-3.13432;2.18040;,
 -19.15801;-1.65042;3.02828;,
 -19.27887;2.96534;3.02828;,
 -23.79585;2.84705;3.02828;,
 -28.54654;0.72004;3.02828;,
 -28.59857;2.70699;3.02828;,
 -28.59855;2.70698;-5.24320;,
 -28.54653;0.72002;-5.24320;,
 -19.15801;-1.65042;3.02828;,
 -19.11917;-3.13432;2.18040;,
 -19.15801;-1.65042;-5.24320;,
 -19.27887;2.96534;3.02828;,
 -19.15801;-1.65042;-5.24320;,
 -19.11917;-3.13432;-4.39534;,
 -23.25625;-3.24267;-4.39534;,
 -23.67500;-1.76869;-5.24320;,
 -23.79587;2.84708;-5.24320;,
 -19.27888;2.96535;-5.24320;,
 -24.97239;-0.50374;3.02828;,
 -24.00554;2.84159;3.02828;,
 -24.97239;-0.50374;3.02828;,
 -24.97239;-0.50374;-5.24320;,
 -24.00554;2.84159;3.02828;,
 -24.00553;2.84157;-5.24320;,
 -24.00553;2.84157;-5.24320;,
 -24.97239;-0.50374;-5.24320;,
 -24.97239;-0.50374;3.02828;,
 -24.97239;-0.50374;-5.24320;,
 -25.76755;2.76212;-5.24320;,
 -25.34773;0.17646;-5.24320;,
 -28.54653;0.72002;-5.24320;,
 -28.59855;2.70698;-5.24320;,
 -25.76755;2.76212;-5.24320;,
 -28.59857;2.70699;3.02828;,
 -25.76756;2.76214;3.02828;,
 -25.34773;0.17646;-5.24320;,
 -25.34774;0.17648;3.02828;,
 -28.54654;0.72004;3.02828;,
 -28.54653;0.72002;-5.24320;,
 -25.76756;2.76214;3.02828;,
 -28.59857;2.70699;3.02828;,
 -28.54654;0.72004;3.02828;,
 -25.34774;0.17648;3.02828;,
 -19.85601;-2.09447;-4.66702;,
 -19.92339;0.47929;-4.66702;,
 -26.83298;0.29840;-4.66702;,
 -26.76557;-2.27539;-4.66702;,
 -19.92339;0.47929;-4.66702;,
 -19.92339;0.47929;-6.60460;,
 -26.83298;0.29840;-6.60460;,
 -26.83298;0.29840;-4.66702;,
 -19.92339;0.47929;-6.60460;,
 -19.85601;-2.09445;-6.60460;,
 -26.76555;-2.27543;-6.60460;,
 -26.83298;0.29840;-6.60460;,
 -19.85601;-2.09445;-6.60460;,
 -19.85601;-2.09447;-4.66702;,
 -26.76557;-2.27539;-4.66702;,
 -26.76555;-2.27543;-6.60460;,
 -19.92339;0.47929;-4.66702;,
 -19.85601;-2.09447;-4.66702;,
 -26.76557;-2.27539;-4.66702;,
 -26.83298;0.29840;-4.66702;;
 
 83;
 4;0,1,2,3;,
 4;1,4,5,2;,
 4;4,6,7,5;,
 4;6,8,9,7;,
 4;8,10,11,9;,
 4;10,12,13,11;,
 4;12,14,15,13;,
 4;14,16,17,15;,
 3;18,1,0;,
 3;19,4,1;,
 3;20,6,4;,
 3;21,8,6;,
 3;22,10,8;,
 3;23,12,10;,
 3;24,14,12;,
 3;25,16,14;,
 3;26,3,2;,
 3;27,2,5;,
 3;28,5,7;,
 3;29,7,9;,
 3;30,9,11;,
 3;31,11,13;,
 3;32,13,15;,
 3;33,15,17;,
 3;34,35,36;,
 3;37,38,35;,
 3;39,40,38;,
 3;41,42,40;,
 3;43,44,42;,
 3;45,46,44;,
 4;36,35,47,48;,
 4;35,38,49,47;,
 4;38,40,50,49;,
 4;40,42,51,50;,
 4;42,44,52,51;,
 4;44,46,53,52;,
 4;48,47,54,55;,
 4;47,49,56,54;,
 4;49,50,57,56;,
 4;50,51,58,57;,
 4;51,52,59,58;,
 4;52,53,60,59;,
 4;55,54,61,62;,
 4;54,56,63,61;,
 4;56,57,64,63;,
 4;57,58,65,64;,
 4;58,59,66,65;,
 4;59,60,67,66;,
 3;62,61,68;,
 3;61,63,69;,
 3;63,64,70;,
 3;64,65,71;,
 3;65,66,72;,
 3;66,67,73;,
 4;74,75,76,77;,
 4;78,79,80,81;,
 4;82,83,84,85;,
 4;82,85,86,87;,
 4;88,89,90,91;,
 4;92,93,76,94;,
 4;92,94,80,95;,
 4;96,97,98,99;,
 4;96,99,100,101;,
 4;102,82,87,103;,
 4;104,105,75,74;,
 4;106,78,81,107;,
 4;108,100,99,109;,
 3;110,83,82;,
 3;111,99,98;,
 4;112,108,109,113;,
 4;112,113,114,115;,
 4;116,90,117,118;,
 4;116,118,106,107;,
 4;119,105,104,120;,
 4;119,120,121,122;,
 4;123,124,125,126;,
 4;123,126,102,103;,
 4;127,128,129,130;,
 4;131,132,133,134;,
 4;135,136,137,138;,
 4;139,140,141,142;,
 4;139,132,143,144;,
 4;145,146,133,142;;
 
 MeshMaterialList {
  5;
  83;
  3,
  3,
  3,
  3,
  3,
  3,
  3,
  3,
  3,
  3,
  3,
  3,
  3,
  3,
  3,
  3,
  3,
  3,
  3,
  3,
  3,
  3,
  3,
  3,
  0,
  0,
  0,
  0,
  0,
  0,
  0,
  0,
  0,
  0,
  0,
  0,
  0,
  0,
  0,
  0,
  0,
  0,
  0,
  0,
  0,
  0,
  0,
  0,
  0,
  0,
  0,
  0,
  0,
  0,
  1,
  1,
  1,
  1,
  1,
  1,
  1,
  1,
  1,
  1,
  1,
  1,
  1,
  1,
  1,
  1,
  1,
  1,
  1,
  1,
  1,
  1,
  1,
  1,
  1,
  1,
  1,
  1,
  1;;
  Material {
   0.920000;0.075440;0.000000;1.000000;;
   5.000000;
   0.000000;0.000000;0.000000;;
   0.180000;0.014760;0.000000;;
  }
  Material {
   0.585480;0.264040;0.000000;1.000000;;
   5.000000;
   0.000000;0.000000;0.000000;;
   0.000000;0.000000;0.000000;;
  }
  Material {
   0.075350;0.351450;0.135850;1.000000;;
   5.000000;
   0.000000;0.000000;0.000000;;
   0.000000;0.000000;0.000000;;
  }
  Material {
   0.800000;0.737600;0.348000;1.000000;;
   5.000000;
   0.000000;0.000000;0.000000;;
   0.000000;0.000000;0.000000;;
  }
  Material {
   0.000000;0.000000;0.000000;1.000000;;
   5.000000;
   0.000000;0.000000;0.000000;;
   0.000000;0.000000;0.000000;;
  }
 }
 MeshNormals {
  90;
  0.999657;0.026175;0.000000;,
  0.000001;-0.000001;1.000000;,
  -0.018508;0.706860;0.707111;,
  -0.026176;0.999657;-0.000004;,
  -0.018508;0.706860;-0.707112;,
  0.000001;0.000001;-1.000000;,
  0.018510;-0.706864;-0.707107;,
  0.026176;-0.999657;-0.000000;,
  0.018509;-0.706863;0.707108;,
  -0.999657;-0.026179;-0.000001;,
  0.999657;0.026178;-0.000001;,
  0.816585;0.021383;0.576828;,
  0.803507;0.520763;0.288413;,
  0.803506;0.520764;-0.288415;,
  0.816585;0.021386;-0.576829;,
  0.829662;-0.477993;-0.288414;,
  0.829662;-0.477994;0.288414;,
  0.315880;0.008271;0.948763;,
  0.294372;0.829643;0.474380;,
  0.294372;0.829643;-0.474381;,
  0.315879;0.008273;-0.948763;,
  0.337388;-0.813100;-0.474381;,
  0.337388;-0.813100;0.474382;,
  -0.648784;0.180666;0.739215;,
  -0.657781;0.524349;0.540724;,
  -0.662951;0.721870;-0.198494;,
  -0.648783;0.180664;-0.739217;,
  -0.629440;-0.558055;-0.540722;,
  -0.624267;-0.755574;0.198492;,
  -0.818533;-0.021434;0.574060;,
  -0.831546;0.475547;0.287032;,
  -0.831547;0.475545;-0.287029;,
  -0.818532;-0.021437;-0.574061;,
  -0.805517;-0.518417;-0.287030;,
  -0.805517;-0.518417;0.287031;,
  -0.866463;0.499241;0.000002;,
  0.026182;-0.999657;-0.000001;,
  -0.999657;-0.026173;-0.000001;,
  -0.026177;0.999657;0.000003;,
  -0.525699;-0.809189;0.262399;,
  -0.026160;0.999658;0.000002;,
  -0.525692;-0.809190;-0.262412;,
  -0.136072;-0.276485;0.951336;,
  0.006720;-0.256492;0.966523;,
  0.999658;0.026170;-0.000000;,
  -0.136064;-0.276479;-0.951339;,
  -0.187306;-0.192100;0.963335;,
  -0.000003;0.000002;1.000000;,
  -0.799416;-0.551392;-0.238540;,
  -0.035596;0.999366;-0.000001;,
  0.000000;0.000000;-1.000000;,
  -0.032263;0.999479;-0.000002;,
  -0.578952;-0.815361;0.000002;,
  0.000000;0.000000;1.000000;,
  -0.026171;0.999658;0.000000;,
  0.999657;0.026177;-0.000001;,
  0.999657;0.026175;0.000000;,
  0.999657;0.026178;0.000003;,
  0.999657;0.026175;0.000003;,
  0.999658;0.026171;0.000000;,
  0.999658;0.026172;-0.000003;,
  0.999657;0.026175;-0.000002;,
  0.999657;0.026175;0.000000;,
  -0.999657;-0.026176;0.000000;,
  -0.999657;-0.026185;0.000004;,
  -0.999657;-0.026189;-0.000000;,
  -0.999657;-0.026185;-0.000004;,
  -0.999657;-0.026178;0.000000;,
  -0.999658;-0.026174;-0.000002;,
  -0.999658;-0.026172;-0.000003;,
  -0.999658;-0.026171;-0.000001;,
  -0.026165;0.999658;-0.000002;,
  -0.013084;0.499828;-0.866026;,
  0.013088;-0.499828;-0.866026;,
  0.026177;-0.999657;0.000002;,
  0.013091;-0.499830;0.866025;,
  -0.839143;-0.543910;0.000000;,
  0.012987;-0.495813;0.868332;,
  0.000002;0.000002;1.000000;,
  -0.000002;0.000003;1.000000;,
  0.999658;0.026163;0.000000;,
  0.999657;0.026177;-0.000000;,
  0.006716;-0.256486;-0.966525;,
  0.012983;-0.495800;-0.868340;,
  -0.861805;-0.507240;-0.000000;,
  -0.019474;0.999810;-0.000002;,
  -0.167526;-0.985868;0.000003;,
  0.026180;-0.999657;0.000005;,
  0.999658;0.026171;0.000002;,
  -0.999657;-0.026185;-0.000006;;
  83;
  4;1,2,2,1;,
  4;2,3,3,2;,
  4;3,4,4,3;,
  4;4,5,5,4;,
  4;5,6,6,5;,
  4;6,7,7,6;,
  4;7,8,8,7;,
  4;8,1,1,8;,
  3;0,55,56;,
  3;0,57,55;,
  3;0,58,57;,
  3;0,59,58;,
  3;0,60,59;,
  3;0,61,60;,
  3;0,62,61;,
  3;0,56,62;,
  3;9,63,64;,
  3;9,64,65;,
  3;9,65,66;,
  3;9,66,67;,
  3;9,67,68;,
  3;9,68,69;,
  3;9,69,70;,
  3;9,70,63;,
  3;10,12,11;,
  3;10,13,12;,
  3;10,14,13;,
  3;10,15,14;,
  3;10,16,15;,
  3;10,11,16;,
  4;11,12,18,17;,
  4;12,13,19,18;,
  4;13,14,20,19;,
  4;14,15,21,20;,
  4;15,16,22,21;,
  4;16,11,17,22;,
  4;17,18,24,23;,
  4;18,19,25,71;,
  4;19,20,26,72;,
  4;20,21,27,73;,
  4;21,22,28,74;,
  4;22,17,75,75;,
  4;23,24,30,29;,
  4;24,25,31,30;,
  4;25,26,32,31;,
  4;26,27,33,32;,
  4;27,28,34,33;,
  4;28,23,29,34;,
  3;29,30,35;,
  3;30,31,35;,
  3;31,32,35;,
  3;32,33,76;,
  3;33,34,76;,
  3;34,29,76;,
  4;39,41,36,36;,
  4;40,38,38,40;,
  4;42,77,77,43;,
  4;42,43,78,79;,
  4;37,37,37,37;,
  4;44,80,80,44;,
  4;44,44,81,81;,
  4;82,83,83,45;,
  4;82,45,50,50;,
  4;46,42,79,47;,
  4;84,48,41,39;,
  4;49,40,40,49;,
  4;50,50,45,50;,
  3;46,39,42;,
  3;48,45,41;,
  4;50,50,50,50;,
  4;50,50,50,50;,
  4;51,85,85,51;,
  4;51,51,49,49;,
  4;52,48,84,52;,
  4;52,52,86,86;,
  4;53,53,53,53;,
  4;53,53,46,47;,
  4;53,53,53,53;,
  4;54,54,54,54;,
  4;50,50,50,50;,
  4;87,87,87,87;,
  4;88,88,88,88;,
  4;89,89,89,89;;
 }
 MeshTextureCoords {
  147;
  0.000000;0.000000;,
  0.125000;0.000000;,
  0.125000;1.000000;,
  0.000000;1.000000;,
  0.250000;0.000000;,
  0.250000;1.000000;,
  0.375000;0.000000;,
  0.375000;1.000000;,
  0.500000;0.000000;,
  0.500000;1.000000;,
  0.625000;0.000000;,
  0.625000;1.000000;,
  0.750000;0.000000;,
  0.750000;1.000000;,
  0.875000;0.000000;,
  0.875000;1.000000;,
  1.000000;0.000000;,
  1.000000;1.000000;,
  0.062500;0.000000;,
  0.187500;0.000000;,
  0.312500;0.000000;,
  0.437500;0.000000;,
  0.562500;0.000000;,
  0.687500;0.000000;,
  0.812500;0.000000;,
  0.937500;0.000000;,
  0.062500;1.000000;,
  0.187500;1.000000;,
  0.312500;1.000000;,
  0.437500;1.000000;,
  0.562500;1.000000;,
  0.687500;1.000000;,
  0.812500;1.000000;,
  0.937500;1.000000;,
  0.083330;0.000000;,
  0.166670;0.200000;,
  0.000000;0.200000;,
  0.250000;0.000000;,
  0.333330;0.200000;,
  0.416670;0.000000;,
  0.500000;0.200000;,
  0.583330;0.000000;,
  0.666670;0.200000;,
  0.750000;0.000000;,
  0.833330;0.200000;,
  0.916670;0.000000;,
  1.000000;0.200000;,
  0.166670;0.400000;,
  0.000000;0.400000;,
  0.333330;0.400000;,
  0.500000;0.400000;,
  0.666670;0.400000;,
  0.833330;0.400000;,
  1.000000;0.400000;,
  0.166670;0.600000;,
  0.000000;0.600000;,
  0.333330;0.600000;,
  0.500000;0.600000;,
  0.666670;0.600000;,
  0.833330;0.600000;,
  1.000000;0.600000;,
  0.166670;0.800000;,
  0.000000;0.800000;,
  0.333330;0.800000;,
  0.500000;0.800000;,
  0.666670;0.800000;,
  0.833330;0.800000;,
  1.000000;0.800000;,
  0.083330;1.000000;,
  0.250000;1.000000;,
  0.416670;1.000000;,
  0.583330;1.000000;,
  0.750000;1.000000;,
  0.916670;1.000000;,
  1.000000;0.484650;,
  0.000000;0.484650;,
  0.000000;0.000000;,
  1.000000;0.000000;,
  0.000000;0.484650;,
  0.000000;0.000000;,
  1.000000;0.000000;,
  1.000000;0.484650;,
  0.243280;0.484650;,
  0.000000;0.484650;,
  0.000000;0.000000;,
  0.243280;0.000000;,
  1.000000;0.000000;,
  1.000000;0.484650;,
  0.243280;0.000000;,
  1.000000;0.000000;,
  1.000000;1.000000;,
  0.243280;1.000000;,
  0.243280;1.000000;,
  0.000000;1.000000;,
  0.243280;0.000000;,
  1.000000;1.000000;,
  0.756720;0.000000;,
  1.000000;0.000000;,
  1.000000;0.484650;,
  0.756720;0.484650;,
  0.000000;0.484650;,
  0.000000;0.000000;,
  0.243280;0.507150;,
  1.000000;0.507150;,
  1.000000;0.507150;,
  0.000000;0.507150;,
  0.000000;0.507150;,
  1.000000;0.507150;,
  0.000000;0.507150;,
  0.756720;0.507150;,
  0.121640;0.507150;,
  0.878360;0.507150;,
  0.000000;0.696300;,
  0.756720;0.696300;,
  0.756720;1.000000;,
  0.000000;1.000000;,
  1.000000;0.696300;,
  0.000000;1.000000;,
  0.000000;0.696300;,
  0.000000;0.696300;,
  1.000000;0.696300;,
  1.000000;1.000000;,
  0.000000;1.000000;,
  1.000000;0.696300;,
  1.000000;1.000000;,
  0.243280;1.000000;,
  0.243280;0.696300;,
  0.000000;0.000000;,
  1.000000;0.000000;,
  1.000000;1.000000;,
  0.000000;1.000000;,
  0.000000;0.000000;,
  1.000000;0.000000;,
  1.000000;1.000000;,
  0.000000;1.000000;,
  0.000000;0.000000;,
  1.000000;0.000000;,
  1.000000;1.000000;,
  0.000000;1.000000;,
  0.000000;0.000000;,
  1.000000;0.000000;,
  1.000000;1.000000;,
  0.000000;1.000000;,
  1.000000;1.000000;,
  0.000000;1.000000;,
  0.000000;0.000000;,
  1.000000;0.000000;;
 }
}
