xof 0302txt 0064
template Header {
 <3D82AB43-62DA-11cf-AB39-0020AF71E433>
 WORD major;
 WORD minor;
 DWORD flags;
}

template Vector {
 <3D82AB5E-62DA-11cf-AB39-0020AF71E433>
 FLOAT x;
 FLOAT y;
 FLOAT z;
}

template Coords2d {
 <F6F23F44-7686-11cf-8F52-0040333594A3>
 FLOAT u;
 FLOAT v;
}

template Matrix4x4 {
 <F6F23F45-7686-11cf-8F52-0040333594A3>
 array FLOAT matrix[16];
}

template ColorRGBA {
 <35FF44E0-6C7C-11cf-8F52-0040333594A3>
 FLOAT red;
 FLOAT green;
 FLOAT blue;
 FLOAT alpha;
}

template ColorRGB {
 <D3E16E81-7835-11cf-8F52-0040333594A3>
 FLOAT red;
 FLOAT green;
 FLOAT blue;
}

template IndexedColor {
 <1630B820-7842-11cf-8F52-0040333594A3>
 DWORD index;
 ColorRGBA indexColor;
}

template Boolean {
 <4885AE61-78E8-11cf-8F52-0040333594A3>
 WORD truefalse;
}

template Boolean2d {
 <4885AE63-78E8-11cf-8F52-0040333594A3>
 Boolean u;
 Boolean v;
}

template MaterialWrap {
 <4885AE60-78E8-11cf-8F52-0040333594A3>
 Boolean u;
 Boolean v;
}

template TextureFilename {
 <A42790E1-7810-11cf-8F52-0040333594A3>
 STRING filename;
}

template Material {
 <3D82AB4D-62DA-11cf-AB39-0020AF71E433>
 ColorRGBA faceColor;
 FLOAT power;
 ColorRGB specularColor;
 ColorRGB emissiveColor;
 [...]
}

template MeshFace {
 <3D82AB5F-62DA-11cf-AB39-0020AF71E433>
 DWORD nFaceVertexIndices;
 array DWORD faceVertexIndices[nFaceVertexIndices];
}

template MeshFaceWraps {
 <4885AE62-78E8-11cf-8F52-0040333594A3>
 DWORD nFaceWrapValues;
 Boolean2d faceWrapValues;
}

template MeshTextureCoords {
 <F6F23F40-7686-11cf-8F52-0040333594A3>
 DWORD nTextureCoords;
 array Coords2d textureCoords[nTextureCoords];
}

template MeshMaterialList {
 <F6F23F42-7686-11cf-8F52-0040333594A3>
 DWORD nMaterials;
 DWORD nFaceIndexes;
 array DWORD faceIndexes[nFaceIndexes];
 [Material]
}

template MeshNormals {
 <F6F23F43-7686-11cf-8F52-0040333594A3>
 DWORD nNormals;
 array Vector normals[nNormals];
 DWORD nFaceNormals;
 array MeshFace faceNormals[nFaceNormals];
}

template MeshVertexColors {
 <1630B821-7842-11cf-8F52-0040333594A3>
 DWORD nVertexColors;
 array IndexedColor vertexColors[nVertexColors];
}

template Mesh {
 <3D82AB44-62DA-11cf-AB39-0020AF71E433>
 DWORD nVertices;
 array Vector vertices[nVertices];
 DWORD nFaces;
 array MeshFace faces[nFaces];
 [...]
}

Header{
1;
0;
1;
}

Mesh {
 147;
 9.03364;1.18112;2.09092;,
 21.92491;0.95611;2.09092;,
 21.96146;3.04948;1.22370;,
 9.07016;3.27451;1.22370;,
 21.97660;3.91657;-0.87000;,
 9.08532;4.14161;-0.87000;,
 21.96146;3.04950;-2.96370;,
 9.07016;3.27451;-2.96370;,
 21.92491;0.95611;-3.83092;,
 9.03364;1.18114;-3.83092;,
 21.88837;-1.13727;-2.96370;,
 8.99711;-0.91225;-2.96370;,
 21.87325;-2.00437;-0.87000;,
 8.98196;-1.77935;-0.87000;,
 21.88838;-1.13725;1.22370;,
 8.99711;-0.91225;1.22370;,
 21.92491;0.95611;2.09092;,
 9.03364;1.18112;2.09092;,
 9.03364;1.18112;-0.87000;,
 9.03364;1.18112;-0.87000;,
 9.03364;1.18112;-0.87000;,
 9.03364;1.18112;-0.87000;,
 9.03364;1.18112;-0.87000;,
 9.03364;1.18112;-0.87000;,
 9.03364;1.18112;-0.87000;,
 9.03364;1.18112;-0.87000;,
 21.92491;0.95611;-0.87000;,
 21.92491;0.95611;-0.87000;,
 21.92491;0.95611;-0.87000;,
 21.92491;0.95611;-0.87000;,
 21.92491;0.95611;-0.87000;,
 21.92491;0.95611;-0.87000;,
 21.92491;0.95611;-0.87000;,
 21.92491;0.95611;-0.87000;,
 -0.86108;0.99053;-0.87000;,
 0.41367;0.96829;3.05388;,
 0.47300;4.36593;1.09194;,
 -0.86108;0.99053;-0.87000;,
 0.47300;4.36593;-2.83194;,
 -0.86108;0.99053;-0.87000;,
 0.41367;0.96829;-4.79390;,
 -0.86108;0.99053;-0.87000;,
 0.35437;-2.42934;-2.83194;,
 -0.86108;0.99053;-0.87000;,
 0.35437;-2.42936;1.09194;,
 -0.86108;0.99053;-0.87000;,
 0.41367;0.96829;3.05388;,
 3.75100;0.91004;5.47896;,
 3.84698;6.40757;2.30448;,
 3.84697;6.40754;-4.04448;,
 3.75100;0.91004;-7.21898;,
 3.65503;-4.58747;-4.04448;,
 3.65503;-4.58747;2.30448;,
 3.75100;0.91004;5.47896;,
 7.87619;0.83804;5.47896;,
 7.97212;6.33557;2.30448;,
 7.97213;6.33559;-4.04448;,
 7.87619;0.83804;-7.21898;,
 7.78023;-4.65947;-4.04448;,
 7.78022;-4.65949;2.30448;,
 7.87619;0.83804;5.47896;,
 9.37124;0.81194;3.05388;,
 9.43057;4.20961;1.09194;,
 9.43057;4.20961;-2.83194;,
 9.37125;0.81196;-4.79388;,
 9.31194;-2.58571;-2.83194;,
 9.31194;-2.58571;1.09194;,
 9.37124;0.81194;3.05388;,
 12.48828;0.75753;-0.87000;,
 12.48828;0.75753;-0.87000;,
 12.48828;0.75753;-0.87000;,
 12.48828;0.75753;-0.87000;,
 12.48828;0.75753;-0.87000;,
 12.48828;0.75753;-0.87000;,
 23.48415;-2.19069;2.18040;,
 19.34624;-2.11845;2.18040;,
 19.34624;-2.11845;-4.39534;,
 23.48415;-2.19069;-4.39536;,
 23.97057;3.90351;3.02828;,
 23.97057;3.90351;-5.24320;,
 19.45273;3.98236;-5.24320;,
 19.45273;3.98238;3.02828;,
 23.89001;-0.71313;3.02828;,
 19.37213;-0.63428;3.02828;,
 19.34624;-2.11845;2.18040;,
 23.48415;-2.19069;2.18040;,
 23.97057;3.90351;3.02828;,
 19.45273;3.98238;3.02828;,
 28.73967;1.81805;3.02828;,
 28.73967;1.81805;-5.24320;,
 28.77434;3.80534;-5.24320;,
 28.77434;3.80535;3.02830;,
 19.37213;-0.63428;3.02828;,
 19.37214;-0.63426;-5.24322;,
 19.34624;-2.11845;2.18040;,
 19.45273;3.98238;3.02828;,
 19.37214;-0.63426;-5.24322;,
 23.89001;-0.71313;-5.24320;,
 23.48415;-2.19069;-4.39536;,
 19.34624;-2.11845;-4.39534;,
 19.45273;3.98236;-5.24320;,
 23.97057;3.90351;-5.24320;,
 25.17632;0.56312;3.02830;,
 24.18030;3.89987;3.02828;,
 25.17632;0.56312;3.02830;,
 25.17632;0.56312;-5.24322;,
 24.18030;3.89987;3.02828;,
 24.18030;3.89985;-5.24320;,
 24.18030;3.89985;-5.24320;,
 25.17632;0.56312;-5.24322;,
 25.17632;0.56312;3.02830;,
 25.17632;0.56312;-5.24322;,
 25.94295;3.83579;-5.24320;,
 25.54571;1.24655;-5.24322;,
 28.77434;3.80534;-5.24320;,
 28.73967;1.81805;-5.24320;,
 25.94295;3.83579;-5.24320;,
 25.94294;3.83577;3.02828;,
 28.77434;3.80535;3.02830;,
 25.54571;1.24655;-5.24322;,
 25.54571;1.24655;3.02828;,
 28.73967;1.81805;-5.24320;,
 28.73967;1.81805;3.02828;,
 25.94294;3.83577;3.02828;,
 25.54571;1.24655;3.02828;,
 28.73967;1.81805;3.02828;,
 28.77434;3.80535;3.02830;,
 20.07401;-1.07217;-4.66702;,
 26.98488;-1.19286;-4.66704;,
 27.02983;1.38145;-4.66702;,
 20.11892;1.50206;-4.66702;,
 20.11892;1.50206;-4.66702;,
 27.02983;1.38145;-4.66702;,
 27.02983;1.38143;-6.60462;,
 20.11892;1.50206;-6.60462;,
 20.11892;1.50206;-6.60462;,
 27.02983;1.38143;-6.60462;,
 26.98488;-1.19285;-6.60460;,
 20.07401;-1.07221;-6.60462;,
 20.07401;-1.07221;-6.60462;,
 26.98488;-1.19285;-6.60460;,
 26.98488;-1.19286;-4.66704;,
 20.07401;-1.07217;-4.66702;,
 20.07401;-1.07217;-4.66702;,
 20.11892;1.50206;-4.66702;,
 26.98488;-1.19286;-4.66704;,
 27.02983;1.38145;-4.66702;;
 
 83;
 4;0,1,2,3;,
 4;3,2,4,5;,
 4;5,4,6,7;,
 4;7,6,8,9;,
 4;9,8,10,11;,
 4;11,10,12,13;,
 4;13,12,14,15;,
 4;15,14,16,17;,
 3;18,0,3;,
 3;19,3,5;,
 3;20,5,7;,
 3;21,7,9;,
 3;22,9,11;,
 3;23,11,13;,
 3;24,13,15;,
 3;25,15,17;,
 3;26,2,1;,
 3;27,4,2;,
 3;28,6,4;,
 3;29,8,6;,
 3;30,10,8;,
 3;31,12,10;,
 3;32,14,12;,
 3;33,16,14;,
 3;34,35,36;,
 3;37,36,38;,
 3;39,38,40;,
 3;41,40,42;,
 3;43,42,44;,
 3;45,44,46;,
 4;35,47,48,36;,
 4;36,48,49,38;,
 4;38,49,50,40;,
 4;40,50,51,42;,
 4;42,51,52,44;,
 4;44,52,53,46;,
 4;47,54,55,48;,
 4;48,55,56,49;,
 4;49,56,57,50;,
 4;50,57,58,51;,
 4;51,58,59,52;,
 4;52,59,60,53;,
 4;54,61,62,55;,
 4;55,62,63,56;,
 4;56,63,64,57;,
 4;57,64,65,58;,
 4;58,65,66,59;,
 4;59,66,67,60;,
 3;61,68,62;,
 3;62,69,63;,
 3;63,70,64;,
 3;64,71,65;,
 3;65,72,66;,
 3;66,73,67;,
 4;74,75,76,77;,
 4;78,79,80,81;,
 4;82,83,84,85;,
 4;82,86,87,83;,
 4;88,89,90,91;,
 4;92,93,76,94;,
 4;92,95,80,93;,
 4;96,97,98,99;,
 4;96,100,101,97;,
 4;102,103,86,82;,
 4;104,74,77,105;,
 4;106,107,79,78;,
 4;108,109,97,101;,
 3;110,82,85;,
 3;111,98,97;,
 4;112,113,109,108;,
 4;112,114,115,113;,
 4;116,117,118,90;,
 4;116,107,106,117;,
 4;119,120,104,105;,
 4;119,121,122,120;,
 4;123,124,125,126;,
 4;123,103,102,124;,
 4;127,128,129,130;,
 4;131,132,133,134;,
 4;135,136,137,138;,
 4;139,140,141,142;,
 4;139,143,144,134;,
 4;145,140,133,146;;
 
 MeshMaterialList {
  5;
  83;
  3,
  3,
  3,
  3,
  3,
  3,
  3,
  3,
  3,
  3,
  3,
  3,
  3,
  3,
  3,
  3,
  3,
  3,
  3,
  3,
  3,
  3,
  3,
  3,
  0,
  0,
  0,
  0,
  0,
  0,
  0,
  0,
  0,
  0,
  0,
  0,
  0,
  0,
  0,
  0,
  0,
  0,
  0,
  0,
  0,
  0,
  0,
  0,
  0,
  0,
  0,
  0,
  0,
  0,
  1,
  1,
  1,
  1,
  1,
  1,
  1,
  1,
  1,
  1,
  1,
  1,
  1,
  1,
  1,
  1,
  1,
  1,
  1,
  1,
  1,
  1,
  1,
  1,
  1,
  1,
  1,
  1,
  1;;
  Material {
   0.920000;0.075440;0.000000;1.000000;;
   5.000000;
   0.000000;0.000000;0.000000;;
   0.180000;0.014760;0.000000;;
  }
  Material {
   0.585480;0.264040;0.000000;1.000000;;
   5.000000;
   0.000000;0.000000;0.000000;;
   0.000000;0.000000;0.000000;;
  }
  Material {
   0.075350;0.351450;0.135850;1.000000;;
   5.000000;
   0.000000;0.000000;0.000000;;
   0.000000;0.000000;0.000000;;
  }
  Material {
   0.800000;0.737600;0.348000;1.000000;;
   5.000000;
   0.000000;0.000000;0.000000;;
   0.000000;0.000000;0.000000;;
  }
  Material {
   0.000000;0.000000;0.000000;1.000000;;
   5.000000;
   0.000000;0.000000;0.000000;;
   0.000000;0.000000;0.000000;;
  }
 }
 MeshNormals {
  97;
  -0.999848;0.017450;0.000000;,
  0.000000;-0.000001;1.000000;,
  0.012341;0.706998;0.707108;,
  0.017453;0.999848;0.000002;,
  0.012341;0.706999;-0.707106;,
  -0.000000;-0.000000;-1.000000;,
  -0.012341;-0.706998;-0.707108;,
  -0.017452;-0.999848;0.000001;,
  -0.012340;-0.706998;0.707108;,
  0.999848;-0.017454;-0.000000;,
  -0.999848;0.017453;0.000000;,
  -0.816741;0.014258;0.576828;,
  -0.808021;0.513731;0.288413;,
  -0.808021;0.513732;-0.288413;,
  -0.816742;0.014257;-0.576827;,
  -0.825458;-0.485218;-0.288414;,
  -0.825459;-0.485217;0.288413;,
  -0.315939;0.005515;0.948763;,
  -0.301601;0.827043;0.474381;,
  -0.301601;0.827043;-0.474380;,
  -0.315940;0.005515;-0.948763;,
  -0.330279;-0.816014;-0.474381;,
  -0.330279;-0.816014;0.474381;,
  0.647183;0.186321;0.739214;,
  0.653180;0.530069;0.540724;,
  0.656627;0.727627;-0.198493;,
  0.647184;0.186322;-0.739214;,
  0.634289;-0.552539;-0.540720;,
  0.630840;-0.750095;0.198490;,
  0.818688;-0.014291;0.574060;,
  0.827364;0.482785;0.287032;,
  0.827364;0.482786;-0.287030;,
  0.818689;-0.014290;-0.574060;,
  0.810012;-0.511365;-0.287029;,
  0.810012;-0.511365;0.287029;,
  0.862073;0.506784;0.000001;,
  -0.017456;-0.999848;0.000000;,
  0.999848;-0.017442;-0.000000;,
  0.017452;0.999848;-0.000001;,
  0.532733;-0.804573;0.262408;,
  0.017442;0.999848;-0.000001;,
  0.532731;-0.804572;-0.262416;,
  0.138470;-0.275286;0.951338;,
  -0.004478;-0.256542;0.966523;,
  -0.999848;0.017450;-0.000000;,
  0.138467;-0.275279;-0.951340;,
  0.188965;-0.190454;0.963338;,
  0.000003;0.000005;1.000000;,
  0.804195;-0.544396;-0.238545;,
  0.026882;0.999639;-0.000000;,
  -0.000004;0.000006;-1.000000;,
  0.023541;0.999723;0.000001;,
  0.586048;-0.810276;-0.000000;,
  0.000001;-0.000004;1.000000;,
  0.017451;0.999848;-0.000005;,
  0.000001;-0.000004;-1.000000;,
  -0.999848;0.017446;0.000000;,
  -0.999848;0.017447;-0.000005;,
  -0.999848;0.017452;0.000000;,
  -0.999848;0.017447;0.000006;,
  -0.999848;0.017446;0.000001;,
  -0.999848;0.017452;-0.000002;,
  -0.999848;0.017455;-0.000000;,
  -0.999848;0.017452;0.000002;,
  0.999848;-0.017458;-0.000001;,
  0.999848;-0.017454;-0.000000;,
  0.999848;-0.017458;-0.000000;,
  0.999848;-0.017458;0.000001;,
  0.999848;-0.017455;-0.000000;,
  0.999848;-0.017450;-0.000002;,
  0.999848;-0.017448;-0.000001;,
  0.999848;-0.017449;0.000000;,
  0.017445;0.999848;-0.000000;,
  0.008723;0.499926;-0.866024;,
  -0.008726;-0.499927;-0.866024;,
  -0.017453;-0.999848;-0.000001;,
  -0.008727;-0.499924;0.866025;,
  0.843858;-0.536566;-0.000000;,
  -0.008656;-0.495907;0.868332;,
  -0.000004;0.000002;1.000000;,
  0.000000;0.000000;1.000000;,
  -0.999848;0.017445;-0.000000;,
  -0.999848;0.017455;-0.000001;,
  -0.004477;-0.256534;-0.966525;,
  -0.008657;-0.495895;-0.868339;,
  0.000002;0.000002;-1.000000;,
  -0.000003;0.000001;-1.000000;,
  0.866197;-0.499703;-0.000000;,
  -0.000009;0.000004;-1.000000;,
  0.000002;0.000003;-1.000000;,
  0.010748;0.999942;0.000001;,
  0.176133;-0.984366;-0.000000;,
  0.000005;0.000001;1.000000;,
  -0.000004;-0.000005;1.000000;,
  -0.017458;-0.999848;0.000005;,
  -0.999848;0.017445;-0.000000;,
  0.999848;-0.017460;0.000002;;
  83;
  4;1,1,2,2;,
  4;2,2,3,3;,
  4;3,3,4,4;,
  4;4,4,5,5;,
  4;5,5,6,6;,
  4;6,6,7,7;,
  4;7,7,8,8;,
  4;8,8,1,1;,
  3;0,56,57;,
  3;0,57,58;,
  3;0,58,59;,
  3;0,59,60;,
  3;0,60,61;,
  3;0,61,62;,
  3;0,62,63;,
  3;0,63,56;,
  3;9,64,65;,
  3;9,66,64;,
  3;9,67,66;,
  3;9,68,67;,
  3;9,69,68;,
  3;9,70,69;,
  3;9,71,70;,
  3;9,65,71;,
  3;10,11,12;,
  3;10,12,13;,
  3;10,13,14;,
  3;10,14,15;,
  3;10,15,16;,
  3;10,16,11;,
  4;11,17,18,12;,
  4;12,18,19,13;,
  4;13,19,20,14;,
  4;14,20,21,15;,
  4;15,21,22,16;,
  4;16,22,17,11;,
  4;17,23,24,18;,
  4;18,72,25,19;,
  4;19,73,26,20;,
  4;20,74,27,21;,
  4;21,75,28,22;,
  4;22,76,76,17;,
  4;23,29,30,24;,
  4;24,30,31,25;,
  4;25,31,32,26;,
  4;26,32,33,27;,
  4;27,33,34,28;,
  4;28,34,29,23;,
  3;29,35,30;,
  3;30,35,31;,
  3;31,35,32;,
  3;32,77,33;,
  3;33,77,34;,
  3;34,77,29;,
  4;39,36,36,41;,
  4;40,40,38,38;,
  4;42,43,78,78;,
  4;42,79,80,43;,
  4;37,37,37,37;,
  4;44,44,81,81;,
  4;44,82,82,44;,
  4;83,45,84,84;,
  4;83,85,86,45;,
  4;46,47,79,42;,
  4;87,39,41,48;,
  4;49,49,40,40;,
  4;88,88,45,86;,
  3;46,42,39;,
  3;48,41,45;,
  4;50,50,88,88;,
  4;50,89,89,50;,
  4;51,51,90,90;,
  4;51,49,49,51;,
  4;52,52,87,48;,
  4;52,91,91,52;,
  4;92,92,93,93;,
  4;92,47,46,92;,
  4;53,53,53,53;,
  4;54,54,54,54;,
  4;55,55,55,55;,
  4;94,94,94,94;,
  4;95,95,95,95;,
  4;96,96,96,96;;
 }
 MeshTextureCoords {
  147;
  0.000000;0.000000;,
  0.000000;1.000000;,
  0.125000;1.000000;,
  0.125000;0.000000;,
  0.250000;1.000000;,
  0.250000;0.000000;,
  0.375000;1.000000;,
  0.375000;0.000000;,
  0.500000;1.000000;,
  0.500000;0.000000;,
  0.625000;1.000000;,
  0.625000;0.000000;,
  0.750000;1.000000;,
  0.750000;0.000000;,
  0.875000;1.000000;,
  0.875000;0.000000;,
  1.000000;1.000000;,
  1.000000;0.000000;,
  0.062500;0.000000;,
  0.187500;0.000000;,
  0.312500;0.000000;,
  0.437500;0.000000;,
  0.562500;0.000000;,
  0.687500;0.000000;,
  0.812500;0.000000;,
  0.937500;0.000000;,
  0.062500;1.000000;,
  0.187500;1.000000;,
  0.312500;1.000000;,
  0.437500;1.000000;,
  0.562500;1.000000;,
  0.687500;1.000000;,
  0.812500;1.000000;,
  0.937500;1.000000;,
  0.083330;0.000000;,
  0.000000;0.200000;,
  0.166670;0.200000;,
  0.250000;0.000000;,
  0.333330;0.200000;,
  0.416670;0.000000;,
  0.500000;0.200000;,
  0.583330;0.000000;,
  0.666670;0.200000;,
  0.750000;0.000000;,
  0.833330;0.200000;,
  0.916670;0.000000;,
  1.000000;0.200000;,
  0.000000;0.400000;,
  0.166670;0.400000;,
  0.333330;0.400000;,
  0.500000;0.400000;,
  0.666670;0.400000;,
  0.833330;0.400000;,
  1.000000;0.400000;,
  0.000000;0.600000;,
  0.166670;0.600000;,
  0.333330;0.600000;,
  0.500000;0.600000;,
  0.666670;0.600000;,
  0.833330;0.600000;,
  1.000000;0.600000;,
  0.000000;0.800000;,
  0.166670;0.800000;,
  0.333330;0.800000;,
  0.500000;0.800000;,
  0.666670;0.800000;,
  0.833330;0.800000;,
  1.000000;0.800000;,
  0.083330;1.000000;,
  0.250000;1.000000;,
  0.416670;1.000000;,
  0.583330;1.000000;,
  0.750000;1.000000;,
  0.916670;1.000000;,
  1.000000;0.484650;,
  1.000000;0.000000;,
  0.000000;0.000000;,
  0.000000;0.484650;,
  0.000000;0.484650;,
  1.000000;0.484650;,
  1.000000;0.000000;,
  0.000000;0.000000;,
  0.243280;0.484650;,
  0.243280;0.000000;,
  0.000000;0.000000;,
  0.000000;0.484650;,
  1.000000;0.484650;,
  1.000000;0.000000;,
  0.243280;0.000000;,
  0.243280;1.000000;,
  1.000000;1.000000;,
  1.000000;0.000000;,
  0.243280;1.000000;,
  0.243280;0.000000;,
  0.000000;1.000000;,
  1.000000;1.000000;,
  0.756720;0.000000;,
  0.756720;0.484650;,
  1.000000;0.484650;,
  1.000000;0.000000;,
  0.000000;0.000000;,
  0.000000;0.484650;,
  0.243280;0.507150;,
  1.000000;0.507150;,
  1.000000;0.507150;,
  0.000000;0.507150;,
  0.000000;0.507150;,
  1.000000;0.507150;,
  0.000000;0.507150;,
  0.756720;0.507150;,
  0.121640;0.507150;,
  0.878360;0.507150;,
  0.000000;0.696300;,
  0.756720;0.696300;,
  0.000000;1.000000;,
  0.756720;1.000000;,
  1.000000;0.696300;,
  0.000000;0.696300;,
  0.000000;1.000000;,
  0.000000;0.696300;,
  1.000000;0.696300;,
  0.000000;1.000000;,
  1.000000;1.000000;,
  1.000000;0.696300;,
  0.243280;0.696300;,
  0.243280;1.000000;,
  1.000000;1.000000;,
  0.000000;0.000000;,
  0.000000;1.000000;,
  1.000000;1.000000;,
  1.000000;0.000000;,
  0.000000;0.000000;,
  0.000000;1.000000;,
  1.000000;1.000000;,
  1.000000;0.000000;,
  0.000000;0.000000;,
  0.000000;1.000000;,
  1.000000;1.000000;,
  1.000000;0.000000;,
  0.000000;0.000000;,
  0.000000;1.000000;,
  1.000000;1.000000;,
  1.000000;0.000000;,
  0.000000;1.000000;,
  1.000000;1.000000;,
  0.000000;0.000000;,
  1.000000;0.000000;;
 }
}
