xof 0302txt 0064
template Header {
 <3D82AB43-62DA-11cf-AB39-0020AF71E433>
 WORD major;
 WORD minor;
 DWORD flags;
}

template Vector {
 <3D82AB5E-62DA-11cf-AB39-0020AF71E433>
 FLOAT x;
 FLOAT y;
 FLOAT z;
}

template Coords2d {
 <F6F23F44-7686-11cf-8F52-0040333594A3>
 FLOAT u;
 FLOAT v;
}

template Matrix4x4 {
 <F6F23F45-7686-11cf-8F52-0040333594A3>
 array FLOAT matrix[16];
}

template ColorRGBA {
 <35FF44E0-6C7C-11cf-8F52-0040333594A3>
 FLOAT red;
 FLOAT green;
 FLOAT blue;
 FLOAT alpha;
}

template ColorRGB {
 <D3E16E81-7835-11cf-8F52-0040333594A3>
 FLOAT red;
 FLOAT green;
 FLOAT blue;
}

template IndexedColor {
 <1630B820-7842-11cf-8F52-0040333594A3>
 DWORD index;
 ColorRGBA indexColor;
}

template Boolean {
 <4885AE61-78E8-11cf-8F52-0040333594A3>
 WORD truefalse;
}

template Boolean2d {
 <4885AE63-78E8-11cf-8F52-0040333594A3>
 Boolean u;
 Boolean v;
}

template MaterialWrap {
 <4885AE60-78E8-11cf-8F52-0040333594A3>
 Boolean u;
 Boolean v;
}

template TextureFilename {
 <A42790E1-7810-11cf-8F52-0040333594A3>
 STRING filename;
}

template Material {
 <3D82AB4D-62DA-11cf-AB39-0020AF71E433>
 ColorRGBA faceColor;
 FLOAT power;
 ColorRGB specularColor;
 ColorRGB emissiveColor;
 [...]
}

template MeshFace {
 <3D82AB5F-62DA-11cf-AB39-0020AF71E433>
 DWORD nFaceVertexIndices;
 array DWORD faceVertexIndices[nFaceVertexIndices];
}

template MeshFaceWraps {
 <4885AE62-78E8-11cf-8F52-0040333594A3>
 DWORD nFaceWrapValues;
 Boolean2d faceWrapValues;
}

template MeshTextureCoords {
 <F6F23F40-7686-11cf-8F52-0040333594A3>
 DWORD nTextureCoords;
 array Coords2d textureCoords[nTextureCoords];
}

template MeshMaterialList {
 <F6F23F42-7686-11cf-8F52-0040333594A3>
 DWORD nMaterials;
 DWORD nFaceIndexes;
 array DWORD faceIndexes[nFaceIndexes];
 [Material]
}

template MeshNormals {
 <F6F23F43-7686-11cf-8F52-0040333594A3>
 DWORD nNormals;
 array Vector normals[nNormals];
 DWORD nFaceNormals;
 array MeshFace faceNormals[nFaceNormals];
}

template MeshVertexColors {
 <1630B821-7842-11cf-8F52-0040333594A3>
 DWORD nVertexColors;
 array IndexedColor vertexColors[nVertexColors];
}

template Mesh {
 <3D82AB44-62DA-11cf-AB39-0020AF71E433>
 DWORD nVertices;
 array Vector vertices[nVertices];
 DWORD nFaces;
 array MeshFace faces[nFaces];
 [...]
}

Header{
1;
0;
1;
}

Mesh {
 90;
 -0.05538;0.38187;2.91064;,
 -2.72870;0.38187;1.80332;,
 -2.72870;-14.66724;1.80332;,
 -0.05538;-14.66724;2.91064;,
 -3.83602;0.38187;-0.87000;,
 -3.83602;-14.66724;-0.87000;,
 -2.72870;0.38187;-3.54332;,
 -2.72870;-14.66724;-3.54332;,
 -0.05538;0.38187;-4.65064;,
 -0.05538;-14.66724;-4.65064;,
 2.61794;0.38187;-3.54332;,
 2.61794;-14.66724;-3.54332;,
 3.72526;0.38187;-0.87000;,
 3.72526;-14.66724;-0.87000;,
 2.61794;0.38187;1.80332;,
 2.61794;-14.66724;1.80332;,
 -0.05538;0.38187;2.91064;,
 -0.05538;-14.66724;2.91064;,
 -0.05538;0.38187;-0.87000;,
 -0.05538;0.38187;-0.87000;,
 -0.05538;0.38187;-0.87000;,
 -0.05538;0.38187;-0.87000;,
 -0.05538;0.38187;-0.87000;,
 -0.05538;0.38187;-0.87000;,
 -0.05538;0.38187;-0.87000;,
 -0.05538;0.38187;-0.87000;,
 -0.05538;-14.66724;-0.87000;,
 -0.05538;-14.66724;-0.87000;,
 -0.05538;-14.66724;-0.87000;,
 -0.05538;-14.66724;-0.87000;,
 -0.05538;-14.66724;-0.87000;,
 -0.05538;-14.66724;-0.87000;,
 -0.05538;-14.66724;-0.87000;,
 -0.05538;-14.66724;-0.87000;,
 -0.13504;-11.27614;3.51568;,
 3.74128;-11.27614;2.21170;,
 3.97798;-11.27614;-3.88704;,
 -0.13504;-11.27614;-6.04304;,
 -4.17068;-11.27614;-3.88704;,
 -3.93400;-11.27614;2.21170;,
 -0.13504;-18.97580;3.51568;,
 -4.87572;-18.97580;3.51568;,
 -4.87572;-18.97580;-6.04304;,
 -0.13504;-18.97580;-6.04304;,
 4.68302;-18.97580;-6.04304;,
 4.68302;-18.97580;3.51568;,
 -0.13504;-13.27208;-7.69002;,
 -0.13504;-11.27614;-6.04304;,
 3.97798;-11.27614;-3.88704;,
 4.68302;-13.27208;-6.04304;,
 -4.87572;-13.27208;-6.04304;,
 -4.17068;-11.27614;-3.88704;,
 4.68302;-13.27208;-6.04304;,
 3.74128;-11.27614;2.21170;,
 4.68302;-13.27208;3.51568;,
 4.68302;-18.97580;3.51568;,
 -4.87572;-13.27208;-6.04304;,
 -4.87572;-18.97580;3.51568;,
 -4.87572;-13.27208;3.51568;,
 -3.93400;-11.27614;2.21170;,
 4.68302;-13.27208;3.51568;,
 3.74128;-11.27614;2.21170;,
 -0.13504;-11.27614;3.51568;,
 -0.13504;-13.27208;3.51568;,
 -0.13504;-18.97580;3.51568;,
 4.68302;-18.97580;3.51568;,
 -4.87572;-13.27208;3.51568;,
 -4.87572;-18.97580;3.51568;,
 -3.93400;-11.27614;2.21170;,
 -0.13504;-16.62730;-20.30908;,
 3.39432;-16.62730;-20.30908;,
 3.39432;-18.97580;-20.30908;,
 -0.13504;-18.97580;-20.30908;,
 -3.58702;-18.97580;-20.30910;,
 -3.58702;-16.62730;-20.30910;,
 -0.13504;-14.99140;-14.68512;,
 3.59116;-15.48124;-13.86836;,
 -3.78388;-15.48124;-13.86834;,
 4.68300;-18.97580;-12.08746;,
 -4.87572;-18.97580;-12.08746;,
 -0.13504;-18.97580;-12.08744;,
 4.68302;-18.21762;-7.55918;,
 4.68302;-18.97580;-6.04304;,
 -0.13504;-18.97580;-6.04304;,
 -0.13504;-18.21762;-6.53394;,
 -4.87572;-18.97580;-6.04304;,
 -4.87572;-18.21762;-7.55918;,
 4.68302;-18.21762;-11.68410;,
 -0.13504;-18.21762;-11.68410;,
 -4.87572;-18.21762;-11.68408;;
 
 60;
 4;0,1,2,3;,
 4;1,4,5,2;,
 4;4,6,7,5;,
 4;6,8,9,7;,
 4;8,10,11,9;,
 4;10,12,13,11;,
 4;12,14,15,13;,
 4;14,16,17,15;,
 3;18,1,0;,
 3;19,4,1;,
 3;20,6,4;,
 3;21,8,6;,
 3;22,10,8;,
 3;23,12,10;,
 3;24,14,12;,
 3;25,16,14;,
 3;26,3,2;,
 3;27,2,5;,
 3;28,5,7;,
 3;29,7,9;,
 3;30,9,11;,
 3;31,11,13;,
 3;32,13,15;,
 3;33,15,17;,
 4;34,35,36,37;,
 4;34,37,38,39;,
 4;40,41,42,43;,
 4;40,43,44,45;,
 4;46,47,48,49;,
 4;46,50,51,47;,
 4;52,36,53,54;,
 4;52,54,55,44;,
 4;56,42,57,58;,
 4;56,58,59,38;,
 4;60,61,62,63;,
 4;60,63,64,65;,
 4;66,67,64,63;,
 4;66,63,62,68;,
 4;69,70,71,72;,
 4;69,72,73,74;,
 4;75,76,70,69;,
 4;75,69,74,77;,
 4;76,78,71,70;,
 4;77,74,73,79;,
 4;78,80,72,71;,
 4;79,73,72,80;,
 4;81,82,83,84;,
 4;84,83,85,86;,
 4;87,81,84,88;,
 4;87,88,80,78;,
 4;87,76,49,81;,
 4;88,84,86,89;,
 4;88,89,79,80;,
 4;76,75,46,49;,
 4;89,86,50,77;,
 4;75,77,50,46;,
 3;49,82,81;,
 3;76,87,78;,
 3;50,86,85;,
 3;77,79,89;;
 
 MeshMaterialList {
  5;
  60;
  3,
  3,
  3,
  3,
  3,
  3,
  3,
  3,
  3,
  3,
  3,
  3,
  3,
  3,
  3,
  3,
  3,
  3,
  3,
  3,
  3,
  3,
  3,
  3,
  1,
  1,
  1,
  1,
  1,
  1,
  1,
  1,
  1,
  1,
  1,
  1,
  1,
  1,
  1,
  1,
  1,
  1,
  1,
  1,
  1,
  1,
  1,
  1,
  1,
  1,
  1,
  1,
  1,
  1,
  1,
  1,
  1,
  1,
  1,
  1;;
  Material {
   0.920000;0.075440;0.000000;1.000000;;
   5.000000;
   0.000000;0.000000;0.000000;;
   0.180000;0.014760;0.000000;;
  }
  Material {
   0.585480;0.264040;0.000000;1.000000;;
   5.000000;
   0.000000;0.000000;0.000000;;
   0.000000;0.000000;0.000000;;
  }
  Material {
   0.075350;0.351450;0.135850;1.000000;;
   5.000000;
   0.000000;0.000000;0.000000;;
   0.000000;0.000000;0.000000;;
  }
  Material {
   0.800000;0.737600;0.348000;1.000000;;
   5.000000;
   0.000000;0.000000;0.000000;;
   0.000000;0.000000;0.000000;;
  }
  Material {
   0.000000;0.000000;0.000000;1.000000;;
   5.000000;
   0.000000;0.000000;0.000000;;
   0.000000;0.000000;0.000000;;
  }
 }
 MeshNormals {
  53;
  0.000000;1.000000;0.000000;,
  0.000000;0.000000;1.000000;,
  -0.707107;0.000000;0.707107;,
  -1.000000;0.000000;0.000000;,
  -0.707107;0.000000;-0.707107;,
  0.000000;0.000000;-1.000000;,
  0.707107;0.000000;-0.707107;,
  1.000000;0.000000;0.000000;,
  0.707107;0.000000;0.707107;,
  0.000000;-1.000000;-0.000000;,
  -0.156936;0.917630;-0.365139;,
  0.026747;-0.933770;-0.356874;,
  0.154507;0.917769;-0.365826;,
  -0.026320;-0.933781;-0.356875;,
  -0.001218;0.929033;-0.369996;,
  0.000213;-0.934104;-0.357000;,
  0.979986;0.198870;0.008878;,
  -0.979986;0.198867;0.008877;,
  -0.000802;0.147108;0.989120;,
  0.000006;0.000000;-1.000000;,
  0.000003;0.000000;-1.000000;,
  0.973030;0.132659;-0.188715;,
  -0.973032;0.132668;-0.188702;,
  0.948078;0.268558;-0.170364;,
  -0.001872;0.869895;-0.493233;,
  -0.815360;0.523577;-0.247093;,
  0.110399;0.963343;-0.244505;,
  -0.001105;0.969256;-0.246053;,
  -0.112596;0.963081;-0.244533;,
  0.920744;0.389779;0.017401;,
  1.000000;0.000000;0.000000;,
  -1.000000;0.000000;0.000000;,
  -0.920746;0.389774;0.017400;,
  0.085411;0.146515;0.985514;,
  0.168348;0.288785;0.942477;,
  -0.001598;0.293115;0.956076;,
  -0.087023;0.146606;0.985360;,
  -0.171497;0.288919;0.941868;,
  0.083623;0.969690;-0.229585;,
  -0.000875;0.973090;-0.230425;,
  -0.085368;0.969530;-0.229618;,
  0.979168;0.126316;-0.158981;,
  0.989386;0.112896;-0.091491;,
  -0.979168;0.126321;-0.158972;,
  -0.989385;0.112895;-0.091494;,
  0.000002;-0.469669;0.882843;,
  0.000001;-0.469673;0.882840;,
  0.972247;0.132828;-0.192594;,
  0.997140;0.056829;-0.049822;,
  0.000000;-0.469678;0.882838;,
  0.137067;0.956052;-0.259185;,
  -0.972249;0.132835;-0.192579;,
  -0.997140;0.056828;-0.049821;;
  60;
  4;1,2,2,1;,
  4;2,3,3,2;,
  4;3,4,4,3;,
  4;4,5,5,4;,
  4;5,6,6,5;,
  4;6,7,7,6;,
  4;7,8,8,7;,
  4;8,1,1,8;,
  3;0,0,0;,
  3;0,0,0;,
  3;0,0,0;,
  3;0,0,0;,
  3;0,0,0;,
  3;0,0,0;,
  3;0,0,0;,
  3;0,0,0;,
  3;9,9,9;,
  3;9,9,9;,
  3;9,9,9;,
  3;9,9,9;,
  3;9,9,9;,
  3;9,9,9;,
  3;9,9,9;,
  3;9,9,9;,
  4;0,0,12,14;,
  4;0,14,10,0;,
  4;9,9,11,15;,
  4;9,15,13,9;,
  4;24,14,12,23;,
  4;24,25,10,14;,
  4;23,29,29,16;,
  4;23,16,30,30;,
  4;31,31,31,17;,
  4;25,17,32,32;,
  4;33,34,35,18;,
  4;33,18,1,1;,
  4;36,1,1,18;,
  4;36,18,35,37;,
  4;20,5,5,20;,
  4;20,20,19,19;,
  4;27,26,38,39;,
  4;27,39,40,28;,
  4;41,21,42,42;,
  4;43,44,44,22;,
  4;9,9,9,9;,
  4;9,9,9,9;,
  4;13,13,15,15;,
  4;15,15,11,11;,
  4;9,13,15,9;,
  4;45,46,46,45;,
  4;47,41,23,48;,
  4;9,15,11,9;,
  4;46,49,49,46;,
  4;26,27,24,50;,
  4;51,52,25,43;,
  4;27,28,25,24;,
  3;23,30,48;,
  3;41,47,21;,
  3;25,52,31;,
  3;43,22,51;;
 }
 MeshTextureCoords {
  90;
  0.000000;0.000000;,
  0.125000;0.000000;,
  0.125000;1.000000;,
  0.000000;1.000000;,
  0.250000;0.000000;,
  0.250000;1.000000;,
  0.375000;0.000000;,
  0.375000;1.000000;,
  0.500000;0.000000;,
  0.500000;1.000000;,
  0.625000;0.000000;,
  0.625000;1.000000;,
  0.750000;0.000000;,
  0.750000;1.000000;,
  0.875000;0.000000;,
  0.875000;1.000000;,
  1.000000;0.000000;,
  1.000000;1.000000;,
  0.062500;0.000000;,
  0.187500;0.000000;,
  0.312500;0.000000;,
  0.437500;0.000000;,
  0.562500;0.000000;,
  0.687500;0.000000;,
  0.812500;0.000000;,
  0.937500;0.000000;,
  0.062500;1.000000;,
  0.187500;1.000000;,
  0.312500;1.000000;,
  0.437500;1.000000;,
  0.562500;1.000000;,
  0.687500;1.000000;,
  0.812500;1.000000;,
  0.937500;1.000000;,
  0.504050;1.000000;,
  0.000000;1.000000;,
  0.000000;0.000000;,
  0.504050;0.000000;,
  1.000000;0.000000;,
  1.000000;1.000000;,
  0.504050;0.000000;,
  1.000000;0.000000;,
  1.000000;1.000000;,
  0.504050;1.000000;,
  0.000000;1.000000;,
  0.000000;0.000000;,
  0.495950;0.208810;,
  0.495950;0.000000;,
  1.000000;0.000000;,
  1.000000;0.208810;,
  0.000000;0.208810;,
  0.000000;0.000000;,
  0.000000;0.208810;,
  1.000000;0.000000;,
  1.000000;0.208810;,
  1.000000;1.000000;,
  1.000000;0.208810;,
  0.000000;1.000000;,
  0.000000;0.208810;,
  0.000000;0.000000;,
  0.000000;0.208810;,
  0.000000;0.000000;,
  0.504050;0.000000;,
  0.504050;0.208810;,
  0.504050;1.000000;,
  0.000000;1.000000;,
  1.000000;0.208810;,
  1.000000;1.000000;,
  1.000000;0.000000;,
  0.495950;0.208810;,
  1.000000;0.208810;,
  1.000000;1.000000;,
  0.495950;1.000000;,
  0.000000;1.000000;,
  0.000000;0.208810;,
  0.495950;0.208810;,
  1.000000;0.208810;,
  0.000000;0.208810;,
  1.000000;1.000000;,
  0.000000;1.000000;,
  0.495950;1.000000;,
  1.000000;1.000000;,
  1.000000;1.000000;,
  0.495950;1.000000;,
  0.495950;1.000000;,
  0.000000;1.000000;,
  0.000000;1.000000;,
  1.000000;1.000000;,
  0.495950;1.000000;,
  0.000000;1.000000;;
 }
}
