#==============================================================================
#
# 『モーションビューワ』スクリプトファイル [motion.txt]
# Author : AKIRA TANAKA
#
#==============================================================================
SCRIPT			# この行は絶対消さないこと！

#------------------------------------------------------------------------------
# モデル数
#------------------------------------------------------------------------------
NUM_MODEL = 7

#------------------------------------------------------------------------------
# モデルファイル名
#------------------------------------------------------------------------------
MODEL_FILENAME = data/MODEL/kyouryu_model/body.x		# [0]体
MODEL_FILENAME = data/MODEL/kyouryu_model/righthand.x	# [1]右腕
MODEL_FILENAME = data/MODEL/kyouryu_model/lefthand.x	# [2]左腕
MODEL_FILENAME = data/MODEL/kyouryu_model/rightleg.x	# [3]右足
MODEL_FILENAME = data/MODEL/kyouryu_model/leftleg.x		# [4]左足
MODEL_FILENAME = data/MODEL/kyouryu_model/hed.x		    # [5]頭
MODEL_FILENAME = data/MODEL/kyouryu_model/tail.x		# [6]しっぽ

#------------------------------------------------------------------------------
# キャラクター情報
#------------------------------------------------------------------------------
CHARACTERSET
	NUM_PARTS = 7				# パーツ数
	MOVE = 3.0						# 移動量
	JUMP = 10.25					# ジャンプ量
	RADIUS = 50.0					# 半径

	PARTSSET
		INDEX = 0					# 体
		PARENT = -1					# (親)NULL
		POS = 0.0 80.0 0.0
		ROT = 0.0 0.0 0.0
	END_PARTSSET

	PARTSSET
		INDEX = 1					# 右腕
		PARENT = 0					# (親)体
		POS = -18.0 -27.0 -17.0
		ROT = 0.0 0.0 0.0
	END_PARTSSET

	PARTSSET
		INDEX = 2					# 左腕
		PARENT = 0					# (親)体
		POS = 20.0 -29.0 -17.0
		ROT = 0.0 0.0 0.0
	END_PARTSSET


	PARTSSET
		INDEX = 3					# 右足
		PARENT = 0					# (親)右腿
		POS = -26.0 -27.0 40.0
		ROT = 0.0 0.0 0.0
	END_PARTSSET

	PARTSSET
		INDEX = 4					# 左足
		PARENT = 0					# (親)左腿
		POS = 28.0 -27.0 40.0
		ROT = 0.0 0.0 0.0
	END_PARTSSET
	
	PARTSSET
		INDEX = 5					# 頭
		PARENT = 0					# (親)左腿
		POS = 0.0 0.0 -68.0
		ROT = 0.0 0.0 0.0
	END_PARTSSET
	
	PARTSSET
		INDEX = 6					# しっぽ
		PARENT = 0					# (親)左腿
		POS = 0.0 0.0 95.0
		ROT = 0.0 0.0 0.0
	END_PARTSSET
END_CHARACTERSET

#------------------------------------------------------------------------------
# モーション情報
#------------------------------------------------------------------------------
#---------------------------------------
# [0] ニュートラルモーション
#---------------------------------------
MOTIONSET
	LOOP = 1		# ループするかどうか[0:ループしない / 1:ループする]
	NUM_KEY = 2		# キー数

	KEYSET			# --- << KEY : 0 / 2 >> ---
		FRAME = 50
		KEY	# ----- [ 0 ] -----
			POS = 0.00 0.00 0.00
			ROT = 0.00 0.00 0.00
		END_KEY

		KEY	# ----- [ 1 ] -----
			POS = 0.00 0.00 0.00
			ROT = 0.00 0.00 0.00
		END_KEY

		KEY	# ----- [ 2 ] -----
			POS = 0.00 0.00 0.00
			ROT = 0.00 -0.00 0.00
		END_KEY

		KEY	# ----- [ 3 ] -----
			POS = 0.00 0.00 0.00
			ROT = 0.00 0.00 0.00
		END_KEY

		KEY	# ----- [ 4 ] -----
			POS = 0.00 0.00 0.00
			ROT = 0.00 0.00 0.00
		END_KEY
	END_KEYSET

	KEYSET			# --- << KEY : 1 / 2 >> ---
		FRAME = 50
		KEY	# ----- [ 0 ] -----
			POS = 0.00 0.00 0.00
			ROT = 0.00 0.00 0.00
		END_KEY

		KEY	# ----- [ 1 ] -----
			POS = 0.00 0.00 0.00
			ROT = 0.00 0.00 0.00
		END_KEY

		KEY	# ----- [ 2 ] -----
			POS = 0.00 0.00 0.00
			ROT = 0.00 0.00 -0.00
		END_KEY

		KEY	# ----- [ 3 ] -----
			POS = 0.00 0.00 0.00
			ROT = 0.00 0.00 0.00
		END_KEY

		KEY	# ----- [ 4 ] -----
			POS = 0.00 0.00 0.00
			ROT = 0.00 0.00 0.00
		END_KEY
	END_KEYSET
END_MOTIONSET
#---------------------------------------
# [1] 移動モーション
#---------------------------------------
MOTIONSET
	LOOP = 1		# ループするかどうか[0:ループしない / 1:ループする]
	NUM_KEY = 2		# キー数

	KEYSET			# --- << KEY : 0 / 2 >> ---
		FRAME = 12
		KEY	# ----- [ 0 ] -----
			POS = 0.00 10.90 0.00
			ROT = 0.50 -0.00 0.00
		END_KEY

		KEY	# ----- [ 1 ] -----
			POS = 0.00 0.00 0.00
			ROT = 0.00 0.69 -0.72
		END_KEY

		KEY	# ----- [ 2 ] -----
			POS = 0.00 0.00 0.00
			ROT = 0.00 -0.69 -0.35
		END_KEY

		KEY	# ----- [ 3 ] -----
			POS = 0.00 0.00 0.00
			ROT = -0.79 0.00 0.00
		END_KEY

		KEY	# ----- [ 4 ] -----
			POS = 0.00 0.00 0.00
			ROT = 0.79 0.00 -0.00
		END_KEY

		KEY	# ----- [ 5 ] -----
			POS = 0.00 0.00 0.00
			ROT = 0.00 0.00 0.00
		END_KEY

		KEY	# ----- [ 6 ] -----
			POS = 0.00 0.00 0.00
			ROT = -1.16 0.66 0.00
		END_KEY
	END_KEYSET

	KEYSET			# --- << KEY : 1 / 2 >> ---
		FRAME = 15
		KEY	# ----- [ 0 ] -----
			POS = 0.00 10.90 0.00
			ROT = 0.50 0.00 0.00
		END_KEY

		KEY	# ----- [ 1 ] -----
			POS = 0.00 0.00 0.00
			ROT = 0.00 0.69 0.35
		END_KEY

		KEY	# ----- [ 2 ] -----
			POS = 0.00 0.00 0.00
			ROT = 0.00 -0.69 1.19
		END_KEY

		KEY	# ----- [ 3 ] -----
			POS = 0.00 0.00 0.00
			ROT = 0.79 -0.00 0.00
		END_KEY

		KEY	# ----- [ 4 ] -----
			POS = 0.00 0.00 0.00
			ROT = -0.79 0.00 -0.00
		END_KEY

		KEY	# ----- [ 5 ] -----
			POS = 0.00 0.00 0.00
			ROT = 0.00 0.00 0.00
		END_KEY

		KEY	# ----- [ 6 ] -----
			POS = 0.00 0.00 0.00
			ROT = -1.16 -0.47 -0.00
		END_KEY
	END_KEYSET
END_MOTIONSET


#---------------------------------------
# [2] アクションモーション
#---------------------------------------
MOTIONSET
	LOOP = 0		# ループするかどうか[0:ループしない / 1:ループする]
	NUM_KEY = 3		# キー数

	KEYSET			# --- << KEY : 0 / 3 >> ---
		FRAME = 10
		KEY	# ----- [ 0 ] -----
			POS = 0.00 -1.50 0.00
			ROT = -0.22 0.13 0.00
		END_KEY

		KEY	# ----- [ 1 ] -----
			POS = 0.00 0.00 0.00
			ROT = 0.75 0.00 0.00
		END_KEY

		KEY	# ----- [ 2 ] -----
			POS = 0.00 0.00 0.00
			ROT = 0.75 0.00 0.00
		END_KEY

		KEY	# ----- [ 3 ] -----
			POS = 0.00 0.00 0.00
			ROT = -0.00 0.00 0.00
		END_KEY

		KEY	# ----- [ 4 ] -----
			POS = 0.00 0.00 0.00
			ROT = -0.00 0.00 0.00
		END_KEY

		KEY	# ----- [ 5 ] -----
			POS = 0.00 0.00 0.00
			ROT = -0.35 0.66 0.00
		END_KEY

		KEY	# ----- [ 6 ] -----
			POS = 0.00 0.00 0.00
			ROT = 0.00 0.69 0.00
		END_KEY
	END_KEYSET

	KEYSET			# --- << KEY : 1 / 3 >> ---
		FRAME = 12
		KEY	# ----- [ 0 ] -----
			POS = 0.00 -1.50 0.00
			ROT = -0.19 0.00 0.00
		END_KEY

		KEY	# ----- [ 1 ] -----
			POS = 0.00 0.00 0.00
			ROT = 0.35 0.00 0.00
		END_KEY

		KEY	# ----- [ 2 ] -----
			POS = 0.00 0.00 0.00
			ROT = 0.63 -0.00 0.00
		END_KEY

		KEY	# ----- [ 3 ] -----
			POS = 0.00 0.00 0.00
			ROT = -0.00 0.00 0.00
		END_KEY

		KEY	# ----- [ 4 ] -----
			POS = 0.00 0.00 0.00
			ROT = -0.00 0.00 0.00
		END_KEY

		KEY	# ----- [ 5 ] -----
			POS = 0.00 0.00 0.00
			ROT = -0.35 0.66 0.00
		END_KEY

		KEY	# ----- [ 6 ] -----
			POS = 0.00 0.00 0.00
			ROT = 0.00 0.44 0.00
		END_KEY
	END_KEYSET

	KEYSET			# --- << KEY : 2 / 3 >> ---
		FRAME = 30
		KEY	# ----- [ 0 ] -----
			POS = 0.00 -1.50 0.00
			ROT = 0.28 -0.50 0.00
		END_KEY

		KEY	# ----- [ 1 ] -----
			POS = 0.00 0.00 0.00
			ROT = -0.00 0.00 0.00
		END_KEY

		KEY	# ----- [ 2 ] -----
			POS = 0.00 0.00 0.00
			ROT = 0.00 -0.00 0.00
		END_KEY

		KEY	# ----- [ 3 ] -----
			POS = 0.00 0.00 0.00
			ROT = -0.00 0.00 0.00
		END_KEY

		KEY	# ----- [ 4 ] -----
			POS = 0.00 0.00 0.00
			ROT = -0.00 0.00 0.00
		END_KEY

		KEY	# ----- [ 5 ] -----
			POS = 0.00 0.00 0.00
			ROT = 0.50 -0.35 0.00
		END_KEY

		KEY	# ----- [ 6 ] -----
			POS = 0.00 0.00 0.00
			ROT = 0.00 -0.72 -0.00
		END_KEY
	END_KEYSET
END_MOTIONSET
#---------------------------------------
# [3] ジャンプモーション
#---------------------------------------
MOTIONSET
	LOOP = 0		# ループするかどうか[0:ループしない / 1:ループする]
	NUM_KEY = 2		# キー数

	KEYSET			# --- << KEY : 0 / 2 >> ---
		FRAME = 20
		KEY	# ----- [ 0 ] -----
			POS = 0.00 0.00 0.00
			ROT = 0.00 0.00 0.00
		END_KEY

		KEY	# ----- [ 1 ] -----
			POS = 0.00 0.00 0.00
			ROT = 0.00 0.00 -0.50
		END_KEY

		KEY	# ----- [ 2 ] -----
			POS = 0.00 0.00 0.00
			ROT = 0.00 -0.00 0.50
		END_KEY

		KEY	# ----- [ 3 ] -----
			POS = 0.00 0.00 0.00
			ROT = 0.00 0.00 -0.97
		END_KEY

		KEY	# ----- [ 4 ] -----
			POS = 0.00 0.00 0.00
			ROT = 0.00 0.00 0.97
		END_KEY
	END_KEYSET

	KEYSET			# --- << KEY : 1 / 2 >> ---
		FRAME = 20
		KEY	# ----- [ 0 ] -----
			POS = 0.00 0.00 0.00
			ROT = 0.00 0.00 0.00
		END_KEY

		KEY	# ----- [ 1 ] -----
			POS = 0.00 0.00 0.00
			ROT = 0.00 0.00 -0.50
		END_KEY

		KEY	# ----- [ 2 ] -----
			POS = 0.00 0.00 0.00
			ROT = 0.00 0.00 0.50
		END_KEY

		KEY	# ----- [ 3 ] -----
			POS = 0.00 0.00 0.00
			ROT = 0.00 0.00 -0.88
		END_KEY

		KEY	# ----- [ 4 ] -----
			POS = 0.00 0.00 0.00
			ROT = 0.00 0.00 0.88
		END_KEY
	END_KEYSET
END_MOTIONSET

#---------------------------------------
# [4] 着地モーション
#---------------------------------------
MOTIONSET
	LOOP = 0		# ループするかどうか[0:ループしない / 1:ループする]
	NUM_KEY = 2		# キー数

	KEYSET			# --- << KEY : 0 / 2 >> ---
		FRAME = 30
		KEY	# ----- [ 0 ] -----
			POS = 0.00 -1.00 0.00
			ROT = -0.44 0.00 0.00
		END_KEY

		KEY	# ----- [ 1 ] -----
			POS = 0.00 0.00 0.00
			ROT = 0.00 -0.75 0.00
		END_KEY

		KEY	# ----- [ 2 ] -----
			POS = 0.00 0.00 0.00
			ROT = 0.00 0.75 0.00
		END_KEY

		KEY	# ----- [ 3 ] -----
			POS = 0.00 0.00 0.00
			ROT = 0.79 0.00 0.00
		END_KEY

		KEY	# ----- [ 4 ] -----
			POS = 0.00 0.00 0.00
			ROT = 0.79 0.00 0.00
		END_KEY
	END_KEYSET

	KEYSET			# --- << KEY : 1 / 2 >> ---
		FRAME = 30
		KEY	# ----- [ 0 ] -----
			POS = 0.00 0.00 0.00
			ROT = -0.31 0.00 0.00
		END_KEY

		KEY	# ----- [ 1 ] -----
			POS = 0.00 0.00 0.00
			ROT = 0.00 -0.38 0.00
		END_KEY

		KEY	# ----- [ 2 ] -----
			POS = 0.00 0.00 0.00
			ROT = 0.00 0.38 0.00
		END_KEY

		KEY	# ----- [ 3 ] -----
			POS = 0.00 0.00 0.00
			ROT = 0.38 0.00 0.00
		END_KEY

		KEY	# ----- [ 4 ] -----
			POS = 0.00 0.00 0.00
			ROT = 0.38 0.00 0.00
		END_KEY
	END_KEYSET
END_MOTIONSET

END_SCRIPT		# この行は絶対消さないこと！
