xof 0302txt 0064
template Header {
 <3D82AB43-62DA-11cf-AB39-0020AF71E433>
 WORD major;
 WORD minor;
 DWORD flags;
}

template Vector {
 <3D82AB5E-62DA-11cf-AB39-0020AF71E433>
 FLOAT x;
 FLOAT y;
 FLOAT z;
}

template Coords2d {
 <F6F23F44-7686-11cf-8F52-0040333594A3>
 FLOAT u;
 FLOAT v;
}

template Matrix4x4 {
 <F6F23F45-7686-11cf-8F52-0040333594A3>
 array FLOAT matrix[16];
}

template ColorRGBA {
 <35FF44E0-6C7C-11cf-8F52-0040333594A3>
 FLOAT red;
 FLOAT green;
 FLOAT blue;
 FLOAT alpha;
}

template ColorRGB {
 <D3E16E81-7835-11cf-8F52-0040333594A3>
 FLOAT red;
 FLOAT green;
 FLOAT blue;
}

template IndexedColor {
 <1630B820-7842-11cf-8F52-0040333594A3>
 DWORD index;
 ColorRGBA indexColor;
}

template Boolean {
 <4885AE61-78E8-11cf-8F52-0040333594A3>
 WORD truefalse;
}

template Boolean2d {
 <4885AE63-78E8-11cf-8F52-0040333594A3>
 Boolean u;
 Boolean v;
}

template MaterialWrap {
 <4885AE60-78E8-11cf-8F52-0040333594A3>
 Boolean u;
 Boolean v;
}

template TextureFilename {
 <A42790E1-7810-11cf-8F52-0040333594A3>
 STRING filename;
}

template Material {
 <3D82AB4D-62DA-11cf-AB39-0020AF71E433>
 ColorRGBA faceColor;
 FLOAT power;
 ColorRGB specularColor;
 ColorRGB emissiveColor;
 [...]
}

template MeshFace {
 <3D82AB5F-62DA-11cf-AB39-0020AF71E433>
 DWORD nFaceVertexIndices;
 array DWORD faceVertexIndices[nFaceVertexIndices];
}

template MeshFaceWraps {
 <4885AE62-78E8-11cf-8F52-0040333594A3>
 DWORD nFaceWrapValues;
 Boolean2d faceWrapValues;
}

template MeshTextureCoords {
 <F6F23F40-7686-11cf-8F52-0040333594A3>
 DWORD nTextureCoords;
 array Coords2d textureCoords[nTextureCoords];
}

template MeshMaterialList {
 <F6F23F42-7686-11cf-8F52-0040333594A3>
 DWORD nMaterials;
 DWORD nFaceIndexes;
 array DWORD faceIndexes[nFaceIndexes];
 [Material]
}

template MeshNormals {
 <F6F23F43-7686-11cf-8F52-0040333594A3>
 DWORD nNormals;
 array Vector normals[nNormals];
 DWORD nFaceNormals;
 array MeshFace faceNormals[nFaceNormals];
}

template MeshVertexColors {
 <1630B821-7842-11cf-8F52-0040333594A3>
 DWORD nVertexColors;
 array IndexedColor vertexColors[nVertexColors];
}

template Mesh {
 <3D82AB44-62DA-11cf-AB39-0020AF71E433>
 DWORD nVertices;
 array Vector vertices[nVertices];
 DWORD nFaces;
 array MeshFace faces[nFaces];
 [...]
}

Header{
1;
0;
1;
}

Mesh {
 43;
 -0.04881;-2.32983;-2.71037;,
 1.70098;-2.06066;-1.90151;,
 1.18533;-10.26546;-2.30964;,
 -0.04881;-10.26546;-3.04170;,
 2.42577;-2.06066;0.05119;,
 1.69652;-10.26546;-0.54231;,
 1.70098;-2.06066;2.00390;,
 1.18533;-10.26546;1.22503;,
 -0.04881;-2.32983;2.81275;,
 -0.04881;-10.26546;1.95708;,
 -1.79860;-0.82866;2.00390;,
 -1.28294;-10.26546;1.22503;,
 -2.52338;-0.82866;0.05119;,
 -1.79414;-10.26546;-0.54231;,
 -1.79860;-0.82866;-1.90151;,
 -1.28294;-10.26546;-2.30964;,
 -0.04881;-2.32983;-2.71037;,
 -0.04881;-10.26546;-3.04170;,
 2.36953;-13.32769;-7.11815;,
 0.03275;-13.32769;-8.50424;,
 2.69902;-12.40561;-4.17050;,
 1.89420;-12.40561;-1.38804;,
 -0.04881;-12.40561;-0.23548;,
 -1.99182;-12.40561;-1.38804;,
 -3.27196;-13.32769;-3.77176;,
 -2.30404;-13.32769;-7.11815;,
 0.03275;-13.32769;-8.50424;,
 -0.04881;-2.32983;0.05119;,
 -0.04881;-2.32983;0.05119;,
 -0.04881;-2.32983;0.05119;,
 -0.04881;-2.32983;0.05119;,
 -0.04881;-2.32983;0.05119;,
 -0.04881;-2.32983;0.05119;,
 -0.04881;-2.32983;0.05119;,
 -0.04881;-2.32983;0.05119;,
 0.03275;-13.32769;-3.77176;,
 0.03275;-13.32769;-3.77176;,
 0.03275;-13.32769;-3.77176;,
 0.03275;-13.32769;-3.77176;,
 0.03275;-13.32769;-3.77176;,
 0.03275;-13.32769;-3.77176;,
 0.03275;-13.32769;-3.77176;,
 0.03275;-13.32769;-3.77176;;
 
 32;
 4;0,1,2,3;,
 4;1,4,5,2;,
 4;4,6,7,5;,
 4;6,8,9,7;,
 4;8,10,11,9;,
 4;10,12,13,11;,
 4;12,14,15,13;,
 4;14,16,17,15;,
 4;3,2,18,19;,
 4;2,5,20,18;,
 4;5,7,21,20;,
 4;7,9,22,21;,
 4;9,11,23,22;,
 4;11,13,24,23;,
 4;13,15,25,24;,
 4;15,17,26,25;,
 3;27,1,0;,
 3;28,4,1;,
 3;29,6,4;,
 3;30,8,6;,
 3;31,10,8;,
 3;32,12,10;,
 3;33,14,12;,
 3;34,16,14;,
 3;35,19,18;,
 3;36,18,20;,
 3;37,20,21;,
 3;38,21,22;,
 3;39,22,23;,
 3;40,23,24;,
 3;41,24,25;,
 3;42,25,26;;
 
 MeshMaterialList {
  3;
  32;
  2,
  2,
  2,
  2,
  2,
  2,
  2,
  2,
  0,
  0,
  0,
  0,
  0,
  0,
  0,
  0,
  2,
  2,
  2,
  2,
  2,
  2,
  2,
  2,
  0,
  0,
  0,
  0,
  0,
  0,
  0,
  0;;
  Material {
   0.000000;0.000000;0.000000;1.000000;;
   5.000000;
   0.000000;0.000000;0.000000;;
   0.000000;0.000000;0.000000;;
  }
  Material {
   0.282353;0.150588;0.034510;1.000000;;
   5.000000;
   0.000000;0.000000;0.000000;;
   0.000000;0.000000;0.000000;;
  }
  Material {
   0.379608;0.266667;0.213333;1.000000;;
   5.000000;
   0.000000;0.000000;0.000000;;
   0.000000;0.000000;0.000000;;
  }
 }
 MeshNormals {
  37;
  0.243884;0.969805;0.000000;,
  0.002687;0.030485;-0.999532;,
  0.762573;-0.013411;-0.646763;,
  0.996851;-0.079293;-0.000555;,
  0.761323;-0.107930;0.639326;,
  -0.015373;-0.112877;0.993490;,
  -0.771951;-0.096746;0.628276;,
  -0.997616;-0.069003;-0.000421;,
  -0.760897;-0.010210;-0.648793;,
  0.794686;0.254830;-0.550941;,
  0.989183;0.146486;0.007686;,
  0.769594;-0.246308;0.589116;,
  -0.007939;-0.448355;0.893821;,
  -0.752960;-0.250906;0.608356;,
  -0.992639;0.111199;0.047989;,
  -0.719694;0.416371;-0.555586;,
  -0.001803;0.872275;-0.489012;,
  0.490106;0.789872;-0.368643;,
  0.924604;0.380589;0.016098;,
  0.537681;-0.755695;0.373932;,
  0.001003;-0.875087;0.483965;,
  -0.422638;-0.767465;0.482052;,
  -0.948886;0.300017;0.098012;,
  -0.547907;0.753448;-0.363475;,
  0.088510;-0.984123;0.153846;,
  0.276850;0.839950;-0.466731;,
  -0.130103;0.991297;0.020061;,
  0.274643;0.961546;0.000000;,
  -0.108136;0.994136;0.000000;,
  -0.130103;0.991297;-0.020061;,
  0.584795;0.805568;-0.095265;,
  0.518663;0.854979;0.000000;,
  0.584795;0.805568;0.095265;,
  0.000000;-1.000000;0.000000;,
  0.178993;-0.975878;0.124991;,
  0.344800;-0.922898;0.171385;,
  0.000000;-0.983019;0.183504;;
  32;
  4;1,2,9,1;,
  4;2,3,10,9;,
  4;3,4,11,10;,
  4;4,5,12,11;,
  4;5,6,13,12;,
  4;6,7,14,13;,
  4;7,8,15,14;,
  4;8,1,1,15;,
  4;16,25,17,16;,
  4;9,10,18,17;,
  4;10,11,19,18;,
  4;11,12,20,19;,
  4;12,13,21,20;,
  4;13,14,22,21;,
  4;14,15,23,22;,
  4;15,16,16,23;,
  3;0,26,27;,
  3;0,28,26;,
  3;0,29,28;,
  3;0,27,29;,
  3;0,30,27;,
  3;0,31,30;,
  3;0,32,31;,
  3;0,27,32;,
  3;24,33,34;,
  3;24,34,35;,
  3;24,35,19;,
  3;24,19,20;,
  3;24,20,21;,
  3;24,21,36;,
  3;24,36,33;,
  3;24,33,33;;
 }
 MeshTextureCoords {
  43;
  0.000000;0.000000;,
  0.125000;0.000000;,
  0.125000;0.500000;,
  0.000000;0.500000;,
  0.250000;0.000000;,
  0.250000;0.500000;,
  0.375000;0.000000;,
  0.375000;0.500000;,
  0.500000;0.000000;,
  0.500000;0.500000;,
  0.625000;0.000000;,
  0.625000;0.500000;,
  0.750000;0.000000;,
  0.750000;0.500000;,
  0.875000;0.000000;,
  0.875000;0.500000;,
  1.000000;0.000000;,
  1.000000;0.500000;,
  0.125000;1.000000;,
  0.000000;1.000000;,
  0.250000;1.000000;,
  0.375000;1.000000;,
  0.500000;1.000000;,
  0.625000;1.000000;,
  0.750000;1.000000;,
  0.875000;1.000000;,
  1.000000;1.000000;,
  0.062500;0.000000;,
  0.187500;0.000000;,
  0.312500;0.000000;,
  0.437500;0.000000;,
  0.562500;0.000000;,
  0.687500;0.000000;,
  0.812500;0.000000;,
  0.937500;0.000000;,
  0.062500;1.000000;,
  0.187500;1.000000;,
  0.312500;1.000000;,
  0.437500;1.000000;,
  0.562500;1.000000;,
  0.687500;1.000000;,
  0.812500;1.000000;,
  0.937500;1.000000;;
 }
}
