xof 0302txt 0064
template Header {
 <3D82AB43-62DA-11cf-AB39-0020AF71E433>
 WORD major;
 WORD minor;
 DWORD flags;
}

template Vector {
 <3D82AB5E-62DA-11cf-AB39-0020AF71E433>
 FLOAT x;
 FLOAT y;
 FLOAT z;
}

template Coords2d {
 <F6F23F44-7686-11cf-8F52-0040333594A3>
 FLOAT u;
 FLOAT v;
}

template Matrix4x4 {
 <F6F23F45-7686-11cf-8F52-0040333594A3>
 array FLOAT matrix[16];
}

template ColorRGBA {
 <35FF44E0-6C7C-11cf-8F52-0040333594A3>
 FLOAT red;
 FLOAT green;
 FLOAT blue;
 FLOAT alpha;
}

template ColorRGB {
 <D3E16E81-7835-11cf-8F52-0040333594A3>
 FLOAT red;
 FLOAT green;
 FLOAT blue;
}

template IndexedColor {
 <1630B820-7842-11cf-8F52-0040333594A3>
 DWORD index;
 ColorRGBA indexColor;
}

template Boolean {
 <4885AE61-78E8-11cf-8F52-0040333594A3>
 WORD truefalse;
}

template Boolean2d {
 <4885AE63-78E8-11cf-8F52-0040333594A3>
 Boolean u;
 Boolean v;
}

template MaterialWrap {
 <4885AE60-78E8-11cf-8F52-0040333594A3>
 Boolean u;
 Boolean v;
}

template TextureFilename {
 <A42790E1-7810-11cf-8F52-0040333594A3>
 STRING filename;
}

template Material {
 <3D82AB4D-62DA-11cf-AB39-0020AF71E433>
 ColorRGBA faceColor;
 FLOAT power;
 ColorRGB specularColor;
 ColorRGB emissiveColor;
 [...]
}

template MeshFace {
 <3D82AB5F-62DA-11cf-AB39-0020AF71E433>
 DWORD nFaceVertexIndices;
 array DWORD faceVertexIndices[nFaceVertexIndices];
}

template MeshFaceWraps {
 <4885AE62-78E8-11cf-8F52-0040333594A3>
 DWORD nFaceWrapValues;
 Boolean2d faceWrapValues;
}

template MeshTextureCoords {
 <F6F23F40-7686-11cf-8F52-0040333594A3>
 DWORD nTextureCoords;
 array Coords2d textureCoords[nTextureCoords];
}

template MeshMaterialList {
 <F6F23F42-7686-11cf-8F52-0040333594A3>
 DWORD nMaterials;
 DWORD nFaceIndexes;
 array DWORD faceIndexes[nFaceIndexes];
 [Material]
}

template MeshNormals {
 <F6F23F43-7686-11cf-8F52-0040333594A3>
 DWORD nNormals;
 array Vector normals[nNormals];
 DWORD nFaceNormals;
 array MeshFace faceNormals[nFaceNormals];
}

template MeshVertexColors {
 <1630B821-7842-11cf-8F52-0040333594A3>
 DWORD nVertexColors;
 array IndexedColor vertexColors[nVertexColors];
}

template Mesh {
 <3D82AB44-62DA-11cf-AB39-0020AF71E433>
 DWORD nVertices;
 array Vector vertices[nVertices];
 DWORD nFaces;
 array MeshFace faces[nFaces];
 [...]
}

Header{
1;
0;
1;
}

Mesh {
 43;
 -0.11563;-0.01946;-1.02116;,
 -0.11563;-8.55827;-1.37949;,
 -1.24380;-8.55827;-0.91219;,
 -0.99042;-0.01946;-0.65881;,
 -1.71110;-8.55827;0.21598;,
 -1.35277;-0.01946;0.21598;,
 -1.24380;-8.55827;1.34415;,
 -0.99042;-0.01946;1.09077;,
 -0.11563;-8.55827;1.81145;,
 -0.11563;-0.01946;1.45312;,
 1.01253;-8.55827;1.34415;,
 0.75916;-0.01946;1.09077;,
 1.47984;-8.55827;0.21598;,
 1.12151;-0.01946;0.21598;,
 1.01253;-8.55827;-0.91219;,
 0.75916;-0.01946;-0.65881;,
 -0.11563;-8.55827;-1.37949;,
 -0.11563;-0.01946;-1.02116;,
 -0.19018;-11.74516;-4.86647;,
 -2.32633;-11.74516;-3.98166;,
 -2.62752;-10.78554;-2.10005;,
 -1.89181;-10.78554;-0.32388;,
 -0.11563;-10.78554;0.41184;,
 1.66054;-10.78554;-0.32388;,
 2.83077;-11.74516;-1.84552;,
 1.94596;-11.74516;-3.98166;,
 -0.19018;-11.74516;-4.86647;,
 -0.11563;-0.01946;0.21598;,
 -0.11563;-0.01946;0.21598;,
 -0.11563;-0.01946;0.21598;,
 -0.11563;-0.01946;0.21598;,
 -0.11563;-0.01946;0.21598;,
 -0.11563;-0.01946;0.21598;,
 -0.11563;-0.01946;0.21598;,
 -0.11563;-0.01946;0.21598;,
 -0.19018;-11.74516;-1.84552;,
 -0.19018;-11.74516;-1.84552;,
 -0.19018;-11.74516;-1.84552;,
 -0.19018;-11.74516;-1.84552;,
 -0.19018;-11.74516;-1.84552;,
 -0.19018;-11.74516;-1.84552;,
 -0.19018;-11.74516;-1.84552;,
 -0.19018;-11.74516;-1.84552;;
 
 32;
 4;0,1,2,3;,
 4;3,2,4,5;,
 4;5,4,6,7;,
 4;7,6,8,9;,
 4;9,8,10,11;,
 4;11,10,12,13;,
 4;13,12,14,15;,
 4;15,14,16,17;,
 4;1,18,19,2;,
 4;2,19,20,4;,
 4;4,20,21,6;,
 4;6,21,22,8;,
 4;8,22,23,10;,
 4;10,23,24,12;,
 4;12,24,25,14;,
 4;14,25,26,16;,
 3;27,0,3;,
 3;28,3,5;,
 3;29,5,7;,
 3;30,7,9;,
 3;31,9,11;,
 3;32,11,13;,
 3;33,13,15;,
 3;34,15,17;,
 3;35,19,18;,
 3;36,20,19;,
 3;37,21,20;,
 3;38,22,21;,
 3;39,23,22;,
 3;40,24,23;,
 3;41,25,24;,
 3;42,26,25;;
 
 MeshMaterialList {
  3;
  32;
  2,
  2,
  2,
  2,
  2,
  2,
  2,
  2,
  0,
  0,
  0,
  0,
  0,
  0,
  0,
  0,
  2,
  2,
  2,
  2,
  2,
  2,
  2,
  2,
  0,
  0,
  0,
  0,
  0,
  0,
  0,
  0;;
  Material {
   0.000000;0.000000;0.000000;1.000000;;
   5.000000;
   0.000000;0.000000;0.000000;;
   0.000000;0.000000;0.000000;;
  }
  Material {
   0.282353;0.150588;0.034510;1.000000;;
   5.000000;
   0.000000;0.000000;0.000000;;
   0.000000;0.000000;0.000000;;
  }
  Material {
   0.379608;0.266667;0.213333;1.000000;;
   5.000000;
   0.000000;0.000000;0.000000;;
   0.000000;0.000000;0.000000;;
  }
 }
 MeshNormals {
  32;
  0.000000;1.000000;0.000000;,
  -0.000000;0.041928;-0.999121;,
  -0.706485;0.041928;-0.706485;,
  -0.999121;0.041928;0.000000;,
  -0.706485;0.041928;0.706485;,
  -0.000000;0.041928;0.999121;,
  0.706485;0.041928;0.706485;,
  0.999121;0.041928;0.000000;,
  0.706485;0.041928;-0.706485;,
  0.000691;0.430226;-0.902721;,
  -0.640514;0.400318;-0.655353;,
  -0.981037;0.193754;0.005073;,
  -0.711822;-0.122998;0.691506;,
  -0.000000;-0.259806;0.965661;,
  0.682137;-0.131938;0.719223;,
  0.985768;0.158537;0.055927;,
  0.665994;0.374481;-0.645149;,
  0.001251;0.738142;-0.674644;,
  -0.496389;0.692459;-0.523544;,
  -0.691165;0.623913;-0.364722;,
  -0.524637;-0.684805;0.505765;,
  -0.000980;-0.765595;0.643322;,
  0.384859;-0.664199;0.640877;,
  0.852443;-0.056812;0.519724;,
  0.552440;0.656506;-0.513625;,
  -0.097958;-0.966128;0.238750;,
  -0.923733;-0.017796;0.382622;,
  0.778447;0.538564;-0.322442;,
  -0.194137;-0.961573;0.194137;,
  0.000000;-1.000000;0.000000;,
  -0.377069;-0.887090;0.266251;,
  -0.000000;-0.960688;0.277631;;
  32;
  4;1,9,10,2;,
  4;2,10,11,3;,
  4;3,11,12,4;,
  4;4,12,13,5;,
  4;5,13,14,6;,
  4;6,14,15,7;,
  4;7,15,16,8;,
  4;8,16,9,1;,
  4;9,17,18,10;,
  4;10,18,19,11;,
  4;11,26,20,12;,
  4;12,20,21,13;,
  4;13,21,22,14;,
  4;14,22,23,15;,
  4;15,27,24,16;,
  4;16,24,17,9;,
  3;0,0,0;,
  3;0,0,0;,
  3;0,0,0;,
  3;0,0,0;,
  3;0,0,0;,
  3;0,0,0;,
  3;0,0,0;,
  3;0,0,0;,
  3;25,28,29;,
  3;25,30,28;,
  3;25,20,30;,
  3;25,21,20;,
  3;25,22,21;,
  3;25,31,22;,
  3;25,29,31;,
  3;25,29,29;;
 }
 MeshTextureCoords {
  43;
  0.000000;0.000000;,
  0.000000;0.500000;,
  0.125000;0.500000;,
  0.125000;0.000000;,
  0.250000;0.500000;,
  0.250000;0.000000;,
  0.375000;0.500000;,
  0.375000;0.000000;,
  0.500000;0.500000;,
  0.500000;0.000000;,
  0.625000;0.500000;,
  0.625000;0.000000;,
  0.750000;0.500000;,
  0.750000;0.000000;,
  0.875000;0.500000;,
  0.875000;0.000000;,
  1.000000;0.500000;,
  1.000000;0.000000;,
  0.000000;1.000000;,
  0.125000;1.000000;,
  0.250000;1.000000;,
  0.375000;1.000000;,
  0.500000;1.000000;,
  0.625000;1.000000;,
  0.750000;1.000000;,
  0.875000;1.000000;,
  1.000000;1.000000;,
  0.062500;0.000000;,
  0.187500;0.000000;,
  0.312500;0.000000;,
  0.437500;0.000000;,
  0.562500;0.000000;,
  0.687500;0.000000;,
  0.812500;0.000000;,
  0.937500;0.000000;,
  0.062500;1.000000;,
  0.187500;1.000000;,
  0.312500;1.000000;,
  0.437500;1.000000;,
  0.562500;1.000000;,
  0.687500;1.000000;,
  0.812500;1.000000;,
  0.937500;1.000000;;
 }
}
