xof 0302txt 0064
template Header {
 <3D82AB43-62DA-11cf-AB39-0020AF71E433>
 WORD major;
 WORD minor;
 DWORD flags;
}

template Vector {
 <3D82AB5E-62DA-11cf-AB39-0020AF71E433>
 FLOAT x;
 FLOAT y;
 FLOAT z;
}

template Coords2d {
 <F6F23F44-7686-11cf-8F52-0040333594A3>
 FLOAT u;
 FLOAT v;
}

template Matrix4x4 {
 <F6F23F45-7686-11cf-8F52-0040333594A3>
 array FLOAT matrix[16];
}

template ColorRGBA {
 <35FF44E0-6C7C-11cf-8F52-0040333594A3>
 FLOAT red;
 FLOAT green;
 FLOAT blue;
 FLOAT alpha;
}

template ColorRGB {
 <D3E16E81-7835-11cf-8F52-0040333594A3>
 FLOAT red;
 FLOAT green;
 FLOAT blue;
}

template IndexedColor {
 <1630B820-7842-11cf-8F52-0040333594A3>
 DWORD index;
 ColorRGBA indexColor;
}

template Boolean {
 <4885AE61-78E8-11cf-8F52-0040333594A3>
 WORD truefalse;
}

template Boolean2d {
 <4885AE63-78E8-11cf-8F52-0040333594A3>
 Boolean u;
 Boolean v;
}

template MaterialWrap {
 <4885AE60-78E8-11cf-8F52-0040333594A3>
 Boolean u;
 Boolean v;
}

template TextureFilename {
 <A42790E1-7810-11cf-8F52-0040333594A3>
 STRING filename;
}

template Material {
 <3D82AB4D-62DA-11cf-AB39-0020AF71E433>
 ColorRGBA faceColor;
 FLOAT power;
 ColorRGB specularColor;
 ColorRGB emissiveColor;
 [...]
}

template MeshFace {
 <3D82AB5F-62DA-11cf-AB39-0020AF71E433>
 DWORD nFaceVertexIndices;
 array DWORD faceVertexIndices[nFaceVertexIndices];
}

template MeshFaceWraps {
 <4885AE62-78E8-11cf-8F52-0040333594A3>
 DWORD nFaceWrapValues;
 Boolean2d faceWrapValues;
}

template MeshTextureCoords {
 <F6F23F40-7686-11cf-8F52-0040333594A3>
 DWORD nTextureCoords;
 array Coords2d textureCoords[nTextureCoords];
}

template MeshMaterialList {
 <F6F23F42-7686-11cf-8F52-0040333594A3>
 DWORD nMaterials;
 DWORD nFaceIndexes;
 array DWORD faceIndexes[nFaceIndexes];
 [Material]
}

template MeshNormals {
 <F6F23F43-7686-11cf-8F52-0040333594A3>
 DWORD nNormals;
 array Vector normals[nNormals];
 DWORD nFaceNormals;
 array MeshFace faceNormals[nFaceNormals];
}

template MeshVertexColors {
 <1630B821-7842-11cf-8F52-0040333594A3>
 DWORD nVertexColors;
 array IndexedColor vertexColors[nVertexColors];
}

template Mesh {
 <3D82AB44-62DA-11cf-AB39-0020AF71E433>
 DWORD nVertices;
 array Vector vertices[nVertices];
 DWORD nFaces;
 array MeshFace faces[nFaces];
 [...]
}

Header{
1;
0;
1;
}

Mesh {
 43;
 0.03452;0.05761;-0.99352;,
 0.90931;0.05761;-0.63118;,
 1.16268;-8.48120;-0.88455;,
 0.03452;-8.48120;-1.35185;,
 1.27166;0.05761;0.24361;,
 1.62998;-8.48120;0.24361;,
 0.90931;0.05761;1.11841;,
 1.16268;-8.48120;1.37178;,
 0.03452;0.05761;1.48075;,
 0.03452;-8.48120;1.83908;,
 -0.84028;0.05761;1.11841;,
 -1.09365;-8.48120;1.37178;,
 -1.20262;0.05761;0.24361;,
 -1.56095;-8.48120;0.24361;,
 -0.84028;0.05761;-0.63118;,
 -1.09365;-8.48120;-0.88455;,
 0.03452;0.05761;-0.99352;,
 0.03452;-8.48120;-1.35185;,
 2.24521;-11.66809;-3.95402;,
 0.10907;-11.66809;-4.83884;,
 2.54641;-10.70846;-2.07242;,
 1.81069;-10.70846;-0.29624;,
 0.03452;-10.70846;0.43947;,
 -1.74166;-10.70846;-0.29624;,
 -2.91189;-11.66809;-1.81788;,
 -2.02707;-11.66809;-3.95402;,
 0.10907;-11.66809;-4.83884;,
 0.03452;0.05761;0.24361;,
 0.03452;0.05761;0.24361;,
 0.03452;0.05761;0.24361;,
 0.03452;0.05761;0.24361;,
 0.03452;0.05761;0.24361;,
 0.03452;0.05761;0.24361;,
 0.03452;0.05761;0.24361;,
 0.03452;0.05761;0.24361;,
 0.10907;-11.66809;-1.81788;,
 0.10907;-11.66809;-1.81788;,
 0.10907;-11.66809;-1.81788;,
 0.10907;-11.66809;-1.81788;,
 0.10907;-11.66809;-1.81788;,
 0.10907;-11.66809;-1.81788;,
 0.10907;-11.66809;-1.81788;,
 0.10907;-11.66809;-1.81788;;
 
 32;
 4;0,1,2,3;,
 4;1,4,5,2;,
 4;4,6,7,5;,
 4;6,8,9,7;,
 4;8,10,11,9;,
 4;10,12,13,11;,
 4;12,14,15,13;,
 4;14,16,17,15;,
 4;3,2,18,19;,
 4;2,5,20,18;,
 4;5,7,21,20;,
 4;7,9,22,21;,
 4;9,11,23,22;,
 4;11,13,24,23;,
 4;13,15,25,24;,
 4;15,17,26,25;,
 3;27,1,0;,
 3;28,4,1;,
 3;29,6,4;,
 3;30,8,6;,
 3;31,10,8;,
 3;32,12,10;,
 3;33,14,12;,
 3;34,16,14;,
 3;35,19,18;,
 3;36,18,20;,
 3;37,20,21;,
 3;38,21,22;,
 3;39,22,23;,
 3;40,23,24;,
 3;41,24,25;,
 3;42,25,26;;
 
 MeshMaterialList {
  3;
  32;
  2,
  2,
  2,
  2,
  2,
  2,
  2,
  2,
  0,
  0,
  0,
  0,
  0,
  0,
  0,
  0,
  2,
  2,
  2,
  2,
  2,
  2,
  2,
  2,
  0,
  0,
  0,
  0,
  0,
  0,
  0,
  0;;
  Material {
   0.000000;0.000000;0.000000;1.000000;;
   5.000000;
   0.000000;0.000000;0.000000;;
   0.000000;0.000000;0.000000;;
  }
  Material {
   0.282353;0.150588;0.034510;1.000000;;
   5.000000;
   0.000000;0.000000;0.000000;;
   0.000000;0.000000;0.000000;;
  }
  Material {
   0.379608;0.266667;0.213333;1.000000;;
   5.000000;
   0.000000;0.000000;0.000000;;
   0.000000;0.000000;0.000000;;
  }
 }
 MeshNormals {
  32;
  0.000000;1.000000;0.000000;,
  0.000000;0.041928;-0.999121;,
  0.706485;0.041928;-0.706485;,
  0.999121;0.041928;0.000000;,
  0.706485;0.041928;0.706485;,
  0.000000;0.041928;0.999121;,
  -0.706485;0.041928;0.706485;,
  -0.999121;0.041928;0.000000;,
  -0.706485;0.041928;-0.706485;,
  -0.000691;0.430227;-0.902721;,
  0.640514;0.400318;-0.655353;,
  0.981037;0.193754;0.005073;,
  0.711822;-0.122998;0.691506;,
  0.000000;-0.259806;0.965661;,
  -0.682137;-0.131938;0.719223;,
  -0.985768;0.158537;0.055927;,
  -0.665994;0.374481;-0.645149;,
  -0.001251;0.738142;-0.674644;,
  0.496389;0.692459;-0.523544;,
  0.691165;0.623914;-0.364722;,
  0.524637;-0.684805;0.505765;,
  0.000980;-0.765595;0.643322;,
  -0.384859;-0.664199;0.640877;,
  -0.852443;-0.056812;0.519724;,
  -0.552440;0.656506;-0.513625;,
  0.097958;-0.966128;0.238750;,
  0.923733;-0.017796;0.382622;,
  -0.778447;0.538564;-0.322442;,
  0.000000;-1.000000;0.000000;,
  0.194137;-0.961573;0.194137;,
  0.377069;-0.887090;0.266251;,
  0.000000;-0.960688;0.277631;;
  32;
  4;1,2,10,9;,
  4;2,3,11,10;,
  4;3,4,12,11;,
  4;4,5,13,12;,
  4;5,6,14,13;,
  4;6,7,15,14;,
  4;7,8,16,15;,
  4;8,1,9,16;,
  4;9,10,18,17;,
  4;10,11,19,18;,
  4;11,12,20,26;,
  4;12,13,21,20;,
  4;13,14,22,21;,
  4;14,15,23,22;,
  4;15,16,24,27;,
  4;16,9,17,24;,
  3;0,0,0;,
  3;0,0,0;,
  3;0,0,0;,
  3;0,0,0;,
  3;0,0,0;,
  3;0,0,0;,
  3;0,0,0;,
  3;0,0,0;,
  3;25,28,29;,
  3;25,29,30;,
  3;25,30,20;,
  3;25,20,21;,
  3;25,21,22;,
  3;25,22,31;,
  3;25,31,28;,
  3;25,28,28;;
 }
 MeshTextureCoords {
  43;
  0.000000;0.000000;,
  0.125000;0.000000;,
  0.125000;0.500000;,
  0.000000;0.500000;,
  0.250000;0.000000;,
  0.250000;0.500000;,
  0.375000;0.000000;,
  0.375000;0.500000;,
  0.500000;0.000000;,
  0.500000;0.500000;,
  0.625000;0.000000;,
  0.625000;0.500000;,
  0.750000;0.000000;,
  0.750000;0.500000;,
  0.875000;0.000000;,
  0.875000;0.500000;,
  1.000000;0.000000;,
  1.000000;0.500000;,
  0.125000;1.000000;,
  0.000000;1.000000;,
  0.250000;1.000000;,
  0.375000;1.000000;,
  0.500000;1.000000;,
  0.625000;1.000000;,
  0.750000;1.000000;,
  0.875000;1.000000;,
  1.000000;1.000000;,
  0.062500;0.000000;,
  0.187500;0.000000;,
  0.312500;0.000000;,
  0.437500;0.000000;,
  0.562500;0.000000;,
  0.687500;0.000000;,
  0.812500;0.000000;,
  0.937500;0.000000;,
  0.062500;1.000000;,
  0.187500;1.000000;,
  0.312500;1.000000;,
  0.437500;1.000000;,
  0.562500;1.000000;,
  0.687500;1.000000;,
  0.812500;1.000000;,
  0.937500;1.000000;;
 }
}
