xof 0302txt 0064
template Header {
 <3D82AB43-62DA-11cf-AB39-0020AF71E433>
 WORD major;
 WORD minor;
 DWORD flags;
}

template Vector {
 <3D82AB5E-62DA-11cf-AB39-0020AF71E433>
 FLOAT x;
 FLOAT y;
 FLOAT z;
}

template Coords2d {
 <F6F23F44-7686-11cf-8F52-0040333594A3>
 FLOAT u;
 FLOAT v;
}

template Matrix4x4 {
 <F6F23F45-7686-11cf-8F52-0040333594A3>
 array FLOAT matrix[16];
}

template ColorRGBA {
 <35FF44E0-6C7C-11cf-8F52-0040333594A3>
 FLOAT red;
 FLOAT green;
 FLOAT blue;
 FLOAT alpha;
}

template ColorRGB {
 <D3E16E81-7835-11cf-8F52-0040333594A3>
 FLOAT red;
 FLOAT green;
 FLOAT blue;
}

template IndexedColor {
 <1630B820-7842-11cf-8F52-0040333594A3>
 DWORD index;
 ColorRGBA indexColor;
}

template Boolean {
 <4885AE61-78E8-11cf-8F52-0040333594A3>
 WORD truefalse;
}

template Boolean2d {
 <4885AE63-78E8-11cf-8F52-0040333594A3>
 Boolean u;
 Boolean v;
}

template MaterialWrap {
 <4885AE60-78E8-11cf-8F52-0040333594A3>
 Boolean u;
 Boolean v;
}

template TextureFilename {
 <A42790E1-7810-11cf-8F52-0040333594A3>
 STRING filename;
}

template Material {
 <3D82AB4D-62DA-11cf-AB39-0020AF71E433>
 ColorRGBA faceColor;
 FLOAT power;
 ColorRGB specularColor;
 ColorRGB emissiveColor;
 [...]
}

template MeshFace {
 <3D82AB5F-62DA-11cf-AB39-0020AF71E433>
 DWORD nFaceVertexIndices;
 array DWORD faceVertexIndices[nFaceVertexIndices];
}

template MeshFaceWraps {
 <4885AE62-78E8-11cf-8F52-0040333594A3>
 DWORD nFaceWrapValues;
 Boolean2d faceWrapValues;
}

template MeshTextureCoords {
 <F6F23F40-7686-11cf-8F52-0040333594A3>
 DWORD nTextureCoords;
 array Coords2d textureCoords[nTextureCoords];
}

template MeshMaterialList {
 <F6F23F42-7686-11cf-8F52-0040333594A3>
 DWORD nMaterials;
 DWORD nFaceIndexes;
 array DWORD faceIndexes[nFaceIndexes];
 [Material]
}

template MeshNormals {
 <F6F23F43-7686-11cf-8F52-0040333594A3>
 DWORD nNormals;
 array Vector normals[nNormals];
 DWORD nFaceNormals;
 array MeshFace faceNormals[nFaceNormals];
}

template MeshVertexColors {
 <1630B821-7842-11cf-8F52-0040333594A3>
 DWORD nVertexColors;
 array IndexedColor vertexColors[nVertexColors];
}

template Mesh {
 <3D82AB44-62DA-11cf-AB39-0020AF71E433>
 DWORD nVertices;
 array Vector vertices[nVertices];
 DWORD nFaces;
 array MeshFace faces[nFaces];
 [...]
}

Header{
1;
0;
1;
}

Mesh {
 342;
 0.00000;14.79188;-11.46032;,
 4.85013;13.65175;-13.09545;,
 0.00000;13.65175;-13.77274;,
 0.00000;14.79188;-11.46032;,
 6.85912;13.65175;-11.46032;,
 0.00000;14.79188;-11.46032;,
 4.85013;13.65175;-9.82518;,
 0.00000;14.79188;-11.46032;,
 -0.00000;13.65175;-9.14789;,
 0.00000;14.79188;-11.46032;,
 -4.85013;13.65175;-9.82518;,
 0.00000;14.79188;-11.46032;,
 -6.85912;13.65175;-11.46032;,
 0.00000;14.79188;-11.46032;,
 -4.85013;13.65175;-13.09545;,
 0.00000;14.79188;-11.46032;,
 0.00000;13.65175;-13.77274;,
 8.96187;10.40496;-14.48163;,
 0.00000;10.40496;-15.73311;,
 12.67400;10.40496;-11.46032;,
 8.96187;10.40496;-5.34106;,
 -0.00000;10.40496;-4.08958;,
 -8.96187;10.40496;-5.34106;,
 -12.67400;10.40496;-11.46032;,
 -8.96187;10.40496;-14.48163;,
 0.00000;10.40496;-15.73311;,
 6.50030;1.64989;-21.49113;,
 -0.00000;1.64989;-22.39887;,
 16.55937;5.54577;-11.46032;,
 11.70925;5.54577;-4.41483;,
 -0.00000;5.54577;-0.16478;,
 -11.70925;5.54577;-4.41483;,
 -16.55937;5.54577;-11.46032;,
 -6.50029;1.64989;-21.49113;,
 -0.00000;1.64989;-22.39887;,
 7.03588;-1.36782;-21.67169;,
 -0.00000;-1.36782;-24.96667;,
 13.15626;0.10988;-11.46032;,
 12.67400;0.10988;-4.08958;,
 -0.00000;0.10988;0.29519;,
 -12.67400;0.10988;-4.08959;,
 -13.15626;0.10988;-11.46032;,
 -7.03588;-1.36782;-21.67169;,
 -0.00000;-1.36782;-24.96667;,
 6.50030;-3.49225;-21.49113;,
 -0.00000;-3.49225;-22.39887;,
 16.55937;-3.71696;-11.46032;,
 11.70925;-3.71696;-4.41483;,
 -0.00000;-3.71696;-0.16478;,
 -11.70925;-3.71696;-4.41483;,
 -16.55937;-3.71696;-11.46032;,
 -6.50029;-3.49225;-21.49113;,
 -0.00000;-3.49225;-22.39887;,
 8.96187;-6.96119;-14.48163;,
 0.00000;-6.96119;-18.98824;,
 12.67400;-6.96119;-11.46032;,
 8.96187;-6.96119;-5.34106;,
 -0.00000;-6.96119;-4.08958;,
 -8.96187;-6.96119;-5.34106;,
 -12.67400;-6.96119;-11.46032;,
 -8.96187;-6.96119;-14.48163;,
 0.00000;-6.96119;-18.98824;,
 4.85013;-9.12892;-13.09545;,
 0.00000;-9.12892;-13.77274;,
 6.85912;-9.12892;-11.46032;,
 4.85013;-9.12892;-9.82518;,
 -0.00000;-9.12892;-9.14789;,
 -4.85013;-9.12892;-9.82518;,
 -6.85912;-9.12892;-11.46032;,
 -4.85013;-9.12892;-13.09545;,
 0.00000;-9.12892;-13.77274;,
 0.00000;-9.89012;-11.46032;,
 0.00000;-9.89012;-11.46032;,
 0.00000;-9.89012;-11.46032;,
 0.00000;-9.89012;-11.46032;,
 0.00000;-9.89012;-11.46032;,
 0.00000;-9.89012;-11.46032;,
 0.00000;-9.89012;-11.46032;,
 0.00000;-9.89012;-11.46032;,
 0.00000;1.49897;-24.73438;,
 0.61518;1.27131;-25.17480;,
 0.00000;1.27131;-25.35725;,
 0.00000;1.49897;-24.73438;,
 0.87000;1.27131;-24.73438;,
 0.00000;1.49897;-24.73438;,
 0.61518;1.27131;-24.29395;,
 0.00000;1.49897;-24.73438;,
 -0.00000;1.27131;-24.11150;,
 0.00000;1.49897;-24.73438;,
 -0.61518;1.27131;-24.29395;,
 0.00000;1.49897;-24.73438;,
 -0.87000;1.27131;-24.73438;,
 0.00000;1.49897;-24.73438;,
 -0.61518;1.27131;-25.17480;,
 0.00000;1.49897;-24.73438;,
 0.00000;1.27131;-25.35725;,
 1.13671;0.62292;-25.54820;,
 0.00000;0.62292;-25.88529;,
 1.60755;0.62292;-24.73438;,
 1.13671;0.62292;-23.92057;,
 -0.00000;0.62292;-23.58346;,
 -1.13671;0.62292;-23.92057;,
 -1.60755;0.62292;-24.73438;,
 -1.13671;0.62292;-25.54820;,
 0.00000;0.62292;-25.88529;,
 1.48518;-0.34741;-25.79767;,
 0.00000;-0.34741;-26.23809;,
 2.10036;-0.34741;-24.73438;,
 1.48518;-0.34741;-23.67109;,
 -0.00000;-0.34741;-23.23067;,
 -1.48518;-0.34741;-23.67109;,
 -2.10036;-0.34741;-24.73438;,
 -1.48518;-0.34741;-25.79767;,
 0.00000;-0.34741;-26.23809;,
 1.60755;-1.49201;-25.88529;,
 0.00000;-1.49201;-26.36198;,
 2.27342;-1.49201;-24.73438;,
 1.60755;-1.49201;-23.58346;,
 -0.00000;-1.49201;-23.10678;,
 -1.60755;-1.49201;-23.58346;,
 -2.27342;-1.49201;-24.73438;,
 -1.60755;-1.49201;-25.88529;,
 0.00000;-1.49201;-26.36198;,
 1.48518;-2.63662;-25.79767;,
 0.00000;-2.63662;-26.23809;,
 2.10036;-2.63662;-24.73438;,
 1.48518;-2.63662;-23.67109;,
 -0.00000;-2.63662;-23.23067;,
 -1.48518;-2.63662;-23.67109;,
 -2.10036;-2.63662;-24.73438;,
 -1.48518;-2.63662;-25.79767;,
 0.00000;-2.63662;-26.23809;,
 1.13671;-3.60695;-25.54820;,
 0.00000;-3.60695;-25.88529;,
 1.60755;-3.60695;-24.73438;,
 1.13671;-3.60695;-23.92057;,
 -0.00000;-3.60695;-23.58346;,
 -1.13671;-3.60695;-23.92057;,
 -1.60755;-3.60695;-24.73438;,
 -1.13671;-3.60695;-25.54820;,
 0.00000;-3.60695;-25.88529;,
 0.61518;-4.25533;-25.17480;,
 0.00000;-4.25533;-25.35725;,
 0.87000;-4.25533;-24.73438;,
 0.61518;-4.25533;-24.29395;,
 -0.00000;-4.25533;-24.11150;,
 -0.61518;-4.25533;-24.29395;,
 -0.87000;-4.25533;-24.73438;,
 -0.61518;-4.25533;-25.17480;,
 0.00000;-4.25533;-25.35725;,
 0.00000;-4.48300;-24.73438;,
 0.00000;-4.48300;-24.73438;,
 0.00000;-4.48300;-24.73438;,
 0.00000;-4.48300;-24.73438;,
 0.00000;-4.48300;-24.73438;,
 0.00000;-4.48300;-24.73438;,
 0.00000;-4.48300;-24.73438;,
 0.00000;-4.48300;-24.73438;,
 7.04182;8.55102;-17.17078;,
 8.91045;6.36461;-18.07970;,
 6.78017;8.15956;-17.77994;,
 7.04182;8.55102;-17.17078;,
 6.72530;7.87759;-17.29692;,
 7.04182;8.55102;-17.17078;,
 4.59504;9.67257;-16.99714;,
 7.04182;8.55102;-17.17078;,
 6.78017;8.15956;-17.77994;,
 9.10629;4.39407;-19.19152;,
 6.09363;6.93255;-18.76758;,
 6.01603;6.53378;-18.08447;,
 3.00338;9.07226;-17.66053;,
 6.09363;6.93255;-18.76758;,
 7.51463;3.79375;-19.85492;,
 5.38436;5.58874;-19.55515;,
 5.32949;5.30677;-19.07212;,
 3.19922;7.10171;-18.77236;,
 5.38436;5.58874;-19.55515;,
 5.06784;4.91530;-19.68130;,
 5.06784;4.91530;-19.68130;,
 5.06784;4.91530;-19.68130;,
 5.06784;4.91530;-19.68130;,
 -7.04182;8.55102;-17.17078;,
 -6.78017;8.15956;-17.77994;,
 -8.91045;6.36461;-18.07970;,
 -7.04182;8.55102;-17.17078;,
 -6.72530;7.87759;-17.29692;,
 -7.04182;8.55102;-17.17078;,
 -4.59504;9.67257;-16.99714;,
 -7.04182;8.55102;-17.17078;,
 -6.78017;8.15956;-17.77994;,
 -6.09363;6.93255;-18.76758;,
 -9.10629;4.39407;-19.19152;,
 -6.01603;6.53378;-18.08447;,
 -3.00338;9.07226;-17.66053;,
 -6.09363;6.93255;-18.76758;,
 -5.38436;5.58874;-19.55515;,
 -7.51463;3.79375;-19.85492;,
 -5.32949;5.30677;-19.07212;,
 -3.19922;7.10171;-18.77236;,
 -5.38436;5.58874;-19.55515;,
 -5.06784;4.91530;-19.68130;,
 -5.06784;4.91530;-19.68130;,
 -5.06784;4.91530;-19.68130;,
 -5.06784;4.91530;-19.68130;,
 5.90056;8.21573;-18.86116;,
 6.55236;7.86052;-18.86116;,
 5.90056;7.86052;-19.71866;,
 5.90056;8.21573;-18.86116;,
 5.90056;7.86052;-18.00364;,
 5.90056;8.21573;-18.86116;,
 5.24877;7.86052;-18.86116;,
 5.90056;8.21573;-18.86116;,
 5.90056;7.86052;-19.71866;,
 6.82233;7.00302;-18.86116;,
 5.90056;7.00302;-20.07387;,
 5.90056;7.00302;-17.64845;,
 4.97879;7.00302;-18.86116;,
 5.90056;7.00302;-20.07387;,
 6.55236;6.14551;-18.86116;,
 5.90056;6.14551;-19.71866;,
 5.90056;6.14551;-18.00364;,
 5.24877;6.14551;-18.86116;,
 5.90056;6.14551;-19.71866;,
 5.90056;5.79030;-18.86116;,
 5.90056;5.79030;-18.86116;,
 5.90056;5.79030;-18.86116;,
 5.90056;5.79030;-18.86116;,
 -5.90056;8.21573;-18.86116;,
 -5.90056;7.86052;-19.71866;,
 -6.55236;7.86052;-18.86116;,
 -5.90056;8.21573;-18.86116;,
 -5.90056;7.86052;-18.00364;,
 -5.90056;8.21573;-18.86116;,
 -5.24877;7.86052;-18.86116;,
 -5.90056;8.21573;-18.86116;,
 -5.90056;7.86052;-19.71866;,
 -5.90056;7.00302;-20.07387;,
 -6.82233;7.00302;-18.86116;,
 -5.90056;7.00302;-17.64845;,
 -4.97879;7.00302;-18.86116;,
 -5.90056;7.00302;-20.07387;,
 -5.90056;6.14551;-19.71866;,
 -6.55236;6.14551;-18.86116;,
 -5.90056;6.14551;-18.00364;,
 -5.24877;6.14551;-18.86116;,
 -5.90056;6.14551;-19.71866;,
 -5.90056;5.79030;-18.86116;,
 -5.90056;5.79030;-18.86116;,
 -5.90056;5.79030;-18.86116;,
 -5.90056;5.79030;-18.86116;,
 11.64390;23.09123;-11.46032;,
 14.62034;20.12077;-11.46032;,
 11.35187;20.60337;-12.41727;,
 11.64390;23.09123;-11.46032;,
 11.35187;20.60337;-10.50335;,
 11.64390;23.09123;-11.46032;,
 8.08339;21.08597;-11.46032;,
 11.64390;23.09123;-11.46032;,
 11.35187;20.60337;-12.41727;,
 15.26915;13.91456;-11.46032;,
 10.64682;14.59707;-12.81366;,
 10.64682;14.59707;-10.10696;,
 6.02449;15.27957;-11.46032;,
 10.64682;14.59707;-12.81366;,
 13.21027;8.10819;-11.46032;,
 9.94178;8.59080;-12.41727;,
 9.94178;8.59080;-10.50335;,
 6.67330;9.07341;-11.46032;,
 9.94178;8.59080;-12.41727;,
 9.64975;6.10292;-11.46032;,
 9.64975;6.10292;-11.46032;,
 9.64975;6.10292;-11.46032;,
 9.64975;6.10292;-11.46032;,
 -11.64390;23.09123;-11.46032;,
 -11.35187;20.60337;-12.41727;,
 -14.62034;20.12077;-11.46032;,
 -11.64390;23.09123;-11.46032;,
 -11.35187;20.60337;-10.50335;,
 -11.64390;23.09123;-11.46032;,
 -8.08339;21.08597;-11.46032;,
 -11.64390;23.09123;-11.46032;,
 -11.35187;20.60337;-12.41727;,
 -10.64682;14.59707;-12.81366;,
 -15.26915;13.91456;-11.46032;,
 -10.64682;14.59707;-10.10696;,
 -6.02449;15.27957;-11.46032;,
 -10.64682;14.59707;-12.81366;,
 -9.94178;8.59080;-12.41727;,
 -13.21027;8.10819;-11.46032;,
 -9.94178;8.59080;-10.50335;,
 -6.67330;9.07341;-11.46032;,
 -9.94178;8.59080;-12.41727;,
 -9.64975;6.10292;-11.46032;,
 -9.64975;6.10292;-11.46032;,
 -9.64975;6.10292;-11.46032;,
 -9.64975;6.10292;-11.46032;,
 -11.15789;21.30284;-12.33232;,
 -11.00820;20.02766;-12.82283;,
 -12.68350;19.78031;-12.33232;,
 -11.15789;21.30284;-12.33232;,
 -11.00820;20.02766;-11.84183;,
 -11.15789;21.30284;-12.33232;,
 -9.33290;20.27504;-12.33232;,
 -11.15789;21.30284;-12.33232;,
 -11.00820;20.02766;-12.82283;,
 -10.64682;16.94905;-13.02600;,
 -13.01605;16.59923;-12.33232;,
 -10.64682;16.94905;-11.63865;,
 -8.27758;17.29888;-12.33232;,
 -10.64682;16.94905;-13.02600;,
 -10.28544;13.87046;-12.82283;,
 -11.96075;13.62310;-12.33232;,
 -10.28544;13.87046;-11.84183;,
 -8.61014;14.11783;-12.33232;,
 -10.28544;13.87046;-12.82283;,
 -10.13576;12.59527;-12.33232;,
 -10.13576;12.59527;-12.33232;,
 -10.13576;12.59527;-12.33232;,
 -10.13576;12.59527;-12.33232;,
 11.15789;21.30284;-12.33232;,
 12.68350;19.78031;-12.33232;,
 11.00820;20.02766;-12.82283;,
 11.15789;21.30284;-12.33232;,
 11.00820;20.02766;-11.84183;,
 11.15789;21.30284;-12.33232;,
 9.33290;20.27504;-12.33232;,
 11.15789;21.30284;-12.33232;,
 11.00820;20.02766;-12.82283;,
 13.01605;16.59923;-12.33232;,
 10.64682;16.94905;-13.02600;,
 10.64682;16.94905;-11.63865;,
 8.27758;17.29888;-12.33232;,
 10.64682;16.94905;-13.02600;,
 11.96075;13.62310;-12.33232;,
 10.28544;13.87046;-12.82283;,
 10.28544;13.87046;-11.84183;,
 8.61014;14.11783;-12.33232;,
 10.28544;13.87046;-12.82283;,
 10.13576;12.59527;-12.33232;,
 10.13576;12.59527;-12.33232;,
 10.13576;12.59527;-12.33232;,
 10.13576;12.59527;-12.33232;;
 
 256;
 3;0,1,2;,
 3;3,4,1;,
 3;5,6,4;,
 3;7,8,6;,
 3;9,10,8;,
 3;11,12,10;,
 3;13,14,12;,
 3;15,16,14;,
 4;2,1,17,18;,
 4;1,4,19,17;,
 4;4,6,20,19;,
 4;6,8,21,20;,
 4;8,10,22,21;,
 4;10,12,23,22;,
 4;12,14,24,23;,
 4;14,16,25,24;,
 4;18,17,26,27;,
 4;17,19,28,26;,
 4;19,20,29,28;,
 4;20,21,30,29;,
 4;21,22,31,30;,
 4;22,23,32,31;,
 4;23,24,33,32;,
 4;24,25,34,33;,
 4;27,26,35,36;,
 4;26,28,37,35;,
 4;28,29,38,37;,
 4;29,30,39,38;,
 4;30,31,40,39;,
 4;31,32,41,40;,
 4;32,33,42,41;,
 4;33,34,43,42;,
 4;36,35,44,45;,
 4;35,37,46,44;,
 4;37,38,47,46;,
 4;38,39,48,47;,
 4;39,40,49,48;,
 4;40,41,50,49;,
 4;41,42,51,50;,
 4;42,43,52,51;,
 4;45,44,53,54;,
 4;44,46,55,53;,
 4;46,47,56,55;,
 4;47,48,57,56;,
 4;48,49,58,57;,
 4;49,50,59,58;,
 4;50,51,60,59;,
 4;51,52,61,60;,
 4;54,53,62,63;,
 4;53,55,64,62;,
 4;55,56,65,64;,
 4;56,57,66,65;,
 4;57,58,67,66;,
 4;58,59,68,67;,
 4;59,60,69,68;,
 4;60,61,70,69;,
 3;63,62,71;,
 3;62,64,72;,
 3;64,65,73;,
 3;65,66,74;,
 3;66,67,75;,
 3;67,68,76;,
 3;68,69,77;,
 3;69,70,78;,
 3;79,80,81;,
 3;82,83,80;,
 3;84,85,83;,
 3;86,87,85;,
 3;88,89,87;,
 3;90,91,89;,
 3;92,93,91;,
 3;94,95,93;,
 4;81,80,96,97;,
 4;80,83,98,96;,
 4;83,85,99,98;,
 4;85,87,100,99;,
 4;87,89,101,100;,
 4;89,91,102,101;,
 4;91,93,103,102;,
 4;93,95,104,103;,
 4;97,96,105,106;,
 4;96,98,107,105;,
 4;98,99,108,107;,
 4;99,100,109,108;,
 4;100,101,110,109;,
 4;101,102,111,110;,
 4;102,103,112,111;,
 4;103,104,113,112;,
 4;106,105,114,115;,
 4;105,107,116,114;,
 4;107,108,117,116;,
 4;108,109,118,117;,
 4;109,110,119,118;,
 4;110,111,120,119;,
 4;111,112,121,120;,
 4;112,113,122,121;,
 4;115,114,123,124;,
 4;114,116,125,123;,
 4;116,117,126,125;,
 4;117,118,127,126;,
 4;118,119,128,127;,
 4;119,120,129,128;,
 4;120,121,130,129;,
 4;121,122,131,130;,
 4;124,123,132,133;,
 4;123,125,134,132;,
 4;125,126,135,134;,
 4;126,127,136,135;,
 4;127,128,137,136;,
 4;128,129,138,137;,
 4;129,130,139,138;,
 4;130,131,140,139;,
 4;133,132,141,142;,
 4;132,134,143,141;,
 4;134,135,144,143;,
 4;135,136,145,144;,
 4;136,137,146,145;,
 4;137,138,147,146;,
 4;138,139,148,147;,
 4;139,140,149,148;,
 3;142,141,150;,
 3;141,143,151;,
 3;143,144,152;,
 3;144,145,153;,
 3;145,146,154;,
 3;146,147,155;,
 3;147,148,156;,
 3;148,149,157;,
 3;158,159,160;,
 3;161,162,159;,
 3;163,164,162;,
 3;165,166,164;,
 4;160,159,167,168;,
 4;159,162,169,167;,
 4;162,164,170,169;,
 4;164,166,171,170;,
 4;168,167,172,173;,
 4;167,169,174,172;,
 4;169,170,175,174;,
 4;170,171,176,175;,
 3;173,172,177;,
 3;172,174,178;,
 3;174,175,179;,
 3;175,176,180;,
 3;181,182,183;,
 3;184,183,185;,
 3;186,185,187;,
 3;188,187,189;,
 4;182,190,191,183;,
 4;183,191,192,185;,
 4;185,192,193,187;,
 4;187,193,194,189;,
 4;190,195,196,191;,
 4;191,196,197,192;,
 4;192,197,198,193;,
 4;193,198,199,194;,
 3;195,200,196;,
 3;196,201,197;,
 3;197,202,198;,
 3;198,203,199;,
 3;204,205,206;,
 3;207,208,205;,
 3;209,210,208;,
 3;211,212,210;,
 4;206,205,213,214;,
 4;205,208,215,213;,
 4;208,210,216,215;,
 4;210,212,217,216;,
 4;214,213,218,219;,
 4;213,215,220,218;,
 4;215,216,221,220;,
 4;216,217,222,221;,
 3;219,218,223;,
 3;218,220,224;,
 3;220,221,225;,
 3;221,222,226;,
 3;227,228,229;,
 3;230,229,231;,
 3;232,231,233;,
 3;234,233,235;,
 4;228,236,237,229;,
 4;229,237,238,231;,
 4;231,238,239,233;,
 4;233,239,240,235;,
 4;236,241,242,237;,
 4;237,242,243,238;,
 4;238,243,244,239;,
 4;239,244,245,240;,
 3;241,246,242;,
 3;242,247,243;,
 3;243,248,244;,
 3;244,249,245;,
 3;250,251,252;,
 3;253,254,251;,
 3;255,256,254;,
 3;257,258,256;,
 4;252,251,259,260;,
 4;251,254,261,259;,
 4;254,256,262,261;,
 4;256,258,263,262;,
 4;260,259,264,265;,
 4;259,261,266,264;,
 4;261,262,267,266;,
 4;262,263,268,267;,
 3;265,264,269;,
 3;264,266,270;,
 3;266,267,271;,
 3;267,268,272;,
 3;273,274,275;,
 3;276,275,277;,
 3;278,277,279;,
 3;280,279,281;,
 4;274,282,283,275;,
 4;275,283,284,277;,
 4;277,284,285,279;,
 4;279,285,286,281;,
 4;282,287,288,283;,
 4;283,288,289,284;,
 4;284,289,290,285;,
 4;285,290,291,286;,
 3;287,292,288;,
 3;288,293,289;,
 3;289,294,290;,
 3;290,295,291;,
 3;296,297,298;,
 3;299,298,300;,
 3;301,300,302;,
 3;303,302,304;,
 4;297,305,306,298;,
 4;298,306,307,300;,
 4;300,307,308,302;,
 4;302,308,309,304;,
 4;305,310,311,306;,
 4;306,311,312,307;,
 4;307,312,313,308;,
 4;308,313,314,309;,
 3;310,315,311;,
 3;311,316,312;,
 3;312,317,313;,
 3;313,318,314;,
 3;319,320,321;,
 3;322,323,320;,
 3;324,325,323;,
 3;326,327,325;,
 4;321,320,328,329;,
 4;320,323,330,328;,
 4;323,325,331,330;,
 4;325,327,332,331;,
 4;329,328,333,334;,
 4;328,330,335,333;,
 4;330,331,336,335;,
 4;331,332,337,336;,
 3;334,333,338;,
 3;333,335,339;,
 3;335,336,340;,
 3;336,337,341;;
 
 MeshMaterialList {
  3;
  256;
  2,
  2,
  2,
  2,
  2,
  2,
  2,
  2,
  2,
  2,
  2,
  2,
  2,
  2,
  2,
  2,
  2,
  2,
  2,
  2,
  2,
  2,
  2,
  2,
  2,
  2,
  2,
  2,
  2,
  2,
  2,
  2,
  2,
  2,
  2,
  2,
  2,
  2,
  2,
  2,
  2,
  2,
  2,
  2,
  2,
  2,
  2,
  2,
  2,
  2,
  2,
  2,
  2,
  2,
  2,
  2,
  2,
  2,
  2,
  2,
  2,
  2,
  2,
  2,
  0,
  0,
  0,
  0,
  0,
  0,
  0,
  0,
  0,
  0,
  0,
  0,
  0,
  0,
  0,
  0,
  0,
  0,
  0,
  0,
  0,
  0,
  0,
  0,
  0,
  0,
  0,
  0,
  0,
  0,
  0,
  0,
  0,
  0,
  0,
  0,
  0,
  0,
  0,
  0,
  0,
  0,
  0,
  0,
  0,
  0,
  0,
  0,
  0,
  0,
  0,
  0,
  0,
  0,
  0,
  0,
  0,
  0,
  0,
  0,
  0,
  0,
  0,
  0,
  1,
  1,
  1,
  1,
  1,
  1,
  1,
  1,
  1,
  1,
  1,
  1,
  1,
  1,
  1,
  1,
  1,
  1,
  1,
  1,
  1,
  1,
  1,
  1,
  1,
  1,
  1,
  1,
  1,
  1,
  1,
  1,
  0,
  0,
  0,
  0,
  0,
  0,
  0,
  0,
  0,
  0,
  0,
  0,
  0,
  0,
  0,
  0,
  0,
  0,
  0,
  0,
  0,
  0,
  0,
  0,
  0,
  0,
  0,
  0,
  0,
  0,
  0,
  0,
  2,
  2,
  2,
  2,
  2,
  2,
  2,
  2,
  2,
  2,
  2,
  2,
  2,
  2,
  2,
  2,
  2,
  2,
  2,
  2,
  2,
  2,
  2,
  2,
  2,
  2,
  2,
  2,
  2,
  2,
  2,
  2,
  0,
  0,
  0,
  0,
  0,
  0,
  0,
  0,
  0,
  0,
  0,
  0,
  0,
  0,
  0,
  0,
  0,
  0,
  0,
  0,
  0,
  0,
  0,
  0,
  0,
  0,
  0,
  0,
  0,
  0,
  0,
  0;;
  Material {
   0.000000;0.000000;0.000000;1.000000;;
   5.000000;
   0.000000;0.000000;0.000000;;
   0.000000;0.000000;0.000000;;
  }
  Material {
   0.282353;0.150588;0.034510;1.000000;;
   5.000000;
   0.000000;0.000000;0.000000;;
   0.000000;0.000000;0.000000;;
  }
  Material {
   0.379608;0.266667;0.213333;1.000000;;
   5.000000;
   0.000000;0.000000;0.000000;;
   0.000000;0.000000;0.000000;;
  }
 }
 MeshNormals {
  300;
  -0.000000;1.000000;-0.000000;,
  0.000000;0.737069;-0.675817;,
  0.200443;0.824812;-0.528686;,
  0.301737;0.952059;-0.050382;,
  0.173578;0.907409;0.382727;,
  -0.000000;0.870624;0.491950;,
  -0.173578;0.907409;0.382727;,
  -0.301737;0.952059;-0.050382;,
  -0.200443;0.824812;-0.528686;,
  0.000000;0.562157;-0.827031;,
  0.312265;0.595228;-0.740401;,
  0.622270;0.772001;-0.129596;,
  0.371009;0.726769;0.578065;,
  -0.000000;0.695089;0.718923;,
  -0.371009;0.726769;0.578065;,
  -0.622270;0.772001;-0.129596;,
  -0.312265;0.595228;-0.740401;,
  0.000000;0.518893;-0.854839;,
  0.481438;0.356173;-0.800848;,
  0.725891;0.155532;-0.669994;,
  0.628081;0.275313;0.727816;,
  -0.000000;0.315468;0.948936;,
  -0.628082;0.275313;0.727816;,
  -0.887472;0.200737;0.414847;,
  -0.481438;0.356173;-0.800848;,
  0.000000;-0.060124;-0.998191;,
  0.605741;-0.024447;-0.795286;,
  0.988177;0.016182;-0.152460;,
  0.714763;0.000727;0.699366;,
  -0.000000;-0.021322;0.999773;,
  -0.714763;0.000727;0.699366;,
  -0.988177;0.016182;-0.152460;,
  -0.605741;-0.024447;-0.795286;,
  0.000000;-0.667447;-0.744658;,
  0.487271;-0.494394;-0.719821;,
  0.967409;0.196335;-0.159915;,
  0.611878;-0.371242;0.698416;,
  -0.000000;-0.420309;0.907381;,
  -0.611878;-0.371242;0.698416;,
  -0.967409;0.196334;-0.159915;,
  -0.487271;-0.494394;-0.719820;,
  0.000000;-0.840613;-0.541637;,
  0.294949;-0.804215;-0.515988;,
  0.480098;-0.872289;-0.092827;,
  0.301014;-0.832810;0.464562;,
  -0.000000;-0.807993;0.589192;,
  -0.301014;-0.832810;0.464563;,
  -0.480098;-0.872290;-0.092826;,
  -0.294949;-0.804215;-0.515988;,
  0.000000;-0.922435;-0.386152;,
  0.160007;-0.931067;-0.327890;,
  0.212083;-0.976372;-0.041465;,
  0.122519;-0.954701;0.271172;,
  0.000000;-0.935393;0.353611;,
  -0.122519;-0.954701;0.271172;,
  -0.212083;-0.976372;-0.041465;,
  -0.160007;-0.931067;-0.327890;,
  -0.000000;-1.000000;-0.000000;,
  0.887472;0.200737;0.414847;,
  -0.725891;0.155533;-0.669994;,
  0.641062;-0.761111;-0.098735;,
  -0.641062;-0.761111;-0.098735;,
  -0.000000;1.000000;0.000000;,
  0.000000;0.816174;-0.577806;,
  0.315672;0.849260;-0.423212;,
  0.463320;0.886191;0.000001;,
  0.315675;0.849258;0.423214;,
  0.000000;0.816172;0.577809;,
  -0.315674;0.849259;0.423214;,
  -0.463320;0.886191;0.000001;,
  -0.315672;0.849260;-0.423212;,
  0.000000;0.494346;-0.869265;,
  0.509256;0.548590;-0.663104;,
  0.787176;0.616728;0.000002;,
  0.509258;0.548587;0.663106;,
  0.000000;0.494344;0.869267;,
  -0.509258;0.548587;0.663105;,
  -0.787176;0.616728;0.000002;,
  -0.509256;0.548590;-0.663104;,
  0.000000;0.226554;-0.973999;,
  0.594956;0.260634;-0.760327;,
  0.951753;0.306866;0.000001;,
  0.594955;0.260635;0.760327;,
  -0.000000;0.226555;0.973998;,
  -0.594955;0.260635;0.760327;,
  -0.951753;0.306866;0.000001;,
  -0.594956;0.260635;-0.760327;,
  0.000000;0.000000;-1.000000;,
  0.618363;-0.000000;-0.785892;,
  0.865572;-0.000000;-0.500785;,
  0.618363;-0.000000;0.785893;,
  -0.000000;-0.000000;1.000000;,
  -0.618363;-0.000000;0.785893;,
  -0.865572;-0.000000;0.500785;,
  -0.618363;0.000000;-0.785892;,
  0.000000;-0.226552;-0.973999;,
  0.594956;-0.260633;-0.760328;,
  0.917596;-0.351048;-0.186503;,
  0.594955;-0.260636;0.760327;,
  -0.000000;-0.226556;0.973998;,
  -0.594955;-0.260635;0.760327;,
  -0.917596;-0.351048;0.186504;,
  -0.594956;-0.260633;-0.760328;,
  0.000000;-0.494347;-0.869265;,
  0.509256;-0.548590;-0.663104;,
  0.787175;-0.616730;0.000001;,
  0.509256;-0.548590;0.663104;,
  -0.000000;-0.494347;0.869265;,
  -0.509257;-0.548589;0.663104;,
  -0.787175;-0.616729;0.000001;,
  -0.509256;-0.548590;-0.663104;,
  0.000000;-0.816173;-0.577808;,
  0.315674;-0.849259;-0.423213;,
  0.463321;-0.886190;0.000001;,
  0.315675;-0.849258;0.423215;,
  -0.000000;-0.816171;0.577810;,
  -0.315675;-0.849258;0.423215;,
  -0.463321;-0.886190;0.000001;,
  -0.315674;-0.849259;-0.423213;,
  0.000000;-1.000000;0.000000;,
  0.865572;-0.000000;0.500785;,
  -0.865572;-0.000000;-0.500785;,
  0.858253;-0.129765;0.496551;,
  -0.858253;-0.129766;-0.496551;,
  0.378861;0.695982;-0.609978;,
  0.297163;0.625521;-0.721399;,
  0.382742;0.575003;-0.723104;,
  -0.024199;-0.339482;0.940301;,
  -0.116025;-0.296037;0.948104;,
  0.166674;0.497200;-0.851476;,
  0.258531;0.449611;-0.854992;,
  -0.166674;-0.497199;0.851477;,
  -0.258530;-0.449610;0.854993;,
  0.024201;0.339486;-0.940300;,
  0.116030;0.296039;-0.948102;,
  -0.297166;-0.625523;0.721397;,
  -0.382745;-0.575005;0.723101;,
  -0.076466;0.218185;-0.972907;,
  0.076469;-0.218180;0.972908;,
  0.067862;-0.379396;0.922742;,
  0.208576;0.669893;-0.712559;,
  -0.073026;-0.539464;0.838836;,
  0.073025;0.539464;-0.838836;,
  -0.208578;-0.669895;0.712556;,
  -0.067862;0.379400;-0.922741;,
  -0.378863;-0.695985;0.609973;,
  -0.378861;0.695982;-0.609978;,
  -0.297163;0.625521;-0.721399;,
  -0.382742;0.575003;-0.723104;,
  0.024199;-0.339482;0.940301;,
  0.116025;-0.296037;0.948104;,
  -0.166674;0.497200;-0.851476;,
  -0.258531;0.449611;-0.854992;,
  0.166674;-0.497199;0.851477;,
  0.258530;-0.449610;0.854993;,
  -0.024201;0.339486;-0.940300;,
  -0.116030;0.296039;-0.948102;,
  0.297166;-0.625523;0.721397;,
  0.382745;-0.575005;0.723101;,
  0.076466;0.218185;-0.972907;,
  -0.076469;-0.218180;0.972908;,
  -0.067862;-0.379396;0.922742;,
  -0.208576;0.669893;-0.712559;,
  0.073026;-0.539464;0.838836;,
  -0.073025;0.539464;-0.838836;,
  0.208578;-0.669895;0.712556;,
  0.067862;0.379400;-0.922741;,
  0.378863;-0.695985;0.609973;,
  -0.000001;1.000000;-0.000003;,
  -0.000001;0.923874;-0.382697;,
  0.752845;0.658198;-0.000002;,
  -0.000001;0.923876;0.382693;,
  -0.752844;0.658199;-0.000002;,
  0.796126;-0.000000;-0.605131;,
  0.796128;0.000001;0.605128;,
  -0.796127;0.000000;0.605129;,
  0.653425;-0.571278;-0.496666;,
  0.644643;-0.730203;-0.226359;,
  0.653428;-0.571277;0.496664;,
  -0.644645;-0.730203;0.226355;,
  -0.000001;-1.000000;-0.000003;,
  0.772237;0.243132;-0.586973;,
  0.772239;0.243129;0.586971;,
  -0.772238;0.243133;0.586971;,
  -0.772235;0.243137;-0.586973;,
  -0.796125;0.000001;-0.605132;,
  0.772240;-0.243127;0.586971;,
  -0.653427;-0.571278;0.496663;,
  -0.653425;-0.571279;-0.496666;,
  -0.772235;-0.243136;-0.586973;,
  0.000001;1.000000;-0.000003;,
  0.000001;0.923874;-0.382697;,
  -0.752845;0.658198;-0.000002;,
  0.000001;0.923876;0.382693;,
  0.752844;0.658199;-0.000002;,
  -0.796126;-0.000000;-0.605131;,
  -0.796128;0.000001;0.605128;,
  0.796127;0.000000;0.605129;,
  -0.653425;-0.571278;-0.496666;,
  -0.644643;-0.730203;-0.226359;,
  -0.653428;-0.571277;0.496664;,
  0.644645;-0.730203;0.226355;,
  0.000001;-1.000000;-0.000003;,
  -0.772237;0.243132;-0.586973;,
  -0.772239;0.243129;0.586971;,
  0.772238;0.243133;0.586971;,
  0.796125;0.000001;-0.605132;,
  0.772235;0.243137;-0.586973;,
  -0.772240;-0.243127;0.586971;,
  0.653427;-0.571278;0.496663;,
  0.772235;-0.243136;-0.586973;,
  0.653425;-0.571279;-0.496666;,
  0.051429;0.353268;-0.934107;,
  0.030814;0.211725;-0.976843;,
  0.300063;0.171480;-0.938380;,
  0.030815;0.211727;0.976843;,
  -0.240802;0.235969;0.941453;,
  -0.000000;-0.000000;-1.000000;,
  0.276420;-0.032480;-0.960488;,
  -0.000000;-0.000000;1.000000;,
  -0.276421;0.032480;0.960488;,
  -0.030815;-0.211725;-0.976843;,
  0.240801;-0.235968;-0.941453;,
  -0.030815;-0.211726;0.976843;,
  -0.300064;-0.171480;0.938380;,
  -0.051429;-0.353267;-0.934108;,
  0.051429;0.353270;0.934107;,
  0.300064;0.171481;0.938379;,
  -0.240801;0.235968;-0.941453;,
  0.276421;-0.032480;0.960487;,
  -0.276420;0.032480;-0.960488;,
  0.240802;-0.235969;0.941453;,
  -0.300063;-0.171479;-0.938380;,
  -0.051430;-0.353269;0.934107;,
  -0.051429;0.353268;-0.934107;,
  -0.030814;0.211725;-0.976843;,
  -0.300063;0.171480;-0.938380;,
  -0.030815;0.211727;0.976843;,
  0.240802;0.235969;0.941453;,
  0.000000;-0.000000;-1.000000;,
  -0.276420;-0.032480;-0.960488;,
  0.000000;-0.000000;1.000000;,
  0.276421;0.032480;0.960488;,
  0.030815;-0.211725;-0.976843;,
  -0.240801;-0.235968;-0.941453;,
  0.030815;-0.211726;0.976843;,
  0.300064;-0.171480;0.938380;,
  0.051429;-0.353267;-0.934108;,
  -0.051429;0.353270;0.934107;,
  -0.300064;0.171481;0.938379;,
  0.240801;0.235968;-0.941453;,
  -0.276421;-0.032480;0.960487;,
  0.276420;0.032480;-0.960488;,
  -0.240802;-0.235969;0.941453;,
  0.300063;-0.171479;-0.938380;,
  0.051430;-0.353269;0.934107;,
  -0.051430;0.353275;-0.934105;,
  -0.030815;0.211728;-0.976843;,
  -0.300066;0.171482;-0.938379;,
  -0.030815;0.211725;0.976844;,
  0.240798;0.235967;0.941454;,
  -0.000000;-0.000000;-1.000000;,
  -0.276422;-0.032481;-0.960487;,
  -0.000000;-0.000000;1.000000;,
  0.276418;0.032480;0.960489;,
  0.030814;-0.211727;-0.976843;,
  -0.240804;-0.235969;-0.941452;,
  0.030814;-0.211723;0.976844;,
  0.300060;-0.171478;0.938381;,
  0.051429;-0.353271;-0.934106;,
  -0.051429;0.353267;0.934108;,
  -0.300060;0.171479;0.938381;,
  0.240802;0.235971;-0.941452;,
  -0.276418;-0.032480;0.960488;,
  0.276422;0.032480;-0.960487;,
  -0.240799;-0.235965;0.941454;,
  0.300065;-0.171481;-0.938379;,
  0.051428;-0.353263;0.934109;,
  0.051430;0.353275;-0.934105;,
  0.030815;0.211728;-0.976843;,
  0.300066;0.171482;-0.938379;,
  0.030815;0.211725;0.976844;,
  -0.240798;0.235967;0.941454;,
  0.000000;-0.000000;-1.000000;,
  0.276422;-0.032481;-0.960487;,
  0.000000;-0.000000;1.000000;,
  -0.276418;0.032480;0.960489;,
  -0.030814;-0.211727;-0.976843;,
  0.240804;-0.235969;-0.941452;,
  -0.030814;-0.211723;0.976844;,
  -0.300060;-0.171478;0.938381;,
  -0.051429;-0.353271;-0.934106;,
  0.051429;0.353267;0.934108;,
  0.300060;0.171479;0.938381;,
  -0.240802;0.235971;-0.941452;,
  0.276418;-0.032480;0.960488;,
  -0.276422;0.032480;-0.960487;,
  0.240799;-0.235965;0.941454;,
  -0.300065;-0.171481;-0.938379;,
  -0.051428;-0.353263;0.934109;;
  256;
  3;0,2,1;,
  3;0,3,2;,
  3;0,4,3;,
  3;0,5,4;,
  3;0,6,5;,
  3;0,7,6;,
  3;0,8,7;,
  3;0,1,8;,
  4;1,2,10,9;,
  4;2,3,11,10;,
  4;3,4,12,11;,
  4;4,5,13,12;,
  4;5,6,14,13;,
  4;6,7,15,14;,
  4;7,8,16,15;,
  4;8,1,9,16;,
  4;9,10,18,17;,
  4;10,11,19,18;,
  4;11,12,20,58;,
  4;12,13,21,20;,
  4;13,14,22,21;,
  4;14,15,23,22;,
  4;15,16,24,59;,
  4;16,9,17,24;,
  4;17,18,26,25;,
  4;18,19,27,26;,
  4;58,20,28,27;,
  4;20,21,29,28;,
  4;21,22,30,29;,
  4;22,23,31,30;,
  4;59,24,32,31;,
  4;24,17,25,32;,
  4;25,26,34,33;,
  4;26,27,35,34;,
  4;27,28,36,35;,
  4;28,29,37,36;,
  4;29,30,38,37;,
  4;30,31,39,38;,
  4;31,32,40,39;,
  4;32,25,33,40;,
  4;33,34,42,41;,
  4;34,60,43,42;,
  4;60,36,44,43;,
  4;36,37,45,44;,
  4;37,38,46,45;,
  4;38,61,47,46;,
  4;61,40,48,47;,
  4;40,33,41,48;,
  4;41,42,50,49;,
  4;42,43,51,50;,
  4;43,44,52,51;,
  4;44,45,53,52;,
  4;45,46,54,53;,
  4;46,47,55,54;,
  4;47,48,56,55;,
  4;48,41,49,56;,
  3;49,50,57;,
  3;50,51,57;,
  3;51,52,57;,
  3;52,53,57;,
  3;53,54,57;,
  3;54,55,57;,
  3;55,56,57;,
  3;56,49,57;,
  3;62,64,63;,
  3;62,65,64;,
  3;62,66,65;,
  3;62,67,66;,
  3;62,68,67;,
  3;62,69,68;,
  3;62,70,69;,
  3;62,63,70;,
  4;63,64,72,71;,
  4;64,65,73,72;,
  4;65,66,74,73;,
  4;66,67,75,74;,
  4;67,68,76,75;,
  4;68,69,77,76;,
  4;69,70,78,77;,
  4;70,63,71,78;,
  4;71,72,80,79;,
  4;72,73,81,80;,
  4;73,74,82,81;,
  4;74,75,83,82;,
  4;75,76,84,83;,
  4;76,77,85,84;,
  4;77,78,86,85;,
  4;78,71,79,86;,
  4;79,80,88,87;,
  4;80,81,89,88;,
  4;81,82,90,120;,
  4;82,83,91,90;,
  4;83,84,92,91;,
  4;84,85,93,92;,
  4;85,86,94,121;,
  4;86,79,87,94;,
  4;87,88,96,95;,
  4;88,89,97,96;,
  4;120,90,98,122;,
  4;90,91,99,98;,
  4;91,92,100,99;,
  4;92,93,101,100;,
  4;121,94,102,123;,
  4;94,87,95,102;,
  4;95,96,104,103;,
  4;96,97,105,104;,
  4;97,98,106,105;,
  4;98,99,107,106;,
  4;99,100,108,107;,
  4;100,101,109,108;,
  4;101,102,110,109;,
  4;102,95,103,110;,
  4;103,104,112,111;,
  4;104,105,113,112;,
  4;105,106,114,113;,
  4;106,107,115,114;,
  4;107,108,116,115;,
  4;108,109,117,116;,
  4;109,110,118,117;,
  4;110,103,111,118;,
  3;111,112,119;,
  3;112,113,119;,
  3;113,114,119;,
  3;114,115,119;,
  3;115,116,119;,
  3;116,117,119;,
  3;117,118,119;,
  3;118,111,119;,
  3;124,126,125;,
  3;138,127,139;,
  3;138,128,127;,
  3;124,125,140;,
  4;125,126,130,129;,
  4;139,127,131,141;,
  4;127,128,132,131;,
  4;140,125,129,142;,
  4;129,130,134,133;,
  4;141,131,135,143;,
  4;131,132,136,135;,
  4;142,129,133,144;,
  3;133,134,137;,
  3;143,135,145;,
  3;135,136,145;,
  3;144,133,137;,
  3;146,147,148;,
  3;160,161,149;,
  3;160,149,150;,
  3;146,162,147;,
  4;147,151,152,148;,
  4;161,163,153,149;,
  4;149,153,154,150;,
  4;162,164,151,147;,
  4;151,155,156,152;,
  4;163,165,157,153;,
  4;153,157,158,154;,
  4;164,166,155,151;,
  3;155,159,156;,
  3;165,167,157;,
  3;157,167,158;,
  3;166,159,155;,
  3;168,170,169;,
  3;168,171,170;,
  3;168,172,171;,
  3;168,169,172;,
  4;181,170,173,173;,
  4;170,182,174,174;,
  4;183,172,175,175;,
  4;172,184,185,185;,
  4;173,173,177,176;,
  4;174,174,178,186;,
  4;175,175,179,187;,
  4;185,185,188,189;,
  3;176,177,180;,
  3;177,178,180;,
  3;187,179,180;,
  3;179,188,180;,
  3;190,191,192;,
  3;190,192,193;,
  3;190,193,194;,
  3;190,194,191;,
  4;203,195,195,192;,
  4;192,196,196,204;,
  4;205,197,197,194;,
  4;194,206,206,207;,
  4;195,198,199,195;,
  4;196,208,200,196;,
  4;197,209,201,197;,
  4;206,210,211,206;,
  3;198,202,199;,
  3;199,202,200;,
  3;209,202,201;,
  3;201,202,211;,
  3;212,214,213;,
  3;226,215,227;,
  3;226,216,215;,
  3;212,213,228;,
  4;213,214,218,217;,
  4;227,215,219,229;,
  4;215,216,220,219;,
  4;228,213,217,230;,
  4;217,218,222,221;,
  4;229,219,223,231;,
  4;219,220,224,223;,
  4;230,217,221,232;,
  3;221,222,225;,
  3;231,223,233;,
  3;223,224,233;,
  3;232,221,225;,
  3;234,235,236;,
  3;248,249,237;,
  3;248,237,238;,
  3;234,250,235;,
  4;235,239,240,236;,
  4;249,251,241,237;,
  4;237,241,242,238;,
  4;250,252,239,235;,
  4;239,243,244,240;,
  4;251,253,245,241;,
  4;241,245,246,242;,
  4;252,254,243,239;,
  3;243,247,244;,
  3;253,255,245;,
  3;245,255,246;,
  3;254,247,243;,
  3;256,257,258;,
  3;270,271,259;,
  3;270,259,260;,
  3;256,272,257;,
  4;257,261,262,258;,
  4;271,273,263,259;,
  4;259,263,264,260;,
  4;272,274,261,257;,
  4;261,265,266,262;,
  4;273,275,267,263;,
  4;263,267,268,264;,
  4;274,276,265,261;,
  3;265,269,266;,
  3;275,277,267;,
  3;267,277,268;,
  3;276,269,265;,
  3;278,280,279;,
  3;292,281,293;,
  3;292,282,281;,
  3;278,279,294;,
  4;279,280,284,283;,
  4;293,281,285,295;,
  4;281,282,286,285;,
  4;294,279,283,296;,
  4;283,284,288,287;,
  4;295,285,289,297;,
  4;285,286,290,289;,
  4;296,283,287,298;,
  3;287,288,291;,
  3;297,289,299;,
  3;289,290,299;,
  3;298,287,291;;
 }
 MeshTextureCoords {
  342;
  0.062500;0.000000;,
  0.125000;0.125000;,
  0.000000;0.125000;,
  0.187500;0.000000;,
  0.250000;0.125000;,
  0.312500;0.000000;,
  0.375000;0.125000;,
  0.437500;0.000000;,
  0.500000;0.125000;,
  0.562500;0.000000;,
  0.625000;0.125000;,
  0.687500;0.000000;,
  0.750000;0.125000;,
  0.812500;0.000000;,
  0.875000;0.125000;,
  0.937500;0.000000;,
  1.000000;0.125000;,
  0.125000;0.250000;,
  0.000000;0.250000;,
  0.250000;0.250000;,
  0.375000;0.250000;,
  0.500000;0.250000;,
  0.625000;0.250000;,
  0.750000;0.250000;,
  0.875000;0.250000;,
  1.000000;0.250000;,
  0.125000;0.375000;,
  0.000000;0.375000;,
  0.250000;0.375000;,
  0.375000;0.375000;,
  0.500000;0.375000;,
  0.625000;0.375000;,
  0.750000;0.375000;,
  0.875000;0.375000;,
  1.000000;0.375000;,
  0.125000;0.500000;,
  0.000000;0.500000;,
  0.250000;0.500000;,
  0.375000;0.500000;,
  0.500000;0.500000;,
  0.625000;0.500000;,
  0.750000;0.500000;,
  0.875000;0.500000;,
  1.000000;0.500000;,
  0.125000;0.625000;,
  0.000000;0.625000;,
  0.250000;0.625000;,
  0.375000;0.625000;,
  0.500000;0.625000;,
  0.625000;0.625000;,
  0.750000;0.625000;,
  0.875000;0.625000;,
  1.000000;0.625000;,
  0.125000;0.750000;,
  0.000000;0.750000;,
  0.250000;0.750000;,
  0.375000;0.750000;,
  0.500000;0.750000;,
  0.625000;0.750000;,
  0.750000;0.750000;,
  0.875000;0.750000;,
  1.000000;0.750000;,
  0.125000;0.875000;,
  0.000000;0.875000;,
  0.250000;0.875000;,
  0.375000;0.875000;,
  0.500000;0.875000;,
  0.625000;0.875000;,
  0.750000;0.875000;,
  0.875000;0.875000;,
  1.000000;0.875000;,
  0.062500;1.000000;,
  0.187500;1.000000;,
  0.312500;1.000000;,
  0.437500;1.000000;,
  0.562500;1.000000;,
  0.687500;1.000000;,
  0.812500;1.000000;,
  0.937500;1.000000;,
  0.062500;0.000000;,
  0.125000;0.125000;,
  0.000000;0.125000;,
  0.187500;0.000000;,
  0.250000;0.125000;,
  0.312500;0.000000;,
  0.375000;0.125000;,
  0.437500;0.000000;,
  0.500000;0.125000;,
  0.562500;0.000000;,
  0.625000;0.125000;,
  0.687500;0.000000;,
  0.750000;0.125000;,
  0.812500;0.000000;,
  0.875000;0.125000;,
  0.937500;0.000000;,
  1.000000;0.125000;,
  0.125000;0.250000;,
  0.000000;0.250000;,
  0.250000;0.250000;,
  0.375000;0.250000;,
  0.500000;0.250000;,
  0.625000;0.250000;,
  0.750000;0.250000;,
  0.875000;0.250000;,
  1.000000;0.250000;,
  0.125000;0.375000;,
  0.000000;0.375000;,
  0.250000;0.375000;,
  0.375000;0.375000;,
  0.500000;0.375000;,
  0.625000;0.375000;,
  0.750000;0.375000;,
  0.875000;0.375000;,
  1.000000;0.375000;,
  0.125000;0.500000;,
  0.000000;0.500000;,
  0.250000;0.500000;,
  0.375000;0.500000;,
  0.500000;0.500000;,
  0.625000;0.500000;,
  0.750000;0.500000;,
  0.875000;0.500000;,
  1.000000;0.500000;,
  0.125000;0.625000;,
  0.000000;0.625000;,
  0.250000;0.625000;,
  0.375000;0.625000;,
  0.500000;0.625000;,
  0.625000;0.625000;,
  0.750000;0.625000;,
  0.875000;0.625000;,
  1.000000;0.625000;,
  0.125000;0.750000;,
  0.000000;0.750000;,
  0.250000;0.750000;,
  0.375000;0.750000;,
  0.500000;0.750000;,
  0.625000;0.750000;,
  0.750000;0.750000;,
  0.875000;0.750000;,
  1.000000;0.750000;,
  0.125000;0.875000;,
  0.000000;0.875000;,
  0.250000;0.875000;,
  0.375000;0.875000;,
  0.500000;0.875000;,
  0.625000;0.875000;,
  0.750000;0.875000;,
  0.875000;0.875000;,
  1.000000;0.875000;,
  0.062500;1.000000;,
  0.187500;1.000000;,
  0.312500;1.000000;,
  0.437500;1.000000;,
  0.562500;1.000000;,
  0.687500;1.000000;,
  0.812500;1.000000;,
  0.937500;1.000000;,
  0.125000;0.000000;,
  0.250000;0.250000;,
  0.000000;0.250000;,
  0.375000;0.000000;,
  0.500000;0.250000;,
  0.625000;0.000000;,
  0.750000;0.250000;,
  0.875000;0.000000;,
  1.000000;0.250000;,
  0.250000;0.500000;,
  0.000000;0.500000;,
  0.500000;0.500000;,
  0.750000;0.500000;,
  1.000000;0.500000;,
  0.250000;0.750000;,
  0.000000;0.750000;,
  0.500000;0.750000;,
  0.750000;0.750000;,
  1.000000;0.750000;,
  0.125000;1.000000;,
  0.375000;1.000000;,
  0.625000;1.000000;,
  0.875000;1.000000;,
  0.125000;0.000000;,
  0.000000;0.250000;,
  0.250000;0.250000;,
  0.375000;0.000000;,
  0.500000;0.250000;,
  0.625000;0.000000;,
  0.750000;0.250000;,
  0.875000;0.000000;,
  1.000000;0.250000;,
  0.000000;0.500000;,
  0.250000;0.500000;,
  0.500000;0.500000;,
  0.750000;0.500000;,
  1.000000;0.500000;,
  0.000000;0.750000;,
  0.250000;0.750000;,
  0.500000;0.750000;,
  0.750000;0.750000;,
  1.000000;0.750000;,
  0.125000;1.000000;,
  0.375000;1.000000;,
  0.625000;1.000000;,
  0.875000;1.000000;,
  0.125000;0.000000;,
  0.250000;0.250000;,
  0.000000;0.250000;,
  0.375000;0.000000;,
  0.500000;0.250000;,
  0.625000;0.000000;,
  0.750000;0.250000;,
  0.875000;0.000000;,
  1.000000;0.250000;,
  0.250000;0.500000;,
  0.000000;0.500000;,
  0.500000;0.500000;,
  0.750000;0.500000;,
  1.000000;0.500000;,
  0.250000;0.750000;,
  0.000000;0.750000;,
  0.500000;0.750000;,
  0.750000;0.750000;,
  1.000000;0.750000;,
  0.125000;1.000000;,
  0.375000;1.000000;,
  0.625000;1.000000;,
  0.875000;1.000000;,
  0.125000;0.000000;,
  0.000000;0.250000;,
  0.250000;0.250000;,
  0.375000;0.000000;,
  0.500000;0.250000;,
  0.625000;0.000000;,
  0.750000;0.250000;,
  0.875000;0.000000;,
  1.000000;0.250000;,
  0.000000;0.500000;,
  0.250000;0.500000;,
  0.500000;0.500000;,
  0.750000;0.500000;,
  1.000000;0.500000;,
  0.000000;0.750000;,
  0.250000;0.750000;,
  0.500000;0.750000;,
  0.750000;0.750000;,
  1.000000;0.750000;,
  0.125000;1.000000;,
  0.375000;1.000000;,
  0.625000;1.000000;,
  0.875000;1.000000;,
  0.125000;0.000000;,
  0.250000;0.250000;,
  0.000000;0.250000;,
  0.375000;0.000000;,
  0.500000;0.250000;,
  0.625000;0.000000;,
  0.750000;0.250000;,
  0.875000;0.000000;,
  1.000000;0.250000;,
  0.250000;0.500000;,
  0.000000;0.500000;,
  0.500000;0.500000;,
  0.750000;0.500000;,
  1.000000;0.500000;,
  0.250000;0.750000;,
  0.000000;0.750000;,
  0.500000;0.750000;,
  0.750000;0.750000;,
  1.000000;0.750000;,
  0.125000;1.000000;,
  0.375000;1.000000;,
  0.625000;1.000000;,
  0.875000;1.000000;,
  0.125000;0.000000;,
  0.000000;0.250000;,
  0.250000;0.250000;,
  0.375000;0.000000;,
  0.500000;0.250000;,
  0.625000;0.000000;,
  0.750000;0.250000;,
  0.875000;0.000000;,
  1.000000;0.250000;,
  0.000000;0.500000;,
  0.250000;0.500000;,
  0.500000;0.500000;,
  0.750000;0.500000;,
  1.000000;0.500000;,
  0.000000;0.750000;,
  0.250000;0.750000;,
  0.500000;0.750000;,
  0.750000;0.750000;,
  1.000000;0.750000;,
  0.125000;1.000000;,
  0.375000;1.000000;,
  0.625000;1.000000;,
  0.875000;1.000000;,
  0.125000;0.000000;,
  0.000000;0.250000;,
  0.250000;0.250000;,
  0.375000;0.000000;,
  0.500000;0.250000;,
  0.625000;0.000000;,
  0.750000;0.250000;,
  0.875000;0.000000;,
  1.000000;0.250000;,
  0.000000;0.500000;,
  0.250000;0.500000;,
  0.500000;0.500000;,
  0.750000;0.500000;,
  1.000000;0.500000;,
  0.000000;0.750000;,
  0.250000;0.750000;,
  0.500000;0.750000;,
  0.750000;0.750000;,
  1.000000;0.750000;,
  0.125000;1.000000;,
  0.375000;1.000000;,
  0.625000;1.000000;,
  0.875000;1.000000;,
  0.125000;0.000000;,
  0.250000;0.250000;,
  0.000000;0.250000;,
  0.375000;0.000000;,
  0.500000;0.250000;,
  0.625000;0.000000;,
  0.750000;0.250000;,
  0.875000;0.000000;,
  1.000000;0.250000;,
  0.250000;0.500000;,
  0.000000;0.500000;,
  0.500000;0.500000;,
  0.750000;0.500000;,
  1.000000;0.500000;,
  0.250000;0.750000;,
  0.000000;0.750000;,
  0.500000;0.750000;,
  0.750000;0.750000;,
  1.000000;0.750000;,
  0.125000;1.000000;,
  0.375000;1.000000;,
  0.625000;1.000000;,
  0.875000;1.000000;;
 }
}
