xof 0302txt 0064
template Header {
 <3D82AB43-62DA-11cf-AB39-0020AF71E433>
 WORD major;
 WORD minor;
 DWORD flags;
}

template Vector {
 <3D82AB5E-62DA-11cf-AB39-0020AF71E433>
 FLOAT x;
 FLOAT y;
 FLOAT z;
}

template Coords2d {
 <F6F23F44-7686-11cf-8F52-0040333594A3>
 FLOAT u;
 FLOAT v;
}

template Matrix4x4 {
 <F6F23F45-7686-11cf-8F52-0040333594A3>
 array FLOAT matrix[16];
}

template ColorRGBA {
 <35FF44E0-6C7C-11cf-8F52-0040333594A3>
 FLOAT red;
 FLOAT green;
 FLOAT blue;
 FLOAT alpha;
}

template ColorRGB {
 <D3E16E81-7835-11cf-8F52-0040333594A3>
 FLOAT red;
 FLOAT green;
 FLOAT blue;
}

template IndexedColor {
 <1630B820-7842-11cf-8F52-0040333594A3>
 DWORD index;
 ColorRGBA indexColor;
}

template Boolean {
 <4885AE61-78E8-11cf-8F52-0040333594A3>
 WORD truefalse;
}

template Boolean2d {
 <4885AE63-78E8-11cf-8F52-0040333594A3>
 Boolean u;
 Boolean v;
}

template MaterialWrap {
 <4885AE60-78E8-11cf-8F52-0040333594A3>
 Boolean u;
 Boolean v;
}

template TextureFilename {
 <A42790E1-7810-11cf-8F52-0040333594A3>
 STRING filename;
}

template Material {
 <3D82AB4D-62DA-11cf-AB39-0020AF71E433>
 ColorRGBA faceColor;
 FLOAT power;
 ColorRGB specularColor;
 ColorRGB emissiveColor;
 [...]
}

template MeshFace {
 <3D82AB5F-62DA-11cf-AB39-0020AF71E433>
 DWORD nFaceVertexIndices;
 array DWORD faceVertexIndices[nFaceVertexIndices];
}

template MeshFaceWraps {
 <4885AE62-78E8-11cf-8F52-0040333594A3>
 DWORD nFaceWrapValues;
 Boolean2d faceWrapValues;
}

template MeshTextureCoords {
 <F6F23F40-7686-11cf-8F52-0040333594A3>
 DWORD nTextureCoords;
 array Coords2d textureCoords[nTextureCoords];
}

template MeshMaterialList {
 <F6F23F42-7686-11cf-8F52-0040333594A3>
 DWORD nMaterials;
 DWORD nFaceIndexes;
 array DWORD faceIndexes[nFaceIndexes];
 [Material]
}

template MeshNormals {
 <F6F23F43-7686-11cf-8F52-0040333594A3>
 DWORD nNormals;
 array Vector normals[nNormals];
 DWORD nFaceNormals;
 array MeshFace faceNormals[nFaceNormals];
}

template MeshVertexColors {
 <1630B821-7842-11cf-8F52-0040333594A3>
 DWORD nVertexColors;
 array IndexedColor vertexColors[nVertexColors];
}

template Mesh {
 <3D82AB44-62DA-11cf-AB39-0020AF71E433>
 DWORD nVertices;
 array Vector vertices[nVertices];
 DWORD nFaces;
 array MeshFace faces[nFaces];
 [...]
}

Header{
1;
0;
1;
}

Mesh {
 88;
 -0.00738;-1.55252;-0.14389;,
 1.11517;-1.08932;-0.10337;,
 5.39410;-1.95861;8.59507;,
 2.13014;-3.30543;8.47724;,
 1.58015;0.02897;-0.00551;,
 6.74608;1.29293;8.87955;,
 1.11517;1.14724;0.09231;,
 5.39410;4.54447;9.16400;,
 -0.00738;1.61044;0.13284;,
 2.13014;5.89130;9.28184;,
 -1.12994;1.14724;0.09231;,
 -1.13382;4.54447;9.16400;,
 -1.59491;0.02897;-0.00551;,
 -2.48580;1.29293;8.87955;,
 -1.12994;-1.08932;-0.10337;,
 -1.13382;-1.95861;8.59507;,
 -0.00738;-1.55252;-0.14389;,
 2.13014;-3.30543;8.47724;,
 2.13014;-6.37042;28.16996;,
 6.33948;-4.63344;28.32193;,
 4.14218;-2.99696;34.82787;,
 2.13014;-3.82721;34.75522;,
 8.08304;-0.44016;28.68879;,
 4.97559;-0.99260;35.00321;,
 6.33948;3.75315;29.05567;,
 4.14218;1.01179;35.17859;,
 2.13014;5.49008;29.20761;,
 2.13014;1.84203;35.25121;,
 -2.07920;3.75315;29.05567;,
 0.11810;1.01179;35.17859;,
 -3.82277;-0.44016;28.68879;,
 -0.71531;-0.99260;35.00321;,
 -2.07920;-4.63344;28.32193;,
 0.11810;-2.99696;34.82787;,
 2.13014;-6.37042;28.16996;,
 2.13014;-3.82721;34.75522;,
 -0.00738;0.02897;-0.00551;,
 -0.00738;0.02897;-0.00551;,
 -0.00738;0.02897;-0.00551;,
 -0.00738;0.02897;-0.00551;,
 -0.00738;0.02897;-0.00551;,
 -0.00738;0.02897;-0.00551;,
 -0.00738;0.02897;-0.00551;,
 -0.00738;0.02897;-0.00551;,
 2.13014;-1.17128;37.04551;,
 2.13014;-1.17128;37.04551;,
 2.13014;-1.17128;37.04551;,
 2.13014;-1.17128;37.04551;,
 2.13014;-1.17128;37.04551;,
 2.13014;-1.17128;37.04551;,
 2.13014;-1.17128;37.04551;,
 2.13014;-1.17128;37.04551;,
 6.42438;-3.37976;20.87123;,
 2.81581;-4.86879;20.74095;,
 3.68327;-4.06730;17.18516;,
 6.94723;-2.72046;17.30300;,
 7.92130;0.22500;21.07251;,
 8.29921;0.53107;17.58747;,
 6.43928;3.81066;21.22590;,
 6.94723;3.78261;17.87195;,
 2.86955;5.28650;21.24233;,
 3.68327;5.12946;17.98977;,
 -0.70631;3.81093;21.11324;,
 0.41931;3.78261;17.87195;,
 -2.21659;0.23893;20.91342;,
 -0.93267;0.53107;17.58747;,
 -0.76728;-3.36026;20.75882;,
 0.41931;-2.72046;17.30300;,
 2.81581;-4.86879;20.74095;,
 3.68327;-4.06730;17.18516;,
 5.64150;-2.07996;9.98215;,
 2.35055;-3.41356;9.71306;,
 7.04658;1.14553;10.56433;,
 5.74272;4.37346;11.11859;,
 2.49370;5.71297;11.32023;,
 -0.79724;4.37935;11.05114;,
 -2.20232;1.15387;10.46895;,
 -0.89846;-2.07406;9.91472;,
 2.35055;-3.41356;9.71306;,
 6.36645;-4.23524;25.95522;,
 2.35149;-5.88564;25.77171;,
 8.03784;-0.25424;26.56001;,
 6.36264;3.76649;27.23886;,
 2.28018;5.44881;27.59129;,
 -1.79365;3.76520;27.40370;,
 -3.43028;-0.27420;26.78875;,
 -1.69622;-4.26178;26.11402;,
 2.35149;-5.88564;25.77171;;
 
 72;
 4;0,1,2,3;,
 4;1,4,5,2;,
 4;4,6,7,5;,
 4;6,8,9,7;,
 4;8,10,11,9;,
 4;10,12,13,11;,
 4;12,14,15,13;,
 4;14,16,17,15;,
 4;18,19,20,21;,
 4;19,22,23,20;,
 4;22,24,25,23;,
 4;24,26,27,25;,
 4;26,28,29,27;,
 4;28,30,31,29;,
 4;30,32,33,31;,
 4;32,34,35,33;,
 3;36,1,0;,
 3;37,4,1;,
 3;38,6,4;,
 3;39,8,6;,
 3;40,10,8;,
 3;41,12,10;,
 3;42,14,12;,
 3;43,16,14;,
 3;44,21,20;,
 3;45,20,23;,
 3;46,23,25;,
 3;47,25,27;,
 3;48,27,29;,
 3;49,29,31;,
 3;50,31,33;,
 3;51,33,35;,
 4;52,53,54,55;,
 4;56,52,55,57;,
 4;58,56,57,59;,
 4;60,58,59,61;,
 4;62,60,61,63;,
 4;64,62,63,65;,
 4;66,64,65,67;,
 4;68,66,67,69;,
 4;70,55,54,71;,
 4;70,71,3,2;,
 4;72,57,55,70;,
 4;72,70,2,5;,
 4;73,59,57,72;,
 4;73,72,5,7;,
 4;74,61,59,73;,
 4;74,73,7,9;,
 4;75,63,61,74;,
 4;75,74,9,11;,
 4;76,65,63,75;,
 4;76,75,11,13;,
 4;77,67,65,76;,
 4;77,76,13,15;,
 4;78,69,67,77;,
 4;78,77,15,17;,
 4;79,19,18,80;,
 4;79,80,53,52;,
 4;81,22,19,79;,
 4;81,79,52,56;,
 4;82,24,22,81;,
 4;82,81,56,58;,
 4;83,26,24,82;,
 4;83,82,58,60;,
 4;84,28,26,83;,
 4;84,83,60,62;,
 4;85,30,28,84;,
 4;85,84,62,64;,
 4;86,32,30,85;,
 4;86,85,64,66;,
 4;87,34,32,86;,
 4;87,86,66,68;;
 
 MeshMaterialList {
  3;
  72;
  2,
  2,
  2,
  2,
  2,
  2,
  2,
  2,
  2,
  2,
  2,
  2,
  2,
  2,
  2,
  2,
  2,
  2,
  2,
  2,
  2,
  2,
  2,
  2,
  2,
  2,
  2,
  2,
  2,
  2,
  2,
  2,
  0,
  0,
  0,
  0,
  0,
  0,
  0,
  0,
  2,
  0,
  2,
  0,
  2,
  0,
  2,
  0,
  2,
  0,
  2,
  0,
  2,
  0,
  2,
  0,
  0,
  2,
  0,
  2,
  0,
  2,
  0,
  2,
  0,
  2,
  0,
  2,
  0,
  2,
  0,
  2;;
  Material {
   0.000000;0.000000;0.000000;1.000000;;
   5.000000;
   0.000000;0.000000;0.000000;;
   0.000000;0.000000;0.000000;;
  }
  Material {
   0.282353;0.150588;0.034510;1.000000;;
   5.000000;
   0.000000;0.000000;0.000000;;
   0.000000;0.000000;0.000000;;
  }
  Material {
   0.379608;0.266667;0.213333;1.000000;;
   5.000000;
   0.000000;0.000000;0.000000;;
   0.000000;0.000000;0.000000;;
  }
 }
 MeshNormals {
  73;
  -0.000000;0.087158;-0.996195;,
  -0.003972;-0.980133;-0.198302;,
  0.656994;-0.646507;-0.387799;,
  0.862171;0.030881;-0.505675;,
  0.320619;0.397450;-0.859789;,
  -0.013901;0.906908;-0.421098;,
  -0.680892;0.685772;-0.257105;,
  -0.994920;0.005385;-0.100524;,
  -0.707084;-0.703593;-0.070631;,
  -0.001988;-0.989731;-0.142927;,
  0.682319;-0.671856;-0.288183;,
  0.937701;0.023491;-0.346648;,
  0.659492;0.690086;-0.298079;,
  -0.007260;0.984500;-0.175233;,
  -0.708017;0.705229;-0.036933;,
  -0.999280;-0.005006;0.037603;,
  -0.705127;-0.709069;-0.004017;,
  0.002514;-0.988150;-0.153469;,
  0.705485;-0.700714;-0.106260;,
  0.999420;0.003665;-0.033869;,
  0.704920;0.709040;0.018731;,
  0.002334;0.999797;0.019991;,
  -0.701157;0.712477;-0.027502;,
  -0.995349;0.007259;-0.096062;,
  -0.700518;-0.698035;-0.148398;,
  0.000740;-0.996250;0.086518;,
  0.692334;-0.707229;0.143183;,
  0.976092;-0.019023;0.216522;,
  0.692364;0.671512;0.264015;,
  0.000794;0.966164;0.257929;,
  -0.699415;0.685740;0.201444;,
  -0.991765;-0.011086;0.127592;,
  -0.699442;-0.710207;0.079915;,
  -0.000000;-0.814800;0.579742;,
  0.538230;-0.592706;0.599173;,
  0.761172;-0.056526;0.646082;,
  0.538229;0.479656;0.692994;,
  -0.000000;0.701751;0.712422;,
  -0.538229;0.479656;0.692993;,
  -0.761172;-0.056526;0.646082;,
  -0.538230;-0.592706;0.599173;,
  -0.000000;-0.087157;0.996195;,
  0.003130;-0.977993;-0.208612;,
  0.707018;-0.703912;-0.068071;,
  0.999057;-0.003506;0.043273;,
  0.706741;0.705166;0.057078;,
  0.003137;0.999334;-0.036367;,
  -0.683848;0.707883;-0.176788;,
  -0.959635;0.023920;-0.280230;,
  -0.684039;-0.667525;-0.294109;,
  -0.000000;-0.996194;-0.087158;,
  0.700017;-0.689695;-0.185195;,
  0.984579;0.015246;-0.174274;,
  0.700018;0.711375;-0.062616;,
  -0.000000;0.996195;0.087156;,
  -0.700018;0.689694;0.185195;,
  -0.984579;-0.015247;0.174273;,
  -0.700018;-0.711375;0.062615;,
  0.001339;-0.980181;-0.198102;,
  0.706457;-0.699242;-0.109448;,
  0.999777;0.001349;-0.021066;,
  0.706862;0.707212;0.014026;,
  0.001577;0.999675;-0.025445;,
  -0.694712;0.710080;-0.114724;,
  -0.979495;0.018138;-0.200651;,
  -0.695392;-0.679080;-0.235116;,
  -0.000002;0.087169;-0.996194;,
  -0.000000;0.087167;-0.996194;,
  0.000000;0.087158;-0.996195;,
  -0.000000;0.087149;-0.996195;,
  0.000002;0.087147;-0.996195;,
  0.000000;0.087158;-0.996195;,
  0.000002;0.087169;-0.996194;;
  72;
  4;1,2,10,9;,
  4;2,3,11,10;,
  4;3,4,12,11;,
  4;4,5,13,12;,
  4;5,6,14,13;,
  4;6,7,15,14;,
  4;7,8,16,15;,
  4;8,1,9,16;,
  4;25,26,34,33;,
  4;26,27,35,34;,
  4;27,28,36,35;,
  4;28,29,37,36;,
  4;29,30,38,37;,
  4;30,31,39,38;,
  4;31,32,40,39;,
  4;32,25,33,40;,
  3;0,66,67;,
  3;0,68,66;,
  3;0,4,68;,
  3;0,69,4;,
  3;0,70,69;,
  3;0,71,70;,
  3;0,72,71;,
  3;0,67,72;,
  3;41,33,34;,
  3;41,34,35;,
  3;41,35,36;,
  3;41,36,37;,
  3;41,37,38;,
  3;41,38,39;,
  3;41,39,40;,
  3;41,40,33;,
  4;43,42,17,18;,
  4;44,43,18,19;,
  4;45,44,19,20;,
  4;46,45,20,21;,
  4;47,46,21,22;,
  4;48,47,22,23;,
  4;49,48,23,24;,
  4;42,49,24,17;,
  4;51,18,17,50;,
  4;51,50,9,10;,
  4;52,19,18,51;,
  4;52,51,10,11;,
  4;53,20,19,52;,
  4;53,52,11,12;,
  4;54,21,20,53;,
  4;54,53,12,13;,
  4;55,22,21,54;,
  4;55,54,13,14;,
  4;56,23,22,55;,
  4;56,55,14,15;,
  4;57,24,23,56;,
  4;57,56,15,16;,
  4;50,17,24,57;,
  4;50,57,16,9;,
  4;59,26,25,58;,
  4;59,58,42,43;,
  4;60,27,26,59;,
  4;60,59,43,44;,
  4;61,28,27,60;,
  4;61,60,44,45;,
  4;62,29,28,61;,
  4;62,61,45,46;,
  4;63,30,29,62;,
  4;63,62,46,47;,
  4;64,31,30,63;,
  4;64,63,47,48;,
  4;65,32,31,64;,
  4;65,64,48,49;,
  4;58,25,32,65;,
  4;58,65,49,42;;
 }
 MeshTextureCoords {
  88;
  0.000000;0.000000;,
  0.125000;0.000000;,
  0.125000;0.250000;,
  0.000000;0.250000;,
  0.250000;0.000000;,
  0.250000;0.250000;,
  0.375000;0.000000;,
  0.375000;0.250000;,
  0.500000;0.000000;,
  0.500000;0.250000;,
  0.625000;0.000000;,
  0.625000;0.250000;,
  0.750000;0.000000;,
  0.750000;0.250000;,
  0.875000;0.000000;,
  0.875000;0.250000;,
  1.000000;0.000000;,
  1.000000;0.250000;,
  0.000000;0.750000;,
  0.125000;0.750000;,
  0.125000;1.000000;,
  0.000000;1.000000;,
  0.250000;0.750000;,
  0.250000;1.000000;,
  0.375000;0.750000;,
  0.375000;1.000000;,
  0.500000;0.750000;,
  0.500000;1.000000;,
  0.625000;0.750000;,
  0.625000;1.000000;,
  0.750000;0.750000;,
  0.750000;1.000000;,
  0.875000;0.750000;,
  0.875000;1.000000;,
  1.000000;0.750000;,
  1.000000;1.000000;,
  0.062500;0.000000;,
  0.187500;0.000000;,
  0.312500;0.000000;,
  0.437500;0.000000;,
  0.562500;0.000000;,
  0.687500;0.000000;,
  0.812500;0.000000;,
  0.937500;0.000000;,
  0.062500;1.000000;,
  0.187500;1.000000;,
  0.312500;1.000000;,
  0.437500;1.000000;,
  0.562500;1.000000;,
  0.687500;1.000000;,
  0.812500;1.000000;,
  0.937500;1.000000;,
  0.125000;0.639933;,
  0.000000;0.639933;,
  0.000000;0.500000;,
  0.125000;0.500000;,
  0.250000;0.637252;,
  0.250000;0.500000;,
  0.375000;0.633486;,
  0.375000;0.500000;,
  0.500000;0.630839;,
  0.500000;0.500000;,
  0.625000;0.630840;,
  0.625000;0.500000;,
  0.750000;0.633486;,
  0.750000;0.500000;,
  0.875000;0.637252;,
  0.875000;0.500000;,
  1.000000;0.639933;,
  1.000000;0.500000;,
  0.125000;0.289822;,
  0.000000;0.285479;,
  0.250000;0.298370;,
  0.375000;0.306115;,
  0.500000;0.308521;,
  0.625000;0.304178;,
  0.750000;0.295631;,
  0.875000;0.287885;,
  1.000000;0.285479;,
  0.125000;0.715037;,
  0.000000;0.714468;,
  0.250000;0.718487;,
  0.375000;0.722964;,
  0.500000;0.725820;,
  0.625000;0.725215;,
  0.750000;0.721528;,
  0.875000;0.717086;,
  1.000000;0.714468;;
 }
}
