xof 0302txt 0064
template Header {
 <3D82AB43-62DA-11cf-AB39-0020AF71E433>
 WORD major;
 WORD minor;
 DWORD flags;
}

template Vector {
 <3D82AB5E-62DA-11cf-AB39-0020AF71E433>
 FLOAT x;
 FLOAT y;
 FLOAT z;
}

template Coords2d {
 <F6F23F44-7686-11cf-8F52-0040333594A3>
 FLOAT u;
 FLOAT v;
}

template Matrix4x4 {
 <F6F23F45-7686-11cf-8F52-0040333594A3>
 array FLOAT matrix[16];
}

template ColorRGBA {
 <35FF44E0-6C7C-11cf-8F52-0040333594A3>
 FLOAT red;
 FLOAT green;
 FLOAT blue;
 FLOAT alpha;
}

template ColorRGB {
 <D3E16E81-7835-11cf-8F52-0040333594A3>
 FLOAT red;
 FLOAT green;
 FLOAT blue;
}

template IndexedColor {
 <1630B820-7842-11cf-8F52-0040333594A3>
 DWORD index;
 ColorRGBA indexColor;
}

template Boolean {
 <4885AE61-78E8-11cf-8F52-0040333594A3>
 WORD truefalse;
}

template Boolean2d {
 <4885AE63-78E8-11cf-8F52-0040333594A3>
 Boolean u;
 Boolean v;
}

template MaterialWrap {
 <4885AE60-78E8-11cf-8F52-0040333594A3>
 Boolean u;
 Boolean v;
}

template TextureFilename {
 <A42790E1-7810-11cf-8F52-0040333594A3>
 STRING filename;
}

template Material {
 <3D82AB4D-62DA-11cf-AB39-0020AF71E433>
 ColorRGBA faceColor;
 FLOAT power;
 ColorRGB specularColor;
 ColorRGB emissiveColor;
 [...]
}

template MeshFace {
 <3D82AB5F-62DA-11cf-AB39-0020AF71E433>
 DWORD nFaceVertexIndices;
 array DWORD faceVertexIndices[nFaceVertexIndices];
}

template MeshFaceWraps {
 <4885AE62-78E8-11cf-8F52-0040333594A3>
 DWORD nFaceWrapValues;
 Boolean2d faceWrapValues;
}

template MeshTextureCoords {
 <F6F23F40-7686-11cf-8F52-0040333594A3>
 DWORD nTextureCoords;
 array Coords2d textureCoords[nTextureCoords];
}

template MeshMaterialList {
 <F6F23F42-7686-11cf-8F52-0040333594A3>
 DWORD nMaterials;
 DWORD nFaceIndexes;
 array DWORD faceIndexes[nFaceIndexes];
 [Material]
}

template MeshNormals {
 <F6F23F43-7686-11cf-8F52-0040333594A3>
 DWORD nNormals;
 array Vector normals[nNormals];
 DWORD nFaceNormals;
 array MeshFace faceNormals[nFaceNormals];
}

template MeshVertexColors {
 <1630B821-7842-11cf-8F52-0040333594A3>
 DWORD nVertexColors;
 array IndexedColor vertexColors[nVertexColors];
}

template Mesh {
 <3D82AB44-62DA-11cf-AB39-0020AF71E433>
 DWORD nVertices;
 array Vector vertices[nVertices];
 DWORD nFaces;
 array MeshFace faces[nFaces];
 [...]
}

Header{
1;
0;
1;
}

Mesh {
 43;
 -0.22324;-0.57361;-2.69022;,
 -0.22324;-8.50925;-3.02155;,
 -1.45737;-8.50925;-2.28949;,
 -1.97303;-0.30444;-1.88136;,
 -1.96857;-8.50925;-0.52216;,
 -2.69782;-0.30444;0.07134;,
 -1.45737;-8.50925;1.24518;,
 -1.97303;-0.30444;2.02405;,
 -0.22324;-8.50925;1.97723;,
 -0.22324;-0.57361;2.83290;,
 1.01090;-8.50925;1.24518;,
 1.52656;0.92756;2.02405;,
 1.52209;-8.50925;-0.52216;,
 2.25134;0.92756;0.07134;,
 1.01090;-8.50925;-2.28949;,
 1.52656;0.92756;-1.88136;,
 -0.22324;-8.50925;-3.02155;,
 -0.22324;-0.57361;-2.69022;,
 -0.30479;-11.57149;-8.48409;,
 -2.64158;-11.57149;-7.09800;,
 -2.97107;-10.64940;-4.15035;,
 -2.16625;-10.64940;-1.36789;,
 -0.22324;-10.64940;-0.21532;,
 1.71977;-10.64940;-1.36789;,
 2.99991;-11.57149;-3.75161;,
 2.03199;-11.57149;-7.09800;,
 -0.30479;-11.57149;-8.48409;,
 -0.22324;-0.57361;0.07134;,
 -0.22324;-0.57361;0.07134;,
 -0.22324;-0.57361;0.07134;,
 -0.22324;-0.57361;0.07134;,
 -0.22324;-0.57361;0.07134;,
 -0.22324;-0.57361;0.07134;,
 -0.22324;-0.57361;0.07134;,
 -0.22324;-0.57361;0.07134;,
 -0.30479;-11.57149;-3.75161;,
 -0.30479;-11.57149;-3.75161;,
 -0.30479;-11.57149;-3.75161;,
 -0.30479;-11.57149;-3.75161;,
 -0.30479;-11.57149;-3.75161;,
 -0.30479;-11.57149;-3.75161;,
 -0.30479;-11.57149;-3.75161;,
 -0.30479;-11.57149;-3.75161;;
 
 32;
 4;0,1,2,3;,
 4;3,2,4,5;,
 4;5,4,6,7;,
 4;7,6,8,9;,
 4;9,8,10,11;,
 4;11,10,12,13;,
 4;13,12,14,15;,
 4;15,14,16,17;,
 4;1,18,19,2;,
 4;2,19,20,4;,
 4;4,20,21,6;,
 4;6,21,22,8;,
 4;8,22,23,10;,
 4;10,23,24,12;,
 4;12,24,25,14;,
 4;14,25,26,16;,
 3;27,0,3;,
 3;28,3,5;,
 3;29,5,7;,
 3;30,7,9;,
 3;31,9,11;,
 3;32,11,13;,
 3;33,13,15;,
 3;34,15,17;,
 3;35,19,18;,
 3;36,20,19;,
 3;37,21,20;,
 3;38,22,21;,
 3;39,23,22;,
 3;40,24,23;,
 3;41,25,24;,
 3;42,26,25;;
 
 MeshMaterialList {
  3;
  32;
  2,
  2,
  2,
  2,
  2,
  2,
  2,
  2,
  0,
  0,
  0,
  0,
  0,
  0,
  0,
  0,
  2,
  2,
  2,
  2,
  2,
  2,
  2,
  2,
  0,
  0,
  0,
  0,
  0,
  0,
  0,
  0;;
  Material {
   0.000000;0.000000;0.000000;1.000000;;
   5.000000;
   0.000000;0.000000;0.000000;;
   0.000000;0.000000;0.000000;;
  }
  Material {
   0.282353;0.150588;0.034510;1.000000;;
   5.000000;
   0.000000;0.000000;0.000000;;
   0.000000;0.000000;0.000000;;
  }
  Material {
   0.379608;0.266667;0.213333;1.000000;;
   5.000000;
   0.000000;0.000000;0.000000;;
   0.000000;0.000000;0.000000;;
  }
 }
 MeshNormals {
  37;
  -0.243884;0.969805;0.000000;,
  -0.002687;0.030485;-0.999532;,
  -0.762573;-0.013411;-0.646763;,
  -0.996851;-0.079293;-0.000555;,
  -0.761323;-0.107930;0.639326;,
  0.015373;-0.112877;0.993490;,
  0.771951;-0.096746;0.628276;,
  0.997616;-0.069003;-0.000421;,
  0.760896;-0.010210;-0.648793;,
  -0.794686;0.254830;-0.550941;,
  -0.989183;0.146486;0.007686;,
  -0.769594;-0.246308;0.589116;,
  0.007939;-0.448353;0.893821;,
  0.752960;-0.250905;0.608356;,
  0.992639;0.111199;0.047989;,
  0.719694;0.416371;-0.555586;,
  0.001803;0.872275;-0.489012;,
  -0.490106;0.789872;-0.368643;,
  -0.924604;0.380589;0.016098;,
  -0.537681;-0.755694;0.373933;,
  -0.001003;-0.875086;0.483967;,
  0.422639;-0.767464;0.482053;,
  0.948886;0.300016;0.098012;,
  0.547908;0.753447;-0.363475;,
  -0.088510;-0.984122;0.153847;,
  -0.276850;0.839950;-0.466731;,
  -0.274643;0.961546;0.000000;,
  0.130103;0.991297;0.020061;,
  0.108136;0.994136;0.000000;,
  0.130103;0.991297;-0.020061;,
  -0.584795;0.805568;-0.095265;,
  -0.518663;0.854979;0.000000;,
  -0.584795;0.805568;0.095265;,
  -0.178994;-0.975878;0.124991;,
  0.000000;-1.000000;0.000000;,
  -0.344801;-0.922897;0.171385;,
  -0.000000;-0.983019;0.183504;;
  32;
  4;1,1,9,2;,
  4;2,9,10,3;,
  4;3,10,11,4;,
  4;4,11,12,5;,
  4;5,12,13,6;,
  4;6,13,14,7;,
  4;7,14,15,8;,
  4;8,15,1,1;,
  4;16,16,17,25;,
  4;9,17,18,10;,
  4;10,18,19,11;,
  4;11,19,20,12;,
  4;12,20,21,13;,
  4;13,21,22,14;,
  4;14,22,23,15;,
  4;15,23,16,16;,
  3;0,26,27;,
  3;0,27,28;,
  3;0,28,29;,
  3;0,29,26;,
  3;0,26,30;,
  3;0,30,31;,
  3;0,31,32;,
  3;0,32,26;,
  3;24,33,34;,
  3;24,35,33;,
  3;24,19,35;,
  3;24,20,19;,
  3;24,21,20;,
  3;24,36,21;,
  3;24,34,36;,
  3;24,34,34;;
 }
 MeshTextureCoords {
  43;
  0.000000;0.000000;,
  0.000000;0.500000;,
  0.125000;0.500000;,
  0.125000;0.000000;,
  0.250000;0.500000;,
  0.250000;0.000000;,
  0.375000;0.500000;,
  0.375000;0.000000;,
  0.500000;0.500000;,
  0.500000;0.000000;,
  0.625000;0.500000;,
  0.625000;0.000000;,
  0.750000;0.500000;,
  0.750000;0.000000;,
  0.875000;0.500000;,
  0.875000;0.000000;,
  1.000000;0.500000;,
  1.000000;0.000000;,
  0.000000;1.000000;,
  0.125000;1.000000;,
  0.250000;1.000000;,
  0.375000;1.000000;,
  0.500000;1.000000;,
  0.625000;1.000000;,
  0.750000;1.000000;,
  0.875000;1.000000;,
  1.000000;1.000000;,
  0.062500;0.000000;,
  0.187500;0.000000;,
  0.312500;0.000000;,
  0.437500;0.000000;,
  0.562500;0.000000;,
  0.687500;0.000000;,
  0.812500;0.000000;,
  0.937500;0.000000;,
  0.062500;1.000000;,
  0.187500;1.000000;,
  0.312500;1.000000;,
  0.437500;1.000000;,
  0.562500;1.000000;,
  0.687500;1.000000;,
  0.812500;1.000000;,
  0.937500;1.000000;;
 }
}
