xof 0302txt 0064
template Header {
 <3D82AB43-62DA-11cf-AB39-0020AF71E433>
 WORD major;
 WORD minor;
 DWORD flags;
}

template Vector {
 <3D82AB5E-62DA-11cf-AB39-0020AF71E433>
 FLOAT x;
 FLOAT y;
 FLOAT z;
}

template Coords2d {
 <F6F23F44-7686-11cf-8F52-0040333594A3>
 FLOAT u;
 FLOAT v;
}

template Matrix4x4 {
 <F6F23F45-7686-11cf-8F52-0040333594A3>
 array FLOAT matrix[16];
}

template ColorRGBA {
 <35FF44E0-6C7C-11cf-8F52-0040333594A3>
 FLOAT red;
 FLOAT green;
 FLOAT blue;
 FLOAT alpha;
}

template ColorRGB {
 <D3E16E81-7835-11cf-8F52-0040333594A3>
 FLOAT red;
 FLOAT green;
 FLOAT blue;
}

template IndexedColor {
 <1630B820-7842-11cf-8F52-0040333594A3>
 DWORD index;
 ColorRGBA indexColor;
}

template Boolean {
 <4885AE61-78E8-11cf-8F52-0040333594A3>
 WORD truefalse;
}

template Boolean2d {
 <4885AE63-78E8-11cf-8F52-0040333594A3>
 Boolean u;
 Boolean v;
}

template MaterialWrap {
 <4885AE60-78E8-11cf-8F52-0040333594A3>
 Boolean u;
 Boolean v;
}

template TextureFilename {
 <A42790E1-7810-11cf-8F52-0040333594A3>
 STRING filename;
}

template Material {
 <3D82AB4D-62DA-11cf-AB39-0020AF71E433>
 ColorRGBA faceColor;
 FLOAT power;
 ColorRGB specularColor;
 ColorRGB emissiveColor;
 [...]
}

template MeshFace {
 <3D82AB5F-62DA-11cf-AB39-0020AF71E433>
 DWORD nFaceVertexIndices;
 array DWORD faceVertexIndices[nFaceVertexIndices];
}

template MeshFaceWraps {
 <4885AE62-78E8-11cf-8F52-0040333594A3>
 DWORD nFaceWrapValues;
 Boolean2d faceWrapValues;
}

template MeshTextureCoords {
 <F6F23F40-7686-11cf-8F52-0040333594A3>
 DWORD nTextureCoords;
 array Coords2d textureCoords[nTextureCoords];
}

template MeshMaterialList {
 <F6F23F42-7686-11cf-8F52-0040333594A3>
 DWORD nMaterials;
 DWORD nFaceIndexes;
 array DWORD faceIndexes[nFaceIndexes];
 [Material]
}

template MeshNormals {
 <F6F23F43-7686-11cf-8F52-0040333594A3>
 DWORD nNormals;
 array Vector normals[nNormals];
 DWORD nFaceNormals;
 array MeshFace faceNormals[nFaceNormals];
}

template MeshVertexColors {
 <1630B821-7842-11cf-8F52-0040333594A3>
 DWORD nVertexColors;
 array IndexedColor vertexColors[nVertexColors];
}

template Mesh {
 <3D82AB44-62DA-11cf-AB39-0020AF71E433>
 DWORD nVertices;
 array Vector vertices[nVertices];
 DWORD nFaces;
 array MeshFace faces[nFaces];
 [...]
}

Header{
1;
0;
1;
}

Mesh {
 79;
 0.00000;8.17216;16.48114;,
 0.00000;9.96883;11.48114;,
 -7.07107;7.03990;11.48113;,
 -7.07107;5.24324;16.48114;,
 -10.00000;-0.03117;11.48114;,
 -10.00000;-1.82783;16.48113;,
 -7.07107;-7.10224;11.48113;,
 -7.07107;-7.12195;16.48114;,
 0.00000;-8.94620;11.48113;,
 0.00000;-8.96590;16.48114;,
 7.07107;-7.10223;11.48113;,
 7.07107;-7.12195;16.48114;,
 10.00000;-0.03117;11.48114;,
 10.00000;-1.82783;16.48113;,
 7.07107;7.03989;11.48113;,
 7.07107;5.24324;16.48114;,
 0.00000;9.96883;11.48114;,
 0.00000;8.17216;16.48114;,
 0.00000;11.12905;3.23907;,
 -7.07107;8.20012;3.23908;,
 -10.00000;1.12906;3.23908;,
 -7.07107;-5.94200;3.23908;,
 0.00000;-7.78596;3.23909;,
 7.07107;-5.94200;3.23908;,
 10.00000;1.12906;3.23908;,
 7.07107;8.20012;3.23908;,
 0.00000;11.12905;3.23907;,
 0.00000;9.96883;-1.76091;,
 -7.07107;7.03990;-1.76092;,
 -10.00000;-0.03117;-1.76092;,
 -7.07107;-7.10224;-1.76091;,
 0.00000;-8.94620;-1.76092;,
 7.07107;-7.10224;-1.76092;,
 10.00000;-0.03117;-1.76092;,
 7.07107;7.03990;-1.76091;,
 0.00000;9.96883;-1.76091;,
 0.00000;-1.82783;22.04244;,
 0.00000;-1.82783;22.04244;,
 0.00000;-1.82783;22.04244;,
 0.00000;-1.82783;22.04244;,
 0.00000;-1.82783;22.04244;,
 0.00000;-1.82783;22.04244;,
 0.00000;-1.82783;22.04244;,
 0.00000;-1.82783;22.04244;,
 0.00000;-2.12318;-17.70369;,
 -4.74460;5.41576;-20.62473;,
 0.00000;8.34469;-20.62474;,
 0.00000;-2.12318;-17.70369;,
 -6.74343;-2.12318;-16.93537;,
 0.00000;-2.12318;-17.70369;,
 -4.76832;-8.12052;-9.18034;,
 0.00000;-2.12318;-17.70369;,
 0.00000;-9.02332;-8.42126;,
 0.00000;-2.12318;-17.70369;,
 4.76832;-8.12052;-9.18034;,
 0.00000;-2.12318;-17.70369;,
 6.74343;-2.12318;-16.93537;,
 0.00000;-2.12318;-17.70369;,
 4.74460;5.41576;-20.62473;,
 0.00000;-2.12318;-17.70369;,
 0.00000;8.34469;-20.62474;,
 0.00000;9.44180;-7.88212;,
 -6.39850;6.57038;-7.21429;,
 -9.11648;-0.59874;-5.87781;,
 -6.14994;-7.50957;-4.72879;,
 0.00000;-8.97933;-4.62210;,
 6.05765;-7.55038;-5.02615;,
 9.02168;-0.65964;-6.31955;,
 6.35983;6.54338;-7.52785;,
 0.00000;9.44180;-7.88212;,
 0.00000;9.18979;-10.80917;,
 -6.06785;6.33954;-9.89536;,
 -8.63724;-0.90660;-8.11088;,
 -5.55335;-7.77338;-6.65099;,
 0.00000;-9.00222;-6.59933;,
 5.41510;-7.83451;-7.09642;,
 8.48802;-1.00246;-8.80620;,
 6.00668;6.29683;-10.39138;,
 0.00000;9.18979;-10.80917;;
 
 64;
 4;0,1,2,3;,
 4;3,2,4,5;,
 4;5,4,6,7;,
 4;7,6,8,9;,
 4;9,8,10,11;,
 4;11,10,12,13;,
 4;13,12,14,15;,
 4;15,14,16,17;,
 4;1,18,19,2;,
 4;2,19,20,4;,
 4;4,20,21,6;,
 4;6,21,22,8;,
 4;8,22,23,10;,
 4;10,23,24,12;,
 4;12,24,25,14;,
 4;14,25,26,16;,
 4;18,27,28,19;,
 4;19,28,29,20;,
 4;20,29,30,21;,
 4;21,30,31,22;,
 4;22,31,32,23;,
 4;23,32,33,24;,
 4;24,33,34,25;,
 4;25,34,35,26;,
 3;36,0,3;,
 3;37,3,5;,
 3;38,5,7;,
 3;39,7,9;,
 3;40,9,11;,
 3;41,11,13;,
 3;42,13,15;,
 3;43,15,17;,
 3;44,45,46;,
 3;47,48,45;,
 3;49,50,48;,
 3;51,52,50;,
 3;53,54,52;,
 3;55,56,54;,
 3;57,58,56;,
 3;59,60,58;,
 4;61,62,28,27;,
 4;62,63,29,28;,
 4;63,64,30,29;,
 4;64,65,31,30;,
 4;65,66,32,31;,
 4;66,67,33,32;,
 4;67,68,34,33;,
 4;68,69,35,34;,
 4;70,46,45,71;,
 4;70,71,62,61;,
 4;71,45,48,72;,
 4;71,72,63,62;,
 4;72,48,50,73;,
 4;72,73,64,63;,
 4;73,50,52,74;,
 4;73,74,65,64;,
 4;74,52,54,75;,
 4;74,75,66,65;,
 4;75,54,56,76;,
 4;75,76,67,66;,
 4;76,56,58,77;,
 4;76,77,68,67;,
 4;77,58,60,78;,
 4;77,78,69,68;;
 
 MeshMaterialList {
  3;
  64;
  0,
  0,
  0,
  0,
  0,
  0,
  0,
  0,
  2,
  2,
  2,
  2,
  2,
  2,
  2,
  2,
  0,
  0,
  0,
  0,
  0,
  0,
  0,
  0,
  2,
  2,
  2,
  2,
  2,
  2,
  2,
  2,
  2,
  2,
  2,
  2,
  2,
  2,
  2,
  2,
  2,
  2,
  2,
  2,
  2,
  2,
  2,
  2,
  2,
  0,
  2,
  0,
  2,
  0,
  2,
  0,
  2,
  0,
  2,
  0,
  2,
  0,
  2,
  0;;
  Material {
   0.000000;0.000000;0.000000;1.000000;;
   5.000000;
   0.000000;0.000000;0.000000;;
   0.000000;0.000000;0.000000;;
  }
  Material {
   0.282353;0.150588;0.034510;1.000000;;
   5.000000;
   0.000000;0.000000;0.000000;;
   0.000000;0.000000;0.000000;;
  }
  Material {
   0.379608;0.266667;0.213333;1.000000;;
   5.000000;
   0.000000;0.000000;0.000000;;
   0.000000;0.000000;0.000000;;
  }
 }
 MeshNormals {
  65;
  -0.000000;-0.057658;0.998336;,
  0.000000;0.755973;0.654603;,
  -0.558438;0.551997;0.619230;,
  -0.921339;-0.126636;0.367557;,
  -0.523961;-0.803544;0.282458;,
  0.000000;-0.897179;0.441666;,
  0.543561;-0.692975;0.473631;,
  0.841544;-0.035515;0.539020;,
  0.558438;0.551997;0.619230;,
  0.000000;0.970676;0.240391;,
  -0.700118;0.692995;0.172028;,
  -0.999723;-0.014797;0.018277;,
  -0.644799;-0.760888;-0.072683;,
  0.000000;-0.997415;-0.071856;,
  0.644799;-0.760888;-0.072683;,
  0.999723;-0.014796;0.018277;,
  0.700118;0.692995;0.172028;,
  0.000000;0.999019;-0.044282;,
  -0.708615;0.704893;-0.031470;,
  -1.000000;-0.000000;0.000000;,
  -0.659106;-0.751305;0.033469;,
  0.000000;-0.999024;0.044160;,
  0.659106;-0.751305;0.033469;,
  1.000000;0.000000;0.000000;,
  0.708615;0.704893;-0.031470;,
  0.000286;0.985587;-0.169166;,
  -0.706272;0.689444;-0.160766;,
  -0.994713;-0.012930;-0.101874;,
  -0.650261;-0.758379;0.044962;,
  -0.000300;-0.991448;0.130504;,
  0.649575;-0.758958;0.045119;,
  0.994714;-0.014280;-0.101684;,
  0.706982;0.688718;-0.160760;,
  0.000000;-0.268781;-0.963201;,
  0.030716;-0.344253;-0.938374;,
  -0.088335;-0.625373;-0.775310;,
  -0.343145;-0.860294;-0.377022;,
  0.000000;-0.954418;-0.298474;,
  0.342513;-0.860756;-0.376541;,
  0.088335;-0.625373;-0.775310;,
  -0.030716;-0.344253;-0.938374;,
  -0.000000;-0.598678;-0.800989;,
  0.000782;0.993648;-0.112532;,
  -0.725882;0.668898;-0.160221;,
  -0.978926;-0.045483;-0.199088;,
  -0.630084;-0.772403;-0.079925;,
  -0.000858;-0.999371;0.035453;,
  0.627964;-0.774185;-0.079361;,
  0.978844;-0.049813;-0.198454;,
  0.728017;0.666581;-0.160190;,
  0.000504;0.993348;-0.115149;,
  -0.761788;0.627987;-0.159096;,
  -0.977092;-0.089716;-0.192981;,
  -0.612016;-0.787298;-0.074828;,
  -0.000558;-0.999261;0.038442;,
  0.609849;-0.789041;-0.074145;,
  0.976800;-0.094400;-0.192225;,
  0.763659;0.625722;-0.159049;,
  -0.476467;0.197358;0.856755;,
  -0.469355;-0.259667;0.843966;,
  -0.000000;0.993209;-0.116347;,
  -0.783205;0.601396;-0.157840;,
  -0.975221;-0.113913;-0.189651;,
  0.974933;-0.117333;-0.189045;,
  0.784170;0.600144;-0.157814;;
  64;
  4;1,9,10,2;,
  4;2,10,11,3;,
  4;3,11,12,4;,
  4;4,12,13,5;,
  4;5,13,14,6;,
  4;6,14,15,7;,
  4;7,15,16,8;,
  4;8,16,9,1;,
  4;9,17,18,10;,
  4;10,18,19,11;,
  4;11,19,20,12;,
  4;12,20,21,13;,
  4;13,21,22,14;,
  4;14,22,23,15;,
  4;15,23,24,16;,
  4;16,24,17,9;,
  4;17,25,26,18;,
  4;18,26,27,19;,
  4;19,27,28,20;,
  4;20,28,29,21;,
  4;21,29,30,22;,
  4;22,30,31,23;,
  4;23,31,32,24;,
  4;24,32,25,17;,
  3;0,1,2;,
  3;0,2,58;,
  3;0,3,59;,
  3;0,4,5;,
  3;0,5,6;,
  3;0,6,7;,
  3;0,7,8;,
  3;0,8,1;,
  3;41,34,33;,
  3;41,35,34;,
  3;41,36,35;,
  3;41,37,36;,
  3;41,38,37;,
  3;41,39,38;,
  3;41,40,39;,
  3;41,33,40;,
  4;42,43,26,25;,
  4;43,44,27,26;,
  4;44,45,28,27;,
  4;45,46,29,28;,
  4;46,47,30,29;,
  4;47,48,31,30;,
  4;48,49,32,31;,
  4;49,42,25,32;,
  4;50,60,61,51;,
  4;50,51,43,42;,
  4;51,61,62,52;,
  4;51,52,44,43;,
  4;52,62,36,53;,
  4;52,53,45,44;,
  4;53,36,37,54;,
  4;53,54,46,45;,
  4;54,37,38,55;,
  4;54,55,47,46;,
  4;55,38,63,56;,
  4;55,56,48,47;,
  4;56,63,64,57;,
  4;56,57,49,48;,
  4;57,64,60,50;,
  4;57,50,42,49;;
 }
 MeshTextureCoords {
  79;
  0.000000;0.000000;,
  0.000000;0.250000;,
  0.125000;0.250000;,
  0.125000;0.000000;,
  0.250000;0.250000;,
  0.250000;0.000000;,
  0.375000;0.250000;,
  0.375000;0.000000;,
  0.500000;0.250000;,
  0.500000;0.000000;,
  0.625000;0.250000;,
  0.625000;0.000000;,
  0.750000;0.250000;,
  0.750000;0.000000;,
  0.875000;0.250000;,
  0.875000;0.000000;,
  1.000000;0.250000;,
  1.000000;0.000000;,
  0.000000;0.500000;,
  0.125000;0.500000;,
  0.250000;0.500000;,
  0.375000;0.500000;,
  0.500000;0.500000;,
  0.625000;0.500000;,
  0.750000;0.500000;,
  0.875000;0.500000;,
  1.000000;0.500000;,
  0.000000;0.750000;,
  0.125000;0.750000;,
  0.250000;0.750000;,
  0.375000;0.750000;,
  0.500000;0.750000;,
  0.625000;0.750000;,
  0.750000;0.750000;,
  0.875000;0.750000;,
  1.000000;0.750000;,
  0.062500;0.000000;,
  0.187500;0.000000;,
  0.312500;0.000000;,
  0.437500;0.000000;,
  0.562500;0.000000;,
  0.687500;0.000000;,
  0.812500;0.000000;,
  0.937500;0.000000;,
  0.062500;1.000000;,
  0.125000;1.000000;,
  0.000000;1.000000;,
  0.187500;1.000000;,
  0.250000;1.000000;,
  0.312500;1.000000;,
  0.375000;1.000000;,
  0.437500;1.000000;,
  0.500000;1.000000;,
  0.562500;1.000000;,
  0.625000;1.000000;,
  0.687500;1.000000;,
  0.750000;1.000000;,
  0.812500;1.000000;,
  0.875000;1.000000;,
  0.937500;1.000000;,
  1.000000;1.000000;,
  0.000000;0.831124;,
  0.125000;0.822273;,
  0.250000;0.817826;,
  0.375000;0.850003;,
  0.500000;0.857396;,
  0.625000;0.860023;,
  0.750000;0.825104;,
  0.875000;0.826429;,
  1.000000;0.831124;,
  0.000000;0.869915;,
  0.125000;0.857805;,
  0.250000;0.854616;,
  0.375000;0.914773;,
  0.500000;0.931613;,
  0.625000;0.929782;,
  0.750000;0.866071;,
  0.875000;0.864379;,
  1.000000;0.869915;;
 }
}
