xof 0302txt 0064
template Header {
 <3D82AB43-62DA-11cf-AB39-0020AF71E433>
 WORD major;
 WORD minor;
 DWORD flags;
}

template Vector {
 <3D82AB5E-62DA-11cf-AB39-0020AF71E433>
 FLOAT x;
 FLOAT y;
 FLOAT z;
}

template Coords2d {
 <F6F23F44-7686-11cf-8F52-0040333594A3>
 FLOAT u;
 FLOAT v;
}

template Matrix4x4 {
 <F6F23F45-7686-11cf-8F52-0040333594A3>
 array FLOAT matrix[16];
}

template ColorRGBA {
 <35FF44E0-6C7C-11cf-8F52-0040333594A3>
 FLOAT red;
 FLOAT green;
 FLOAT blue;
 FLOAT alpha;
}

template ColorRGB {
 <D3E16E81-7835-11cf-8F52-0040333594A3>
 FLOAT red;
 FLOAT green;
 FLOAT blue;
}

template IndexedColor {
 <1630B820-7842-11cf-8F52-0040333594A3>
 DWORD index;
 ColorRGBA indexColor;
}

template Boolean {
 <4885AE61-78E8-11cf-8F52-0040333594A3>
 WORD truefalse;
}

template Boolean2d {
 <4885AE63-78E8-11cf-8F52-0040333594A3>
 Boolean u;
 Boolean v;
}

template MaterialWrap {
 <4885AE60-78E8-11cf-8F52-0040333594A3>
 Boolean u;
 Boolean v;
}

template TextureFilename {
 <A42790E1-7810-11cf-8F52-0040333594A3>
 STRING filename;
}

template Material {
 <3D82AB4D-62DA-11cf-AB39-0020AF71E433>
 ColorRGBA faceColor;
 FLOAT power;
 ColorRGB specularColor;
 ColorRGB emissiveColor;
 [...]
}

template MeshFace {
 <3D82AB5F-62DA-11cf-AB39-0020AF71E433>
 DWORD nFaceVertexIndices;
 array DWORD faceVertexIndices[nFaceVertexIndices];
}

template MeshFaceWraps {
 <4885AE62-78E8-11cf-8F52-0040333594A3>
 DWORD nFaceWrapValues;
 Boolean2d faceWrapValues;
}

template MeshTextureCoords {
 <F6F23F40-7686-11cf-8F52-0040333594A3>
 DWORD nTextureCoords;
 array Coords2d textureCoords[nTextureCoords];
}

template MeshMaterialList {
 <F6F23F42-7686-11cf-8F52-0040333594A3>
 DWORD nMaterials;
 DWORD nFaceIndexes;
 array DWORD faceIndexes[nFaceIndexes];
 [Material]
}

template MeshNormals {
 <F6F23F43-7686-11cf-8F52-0040333594A3>
 DWORD nNormals;
 array Vector normals[nNormals];
 DWORD nFaceNormals;
 array MeshFace faceNormals[nFaceNormals];
}

template MeshVertexColors {
 <1630B821-7842-11cf-8F52-0040333594A3>
 DWORD nVertexColors;
 array IndexedColor vertexColors[nVertexColors];
}

template Mesh {
 <3D82AB44-62DA-11cf-AB39-0020AF71E433>
 DWORD nVertices;
 array Vector vertices[nVertices];
 DWORD nFaces;
 array MeshFace faces[nFaces];
 [...]
}

Header{
1;
0;
1;
}

Mesh {
 147;
 8.62642;0.55552;3.82892;,
 21.51965;0.55551;3.82892;,
 21.51968;2.64923;2.96170;,
 8.62641;2.64923;2.96170;,
 21.51966;3.51645;0.86800;,
 8.62642;3.51643;0.86800;,
 21.51968;2.64922;-1.22569;,
 8.62642;2.64923;-1.22570;,
 21.51966;0.55552;-2.09292;,
 8.62642;0.55552;-2.09292;,
 21.51966;-1.53816;-1.22570;,
 8.62642;-1.53817;-1.22571;,
 21.51965;-2.40540;0.86800;,
 8.62642;-2.40540;0.86800;,
 21.51965;-1.53815;2.96169;,
 8.62642;-1.53817;2.96170;,
 21.51965;0.55551;3.82892;,
 8.62642;0.55552;3.82892;,
 8.62642;0.55553;0.86799;,
 8.62642;0.55553;0.86799;,
 8.62642;0.55553;0.86799;,
 8.62642;0.55553;0.86799;,
 8.62642;0.55553;0.86799;,
 8.62642;0.55553;0.86799;,
 8.62642;0.55553;0.86799;,
 8.62642;0.55553;0.86799;,
 21.51967;0.55552;0.86801;,
 21.51967;0.55552;0.86801;,
 21.51967;0.55552;0.86801;,
 21.51967;0.55552;0.86801;,
 21.51967;0.55552;0.86801;,
 21.51967;0.55552;0.86801;,
 21.51967;0.55552;0.86801;,
 21.51967;0.55552;0.86801;,
 -1.26346;0.19227;0.86800;,
 0.01149;0.19228;4.79188;,
 0.01150;3.59044;2.82994;,
 -1.26346;0.19227;0.86800;,
 0.01151;3.59044;-1.09394;,
 -1.26346;0.19227;0.86800;,
 0.01149;0.19228;-3.05588;,
 -1.26346;0.19227;0.86800;,
 0.01150;-3.20587;-1.09394;,
 -1.26346;0.19227;0.86800;,
 0.01149;-3.20587;2.82994;,
 -1.26346;0.19227;0.86800;,
 0.01149;0.19228;4.79188;,
 3.34933;0.19228;7.21696;,
 3.34933;5.69063;4.04248;,
 3.34932;5.69063;-2.30647;,
 3.34933;0.19229;-5.48096;,
 3.34931;-5.30604;-2.30648;,
 3.34931;-5.30604;4.04248;,
 3.34933;0.19228;7.21696;,
 7.47514;0.19229;7.21695;,
 7.47511;5.69063;4.04247;,
 7.47511;5.69063;-2.30648;,
 7.47514;0.19229;-5.48095;,
 7.47513;-5.30605;-2.30648;,
 7.47513;-5.30606;4.04247;,
 7.47514;0.19229;7.21695;,
 8.97042;0.19228;4.79187;,
 8.97045;3.59045;2.82994;,
 8.97045;3.59044;-1.09393;,
 8.97042;0.19230;-3.05588;,
 8.97043;-3.20587;-1.09393;,
 8.97043;-3.20586;2.82994;,
 8.97042;0.19228;4.79187;,
 12.08791;0.19225;0.86801;,
 12.08791;0.19225;0.86801;,
 12.08791;0.19225;0.86801;,
 12.08791;0.19225;0.86801;,
 12.08791;0.19225;0.86801;,
 12.08791;0.19225;0.86801;,
 23.13357;-2.56358;3.91840;,
 18.99503;-2.56356;3.91839;,
 18.99502;-2.56357;-2.65735;,
 23.13357;-2.56358;-2.65734;,
 23.51357;3.53816;4.76627;,
 23.51356;3.53817;-3.50519;,
 18.99502;3.53817;-3.50520;,
 18.99502;3.53817;4.76628;,
 23.51358;-1.07915;4.76627;,
 18.99502;-1.07919;4.76628;,
 18.99503;-2.56356;3.91839;,
 23.13357;-2.56358;3.91840;,
 23.51357;3.53816;4.76627;,
 18.99502;3.53817;4.76628;,
 28.31831;1.53624;4.76628;,
 28.31831;1.53622;-3.50519;,
 28.31830;3.52386;-3.50520;,
 28.31830;3.52386;4.76629;,
 18.99502;-1.07919;4.76628;,
 18.99503;-1.07916;-3.50520;,
 18.99503;-2.56356;3.91839;,
 18.99502;3.53817;4.76628;,
 18.99503;-1.07916;-3.50520;,
 23.51358;-1.07915;-3.50520;,
 23.13357;-2.56358;-2.65734;,
 18.99502;-2.56357;-2.65735;,
 18.99502;3.53817;-3.50520;,
 23.51356;3.53817;-3.50519;,
 24.77743;0.21933;4.76627;,
 23.72331;3.53815;4.76628;,
 24.77743;0.21933;4.76627;,
 24.77743;0.21933;-3.50519;,
 23.72331;3.53815;4.76628;,
 23.72332;3.53816;-3.50519;,
 23.72332;3.53816;-3.50519;,
 24.77743;0.21933;-3.50519;,
 24.77743;0.21933;4.76627;,
 24.77743;0.21933;-3.50519;,
 25.48682;3.50487;-3.50519;,
 25.13482;0.90911;-3.50519;,
 28.31830;3.52386;-3.50520;,
 28.31831;1.53622;-3.50519;,
 25.48682;3.50487;-3.50519;,
 25.48681;3.50489;4.76628;,
 28.31830;3.52386;4.76629;,
 25.13482;0.90911;-3.50519;,
 25.13482;0.90912;4.76628;,
 28.31831;1.53622;-3.50519;,
 28.31831;1.53624;4.76628;,
 25.48681;3.50489;4.76628;,
 25.13482;0.90912;4.76628;,
 28.31831;1.53624;4.76628;,
 28.31830;3.52386;4.76629;,
 19.70442;-1.50478;-2.92903;,
 26.61636;-1.50480;-2.92902;,
 26.61638;1.06987;-2.92902;,
 19.70440;1.06986;-2.92902;,
 19.70440;1.06986;-2.92902;,
 26.61638;1.06987;-2.92902;,
 26.61637;1.06988;-4.86660;,
 19.70441;1.06986;-4.86661;,
 19.70441;1.06986;-4.86661;,
 26.61637;1.06988;-4.86660;,
 26.61637;-1.50480;-4.86659;,
 19.70441;-1.50478;-4.86659;,
 19.70441;-1.50478;-4.86659;,
 26.61637;-1.50480;-4.86659;,
 26.61636;-1.50480;-2.92902;,
 19.70442;-1.50478;-2.92903;,
 19.70442;-1.50478;-2.92903;,
 19.70440;1.06986;-2.92902;,
 26.61636;-1.50480;-2.92902;,
 26.61638;1.06987;-2.92902;;
 
 83;
 4;0,1,2,3;,
 4;3,2,4,5;,
 4;5,4,6,7;,
 4;7,6,8,9;,
 4;9,8,10,11;,
 4;11,10,12,13;,
 4;13,12,14,15;,
 4;15,14,16,17;,
 3;18,0,3;,
 3;19,3,5;,
 3;20,5,7;,
 3;21,7,9;,
 3;22,9,11;,
 3;23,11,13;,
 3;24,13,15;,
 3;25,15,17;,
 3;26,2,1;,
 3;27,4,2;,
 3;28,6,4;,
 3;29,8,6;,
 3;30,10,8;,
 3;31,12,10;,
 3;32,14,12;,
 3;33,16,14;,
 3;34,35,36;,
 3;37,36,38;,
 3;39,38,40;,
 3;41,40,42;,
 3;43,42,44;,
 3;45,44,46;,
 4;35,47,48,36;,
 4;36,48,49,38;,
 4;38,49,50,40;,
 4;40,50,51,42;,
 4;42,51,52,44;,
 4;44,52,53,46;,
 4;47,54,55,48;,
 4;48,55,56,49;,
 4;49,56,57,50;,
 4;50,57,58,51;,
 4;51,58,59,52;,
 4;52,59,60,53;,
 4;54,61,62,55;,
 4;55,62,63,56;,
 4;56,63,64,57;,
 4;57,64,65,58;,
 4;58,65,66,59;,
 4;59,66,67,60;,
 3;61,68,62;,
 3;62,69,63;,
 3;63,70,64;,
 3;64,71,65;,
 3;65,72,66;,
 3;66,73,67;,
 4;74,75,76,77;,
 4;78,79,80,81;,
 4;82,83,84,85;,
 4;82,86,87,83;,
 4;88,89,90,91;,
 4;92,93,76,94;,
 4;92,95,80,93;,
 4;96,97,98,99;,
 4;96,100,101,97;,
 4;102,103,86,82;,
 4;104,74,77,105;,
 4;106,107,79,78;,
 4;108,109,97,101;,
 3;110,82,85;,
 3;111,98,97;,
 4;112,113,109,108;,
 4;112,114,115,113;,
 4;116,117,118,90;,
 4;116,107,106,117;,
 4;119,120,104,105;,
 4;119,121,122,120;,
 4;123,124,125,126;,
 4;123,103,102,124;,
 4;127,128,129,130;,
 4;131,132,133,134;,
 4;135,136,137,138;,
 4;139,140,141,142;,
 4;139,143,144,134;,
 4;145,140,133,146;;
 
 MeshMaterialList {
  3;
  83;
  2,
  2,
  2,
  2,
  2,
  2,
  2,
  2,
  2,
  2,
  2,
  2,
  2,
  2,
  2,
  2,
  2,
  2,
  2,
  2,
  2,
  2,
  2,
  2,
  0,
  0,
  0,
  0,
  0,
  0,
  0,
  0,
  0,
  0,
  0,
  0,
  0,
  0,
  0,
  0,
  0,
  0,
  0,
  0,
  0,
  0,
  0,
  0,
  0,
  0,
  0,
  0,
  0,
  0,
  1,
  1,
  1,
  1,
  1,
  1,
  1,
  1,
  1,
  1,
  1,
  1,
  1,
  1,
  1,
  1,
  1,
  1,
  1,
  1,
  1,
  1,
  1,
  1,
  1,
  1,
  1,
  1,
  1;;
  Material {
   0.800000;0.012800;0.000000;1.000000;;
   5.000000;
   0.000000;0.000000;0.000000;;
   0.000000;0.000000;0.000000;;
  }
  Material {
   0.068800;0.392000;0.000000;1.000000;;
   5.000000;
   0.000000;0.000000;0.000000;;
   0.000000;0.000000;0.000000;;
  }
  Material {
   0.800000;0.668000;0.630400;1.000000;;
   5.000000;
   0.000000;0.000000;0.000000;;
   0.000000;0.000000;0.000000;;
  }
 }
 MeshNormals {
  97;
  -1.000000;-0.000001;-0.000000;,
  0.000000;-0.000004;1.000000;,
  -0.000001;0.707107;0.707106;,
  -0.000000;1.000000;-0.000002;,
  0.000000;0.707106;-0.707107;,
  0.000001;-0.000001;-1.000000;,
  0.000001;-0.707105;-0.707109;,
  0.000001;-1.000000;0.000002;,
  0.000001;-0.707105;0.707109;,
  1.000000;-0.000003;0.000001;,
  -1.000000;0.000000;-0.000000;,
  -0.816865;-0.000000;0.576829;,
  -0.816864;0.499551;0.288414;,
  -0.816863;0.499551;-0.288414;,
  -0.816865;0.000000;-0.576829;,
  -0.816863;-0.499551;-0.288415;,
  -0.816863;-0.499551;0.288414;,
  -0.315986;-0.000000;0.948764;,
  -0.315987;0.821654;0.474381;,
  -0.315987;0.821654;-0.474381;,
  -0.315986;-0.000000;-0.948764;,
  -0.315987;-0.821654;-0.474381;,
  -0.315987;-0.821654;0.474380;,
  0.643832;0.197587;0.739215;,
  0.643829;0.541390;0.540723;,
  0.643827;0.738977;-0.198494;,
  0.643832;0.197589;-0.739215;,
  0.643833;-0.541386;-0.540722;,
  0.643833;-0.738973;0.198491;,
  0.818813;-0.000003;0.574061;,
  0.818813;0.497150;0.287030;,
  0.818812;0.497152;-0.287030;,
  0.818813;0.000000;-0.574060;,
  0.818812;-0.497152;-0.287030;,
  0.818812;-0.497153;0.287031;,
  0.853099;0.521748;0.000001;,
  -0.000003;-1.000000;0.000000;,
  1.000000;0.000006;-0.000000;,
  0.000002;1.000000;0.000001;,
  0.546694;-0.795153;0.262407;,
  0.000019;1.000000;0.000001;,
  0.546695;-0.795152;-0.262409;,
  0.143256;-0.272830;0.951337;,
  0.000001;-0.256583;0.966522;,
  -1.000000;-0.000001;-0.000000;,
  0.143259;-0.272822;-0.951339;,
  0.192257;-0.187132;0.963337;,
  -0.000004;-0.000002;1.000000;,
  0.813579;-0.530273;-0.238539;,
  0.009452;0.999955;0.000000;,
  -0.000006;-0.000000;-1.000000;,
  0.006081;0.999982;-0.000001;,
  0.600104;-0.799922;0.000001;,
  -0.000000;-0.000001;1.000000;,
  -0.000002;1.000000;0.000003;,
  0.000001;-0.000005;-1.000000;,
  -1.000000;-0.000001;-0.000002;,
  -1.000000;-0.000002;-0.000003;,
  -1.000000;-0.000001;-0.000001;,
  -1.000000;-0.000000;0.000001;,
  -1.000000;-0.000000;0.000002;,
  -1.000000;-0.000001;0.000002;,
  -1.000000;-0.000001;-0.000000;,
  -1.000000;-0.000001;-0.000002;,
  1.000000;-0.000004;-0.000003;,
  1.000000;-0.000007;0.000004;,
  1.000000;0.000003;-0.000001;,
  1.000000;-0.000002;0.000003;,
  1.000000;-0.000003;-0.000002;,
  1.000000;-0.000002;0.000000;,
  1.000000;-0.000004;0.000003;,
  1.000000;-0.000004;0.000004;,
  -0.000001;1.000000;0.000000;,
  -0.000000;0.500002;-0.866024;,
  0.000001;-0.500001;-0.866024;,
  -0.000003;-1.000000;-0.000001;,
  0.000000;-0.500002;0.866024;,
  0.853093;-0.521759;0.000001;,
  0.000001;-0.495987;0.868330;,
  -0.000002;-0.000001;1.000000;,
  0.000001;0.000001;1.000000;,
  -1.000000;-0.000000;0.000000;,
  -1.000000;-0.000001;-0.000001;,
  0.000001;-0.256574;-0.966525;,
  0.000001;-0.495970;-0.868339;,
  0.000001;0.000001;-1.000000;,
  0.000004;0.000001;-1.000000;,
  0.874790;-0.484502;0.000000;,
  -0.000003;0.000001;-1.000000;,
  0.000000;-0.000001;-1.000000;,
  -0.006704;0.999978;-0.000001;,
  0.193277;-0.981144;0.000001;,
  -0.000002;-0.000002;1.000000;,
  -0.000001;-0.000002;1.000000;,
  -0.000003;-1.000000;0.000001;,
  -1.000000;-0.000005;-0.000002;,
  1.000000;-0.000005;0.000000;;
  83;
  4;1,1,2,2;,
  4;2,2,3,3;,
  4;3,3,4,4;,
  4;4,4,5,5;,
  4;5,5,6,6;,
  4;6,6,7,7;,
  4;7,7,8,8;,
  4;8,8,1,1;,
  3;0,56,57;,
  3;0,57,58;,
  3;0,58,59;,
  3;0,59,60;,
  3;0,60,61;,
  3;0,61,62;,
  3;0,62,63;,
  3;0,63,56;,
  3;9,64,65;,
  3;9,66,64;,
  3;9,67,66;,
  3;9,68,67;,
  3;9,69,68;,
  3;9,70,69;,
  3;9,71,70;,
  3;9,65,71;,
  3;10,11,12;,
  3;10,12,13;,
  3;10,13,14;,
  3;10,14,15;,
  3;10,15,16;,
  3;10,16,11;,
  4;11,17,18,12;,
  4;12,18,19,13;,
  4;13,19,20,14;,
  4;14,20,21,15;,
  4;15,21,22,16;,
  4;16,22,17,11;,
  4;17,23,24,18;,
  4;18,72,25,19;,
  4;19,73,26,20;,
  4;20,74,27,21;,
  4;21,75,28,22;,
  4;22,76,76,17;,
  4;23,29,30,24;,
  4;24,30,31,25;,
  4;25,31,32,26;,
  4;26,32,33,27;,
  4;27,33,34,28;,
  4;28,34,29,23;,
  3;29,35,30;,
  3;30,35,31;,
  3;31,35,32;,
  3;32,77,33;,
  3;33,77,34;,
  3;34,77,29;,
  4;39,36,36,41;,
  4;40,40,38,38;,
  4;42,43,78,78;,
  4;42,79,80,43;,
  4;37,37,37,37;,
  4;44,44,81,81;,
  4;44,82,82,44;,
  4;83,45,84,84;,
  4;83,85,86,45;,
  4;46,47,79,42;,
  4;87,39,41,48;,
  4;49,49,40,40;,
  4;88,88,45,86;,
  3;46,42,39;,
  3;48,41,45;,
  4;50,50,88,88;,
  4;50,89,89,50;,
  4;51,51,90,90;,
  4;51,49,49,51;,
  4;52,52,87,48;,
  4;52,91,91,52;,
  4;92,92,93,93;,
  4;92,47,46,92;,
  4;53,53,53,53;,
  4;54,54,54,54;,
  4;55,55,55,55;,
  4;94,94,94,94;,
  4;95,95,95,95;,
  4;96,96,96,96;;
 }
 MeshTextureCoords {
  147;
  0.000000;0.000000;,
  0.000000;1.000000;,
  0.125000;1.000000;,
  0.125000;0.000000;,
  0.250000;1.000000;,
  0.250000;0.000000;,
  0.375000;1.000000;,
  0.375000;0.000000;,
  0.500000;1.000000;,
  0.500000;0.000000;,
  0.625000;1.000000;,
  0.625000;0.000000;,
  0.750000;1.000000;,
  0.750000;0.000000;,
  0.875000;1.000000;,
  0.875000;0.000000;,
  1.000000;1.000000;,
  1.000000;0.000000;,
  0.062500;0.000000;,
  0.187500;0.000000;,
  0.312500;0.000000;,
  0.437500;0.000000;,
  0.562500;0.000000;,
  0.687500;0.000000;,
  0.812500;0.000000;,
  0.937500;0.000000;,
  0.062500;1.000000;,
  0.187500;1.000000;,
  0.312500;1.000000;,
  0.437500;1.000000;,
  0.562500;1.000000;,
  0.687500;1.000000;,
  0.812500;1.000000;,
  0.937500;1.000000;,
  0.083330;0.000000;,
  0.000000;0.200000;,
  0.166670;0.200000;,
  0.250000;0.000000;,
  0.333330;0.200000;,
  0.416670;0.000000;,
  0.500000;0.200000;,
  0.583330;0.000000;,
  0.666670;0.200000;,
  0.750000;0.000000;,
  0.833330;0.200000;,
  0.916670;0.000000;,
  1.000000;0.200000;,
  0.000000;0.400000;,
  0.166670;0.400000;,
  0.333330;0.400000;,
  0.500000;0.400000;,
  0.666670;0.400000;,
  0.833330;0.400000;,
  1.000000;0.400000;,
  0.000000;0.600000;,
  0.166670;0.600000;,
  0.333330;0.600000;,
  0.500000;0.600000;,
  0.666670;0.600000;,
  0.833330;0.600000;,
  1.000000;0.600000;,
  0.000000;0.800000;,
  0.166670;0.800000;,
  0.333330;0.800000;,
  0.500000;0.800000;,
  0.666670;0.800000;,
  0.833330;0.800000;,
  1.000000;0.800000;,
  0.083330;1.000000;,
  0.250000;1.000000;,
  0.416670;1.000000;,
  0.583330;1.000000;,
  0.750000;1.000000;,
  0.916670;1.000000;,
  1.000000;0.484650;,
  1.000000;0.000000;,
  0.000000;0.000000;,
  0.000000;0.484650;,
  0.000000;0.484650;,
  1.000000;0.484650;,
  1.000000;0.000000;,
  0.000000;0.000000;,
  0.243280;0.484650;,
  0.243280;0.000000;,
  0.000000;0.000000;,
  0.000000;0.484650;,
  1.000000;0.484650;,
  1.000000;0.000000;,
  0.243280;0.000000;,
  0.243280;1.000000;,
  1.000000;1.000000;,
  1.000000;0.000000;,
  0.243280;1.000000;,
  0.243280;0.000000;,
  0.000000;1.000000;,
  1.000000;1.000000;,
  0.756720;0.000000;,
  0.756720;0.484650;,
  1.000000;0.484650;,
  1.000000;0.000000;,
  0.000000;0.000000;,
  0.000000;0.484650;,
  0.243280;0.507150;,
  1.000000;0.507150;,
  1.000000;0.507150;,
  0.000000;0.507150;,
  0.000000;0.507150;,
  1.000000;0.507150;,
  0.000000;0.507150;,
  0.756720;0.507150;,
  0.121640;0.507150;,
  0.878360;0.507150;,
  0.000000;0.696300;,
  0.756720;0.696300;,
  0.000000;1.000000;,
  0.756720;1.000000;,
  1.000000;0.696300;,
  0.000000;0.696300;,
  0.000000;1.000000;,
  0.000000;0.696300;,
  1.000000;0.696300;,
  0.000000;1.000000;,
  1.000000;1.000000;,
  1.000000;0.696300;,
  0.243280;0.696300;,
  0.243280;1.000000;,
  1.000000;1.000000;,
  0.000000;0.000000;,
  0.000000;1.000000;,
  1.000000;1.000000;,
  1.000000;0.000000;,
  0.000000;0.000000;,
  0.000000;1.000000;,
  1.000000;1.000000;,
  1.000000;0.000000;,
  0.000000;0.000000;,
  0.000000;1.000000;,
  1.000000;1.000000;,
  1.000000;0.000000;,
  0.000000;0.000000;,
  0.000000;1.000000;,
  1.000000;1.000000;,
  1.000000;0.000000;,
  0.000000;1.000000;,
  1.000000;1.000000;,
  0.000000;0.000000;,
  1.000000;0.000000;;
 }
}
