xof 0302txt 0064
template Header {
 <3D82AB43-62DA-11cf-AB39-0020AF71E433>
 WORD major;
 WORD minor;
 DWORD flags;
}

template Vector {
 <3D82AB5E-62DA-11cf-AB39-0020AF71E433>
 FLOAT x;
 FLOAT y;
 FLOAT z;
}

template Coords2d {
 <F6F23F44-7686-11cf-8F52-0040333594A3>
 FLOAT u;
 FLOAT v;
}

template Matrix4x4 {
 <F6F23F45-7686-11cf-8F52-0040333594A3>
 array FLOAT matrix[16];
}

template ColorRGBA {
 <35FF44E0-6C7C-11cf-8F52-0040333594A3>
 FLOAT red;
 FLOAT green;
 FLOAT blue;
 FLOAT alpha;
}

template ColorRGB {
 <D3E16E81-7835-11cf-8F52-0040333594A3>
 FLOAT red;
 FLOAT green;
 FLOAT blue;
}

template IndexedColor {
 <1630B820-7842-11cf-8F52-0040333594A3>
 DWORD index;
 ColorRGBA indexColor;
}

template Boolean {
 <4885AE61-78E8-11cf-8F52-0040333594A3>
 WORD truefalse;
}

template Boolean2d {
 <4885AE63-78E8-11cf-8F52-0040333594A3>
 Boolean u;
 Boolean v;
}

template MaterialWrap {
 <4885AE60-78E8-11cf-8F52-0040333594A3>
 Boolean u;
 Boolean v;
}

template TextureFilename {
 <A42790E1-7810-11cf-8F52-0040333594A3>
 STRING filename;
}

template Material {
 <3D82AB4D-62DA-11cf-AB39-0020AF71E433>
 ColorRGBA faceColor;
 FLOAT power;
 ColorRGB specularColor;
 ColorRGB emissiveColor;
 [...]
}

template MeshFace {
 <3D82AB5F-62DA-11cf-AB39-0020AF71E433>
 DWORD nFaceVertexIndices;
 array DWORD faceVertexIndices[nFaceVertexIndices];
}

template MeshFaceWraps {
 <4885AE62-78E8-11cf-8F52-0040333594A3>
 DWORD nFaceWrapValues;
 Boolean2d faceWrapValues;
}

template MeshTextureCoords {
 <F6F23F40-7686-11cf-8F52-0040333594A3>
 DWORD nTextureCoords;
 array Coords2d textureCoords[nTextureCoords];
}

template MeshMaterialList {
 <F6F23F42-7686-11cf-8F52-0040333594A3>
 DWORD nMaterials;
 DWORD nFaceIndexes;
 array DWORD faceIndexes[nFaceIndexes];
 [Material]
}

template MeshNormals {
 <F6F23F43-7686-11cf-8F52-0040333594A3>
 DWORD nNormals;
 array Vector normals[nNormals];
 DWORD nFaceNormals;
 array MeshFace faceNormals[nFaceNormals];
}

template MeshVertexColors {
 <1630B821-7842-11cf-8F52-0040333594A3>
 DWORD nVertexColors;
 array IndexedColor vertexColors[nVertexColors];
}

template Mesh {
 <3D82AB44-62DA-11cf-AB39-0020AF71E433>
 DWORD nVertices;
 array Vector vertices[nVertices];
 DWORD nFaces;
 array MeshFace faces[nFaces];
 [...]
}

Header{
1;
0;
1;
}

Mesh {
 90;
 0.10018;0.10174;2.93914;,
 -1.60632;0.10174;2.23228;,
 -1.60632;-16.17109;2.23228;,
 0.10018;-16.17109;2.93914;,
 -2.31316;0.10174;0.52578;,
 -2.31316;-16.17109;0.52578;,
 -1.60632;0.10174;-1.18070;,
 -1.60632;-16.17109;-1.18070;,
 0.10018;0.10174;-1.88756;,
 0.10018;-16.17109;-1.88756;,
 1.80667;0.10174;-1.18070;,
 1.80667;-16.17109;-1.18070;,
 2.51353;0.10174;0.52578;,
 2.51353;-16.17109;0.52578;,
 1.80668;0.10174;2.23228;,
 1.80668;-16.17109;2.23228;,
 0.10018;0.10174;2.93914;,
 0.10018;-16.17109;2.93914;,
 0.10018;0.10174;0.52578;,
 0.10018;0.10174;0.52578;,
 0.10018;0.10174;0.52578;,
 0.10018;0.10174;0.52578;,
 0.10018;0.10174;0.52578;,
 0.10018;0.10174;0.52578;,
 0.10018;0.10174;0.52578;,
 0.10018;0.10174;0.52578;,
 0.10018;-16.17109;0.52578;,
 0.10018;-16.17109;0.52578;,
 0.10018;-16.17109;0.52578;,
 0.10018;-16.17109;0.52578;,
 0.10018;-16.17109;0.52578;,
 0.10018;-16.17109;0.52578;,
 0.10018;-16.17109;0.52578;,
 0.10018;-16.17109;0.52578;,
 0.04934;-14.00641;3.32536;,
 2.52374;-14.00641;2.49298;,
 2.67484;-14.00641;-1.40012;,
 0.04934;-14.00641;-2.77638;,
 -2.52678;-14.00641;-1.40012;,
 -2.37570;-14.00641;2.49298;,
 0.04934;-18.92143;3.32536;,
 -2.97684;-18.92143;3.32536;,
 -2.97684;-18.92143;-2.77638;,
 0.04934;-18.92143;-2.77638;,
 3.12490;-18.92143;-2.77638;,
 3.12489;-18.92143;3.32536;,
 0.04934;-15.28051;-3.82772;,
 0.04934;-14.00641;-2.77638;,
 2.67484;-14.00641;-1.40012;,
 3.12490;-15.28051;-2.77638;,
 -2.97684;-15.28051;-2.77638;,
 -2.52678;-14.00641;-1.40012;,
 3.12490;-15.28051;-2.77638;,
 2.52374;-14.00641;2.49298;,
 3.12489;-15.28051;3.32536;,
 3.12489;-18.92143;3.32536;,
 -2.97684;-15.28051;-2.77638;,
 -2.97684;-18.92143;3.32536;,
 -2.97684;-15.28051;3.32536;,
 -2.37570;-14.00641;2.49298;,
 3.12489;-15.28051;3.32536;,
 2.52374;-14.00641;2.49298;,
 0.04934;-14.00641;3.32536;,
 0.04934;-15.28051;3.32536;,
 0.04934;-18.92143;3.32536;,
 3.12489;-18.92143;3.32536;,
 -2.97684;-15.28051;3.32536;,
 -2.97684;-18.92143;3.32536;,
 -2.37570;-14.00641;2.49298;,
 0.04933;-17.42229;-11.88301;,
 2.30225;-17.42229;-11.88301;,
 2.30225;-18.92143;-11.88301;,
 0.04933;-18.92143;-11.88301;,
 -2.15422;-18.92143;-11.88302;,
 -2.15422;-17.42229;-11.88302;,
 0.04934;-16.37801;-8.29299;,
 2.42792;-16.69071;-7.77162;,
 -2.27988;-16.69071;-7.77162;,
 3.12490;-18.92143;-6.63480;,
 -2.97684;-18.92143;-6.63479;,
 0.04934;-18.92143;-6.63480;,
 3.12490;-18.43745;-3.74420;,
 3.12490;-18.92143;-2.77638;,
 0.04934;-18.92143;-2.77638;,
 0.04934;-18.43745;-3.08974;,
 -2.97684;-18.92143;-2.77638;,
 -2.97684;-18.43745;-3.74419;,
 3.12489;-18.43745;-6.37732;,
 0.04934;-18.43745;-6.37732;,
 -2.97684;-18.43745;-6.37732;;
 
 60;
 4;0,1,2,3;,
 4;1,4,5,2;,
 4;4,6,7,5;,
 4;6,8,9,7;,
 4;8,10,11,9;,
 4;10,12,13,11;,
 4;12,14,15,13;,
 4;14,16,17,15;,
 3;18,1,0;,
 3;19,4,1;,
 3;20,6,4;,
 3;21,8,6;,
 3;22,10,8;,
 3;23,12,10;,
 3;24,14,12;,
 3;25,16,14;,
 3;26,3,2;,
 3;27,2,5;,
 3;28,5,7;,
 3;29,7,9;,
 3;30,9,11;,
 3;31,11,13;,
 3;32,13,15;,
 3;33,15,17;,
 4;34,35,36,37;,
 4;34,37,38,39;,
 4;40,41,42,43;,
 4;40,43,44,45;,
 4;46,47,48,49;,
 4;46,50,51,47;,
 4;52,36,53,54;,
 4;52,54,55,44;,
 4;56,42,57,58;,
 4;56,58,59,38;,
 4;60,61,62,63;,
 4;60,63,64,65;,
 4;66,67,64,63;,
 4;66,63,62,68;,
 4;69,70,71,72;,
 4;69,72,73,74;,
 4;75,76,70,69;,
 4;75,69,74,77;,
 4;76,78,71,70;,
 4;77,74,73,79;,
 4;78,80,72,71;,
 4;79,73,72,80;,
 4;81,82,83,84;,
 4;84,83,85,86;,
 4;87,81,84,88;,
 4;87,88,80,78;,
 4;87,76,49,81;,
 4;88,84,86,89;,
 4;88,89,79,80;,
 4;76,75,46,49;,
 4;89,86,50,77;,
 4;75,77,50,46;,
 3;49,82,81;,
 3;76,87,78;,
 3;50,86,85;,
 3;77,79,89;;
 
 MeshMaterialList {
  3;
  60;
  2,
  2,
  2,
  2,
  2,
  2,
  2,
  2,
  2,
  2,
  2,
  2,
  2,
  2,
  2,
  2,
  2,
  2,
  2,
  2,
  2,
  2,
  2,
  2,
  1,
  1,
  1,
  1,
  1,
  1,
  1,
  1,
  1,
  1,
  1,
  1,
  1,
  1,
  1,
  1,
  1,
  1,
  1,
  1,
  1,
  1,
  1,
  1,
  1,
  1,
  1,
  1,
  1,
  1,
  1,
  1,
  1,
  1,
  1,
  1;;
  Material {
   0.800000;0.012800;0.000000;1.000000;;
   5.000000;
   0.000000;0.000000;0.000000;;
   0.000000;0.000000;0.000000;;
  }
  Material {
   0.068800;0.392000;0.000000;1.000000;;
   5.000000;
   0.000000;0.000000;0.000000;;
   0.000000;0.000000;0.000000;;
  }
  Material {
   0.800000;0.668000;0.630400;1.000000;;
   5.000000;
   0.000000;0.000000;0.000000;;
   0.000000;0.000000;0.000000;;
  }
 }
 MeshNormals {
  59;
  0.000000;1.000000;0.000000;,
  0.000000;0.000000;1.000000;,
  -0.707110;0.000000;0.707103;,
  -1.000000;0.000000;-0.000002;,
  -0.707109;0.000000;-0.707105;,
  0.000001;0.000000;-1.000000;,
  0.707106;0.000000;-0.707107;,
  1.000000;0.000000;-0.000003;,
  0.707108;0.000000;0.707106;,
  0.000000;-1.000000;-0.000000;,
  -0.156936;0.917629;-0.365140;,
  0.026747;-0.933769;-0.356876;,
  0.154508;0.917768;-0.365827;,
  -0.026320;-0.933780;-0.356877;,
  -0.001217;0.929032;-0.369997;,
  0.000213;-0.934104;-0.357002;,
  0.979986;0.198869;0.008879;,
  -0.979986;0.198866;0.008877;,
  -0.000802;0.147107;0.989120;,
  0.000004;0.000000;-1.000000;,
  -0.000002;0.000000;-1.000000;,
  0.000001;0.000000;-1.000000;,
  0.973031;0.132673;-0.188701;,
  -0.973032;0.132663;-0.188706;,
  0.948079;0.268557;-0.170364;,
  -0.001871;0.869895;-0.493233;,
  -0.815361;0.523576;-0.247092;,
  0.110403;0.963342;-0.244505;,
  -0.001104;0.969256;-0.246053;,
  -0.112599;0.963081;-0.244533;,
  0.920744;0.389778;0.017402;,
  1.000000;0.000000;0.000001;,
  1.000000;0.000000;0.000001;,
  -1.000000;0.000000;0.000000;,
  -1.000000;0.000000;0.000001;,
  -0.920747;0.389772;0.017399;,
  0.085412;0.146514;0.985514;,
  0.168349;0.288783;0.942477;,
  -0.001597;0.293112;0.956077;,
  -0.000000;0.000000;1.000000;,
  0.000000;0.000000;1.000000;,
  -0.087023;0.146604;0.985360;,
  -0.000001;0.000000;1.000000;,
  -0.171497;0.288916;0.941868;,
  0.083627;0.969689;-0.229587;,
  -0.000875;0.973089;-0.230428;,
  -0.085371;0.969529;-0.229620;,
  0.979168;0.126326;-0.158973;,
  0.989385;0.112898;-0.091495;,
  -0.979169;0.126318;-0.158974;,
  -0.989386;0.112894;-0.091493;,
  -0.000001;-0.469675;0.882839;,
  0.000000;-0.469674;0.882840;,
  0.972248;0.132840;-0.192579;,
  0.997140;0.056829;-0.049822;,
  0.000001;-0.469673;0.882840;,
  0.137071;0.956052;-0.259184;,
  -0.972249;0.132831;-0.192583;,
  -0.997140;0.056828;-0.049819;;
  60;
  4;1,2,2,1;,
  4;2,3,3,2;,
  4;3,4,4,3;,
  4;4,5,5,4;,
  4;5,6,6,5;,
  4;6,7,7,6;,
  4;7,8,8,7;,
  4;8,1,1,8;,
  3;0,0,0;,
  3;0,0,0;,
  3;0,0,0;,
  3;0,0,0;,
  3;0,0,0;,
  3;0,0,0;,
  3;0,0,0;,
  3;0,0,0;,
  3;9,9,9;,
  3;9,9,9;,
  3;9,9,9;,
  3;9,9,9;,
  3;9,9,9;,
  3;9,9,9;,
  3;9,9,9;,
  3;9,9,9;,
  4;0,0,12,14;,
  4;0,14,10,0;,
  4;9,9,11,15;,
  4;9,15,13,9;,
  4;25,14,12,24;,
  4;25,26,10,14;,
  4;24,30,30,16;,
  4;24,16,31,32;,
  4;33,34,33,17;,
  4;26,17,35,35;,
  4;36,37,38,18;,
  4;36,18,39,40;,
  4;41,42,39,18;,
  4;41,18,38,43;,
  4;21,20,20,21;,
  4;21,21,19,19;,
  4;28,27,44,45;,
  4;28,45,46,29;,
  4;47,22,48,48;,
  4;49,50,50,23;,
  4;9,9,9,9;,
  4;9,9,9,9;,
  4;13,13,15,15;,
  4;15,15,11,11;,
  4;9,13,15,9;,
  4;51,52,52,51;,
  4;53,47,24,54;,
  4;9,15,11,9;,
  4;52,55,55,52;,
  4;27,28,25,56;,
  4;57,58,26,49;,
  4;28,29,26,25;,
  3;24,32,54;,
  3;47,53,22;,
  3;26,58,34;,
  3;49,23,57;;
 }
 MeshTextureCoords {
  90;
  0.000000;0.000000;,
  0.125000;0.000000;,
  0.125000;1.000000;,
  0.000000;1.000000;,
  0.250000;0.000000;,
  0.250000;1.000000;,
  0.375000;0.000000;,
  0.375000;1.000000;,
  0.500000;0.000000;,
  0.500000;1.000000;,
  0.625000;0.000000;,
  0.625000;1.000000;,
  0.750000;0.000000;,
  0.750000;1.000000;,
  0.875000;0.000000;,
  0.875000;1.000000;,
  1.000000;0.000000;,
  1.000000;1.000000;,
  0.062500;0.000000;,
  0.187500;0.000000;,
  0.312500;0.000000;,
  0.437500;0.000000;,
  0.562500;0.000000;,
  0.687500;0.000000;,
  0.812500;0.000000;,
  0.937500;0.000000;,
  0.062500;1.000000;,
  0.187500;1.000000;,
  0.312500;1.000000;,
  0.437500;1.000000;,
  0.562500;1.000000;,
  0.687500;1.000000;,
  0.812500;1.000000;,
  0.937500;1.000000;,
  0.504050;1.000000;,
  0.000000;1.000000;,
  0.000000;0.000000;,
  0.504050;0.000000;,
  1.000000;0.000000;,
  1.000000;1.000000;,
  0.504050;0.000000;,
  1.000000;0.000000;,
  1.000000;1.000000;,
  0.504050;1.000000;,
  0.000000;1.000000;,
  0.000000;0.000000;,
  0.495950;0.208810;,
  0.495950;0.000000;,
  1.000000;0.000000;,
  1.000000;0.208810;,
  0.000000;0.208810;,
  0.000000;0.000000;,
  0.000000;0.208810;,
  1.000000;0.000000;,
  1.000000;0.208810;,
  1.000000;1.000000;,
  1.000000;0.208810;,
  0.000000;1.000000;,
  0.000000;0.208810;,
  0.000000;0.000000;,
  0.000000;0.208810;,
  0.000000;0.000000;,
  0.504050;0.000000;,
  0.504050;0.208810;,
  0.504050;1.000000;,
  0.000000;1.000000;,
  1.000000;0.208810;,
  1.000000;1.000000;,
  1.000000;0.000000;,
  0.495950;0.208810;,
  1.000000;0.208810;,
  1.000000;1.000000;,
  0.495950;1.000000;,
  0.000000;1.000000;,
  0.000000;0.208810;,
  0.495950;0.208810;,
  1.000000;0.208810;,
  0.000000;0.208810;,
  1.000000;1.000000;,
  0.000000;1.000000;,
  0.495950;1.000000;,
  1.000000;1.000000;,
  1.000000;1.000000;,
  0.495950;1.000000;,
  0.495950;1.000000;,
  0.000000;1.000000;,
  0.000000;1.000000;,
  1.000000;1.000000;,
  0.495950;1.000000;,
  0.000000;1.000000;;
 }
}
