xof 0302txt 0064
template Header {
 <3D82AB43-62DA-11cf-AB39-0020AF71E433>
 WORD major;
 WORD minor;
 DWORD flags;
}

template Vector {
 <3D82AB5E-62DA-11cf-AB39-0020AF71E433>
 FLOAT x;
 FLOAT y;
 FLOAT z;
}

template Coords2d {
 <F6F23F44-7686-11cf-8F52-0040333594A3>
 FLOAT u;
 FLOAT v;
}

template Matrix4x4 {
 <F6F23F45-7686-11cf-8F52-0040333594A3>
 array FLOAT matrix[16];
}

template ColorRGBA {
 <35FF44E0-6C7C-11cf-8F52-0040333594A3>
 FLOAT red;
 FLOAT green;
 FLOAT blue;
 FLOAT alpha;
}

template ColorRGB {
 <D3E16E81-7835-11cf-8F52-0040333594A3>
 FLOAT red;
 FLOAT green;
 FLOAT blue;
}

template IndexedColor {
 <1630B820-7842-11cf-8F52-0040333594A3>
 DWORD index;
 ColorRGBA indexColor;
}

template Boolean {
 <4885AE61-78E8-11cf-8F52-0040333594A3>
 WORD truefalse;
}

template Boolean2d {
 <4885AE63-78E8-11cf-8F52-0040333594A3>
 Boolean u;
 Boolean v;
}

template MaterialWrap {
 <4885AE60-78E8-11cf-8F52-0040333594A3>
 Boolean u;
 Boolean v;
}

template TextureFilename {
 <A42790E1-7810-11cf-8F52-0040333594A3>
 STRING filename;
}

template Material {
 <3D82AB4D-62DA-11cf-AB39-0020AF71E433>
 ColorRGBA faceColor;
 FLOAT power;
 ColorRGB specularColor;
 ColorRGB emissiveColor;
 [...]
}

template MeshFace {
 <3D82AB5F-62DA-11cf-AB39-0020AF71E433>
 DWORD nFaceVertexIndices;
 array DWORD faceVertexIndices[nFaceVertexIndices];
}

template MeshFaceWraps {
 <4885AE62-78E8-11cf-8F52-0040333594A3>
 DWORD nFaceWrapValues;
 Boolean2d faceWrapValues;
}

template MeshTextureCoords {
 <F6F23F40-7686-11cf-8F52-0040333594A3>
 DWORD nTextureCoords;
 array Coords2d textureCoords[nTextureCoords];
}

template MeshMaterialList {
 <F6F23F42-7686-11cf-8F52-0040333594A3>
 DWORD nMaterials;
 DWORD nFaceIndexes;
 array DWORD faceIndexes[nFaceIndexes];
 [Material]
}

template MeshNormals {
 <F6F23F43-7686-11cf-8F52-0040333594A3>
 DWORD nNormals;
 array Vector normals[nNormals];
 DWORD nFaceNormals;
 array MeshFace faceNormals[nFaceNormals];
}

template MeshVertexColors {
 <1630B821-7842-11cf-8F52-0040333594A3>
 DWORD nVertexColors;
 array IndexedColor vertexColors[nVertexColors];
}

template Mesh {
 <3D82AB44-62DA-11cf-AB39-0020AF71E433>
 DWORD nVertices;
 array Vector vertices[nVertices];
 DWORD nFaces;
 array MeshFace faces[nFaces];
 [...]
}

Header{
1;
0;
1;
}

Mesh {
 286;
 0.00000;25.38747;0.00000;,
 -8.17046;25.45703;8.17046;,
 0.00000;25.45703;11.55477;,
 0.00000;25.38747;0.00000;,
 -11.55477;25.45703;0.00000;,
 0.00000;25.38747;0.00000;,
 -8.17046;25.45703;-8.17046;,
 0.00000;25.38747;0.00000;,
 -0.00000;25.45703;-11.55477;,
 0.00000;25.38747;0.00000;,
 8.17046;25.45703;-8.17046;,
 0.00000;25.38747;0.00000;,
 11.55477;25.45703;-0.00000;,
 0.00000;25.38747;0.00000;,
 8.17046;25.45703;8.17046;,
 0.00000;25.38747;0.00000;,
 0.00000;25.45703;11.55477;,
 0.00000;-28.98971;-0.00000;,
 -0.00000;-26.94290;5.12498;,
 -3.62394;-26.94290;3.62394;,
 0.00000;-28.98971;-0.00000;,
 -5.12498;-26.94290;-0.00000;,
 0.00000;-28.98971;-0.00000;,
 -3.62394;-26.94290;-3.62394;,
 0.00000;-28.98971;-0.00000;,
 0.00000;-26.94290;-5.12498;,
 0.00000;-28.98971;-0.00000;,
 3.62394;-26.94290;-3.62394;,
 0.00000;-28.98971;-0.00000;,
 5.12498;-26.94290;0.00000;,
 0.00000;-28.98971;-0.00000;,
 3.62394;-26.94290;3.62394;,
 0.00000;-28.98971;-0.00000;,
 -0.00000;-26.94290;5.12498;,
 -12.48428;-14.17320;12.48427;,
 -0.00000;-14.16847;17.65539;,
 -17.65539;-14.38501;-0.00000;,
 -12.48427;-14.67976;-12.48428;,
 0.00000;-14.88490;-17.65539;,
 12.48428;-14.88020;-12.48427;,
 17.65539;-14.66838;0.00000;,
 12.48427;-14.37363;12.48428;,
 -0.00000;-14.16847;17.65539;,
 -0.00001;8.94946;25.03241;,
 -17.70059;8.78400;17.70059;,
 -25.03241;8.57091;-0.00001;,
 -17.70059;8.43499;-17.70059;,
 0.00001;8.45593;-25.03241;,
 17.70059;8.62137;-17.70059;,
 25.03241;8.83453;0.00001;,
 17.70059;8.97038;17.70059;,
 -0.00001;8.94946;25.03241;,
 -15.81463;16.96560;15.81463;,
 -22.36527;16.91586;-0.00000;,
 -0.00000;17.00420;22.36527;,
 -15.81463;16.88418;-15.81463;,
 -0.00000;17.00420;22.36527;,
 15.81463;17.00906;15.81463;,
 0.00000;16.88904;-22.36527;,
 22.36527;16.97736;0.00000;,
 15.81463;16.92766;-15.81463;,
 -17.84995;22.71813;-0.00001;,
 -12.62182;22.71071;-12.62183;,
 -12.62183;22.72985;12.62182;,
 0.00001;22.71184;-17.84995;,
 -0.00001;22.73888;17.84995;,
 12.62183;22.72090;-12.62182;,
 -0.00001;22.73888;17.84995;,
 12.62182;22.74003;12.62183;,
 17.84995;22.73257;0.00001;,
 2.07616;26.23563;-0.20822;,
 0.54648;26.23563;-0.95430;,
 0.54648;24.82051;-0.95430;,
 2.07616;24.82051;-0.20822;,
 6.06992;27.64207;-2.00948;,
 9.45602;27.64207;-5.47216;,
 0.15100;27.64207;-10.01050;,
 -0.49292;27.64207;-5.21040;,
 0.54648;26.23563;-0.95430;,
 2.07616;26.23563;-0.20822;,
 6.06992;27.64207;-2.00948;,
 2.07616;26.23563;-0.20822;,
 2.07616;24.82051;-0.20822;,
 6.06992;25.21695;-2.00948;,
 9.45602;25.21695;-5.47216;,
 -0.49292;27.64207;-5.21040;,
 0.15100;25.21695;-10.01050;,
 -0.49292;25.21695;-5.21040;,
 0.54648;24.82051;-0.95430;,
 0.54648;26.23563;-0.95430;,
 6.06992;25.21695;-2.00948;,
 2.07616;24.82051;-0.20822;,
 0.54648;24.82051;-0.95430;,
 -0.49292;25.21695;-5.21040;,
 12.25099;26.43444;-11.31993;,
 3.03836;26.43444;-15.81325;,
 0.15100;27.64207;-10.01050;,
 9.45602;27.64207;-5.47216;,
 12.25099;24.00929;-11.31993;,
 9.45602;25.21695;-5.47216;,
 3.03836;24.00929;-15.81325;,
 0.15100;25.21695;-10.01050;,
 11.70713;23.17666;-17.83473;,
 8.50692;23.17666;-19.39559;,
 11.70713;21.71124;-17.83473;,
 8.50692;21.71124;-19.39559;,
 1.83106;26.23563;2.15044;,
 1.47722;26.23563;0.48570;,
 1.47722;24.82051;0.48570;,
 1.83106;24.82051;2.15044;,
 5.70930;27.64207;4.18860;,
 10.52260;27.64207;4.72504;,
 8.37014;27.64207;-5.40148;,
 4.19114;27.64207;-2.95368;,
 1.47722;26.23563;0.48570;,
 1.83106;26.23563;2.15044;,
 5.70930;27.64207;4.18860;,
 1.83106;26.23563;2.15044;,
 1.83106;24.82051;2.15044;,
 5.70930;25.21695;4.18860;,
 10.52260;25.21695;4.72504;,
 4.19114;27.64207;-2.95368;,
 8.37014;25.21695;-5.40148;,
 4.19114;25.21695;-2.95368;,
 1.47722;24.82051;0.48570;,
 1.47722;26.23563;0.48570;,
 5.70930;25.21695;4.18860;,
 1.83106;24.82051;2.15044;,
 1.47722;24.82051;0.48570;,
 4.19114;25.21695;-2.95368;,
 16.85148;26.43444;3.32726;,
 14.72039;26.43444;-6.69876;,
 8.37014;27.64207;-5.40148;,
 10.52260;27.64207;4.72504;,
 16.85148;24.00929;3.32726;,
 10.52260;25.21695;4.72504;,
 14.72039;24.00929;-6.69876;,
 8.37014;25.21695;-5.40148;,
 21.65037;23.17666;-1.11223;,
 20.91010;23.17666;-4.59499;,
 21.65037;21.71124;-1.11223;,
 20.91010;21.71124;-4.59499;,
 1.18584;26.23563;3.03884;,
 2.37874;26.23563;1.82494;,
 2.37874;24.82051;1.82494;,
 1.18584;24.82051;3.03884;,
 1.62676;27.64207;7.39775;,
 3.83608;27.64207;11.70759;,
 11.09243;27.64207;4.32348;,
 6.74470;27.64207;2.18972;,
 2.37874;26.23563;1.82494;,
 1.18584;26.23563;3.03884;,
 1.62676;27.64207;7.39775;,
 1.18584;26.23563;3.03884;,
 1.18584;24.82051;3.03884;,
 1.62676;25.21695;7.39775;,
 3.83608;25.21695;11.70759;,
 6.74470;27.64207;2.18972;,
 11.09243;25.21695;4.32348;,
 6.74470;25.21695;2.18972;,
 2.37874;24.82051;1.82494;,
 2.37874;26.23563;1.82494;,
 1.62676;25.21695;7.39775;,
 1.18584;24.82051;3.03884;,
 2.37874;24.82051;1.82494;,
 6.74470;25.21695;2.18972;,
 8.49481;26.43444;16.21366;,
 15.67916;26.43444;8.90286;,
 11.09243;27.64207;4.32348;,
 3.83608;27.64207;11.70759;,
 8.49481;24.00929;16.21366;,
 3.83608;25.21695;11.70759;,
 15.67916;24.00929;8.90286;,
 11.09243;25.21695;4.32348;,
 14.84552;23.17666;17.76510;,
 17.34115;23.17666;15.22551;,
 14.84552;21.71124;17.76510;,
 17.34115;21.71124;15.22551;,
 -0.88456;26.23563;-0.21906;,
 -0.88456;24.82051;-0.21906;,
 0.33970;24.82051;-1.40132;,
 0.33970;26.23563;-1.40132;,
 -5.23947;27.64207;-0.69800;,
 0.01302;27.64207;-5.77030;,
 -2.08270;27.64207;-10.13648;,
 -9.52985;27.64207;-2.94484;,
 -0.88456;26.23563;-0.21906;,
 0.33970;26.23563;-1.40132;,
 -5.23947;27.64207;-0.69800;,
 -5.23947;25.21695;-0.69800;,
 -0.88456;24.82051;-0.21906;,
 -0.88456;26.23563;-0.21906;,
 -9.52985;25.21695;-2.94484;,
 0.01302;27.64207;-5.77030;,
 0.01302;25.21695;-5.77030;,
 -2.08270;25.21695;-10.13648;,
 0.33970;26.23563;-1.40132;,
 0.33970;24.82051;-1.40132;,
 -5.23947;25.21695;-0.69800;,
 0.01302;25.21695;-5.77030;,
 0.33970;24.82051;-1.40132;,
 -0.88456;24.82051;-0.21906;,
 -13.99514;26.43444;-7.64272;,
 -9.52985;27.64207;-2.94484;,
 -2.08270;27.64207;-10.13648;,
 -6.62189;26.43444;-14.76297;,
 -13.99514;24.00929;-7.64272;,
 -9.52985;25.21695;-2.94484;,
 -6.62189;24.00929;-14.76297;,
 -2.08270;25.21695;-10.13648;,
 -15.49104;23.17666;-14.00670;,
 -12.92979;23.17666;-16.48006;,
 -15.49104;21.71124;-14.00670;,
 -12.92979;21.71124;-16.48006;,
 0.07740;26.23563;1.94844;,
 0.07740;24.82051;1.94844;,
 -0.10052;24.82051;0.25584;,
 -0.10052;26.23563;0.25584;,
 -2.98118;27.64207;5.08528;,
 -3.74444;27.64207;-2.17656;,
 -8.47529;27.64207;-3.21318;,
 -7.39314;27.64207;7.08286;,
 0.07740;26.23563;1.94844;,
 -0.10052;26.23563;0.25584;,
 -2.98118;27.64207;5.08528;,
 -2.98118;25.21695;5.08528;,
 0.07740;24.82051;1.94844;,
 0.07740;26.23563;1.94844;,
 -7.39314;25.21695;7.08286;,
 -3.74444;27.64207;-2.17656;,
 -3.74444;25.21695;-2.17656;,
 -8.47529;25.21695;-3.21318;,
 -0.10052;26.23563;0.25584;,
 -0.10052;24.82051;0.25584;,
 -2.98118;25.21695;5.08528;,
 -3.74444;25.21695;-2.17656;,
 -0.10052;24.82051;0.25584;,
 0.07740;24.82051;1.94844;,
 -13.84418;26.43444;7.70922;,
 -7.39314;27.64207;7.08286;,
 -8.47529;27.64207;-3.21318;,
 -14.91563;26.43444;-2.48462;,
 -13.84418;24.00929;7.70922;,
 -7.39314;25.21695;7.08286;,
 -14.91563;24.00929;-2.48462;,
 -8.47529;25.21695;-3.21318;,
 -19.78009;23.17666;4.96998;,
 -20.15229;23.17666;1.42890;,
 -19.78009;21.71124;4.96998;,
 -20.15229;21.71124;1.42890;,
 0.96558;26.23563;2.59396;,
 0.96558;24.82051;2.59396;,
 -0.54404;24.82051;1.80810;,
 -0.54404;26.23563;1.80810;,
 1.89320;27.64207;6.87582;,
 -4.58360;27.64207;3.50418;,
 -8.05918;27.64207;6.87704;,
 1.12384;27.64207;11.65742;,
 0.96558;26.23563;2.59396;,
 -0.54404;26.23563;1.80810;,
 1.89320;27.64207;6.87582;,
 1.89320;25.21695;6.87582;,
 0.96558;24.82051;2.59396;,
 0.96558;26.23563;2.59396;,
 1.12384;25.21695;11.65742;,
 -4.58360;27.64207;3.50418;,
 -4.58360;25.21695;3.50418;,
 -8.05918;25.21695;6.87704;,
 -0.54404;26.23563;1.80810;,
 -0.54404;24.82051;1.80810;,
 1.89320;25.21695;6.87582;,
 -4.58360;25.21695;3.50418;,
 -0.54404;24.82051;1.80810;,
 0.96558;24.82051;2.59396;,
 -1.91442;26.43444;17.38257;,
 1.12384;27.64207;11.65742;,
 -8.05918;27.64207;6.87704;,
 -11.00630;26.43444;12.64965;,
 -1.91442;24.00929;17.38257;,
 1.12384;25.21695;11.65742;,
 -11.00630;24.00929;12.64965;,
 -8.05918;25.21695;6.87704;,
 -7.47488;23.17666;20.82053;,
 -10.63314;23.17666;19.17645;,
 -7.47488;21.71124;20.82053;,
 -10.63314;21.71124;19.17645;;
 
 164;
 3;0,1,2;,
 3;3,4,1;,
 3;5,6,4;,
 3;7,8,6;,
 3;9,10,8;,
 3;11,12,10;,
 3;13,14,12;,
 3;15,16,14;,
 3;17,18,19;,
 3;20,19,21;,
 3;22,21,23;,
 3;24,23,25;,
 3;26,25,27;,
 3;28,27,29;,
 3;30,29,31;,
 3;32,31,33;,
 4;34,19,18,35;,
 4;36,21,19,34;,
 4;37,23,21,36;,
 4;38,25,23,37;,
 4;39,27,25,38;,
 4;40,29,27,39;,
 4;41,31,29,40;,
 4;42,33,31,41;,
 4;43,44,34,35;,
 4;44,45,36,34;,
 4;45,46,37,36;,
 4;46,47,38,37;,
 4;47,48,39,38;,
 4;48,49,40,39;,
 4;49,50,41,40;,
 4;50,51,42,41;,
 4;52,53,45,44;,
 4;52,44,43,54;,
 4;53,55,46,45;,
 4;56,51,50,57;,
 4;55,58,47,46;,
 4;57,50,49,59;,
 4;58,60,48,47;,
 4;59,49,48,60;,
 4;61,4,6,62;,
 4;61,62,55,53;,
 4;61,53,52,63;,
 4;61,63,1,4;,
 4;62,6,8,64;,
 4;62,64,58,55;,
 4;63,52,54,65;,
 4;63,65,2,1;,
 4;64,8,10,66;,
 4;64,66,60,58;,
 4;67,56,57,68;,
 4;67,68,14,16;,
 4;66,10,12,69;,
 4;66,69,59,60;,
 4;68,57,59,69;,
 4;68,69,12,14;,
 4;70,71,72,73;,
 4;74,75,76,77;,
 4;74,77,78,79;,
 4;80,81,82,83;,
 4;80,83,84,75;,
 4;85,76,86,87;,
 4;85,87,88,89;,
 4;90,91,92,93;,
 4;90,93,86,84;,
 4;94,95,96,97;,
 4;98,94,97,99;,
 4;100,98,99,101;,
 4;95,100,101,96;,
 4;102,103,95,94;,
 4;104,102,94,98;,
 4;105,104,98,100;,
 4;103,105,100,95;,
 4;103,102,104,105;,
 4;106,107,108,109;,
 4;110,111,112,113;,
 4;110,113,114,115;,
 4;116,117,118,119;,
 4;116,119,120,111;,
 4;121,112,122,123;,
 4;121,123,124,125;,
 4;126,127,128,129;,
 4;126,129,122,120;,
 4;130,131,132,133;,
 4;134,130,133,135;,
 4;136,134,135,137;,
 4;131,136,137,132;,
 4;138,139,131,130;,
 4;140,138,130,134;,
 4;141,140,134,136;,
 4;139,141,136,131;,
 4;139,138,140,141;,
 4;142,143,144,145;,
 4;146,147,148,149;,
 4;146,149,150,151;,
 4;152,153,154,155;,
 4;152,155,156,147;,
 4;157,148,158,159;,
 4;157,159,160,161;,
 4;162,163,164,165;,
 4;162,165,158,156;,
 4;166,167,168,169;,
 4;170,166,169,171;,
 4;172,170,171,173;,
 4;167,172,173,168;,
 4;174,175,167,166;,
 4;176,174,166,170;,
 4;177,176,170,172;,
 4;175,177,172,167;,
 4;175,174,176,177;,
 4;178,179,180,181;,
 4;182,183,184,185;,
 4;182,186,187,183;,
 4;188,189,190,191;,
 4;188,185,192,189;,
 4;193,194,195,184;,
 4;193,196,197,194;,
 4;198,199,200,201;,
 4;198,192,195,199;,
 4;202,203,204,205;,
 4;206,207,203,202;,
 4;208,209,207,206;,
 4;205,204,209,208;,
 4;210,202,205,211;,
 4;212,206,202,210;,
 4;213,208,206,212;,
 4;211,205,208,213;,
 4;211,213,212,210;,
 4;214,215,216,217;,
 4;218,219,220,221;,
 4;218,222,223,219;,
 4;224,225,226,227;,
 4;224,221,228,225;,
 4;229,230,231,220;,
 4;229,232,233,230;,
 4;234,235,236,237;,
 4;234,228,231,235;,
 4;238,239,240,241;,
 4;242,243,239,238;,
 4;244,245,243,242;,
 4;241,240,245,244;,
 4;246,238,241,247;,
 4;248,242,238,246;,
 4;249,244,242,248;,
 4;247,241,244,249;,
 4;247,249,248,246;,
 4;250,251,252,253;,
 4;254,255,256,257;,
 4;254,258,259,255;,
 4;260,261,262,263;,
 4;260,257,264,261;,
 4;265,266,267,256;,
 4;265,268,269,266;,
 4;270,271,272,273;,
 4;270,264,267,271;,
 4;274,275,276,277;,
 4;278,279,275,274;,
 4;280,281,279,278;,
 4;277,276,281,280;,
 4;282,274,277,283;,
 4;284,278,274,282;,
 4;285,280,278,284;,
 4;283,277,280,285;,
 4;283,285,284,282;;
 
 MeshMaterialList {
  3;
  164;
  0,
  0,
  0,
  0,
  0,
  0,
  0,
  0,
  0,
  0,
  0,
  0,
  0,
  0,
  0,
  0,
  0,
  0,
  0,
  0,
  0,
  0,
  0,
  0,
  0,
  0,
  0,
  0,
  0,
  0,
  0,
  0,
  0,
  0,
  0,
  0,
  0,
  0,
  0,
  0,
  0,
  0,
  0,
  0,
  0,
  0,
  0,
  0,
  0,
  0,
  0,
  0,
  0,
  0,
  0,
  0,
  1,
  1,
  1,
  1,
  1,
  1,
  1,
  1,
  1,
  1,
  1,
  1,
  1,
  1,
  1,
  1,
  1,
  1,
  1,
  1,
  1,
  1,
  1,
  1,
  1,
  1,
  1,
  1,
  1,
  1,
  1,
  1,
  1,
  1,
  1,
  1,
  1,
  1,
  1,
  1,
  1,
  1,
  1,
  1,
  1,
  1,
  1,
  1,
  1,
  1,
  1,
  1,
  1,
  1,
  1,
  1,
  1,
  1,
  1,
  1,
  1,
  1,
  1,
  1,
  1,
  1,
  1,
  1,
  1,
  1,
  1,
  1,
  1,
  1,
  1,
  1,
  1,
  1,
  1,
  1,
  1,
  1,
  1,
  1,
  1,
  1,
  1,
  1,
  1,
  1,
  1,
  1,
  1,
  1,
  1,
  1,
  1,
  1,
  1,
  1,
  1,
  1,
  1,
  1,
  1,
  1,
  1,
  1;;
  Material {
   0.800000;0.012800;0.000000;1.000000;;
   5.000000;
   0.000000;0.000000;0.000000;;
   0.000000;0.000000;0.000000;;
  }
  Material {
   0.068800;0.392000;0.000000;1.000000;;
   5.000000;
   0.000000;0.000000;0.000000;;
   0.000000;0.000000;0.000000;;
  }
  Material {
   0.800000;0.668000;0.630400;1.000000;;
   5.000000;
   0.000000;0.000000;0.000000;;
   0.000000;0.000000;0.000000;;
  }
 }
 MeshNormals {
  170;
  -0.000000;1.000000;0.000000;,
  -0.000155;0.980161;0.198201;,
  -0.140683;0.980063;0.140300;,
  -0.199342;0.979930;-0.000292;,
  -0.141222;0.979837;-0.141338;,
  -0.000135;0.979849;-0.199740;,
  0.140691;0.979947;-0.141101;,
  0.198549;0.980091;-0.000292;,
  0.140129;0.980184;0.140013;,
  -0.001576;-0.834583;0.550880;,
  -0.388273;-0.834636;0.390674;,
  -0.547243;-0.836965;0.003805;,
  -0.386454;-0.839844;-0.381203;,
  -0.001417;-0.841592;-0.540112;,
  0.383045;-0.841553;-0.380874;,
  0.542981;-0.839736;0.003765;,
  0.384427;-0.836850;0.389741;,
  -0.000000;-1.000000;-0.000000;,
  -0.001731;-0.519943;0.854199;,
  -0.601449;-0.520849;0.605784;,
  -0.851297;-0.524650;0.005904;,
  -0.603973;-0.528657;-0.596439;,
  -0.001606;-0.530645;-0.847592;,
  0.601698;-0.529923;-0.597613;,
  0.849981;-0.526780;0.005862;,
  0.599071;-0.522595;0.606637;,
  -0.000648;0.005100;0.999987;,
  -0.706910;0.002194;0.707300;,
  -1.000000;-0.000162;0.001038;,
  -0.707944;-0.000812;-0.706268;,
  -0.000654;0.000545;-1.000000;,
  0.707286;0.003263;-0.706920;,
  0.999982;0.005886;0.001004;,
  0.706265;0.006725;0.707916;,
  -0.624575;0.471976;0.622210;,
  -0.883421;0.468578;-0.001558;,
  -0.000853;0.474618;0.880192;,
  -0.625156;0.466339;-0.625866;,
  0.622582;0.475058;0.621861;,
  -0.000815;0.466672;-0.884430;,
  0.881153;0.472830;-0.001578;,
  0.623207;0.469324;-0.625578;,
  -0.609147;0.793056;-0.000910;,
  -0.431319;0.792207;-0.431708;,
  -0.430221;0.794310;0.428931;,
  -0.000451;0.792324;-0.610100;,
  -0.000487;0.795245;0.606289;,
  0.429876;0.793262;-0.431211;,
  0.428735;0.795429;0.428344;,
  0.607156;0.794582;-0.000914;,
  -0.015043;0.000000;0.999887;,
  -0.778661;0.000000;0.627445;,
  0.040320;0.995761;-0.082669;,
  -0.956063;0.000000;-0.293162;,
  0.819627;0.000000;0.572898;,
  -0.086102;0.980521;0.176534;,
  0.572982;0.000000;0.819568;,
  -0.998591;0.000000;0.053063;,
  0.152330;0.937684;-0.312321;,
  -0.123791;-0.959300;0.253808;,
  0.983613;0.000000;0.180293;,
  0.219935;0.865038;-0.450930;,
  -0.165993;-0.925537;0.340334;,
  0.825253;0.000000;-0.564764;,
  -0.797184;0.000000;0.603737;,
  -0.973825;0.000000;-0.227300;,
  0.089968;0.995761;-0.019123;,
  -0.357595;0.000000;-0.933877;,
  0.053163;0.000000;0.998586;,
  -0.192120;0.980521;0.040836;,
  -0.293064;0.000000;0.956093;,
  -0.656606;0.000000;-0.754233;,
  0.339896;0.937684;-0.072247;,
  -0.276217;-0.959300;0.058711;,
  0.463500;0.000000;0.886097;,
  0.490743;0.865038;-0.104310;,
  -0.370383;-0.925537;0.078727;,
  0.953117;0.000000;0.302603;,
  -0.943443;0.000000;-0.331536;,
  -0.347949;0.000000;-0.937513;,
  0.065603;0.995761;0.064468;,
  0.581376;0.000000;-0.813635;,
  -0.803364;0.000000;0.595489;,
  -0.140091;0.980521;-0.137668;,
  -0.959026;0.000000;0.283318;,
  0.266538;0.000000;-0.963825;,
  0.247847;0.937684;0.243559;,
  -0.201413;-0.959300;-0.197928;,
  -0.483082;0.000000;0.875575;,
  0.357842;0.865038;0.351651;,
  -0.270077;-0.925537;-0.265404;,
  0.273724;0.000000;0.961808;,
  0.323291;0.000000;0.946300;,
  0.934442;0.000000;0.356115;,
  -0.063893;0.995761;-0.066163;,
  0.818677;0.000000;-0.574254;,
  -0.602476;0.000000;0.798137;,
  0.136440;0.980521;0.141287;,
  -0.291677;0.000000;0.956517;,
  0.966114;0.000000;-0.258117;,
  -0.241387;0.937683;-0.249964;,
  0.196164;-0.959300;0.203134;,
  -0.879758;0.000000;0.475422;,
  -0.348516;0.865037;-0.360899;,
  0.263039;-0.925536;0.272385;,
  -0.959382;0.000000;-0.282110;,
  0.944733;0.000000;0.327841;,
  0.855921;0.000000;-0.517106;,
  -0.091474;0.995761;0.009614;,
  0.051509;0.000000;-0.998673;,
  0.258019;0.000000;0.966140;,
  0.195335;0.980522;-0.020532;,
  0.574170;0.000000;0.818736;,
  0.391400;0.000000;-0.920221;,
  -0.345586;0.937684;0.036324;,
  0.280841;-0.959300;-0.029518;,
  -0.166993;0.000000;0.985958;,
  -0.498957;0.865039;0.052444;,
  0.376582;-0.925537;-0.039582;,
  -0.812957;0.000000;0.582324;,
  0.794820;0.000000;-0.606846;,
  0.041214;0.000000;-0.999150;,
  -0.042471;0.995761;0.081585;,
  -0.804349;0.000000;-0.594157;,
  0.948061;0.000000;0.318089;,
  0.090693;0.980522;-0.174219;,
  0.999638;0.000000;-0.026902;,
  -0.551330;0.000000;-0.834287;,
  -0.160453;0.937684;0.308228;,
  0.130392;-0.959300;-0.250482;,
  0.730005;0.000000;0.683442;,
  -0.231662;0.865038;0.445020;,
  0.174844;-0.925537;-0.335874;,
  0.036889;0.000000;0.999319;,
  -0.168849;0.922845;0.346190;,
  0.025655;-0.998286;-0.052600;,
  0.051221;-0.993150;-0.105019;,
  -0.040321;-0.995761;0.082671;,
  -0.747646;0.000000;-0.664098;,
  -0.063032;0.000000;-0.998012;,
  -0.376756;0.922844;0.080081;,
  0.057243;-0.998286;-0.012167;,
  0.114291;-0.993150;-0.024293;,
  -0.089970;-0.995761;0.019124;,
  0.063017;0.000000;-0.998012;,
  0.747637;0.000000;-0.664108;,
  -0.274725;0.922844;-0.269972;,
  0.041741;-0.998286;0.041019;,
  0.083340;-0.993150;0.081898;,
  -0.065605;-0.995761;-0.064470;,
  0.867011;0.000000;-0.498289;,
  0.966439;0.000000;0.256898;,
  0.267564;0.922844;0.277070;,
  -0.040653;-0.998286;-0.042098;,
  -0.081167;-0.993150;-0.084051;,
  0.063894;-0.995761;0.066165;,
  0.505833;0.000000;-0.862631;,
  -0.248455;0.000000;-0.968643;,
  0.383061;0.922845;-0.040264;,
  -0.058202;-0.998286;0.006118;,
  -0.116205;-0.993150;0.012214;,
  0.091476;-0.995761;-0.009615;,
  -0.368336;0.000000;-0.929693;,
  -0.916265;0.000000;-0.400572;,
  0.177854;0.922845;-0.341652;,
  -0.027023;-0.998286;0.051910;,
  -0.053953;-0.993150;0.103642;,
  0.042472;-0.995761;-0.081587;,
  -0.978556;0.000000;-0.205979;,
  -0.839751;0.000000;0.542972;;
  164;
  3;0,2,1;,
  3;0,3,2;,
  3;0,4,3;,
  3;0,5,4;,
  3;0,6,5;,
  3;0,7,6;,
  3;0,8,7;,
  3;0,1,8;,
  3;17,9,10;,
  3;17,10,11;,
  3;17,11,12;,
  3;17,12,13;,
  3;17,13,14;,
  3;17,14,15;,
  3;17,15,16;,
  3;17,16,9;,
  4;19,10,9,18;,
  4;20,11,10,19;,
  4;21,12,11,20;,
  4;22,13,12,21;,
  4;23,14,13,22;,
  4;24,15,14,23;,
  4;25,16,15,24;,
  4;18,9,16,25;,
  4;26,27,19,18;,
  4;27,28,20,19;,
  4;28,29,21,20;,
  4;29,30,22,21;,
  4;30,31,23,22;,
  4;31,32,24,23;,
  4;32,33,25,24;,
  4;33,26,18,25;,
  4;34,35,28,27;,
  4;34,27,26,36;,
  4;35,37,29,28;,
  4;36,26,33,38;,
  4;37,39,30,29;,
  4;38,33,32,40;,
  4;39,41,31,30;,
  4;40,32,31,41;,
  4;42,3,4,43;,
  4;42,43,37,35;,
  4;42,35,34,44;,
  4;42,44,2,3;,
  4;43,4,5,45;,
  4;43,45,39,37;,
  4;44,34,36,46;,
  4;44,46,1,2;,
  4;45,5,6,47;,
  4;45,47,41,39;,
  4;46,36,38,48;,
  4;46,48,8,1;,
  4;47,6,7,49;,
  4;47,49,40,41;,
  4;48,38,40,49;,
  4;48,49,7,8;,
  4;50,51,51,50;,
  4;55,52,52,55;,
  4;55,55,134,134;,
  4;56,50,50,56;,
  4;56,56,54,54;,
  4;57,53,53,57;,
  4;57,57,51,51;,
  4;135,136,136,135;,
  4;135,135,137,137;,
  4;58,58,52,52;,
  4;60,60,54,54;,
  4;59,59,137,137;,
  4;138,138,53,53;,
  4;61,61,58,58;,
  4;63,63,60,60;,
  4;62,62,59,59;,
  4;139,139,138,138;,
  4;139,63,63,139;,
  4;64,65,65,64;,
  4;69,66,66,69;,
  4;69,69,140,140;,
  4;70,64,64,70;,
  4;70,70,68,68;,
  4;71,67,67,71;,
  4;71,71,65,65;,
  4;141,142,142,141;,
  4;141,141,143,143;,
  4;72,72,66,66;,
  4;74,74,68,68;,
  4;73,73,143,143;,
  4;144,144,67,67;,
  4;75,75,72,72;,
  4;77,77,74,74;,
  4;76,76,73,73;,
  4;145,145,144,144;,
  4;145,77,77,145;,
  4;78,79,79,78;,
  4;83,80,80,83;,
  4;83,83,146,146;,
  4;84,78,78,84;,
  4;84,84,82,82;,
  4;85,81,81,85;,
  4;85,85,79,79;,
  4;147,148,148,147;,
  4;147,147,149,149;,
  4;86,86,80,80;,
  4;88,88,82,82;,
  4;87,87,149,149;,
  4;150,150,81,81;,
  4;89,89,86,86;,
  4;91,91,88,88;,
  4;90,90,87,87;,
  4;151,151,150,150;,
  4;151,91,91,151;,
  4;92,92,93,93;,
  4;97,97,94,94;,
  4;97,152,152,97;,
  4;98,98,92,92;,
  4;98,96,96,98;,
  4;99,99,95,95;,
  4;99,93,93,99;,
  4;153,153,154,154;,
  4;153,155,155,153;,
  4;100,94,94,100;,
  4;102,96,96,102;,
  4;101,155,155,101;,
  4;156,95,95,156;,
  4;103,100,100,103;,
  4;105,102,102,105;,
  4;104,101,101,104;,
  4;157,156,156,157;,
  4;157,157,105,105;,
  4;106,106,107,107;,
  4;111,111,108,108;,
  4;111,158,158,111;,
  4;112,112,106,106;,
  4;112,110,110,112;,
  4;113,113,109,109;,
  4;113,107,107,113;,
  4;159,159,160,160;,
  4;159,161,161,159;,
  4;114,108,108,114;,
  4;116,110,110,116;,
  4;115,161,161,115;,
  4;162,109,109,162;,
  4;117,114,114,117;,
  4;119,116,116,119;,
  4;118,115,115,118;,
  4;163,162,162,163;,
  4;163,163,119,119;,
  4;120,120,121,121;,
  4;125,125,122,122;,
  4;125,164,164,125;,
  4;126,126,120,120;,
  4;126,124,124,126;,
  4;127,127,123,123;,
  4;127,121,121,127;,
  4;165,165,166,166;,
  4;165,167,167,165;,
  4;128,122,122,128;,
  4;130,124,124,130;,
  4;129,167,167,129;,
  4;168,123,123,168;,
  4;131,128,128,131;,
  4;133,130,130,133;,
  4;132,129,129,132;,
  4;169,168,168,169;,
  4;169,169,133,133;;
 }
 MeshTextureCoords {
  286;
  0.062500;0.000000;,
  0.125000;0.000000;,
  0.000000;0.000000;,
  0.187500;0.000000;,
  0.250000;0.000000;,
  0.312500;0.000000;,
  0.375000;0.000000;,
  0.437500;0.000000;,
  0.500000;0.000000;,
  0.562500;0.000000;,
  0.625000;0.000000;,
  0.687500;0.000000;,
  0.750000;0.000000;,
  0.812500;0.000000;,
  0.875000;0.000000;,
  0.937500;0.000000;,
  1.000000;0.000000;,
  0.062500;1.000000;,
  0.000000;1.000000;,
  0.125000;1.000000;,
  0.187500;1.000000;,
  0.250000;1.000000;,
  0.312500;1.000000;,
  0.375000;1.000000;,
  0.437500;1.000000;,
  0.500000;1.000000;,
  0.562500;1.000000;,
  0.625000;1.000000;,
  0.687500;1.000000;,
  0.750000;1.000000;,
  0.812500;1.000000;,
  0.875000;1.000000;,
  0.937500;1.000000;,
  1.000000;1.000000;,
  0.125000;0.643540;,
  0.000000;0.643410;,
  0.250000;0.649540;,
  0.375000;0.657890;,
  0.500000;0.663700;,
  0.625000;0.663560;,
  0.750000;0.657570;,
  0.875000;0.649220;,
  1.000000;0.643410;,
  0.000000;0.139500;,
  0.125000;0.142800;,
  0.250000;0.147060;,
  0.375000;0.149770;,
  0.500000;0.149350;,
  0.625000;0.146050;,
  0.750000;0.141790;,
  0.875000;0.139080;,
  1.000000;0.139500;,
  0.125000;0.033320;,
  0.250000;0.034310;,
  0.000000;0.032550;,
  0.375000;0.034940;,
  1.000000;0.032550;,
  0.875000;0.032450;,
  0.500000;0.034850;,
  0.750000;0.033080;,
  0.625000;0.034080;,
  0.250000;0.008060;,
  0.375000;0.008200;,
  0.125000;0.007820;,
  0.500000;0.008180;,
  0.000000;0.007640;,
  0.625000;0.008000;,
  1.000000;0.007640;,
  0.875000;0.007620;,
  0.750000;0.007770;,
  0.000000;0.000000;,
  1.000000;0.000000;,
  1.000000;1.000000;,
  0.000000;1.000000;,
  0.000000;0.464030;,
  0.000000;0.000000;,
  1.000000;0.000000;,
  1.000000;0.464030;,
  1.000000;1.000000;,
  0.000000;1.000000;,
  0.464030;0.000000;,
  1.000000;0.000000;,
  1.000000;1.000000;,
  0.464030;1.000000;,
  0.000000;1.000000;,
  0.535970;0.000000;,
  1.000000;1.000000;,
  0.535970;1.000000;,
  0.000000;1.000000;,
  0.000000;0.000000;,
  0.000000;0.535970;,
  0.000000;0.000000;,
  1.000000;0.000000;,
  1.000000;0.535970;,
  1.000000;0.000000;,
  0.000000;0.000000;,
  0.000000;0.000000;,
  1.000000;0.000000;,
  1.000000;1.000000;,
  1.000000;1.000000;,
  0.000000;1.000000;,
  0.000000;1.000000;,
  1.000000;0.000000;,
  0.000000;0.000000;,
  1.000000;1.000000;,
  0.000000;1.000000;,
  0.000000;0.000000;,
  1.000000;0.000000;,
  1.000000;1.000000;,
  0.000000;1.000000;,
  0.000000;0.464030;,
  0.000000;0.000000;,
  1.000000;0.000000;,
  1.000000;0.464030;,
  1.000000;1.000000;,
  0.000000;1.000000;,
  0.464030;0.000000;,
  1.000000;0.000000;,
  1.000000;1.000000;,
  0.464030;1.000000;,
  0.000000;1.000000;,
  0.535970;0.000000;,
  1.000000;1.000000;,
  0.535970;1.000000;,
  0.000000;1.000000;,
  0.000000;0.000000;,
  0.000000;0.535970;,
  0.000000;0.000000;,
  1.000000;0.000000;,
  1.000000;0.535970;,
  1.000000;0.000000;,
  0.000000;0.000000;,
  0.000000;0.000000;,
  1.000000;0.000000;,
  1.000000;1.000000;,
  1.000000;1.000000;,
  0.000000;1.000000;,
  0.000000;1.000000;,
  1.000000;0.000000;,
  0.000000;0.000000;,
  1.000000;1.000000;,
  0.000000;1.000000;,
  0.000000;0.000000;,
  1.000000;0.000000;,
  1.000000;1.000000;,
  0.000000;1.000000;,
  0.000000;0.464030;,
  0.000000;0.000000;,
  1.000000;0.000000;,
  1.000000;0.464030;,
  1.000000;1.000000;,
  0.000000;1.000000;,
  0.464030;0.000000;,
  1.000000;0.000000;,
  1.000000;1.000000;,
  0.464030;1.000000;,
  0.000000;1.000000;,
  0.535970;0.000000;,
  1.000000;1.000000;,
  0.535970;1.000000;,
  0.000000;1.000000;,
  0.000000;0.000000;,
  0.000000;0.535970;,
  0.000000;0.000000;,
  1.000000;0.000000;,
  1.000000;0.535970;,
  1.000000;0.000000;,
  0.000000;0.000000;,
  0.000000;0.000000;,
  1.000000;0.000000;,
  1.000000;1.000000;,
  1.000000;1.000000;,
  0.000000;1.000000;,
  0.000000;1.000000;,
  1.000000;0.000000;,
  0.000000;0.000000;,
  1.000000;1.000000;,
  0.000000;1.000000;,
  0.000000;0.000000;,
  0.000000;1.000000;,
  1.000000;1.000000;,
  1.000000;0.000000;,
  0.000000;0.464030;,
  1.000000;0.464030;,
  1.000000;0.000000;,
  0.000000;0.000000;,
  0.000000;1.000000;,
  1.000000;1.000000;,
  0.464030;0.000000;,
  0.464030;1.000000;,
  1.000000;1.000000;,
  1.000000;0.000000;,
  0.000000;1.000000;,
  0.535970;0.000000;,
  0.535970;1.000000;,
  1.000000;1.000000;,
  0.000000;0.000000;,
  0.000000;1.000000;,
  0.000000;0.535970;,
  1.000000;0.535970;,
  1.000000;0.000000;,
  0.000000;0.000000;,
  1.000000;0.000000;,
  1.000000;0.000000;,
  0.000000;0.000000;,
  0.000000;0.000000;,
  1.000000;1.000000;,
  1.000000;1.000000;,
  0.000000;1.000000;,
  0.000000;1.000000;,
  1.000000;0.000000;,
  0.000000;0.000000;,
  1.000000;1.000000;,
  0.000000;1.000000;,
  0.000000;0.000000;,
  0.000000;1.000000;,
  1.000000;1.000000;,
  1.000000;0.000000;,
  0.000000;0.464030;,
  1.000000;0.464030;,
  1.000000;0.000000;,
  0.000000;0.000000;,
  0.000000;1.000000;,
  1.000000;1.000000;,
  0.464030;0.000000;,
  0.464030;1.000000;,
  1.000000;1.000000;,
  1.000000;0.000000;,
  0.000000;1.000000;,
  0.535970;0.000000;,
  0.535970;1.000000;,
  1.000000;1.000000;,
  0.000000;0.000000;,
  0.000000;1.000000;,
  0.000000;0.535970;,
  1.000000;0.535970;,
  1.000000;0.000000;,
  0.000000;0.000000;,
  1.000000;0.000000;,
  1.000000;0.000000;,
  0.000000;0.000000;,
  0.000000;0.000000;,
  1.000000;1.000000;,
  1.000000;1.000000;,
  0.000000;1.000000;,
  0.000000;1.000000;,
  1.000000;0.000000;,
  0.000000;0.000000;,
  1.000000;1.000000;,
  0.000000;1.000000;,
  0.000000;0.000000;,
  0.000000;1.000000;,
  1.000000;1.000000;,
  1.000000;0.000000;,
  0.000000;0.464030;,
  1.000000;0.464030;,
  1.000000;0.000000;,
  0.000000;0.000000;,
  0.000000;1.000000;,
  1.000000;1.000000;,
  0.464030;0.000000;,
  0.464030;1.000000;,
  1.000000;1.000000;,
  1.000000;0.000000;,
  0.000000;1.000000;,
  0.535970;0.000000;,
  0.535970;1.000000;,
  1.000000;1.000000;,
  0.000000;0.000000;,
  0.000000;1.000000;,
  0.000000;0.535970;,
  1.000000;0.535970;,
  1.000000;0.000000;,
  0.000000;0.000000;,
  1.000000;0.000000;,
  1.000000;0.000000;,
  0.000000;0.000000;,
  0.000000;0.000000;,
  1.000000;1.000000;,
  1.000000;1.000000;,
  0.000000;1.000000;,
  0.000000;1.000000;,
  1.000000;0.000000;,
  0.000000;0.000000;,
  1.000000;1.000000;,
  0.000000;1.000000;;
 }
}
