xof 0302txt 0064
template Header {
 <3D82AB43-62DA-11cf-AB39-0020AF71E433>
 WORD major;
 WORD minor;
 DWORD flags;
}

template Vector {
 <3D82AB5E-62DA-11cf-AB39-0020AF71E433>
 FLOAT x;
 FLOAT y;
 FLOAT z;
}

template Coords2d {
 <F6F23F44-7686-11cf-8F52-0040333594A3>
 FLOAT u;
 FLOAT v;
}

template Matrix4x4 {
 <F6F23F45-7686-11cf-8F52-0040333594A3>
 array FLOAT matrix[16];
}

template ColorRGBA {
 <35FF44E0-6C7C-11cf-8F52-0040333594A3>
 FLOAT red;
 FLOAT green;
 FLOAT blue;
 FLOAT alpha;
}

template ColorRGB {
 <D3E16E81-7835-11cf-8F52-0040333594A3>
 FLOAT red;
 FLOAT green;
 FLOAT blue;
}

template IndexedColor {
 <1630B820-7842-11cf-8F52-0040333594A3>
 DWORD index;
 ColorRGBA indexColor;
}

template Boolean {
 <4885AE61-78E8-11cf-8F52-0040333594A3>
 WORD truefalse;
}

template Boolean2d {
 <4885AE63-78E8-11cf-8F52-0040333594A3>
 Boolean u;
 Boolean v;
}

template MaterialWrap {
 <4885AE60-78E8-11cf-8F52-0040333594A3>
 Boolean u;
 Boolean v;
}

template TextureFilename {
 <A42790E1-7810-11cf-8F52-0040333594A3>
 STRING filename;
}

template Material {
 <3D82AB4D-62DA-11cf-AB39-0020AF71E433>
 ColorRGBA faceColor;
 FLOAT power;
 ColorRGB specularColor;
 ColorRGB emissiveColor;
 [...]
}

template MeshFace {
 <3D82AB5F-62DA-11cf-AB39-0020AF71E433>
 DWORD nFaceVertexIndices;
 array DWORD faceVertexIndices[nFaceVertexIndices];
}

template MeshFaceWraps {
 <4885AE62-78E8-11cf-8F52-0040333594A3>
 DWORD nFaceWrapValues;
 Boolean2d faceWrapValues;
}

template MeshTextureCoords {
 <F6F23F40-7686-11cf-8F52-0040333594A3>
 DWORD nTextureCoords;
 array Coords2d textureCoords[nTextureCoords];
}

template MeshMaterialList {
 <F6F23F42-7686-11cf-8F52-0040333594A3>
 DWORD nMaterials;
 DWORD nFaceIndexes;
 array DWORD faceIndexes[nFaceIndexes];
 [Material]
}

template MeshNormals {
 <F6F23F43-7686-11cf-8F52-0040333594A3>
 DWORD nNormals;
 array Vector normals[nNormals];
 DWORD nFaceNormals;
 array MeshFace faceNormals[nFaceNormals];
}

template MeshVertexColors {
 <1630B821-7842-11cf-8F52-0040333594A3>
 DWORD nVertexColors;
 array IndexedColor vertexColors[nVertexColors];
}

template Mesh {
 <3D82AB44-62DA-11cf-AB39-0020AF71E433>
 DWORD nVertices;
 array Vector vertices[nVertices];
 DWORD nFaces;
 array MeshFace faces[nFaces];
 [...]
}

Header{
1;
0;
1;
}

Mesh {
 147;
 -8.76566;0.17603;3.82892;,
 -8.74738;2.26965;2.96170;,
 -21.64015;2.38219;2.96170;,
 -21.65840;0.28854;3.82891;,
 -8.73981;3.13686;0.86800;,
 -21.63257;3.24934;0.86800;,
 -8.74739;2.26967;-1.22570;,
 -21.64015;2.38219;-1.22570;,
 -8.76565;0.17603;-2.09292;,
 -21.65840;0.28854;-2.09292;,
 -8.78394;-1.91756;-1.22570;,
 -21.67669;-1.80505;-1.22569;,
 -8.79149;-2.78477;0.86800;,
 -21.68425;-2.67226;0.86800;,
 -8.78393;-1.91758;2.96170;,
 -21.67669;-1.80505;2.96170;,
 -8.76566;0.17603;3.82892;,
 -21.65840;0.28854;3.82891;,
 -8.76565;0.17603;0.86799;,
 -8.76565;0.17603;0.86799;,
 -8.76565;0.17603;0.86799;,
 -8.76565;0.17603;0.86799;,
 -8.76565;0.17603;0.86799;,
 -8.76565;0.17603;0.86799;,
 -8.76565;0.17603;0.86799;,
 -8.76565;0.17603;0.86799;,
 -21.65840;0.28855;0.86800;,
 -21.65840;0.28855;0.86800;,
 -21.65840;0.28855;0.86800;,
 -21.65840;0.28855;0.86800;,
 -21.65840;0.28855;0.86800;,
 -21.65840;0.28855;0.86800;,
 -21.65840;0.28855;0.86800;,
 -21.65840;0.28855;0.86800;,
 1.12067;-0.27349;0.86800;,
 -0.12457;3.13567;2.82994;,
 -0.15423;-0.26238;4.79188;,
 1.12067;-0.27349;0.86800;,
 -0.12457;3.13567;-1.09394;,
 1.12067;-0.27349;0.86800;,
 -0.15423;-0.26237;-3.05588;,
 1.12067;-0.27349;0.86800;,
 -0.18389;-3.66041;-1.09394;,
 1.12067;-0.27349;0.86800;,
 -0.18389;-3.66041;2.82993;,
 1.12067;-0.27349;0.86800;,
 -0.15423;-0.26238;4.79188;,
 -3.44396;5.26493;4.04248;,
 -3.49193;-0.23323;7.21695;,
 -3.44396;5.26491;-2.30649;,
 -3.49192;-0.23325;-5.48096;,
 -3.53991;-5.73137;-2.30648;,
 -3.53991;-5.73138;4.04247;,
 -3.49193;-0.23323;7.21695;,
 -7.56959;5.30091;4.04247;,
 -7.61759;-0.19722;7.21696;,
 -7.56959;5.30091;-2.30649;,
 -7.61759;-0.19724;-5.48096;,
 -7.66555;-5.69536;-2.30648;,
 -7.66556;-5.69536;4.04248;,
 -7.61759;-0.19722;7.21696;,
 -9.08320;3.21384;2.82994;,
 -9.11282;-0.18418;4.79187;,
 -9.08319;3.21384;-1.09394;,
 -9.11281;-0.18419;-3.05588;,
 -9.14246;-3.58222;-1.09394;,
 -9.14246;-3.58221;2.82994;,
 -9.11282;-0.18418;4.79187;,
 -12.23018;-0.15701;0.86800;,
 -12.23018;-0.15701;0.86800;,
 -12.23018;-0.15701;0.86800;,
 -12.23018;-0.15701;0.86800;,
 -12.23018;-0.15701;0.86800;,
 -12.23018;-0.15701;0.86800;,
 -23.29949;-2.81635;3.91840;,
 -23.29949;-2.81634;-2.65734;,
 -19.16108;-2.85248;-2.65734;,
 -19.16109;-2.85246;3.91840;,
 -23.62621;3.28849;4.76629;,
 -19.10784;3.24905;4.76628;,
 -19.10784;3.24905;-3.50519;,
 -23.62623;3.28851;-3.50518;,
 -23.66654;-1.32868;4.76627;,
 -23.29949;-2.81635;3.91840;,
 -19.16109;-2.85246;3.91840;,
 -19.14814;-1.36813;4.76628;,
 -19.10784;3.24905;4.76628;,
 -23.62621;3.28849;4.76629;,
 -28.44824;1.32852;4.76628;,
 -28.43090;3.31608;4.76627;,
 -28.43091;3.31611;-3.50520;,
 -28.44827;1.32857;-3.50520;,
 -19.14814;-1.36813;4.76628;,
 -19.16109;-2.85246;3.91840;,
 -19.14813;-1.36811;-3.50520;,
 -19.10784;3.24905;4.76628;,
 -19.14813;-1.36811;-3.50520;,
 -19.16108;-2.85248;-2.65734;,
 -23.29949;-2.81634;-2.65734;,
 -23.66654;-1.32867;-3.50520;,
 -23.62623;3.28851;-3.50518;,
 -19.10784;3.24905;-3.50519;,
 -24.91900;-0.01921;4.76628;,
 -23.83598;3.29032;4.76627;,
 -24.91900;-0.01921;4.76628;,
 -24.91901;-0.01919;-3.50520;,
 -23.83598;3.29032;4.76627;,
 -23.83597;3.29031;-3.50520;,
 -23.83597;3.29031;-3.50520;,
 -24.91901;-0.01919;-3.50520;,
 -24.91900;-0.01921;4.76628;,
 -24.91901;-0.01919;-3.50520;,
 -25.59968;3.27239;-3.50520;,
 -25.27036;0.67369;-3.50519;,
 -28.44827;1.32857;-3.50520;,
 -28.43091;3.31611;-3.50520;,
 -25.59968;3.27239;-3.50520;,
 -28.43090;3.31608;4.76627;,
 -25.59968;3.27238;4.76627;,
 -25.27036;0.67369;-3.50519;,
 -25.27036;0.67369;4.76628;,
 -28.44824;1.32852;4.76628;,
 -28.44827;1.32857;-3.50520;,
 -25.59968;3.27238;4.76627;,
 -28.43090;3.31608;4.76627;,
 -28.44824;1.32852;4.76628;,
 -25.27036;0.67369;4.76628;,
 -19.86121;-1.78753;-2.92902;,
 -19.83874;0.78704;-2.92902;,
 -26.75046;0.84736;-2.92901;,
 -26.77291;-1.72722;-2.92902;,
 -19.83874;0.78704;-2.92902;,
 -19.83873;0.78702;-4.86660;,
 -26.75046;0.84735;-4.86660;,
 -26.75046;0.84736;-2.92901;,
 -19.83873;0.78702;-4.86660;,
 -19.86121;-1.78753;-4.86660;,
 -26.77289;-1.72725;-4.86659;,
 -26.75046;0.84735;-4.86660;,
 -19.86121;-1.78753;-4.86660;,
 -19.86121;-1.78753;-2.92902;,
 -26.77291;-1.72722;-2.92902;,
 -26.77289;-1.72725;-4.86659;,
 -19.83874;0.78704;-2.92902;,
 -19.86121;-1.78753;-2.92902;,
 -26.77291;-1.72722;-2.92902;,
 -26.75046;0.84736;-2.92901;;
 
 83;
 4;0,1,2,3;,
 4;1,4,5,2;,
 4;4,6,7,5;,
 4;6,8,9,7;,
 4;8,10,11,9;,
 4;10,12,13,11;,
 4;12,14,15,13;,
 4;14,16,17,15;,
 3;18,1,0;,
 3;19,4,1;,
 3;20,6,4;,
 3;21,8,6;,
 3;22,10,8;,
 3;23,12,10;,
 3;24,14,12;,
 3;25,16,14;,
 3;26,3,2;,
 3;27,2,5;,
 3;28,5,7;,
 3;29,7,9;,
 3;30,9,11;,
 3;31,11,13;,
 3;32,13,15;,
 3;33,15,17;,
 3;34,35,36;,
 3;37,38,35;,
 3;39,40,38;,
 3;41,42,40;,
 3;43,44,42;,
 3;45,46,44;,
 4;36,35,47,48;,
 4;35,38,49,47;,
 4;38,40,50,49;,
 4;40,42,51,50;,
 4;42,44,52,51;,
 4;44,46,53,52;,
 4;48,47,54,55;,
 4;47,49,56,54;,
 4;49,50,57,56;,
 4;50,51,58,57;,
 4;51,52,59,58;,
 4;52,53,60,59;,
 4;55,54,61,62;,
 4;54,56,63,61;,
 4;56,57,64,63;,
 4;57,58,65,64;,
 4;58,59,66,65;,
 4;59,60,67,66;,
 3;62,61,68;,
 3;61,63,69;,
 3;63,64,70;,
 3;64,65,71;,
 3;65,66,72;,
 3;66,67,73;,
 4;74,75,76,77;,
 4;78,79,80,81;,
 4;82,83,84,85;,
 4;82,85,86,87;,
 4;88,89,90,91;,
 4;92,93,76,94;,
 4;92,94,80,95;,
 4;96,97,98,99;,
 4;96,99,100,101;,
 4;102,82,87,103;,
 4;104,105,75,74;,
 4;106,78,81,107;,
 4;108,100,99,109;,
 3;110,83,82;,
 3;111,99,98;,
 4;112,108,109,113;,
 4;112,113,114,115;,
 4;116,90,117,118;,
 4;116,118,106,107;,
 4;119,105,104,120;,
 4;119,120,121,122;,
 4;123,124,125,126;,
 4;123,126,102,103;,
 4;127,128,129,130;,
 4;131,132,133,134;,
 4;135,136,137,138;,
 4;139,140,141,142;,
 4;139,132,143,144;,
 4;145,146,133,142;;
 
 MeshMaterialList {
  3;
  83;
  2,
  2,
  2,
  2,
  2,
  2,
  2,
  2,
  2,
  2,
  2,
  2,
  2,
  2,
  2,
  2,
  2,
  2,
  2,
  2,
  2,
  2,
  2,
  2,
  0,
  0,
  0,
  0,
  0,
  0,
  0,
  0,
  0,
  0,
  0,
  0,
  0,
  0,
  0,
  0,
  0,
  0,
  0,
  0,
  0,
  0,
  0,
  0,
  0,
  0,
  0,
  0,
  0,
  0,
  1,
  1,
  1,
  1,
  1,
  1,
  1,
  1,
  1,
  1,
  1,
  1,
  1,
  1,
  1,
  1,
  1,
  1,
  1,
  1,
  1,
  1,
  1,
  1,
  1,
  1,
  1,
  1,
  1;;
  Material {
   0.800000;0.012800;0.000000;1.000000;;
   5.000000;
   0.000000;0.000000;0.000000;;
   0.000000;0.000000;0.000000;;
  }
  Material {
   0.068800;0.392000;0.000000;1.000000;;
   5.000000;
   0.000000;0.000000;0.000000;;
   0.000000;0.000000;0.000000;;
  }
  Material {
   0.800000;0.668000;0.630400;1.000000;;
   5.000000;
   0.000000;0.000000;0.000000;;
   0.000000;0.000000;0.000000;;
  }
 }
 MeshNormals {
  97;
  0.999962;-0.008728;-0.000000;,
  -0.000000;-0.000005;1.000000;,
  0.006171;0.707078;0.707108;,
  0.008726;0.999962;0.000002;,
  0.006170;0.707080;-0.707106;,
  -0.000000;-0.000005;-1.000000;,
  -0.006171;-0.707078;-0.707108;,
  -0.008727;-0.999962;-0.000001;,
  -0.006171;-0.707078;0.707108;,
  -0.999962;0.008726;0.000001;,
  0.999962;-0.008727;0.000000;,
  0.816834;-0.007129;0.576828;,
  0.821194;0.492401;0.288414;,
  0.821194;0.492401;-0.288414;,
  0.816834;-0.007129;-0.576828;,
  0.812474;-0.506659;-0.288414;,
  0.812474;-0.506659;0.288414;,
  0.315974;-0.002758;0.948764;,
  0.323145;0.818865;0.474381;,
  0.323144;0.818864;-0.474383;,
  0.315974;-0.002759;-0.948764;,
  0.308803;-0.824381;-0.474381;,
  0.308803;-0.824381;0.474381;,
  -0.642083;0.203198;0.739215;,
  -0.639081;0.546986;0.540724;,
  -0.637357;0.744564;-0.198494;,
  -0.642084;0.203197;-0.739215;,
  -0.648534;-0.535747;-0.540721;,
  -0.650258;-0.733325;0.198491;,
  -0.818782;0.007143;0.574060;,
  -0.814444;0.504276;0.287030;,
  -0.814444;0.504275;-0.287031;,
  -0.818782;0.007142;-0.574060;,
  -0.823119;-0.489989;-0.287029;,
  -0.823119;-0.489989;0.287030;,
  -0.848515;0.529171;-0.000000;,
  -0.008728;-0.999962;0.000001;,
  -0.999962;0.008730;0.000003;,
  0.008730;0.999962;0.000001;,
  -0.553616;-0.790350;0.262403;,
  0.008702;0.999962;0.000001;,
  -0.553614;-0.790350;-0.262408;,
  -0.145645;-0.271567;0.951335;,
  -0.002239;-0.256573;0.966522;,
  0.999962;-0.008726;0.000001;,
  -0.145625;-0.271563;-0.951340;,
  -0.193901;-0.185443;0.963334;,
  -0.000016;0.000005;1.000000;,
  -0.818176;-0.523152;-0.238538;,
  -0.000745;1.000000;-0.000000;,
  -0.000003;-0.000000;-1.000000;,
  0.002636;0.999997;0.000000;,
  -0.607061;-0.794655;-0.000001;,
  0.000001;-0.000001;1.000000;,
  0.008727;0.999962;-0.000007;,
  -0.000001;-0.000002;-1.000000;,
  0.999962;-0.008730;0.000001;,
  0.999962;-0.008730;0.000002;,
  0.999962;-0.008729;-0.000002;,
  0.999962;-0.008727;-0.000002;,
  0.999962;-0.008729;-0.000000;,
  0.999962;-0.008729;-0.000003;,
  0.999962;-0.008726;-0.000001;,
  0.999962;-0.008727;0.000003;,
  -0.999962;0.008725;0.000002;,
  -0.999962;0.008720;-0.000004;,
  -0.999962;0.008726;-0.000000;,
  -0.999962;0.008721;0.000005;,
  -0.999962;0.008725;-0.000000;,
  -0.999962;0.008732;0.000002;,
  -0.999962;0.008730;-0.000000;,
  -0.999962;0.008733;-0.000001;,
  0.008723;0.999962;-0.000001;,
  0.004363;0.499980;-0.866026;,
  -0.004365;-0.499983;-0.866024;,
  -0.008728;-0.999962;-0.000000;,
  -0.004364;-0.499982;0.866025;,
  -0.857613;-0.514295;0.000001;,
  -0.004329;-0.495967;0.868330;,
  0.000001;-0.000001;1.000000;,
  -0.000017;0.000005;1.000000;,
  0.999962;-0.008725;0.000001;,
  0.999962;-0.008726;0.000000;,
  -0.002241;-0.256564;-0.966525;,
  -0.004330;-0.495953;-0.868339;,
  0.000015;0.000002;-1.000000;,
  -0.000002;0.000002;-1.000000;,
  -0.878986;-0.476847;-0.000000;,
  0.000013;0.000002;-1.000000;,
  0.000001;-0.000002;-1.000000;,
  0.015436;0.999881;0.000002;,
  -0.201824;-0.979422;-0.000003;,
  0.000002;0.000002;1.000000;,
  0.000001;0.000003;1.000000;,
  -0.008724;-0.999962;0.000008;,
  0.999962;-0.008729;0.000003;,
  -0.999962;0.008714;-0.000003;;
  83;
  4;1,2,2,1;,
  4;2,3,3,2;,
  4;3,4,4,3;,
  4;4,5,5,4;,
  4;5,6,6,5;,
  4;6,7,7,6;,
  4;7,8,8,7;,
  4;8,1,1,8;,
  3;0,56,57;,
  3;0,58,56;,
  3;0,59,58;,
  3;0,60,59;,
  3;0,61,60;,
  3;0,62,61;,
  3;0,63,62;,
  3;0,57,63;,
  3;9,64,65;,
  3;9,65,66;,
  3;9,66,67;,
  3;9,67,68;,
  3;9,68,69;,
  3;9,69,70;,
  3;9,70,71;,
  3;9,71,64;,
  3;10,12,11;,
  3;10,13,12;,
  3;10,14,13;,
  3;10,15,14;,
  3;10,16,15;,
  3;10,11,16;,
  4;11,12,18,17;,
  4;12,13,19,18;,
  4;13,14,20,19;,
  4;14,15,21,20;,
  4;15,16,22,21;,
  4;16,11,17,22;,
  4;17,18,24,23;,
  4;18,19,25,72;,
  4;19,20,26,73;,
  4;20,21,27,74;,
  4;21,22,28,75;,
  4;22,17,76,76;,
  4;23,24,30,29;,
  4;24,25,31,30;,
  4;25,26,32,31;,
  4;26,27,33,32;,
  4;27,28,34,33;,
  4;28,23,29,34;,
  3;29,30,35;,
  3;30,31,35;,
  3;31,32,35;,
  3;32,33,77;,
  3;33,34,77;,
  3;34,29,77;,
  4;39,41,36,36;,
  4;40,38,38,40;,
  4;42,78,78,43;,
  4;42,43,79,80;,
  4;37,37,37,37;,
  4;44,81,81,44;,
  4;44,44,82,82;,
  4;83,84,84,45;,
  4;83,45,85,86;,
  4;46,42,80,47;,
  4;87,48,41,39;,
  4;49,40,40,49;,
  4;88,85,45,88;,
  3;46,39,42;,
  3;48,45,41;,
  4;50,88,88,50;,
  4;50,50,89,89;,
  4;51,90,90,51;,
  4;51,51,49,49;,
  4;52,48,87,52;,
  4;52,52,91,91;,
  4;92,93,93,92;,
  4;92,92,46,47;,
  4;53,53,53,53;,
  4;54,54,54,54;,
  4;55,55,55,55;,
  4;94,94,94,94;,
  4;95,95,95,95;,
  4;96,96,96,96;;
 }
 MeshTextureCoords {
  147;
  0.000000;0.000000;,
  0.125000;0.000000;,
  0.125000;1.000000;,
  0.000000;1.000000;,
  0.250000;0.000000;,
  0.250000;1.000000;,
  0.375000;0.000000;,
  0.375000;1.000000;,
  0.500000;0.000000;,
  0.500000;1.000000;,
  0.625000;0.000000;,
  0.625000;1.000000;,
  0.750000;0.000000;,
  0.750000;1.000000;,
  0.875000;0.000000;,
  0.875000;1.000000;,
  1.000000;0.000000;,
  1.000000;1.000000;,
  0.062500;0.000000;,
  0.187500;0.000000;,
  0.312500;0.000000;,
  0.437500;0.000000;,
  0.562500;0.000000;,
  0.687500;0.000000;,
  0.812500;0.000000;,
  0.937500;0.000000;,
  0.062500;1.000000;,
  0.187500;1.000000;,
  0.312500;1.000000;,
  0.437500;1.000000;,
  0.562500;1.000000;,
  0.687500;1.000000;,
  0.812500;1.000000;,
  0.937500;1.000000;,
  0.083330;0.000000;,
  0.166670;0.200000;,
  0.000000;0.200000;,
  0.250000;0.000000;,
  0.333330;0.200000;,
  0.416670;0.000000;,
  0.500000;0.200000;,
  0.583330;0.000000;,
  0.666670;0.200000;,
  0.750000;0.000000;,
  0.833330;0.200000;,
  0.916670;0.000000;,
  1.000000;0.200000;,
  0.166670;0.400000;,
  0.000000;0.400000;,
  0.333330;0.400000;,
  0.500000;0.400000;,
  0.666670;0.400000;,
  0.833330;0.400000;,
  1.000000;0.400000;,
  0.166670;0.600000;,
  0.000000;0.600000;,
  0.333330;0.600000;,
  0.500000;0.600000;,
  0.666670;0.600000;,
  0.833330;0.600000;,
  1.000000;0.600000;,
  0.166670;0.800000;,
  0.000000;0.800000;,
  0.333330;0.800000;,
  0.500000;0.800000;,
  0.666670;0.800000;,
  0.833330;0.800000;,
  1.000000;0.800000;,
  0.083330;1.000000;,
  0.250000;1.000000;,
  0.416670;1.000000;,
  0.583330;1.000000;,
  0.750000;1.000000;,
  0.916670;1.000000;,
  1.000000;0.484650;,
  0.000000;0.484650;,
  0.000000;0.000000;,
  1.000000;0.000000;,
  0.000000;0.484650;,
  0.000000;0.000000;,
  1.000000;0.000000;,
  1.000000;0.484650;,
  0.243280;0.484650;,
  0.000000;0.484650;,
  0.000000;0.000000;,
  0.243280;0.000000;,
  1.000000;0.000000;,
  1.000000;0.484650;,
  0.243280;0.000000;,
  1.000000;0.000000;,
  1.000000;1.000000;,
  0.243280;1.000000;,
  0.243280;1.000000;,
  0.000000;1.000000;,
  0.243280;0.000000;,
  1.000000;1.000000;,
  0.756720;0.000000;,
  1.000000;0.000000;,
  1.000000;0.484650;,
  0.756720;0.484650;,
  0.000000;0.484650;,
  0.000000;0.000000;,
  0.243280;0.507150;,
  1.000000;0.507150;,
  1.000000;0.507150;,
  0.000000;0.507150;,
  0.000000;0.507150;,
  1.000000;0.507150;,
  0.000000;0.507150;,
  0.756720;0.507150;,
  0.121640;0.507150;,
  0.878360;0.507150;,
  0.000000;0.696300;,
  0.756720;0.696300;,
  0.756720;1.000000;,
  0.000000;1.000000;,
  1.000000;0.696300;,
  0.000000;1.000000;,
  0.000000;0.696300;,
  0.000000;0.696300;,
  1.000000;0.696300;,
  1.000000;1.000000;,
  0.000000;1.000000;,
  1.000000;0.696300;,
  1.000000;1.000000;,
  0.243280;1.000000;,
  0.243280;0.696300;,
  0.000000;0.000000;,
  1.000000;0.000000;,
  1.000000;1.000000;,
  0.000000;1.000000;,
  0.000000;0.000000;,
  1.000000;0.000000;,
  1.000000;1.000000;,
  0.000000;1.000000;,
  0.000000;0.000000;,
  1.000000;0.000000;,
  1.000000;1.000000;,
  0.000000;1.000000;,
  0.000000;0.000000;,
  1.000000;0.000000;,
  1.000000;1.000000;,
  0.000000;1.000000;,
  1.000000;1.000000;,
  0.000000;1.000000;,
  0.000000;0.000000;,
  1.000000;0.000000;;
 }
}
