xof 0302txt 0064
template Header {
 <3D82AB43-62DA-11cf-AB39-0020AF71E433>
 WORD major;
 WORD minor;
 DWORD flags;
}

template Vector {
 <3D82AB5E-62DA-11cf-AB39-0020AF71E433>
 FLOAT x;
 FLOAT y;
 FLOAT z;
}

template Coords2d {
 <F6F23F44-7686-11cf-8F52-0040333594A3>
 FLOAT u;
 FLOAT v;
}

template Matrix4x4 {
 <F6F23F45-7686-11cf-8F52-0040333594A3>
 array FLOAT matrix[16];
}

template ColorRGBA {
 <35FF44E0-6C7C-11cf-8F52-0040333594A3>
 FLOAT red;
 FLOAT green;
 FLOAT blue;
 FLOAT alpha;
}

template ColorRGB {
 <D3E16E81-7835-11cf-8F52-0040333594A3>
 FLOAT red;
 FLOAT green;
 FLOAT blue;
}

template IndexedColor {
 <1630B820-7842-11cf-8F52-0040333594A3>
 DWORD index;
 ColorRGBA indexColor;
}

template Boolean {
 <4885AE61-78E8-11cf-8F52-0040333594A3>
 WORD truefalse;
}

template Boolean2d {
 <4885AE63-78E8-11cf-8F52-0040333594A3>
 Boolean u;
 Boolean v;
}

template MaterialWrap {
 <4885AE60-78E8-11cf-8F52-0040333594A3>
 Boolean u;
 Boolean v;
}

template TextureFilename {
 <A42790E1-7810-11cf-8F52-0040333594A3>
 STRING filename;
}

template Material {
 <3D82AB4D-62DA-11cf-AB39-0020AF71E433>
 ColorRGBA faceColor;
 FLOAT power;
 ColorRGB specularColor;
 ColorRGB emissiveColor;
 [...]
}

template MeshFace {
 <3D82AB5F-62DA-11cf-AB39-0020AF71E433>
 DWORD nFaceVertexIndices;
 array DWORD faceVertexIndices[nFaceVertexIndices];
}

template MeshFaceWraps {
 <4885AE62-78E8-11cf-8F52-0040333594A3>
 DWORD nFaceWrapValues;
 Boolean2d faceWrapValues;
}

template MeshTextureCoords {
 <F6F23F40-7686-11cf-8F52-0040333594A3>
 DWORD nTextureCoords;
 array Coords2d textureCoords[nTextureCoords];
}

template MeshMaterialList {
 <F6F23F42-7686-11cf-8F52-0040333594A3>
 DWORD nMaterials;
 DWORD nFaceIndexes;
 array DWORD faceIndexes[nFaceIndexes];
 [Material]
}

template MeshNormals {
 <F6F23F43-7686-11cf-8F52-0040333594A3>
 DWORD nNormals;
 array Vector normals[nNormals];
 DWORD nFaceNormals;
 array MeshFace faceNormals[nFaceNormals];
}

template MeshVertexColors {
 <1630B821-7842-11cf-8F52-0040333594A3>
 DWORD nVertexColors;
 array IndexedColor vertexColors[nVertexColors];
}

template Mesh {
 <3D82AB44-62DA-11cf-AB39-0020AF71E433>
 DWORD nVertices;
 array Vector vertices[nVertices];
 DWORD nFaces;
 array MeshFace faces[nFaces];
 [...]
}

Header{
1;
0;
1;
}

Mesh {
 90;
 -0.03555;0.17757;2.93914;,
 -0.03555;-16.09525;2.93914;,
 1.67095;-16.09525;2.23228;,
 1.67095;0.17757;2.23228;,
 2.37779;-16.09525;0.52578;,
 2.37779;0.17757;0.52578;,
 1.67095;-16.09525;-1.18070;,
 1.67095;0.17757;-1.18070;,
 -0.03555;-16.09525;-1.88756;,
 -0.03555;0.17757;-1.88756;,
 -1.74204;-16.09525;-1.18070;,
 -1.74204;0.17757;-1.18070;,
 -2.44890;-16.09525;0.52578;,
 -2.44890;0.17757;0.52578;,
 -1.74205;-16.09525;2.23228;,
 -1.74205;0.17757;2.23228;,
 -0.03555;-16.09525;2.93914;,
 -0.03555;0.17757;2.93914;,
 -0.03554;0.17757;0.52578;,
 -0.03554;0.17757;0.52578;,
 -0.03554;0.17757;0.52578;,
 -0.03554;0.17757;0.52578;,
 -0.03554;0.17757;0.52578;,
 -0.03554;0.17757;0.52578;,
 -0.03554;0.17757;0.52578;,
 -0.03554;0.17757;0.52578;,
 -0.03554;-16.09525;0.52578;,
 -0.03554;-16.09525;0.52578;,
 -0.03554;-16.09525;0.52578;,
 -0.03554;-16.09525;0.52578;,
 -0.03554;-16.09525;0.52578;,
 -0.03554;-16.09525;0.52578;,
 -0.03554;-16.09525;0.52578;,
 -0.03554;-16.09525;0.52578;,
 0.01530;-13.93056;3.32536;,
 0.01529;-13.93056;-2.77638;,
 -2.61020;-13.93056;-1.40011;,
 -2.45910;-13.93056;2.49298;,
 2.44033;-13.93056;2.49298;,
 2.59141;-13.93056;-1.40012;,
 0.01530;-18.84558;3.32536;,
 0.01529;-18.84558;-2.77638;,
 3.04147;-18.84558;-2.77638;,
 3.04147;-18.84558;3.32536;,
 -3.06027;-18.84558;3.32536;,
 -3.06026;-18.84558;-2.77638;,
 0.01529;-15.20466;-3.82772;,
 -3.06026;-15.20466;-2.77638;,
 -2.61020;-13.93056;-1.40011;,
 0.01529;-13.93056;-2.77638;,
 2.59141;-13.93056;-1.40012;,
 3.04147;-15.20466;-2.77638;,
 -3.06026;-15.20466;-2.77638;,
 -3.06027;-15.20466;3.32536;,
 -2.45910;-13.93056;2.49298;,
 -3.06027;-18.84558;3.32536;,
 3.04147;-15.20466;-2.77638;,
 3.04147;-15.20466;3.32536;,
 3.04147;-18.84558;3.32536;,
 2.44033;-13.93056;2.49298;,
 -3.06027;-15.20466;3.32536;,
 0.01530;-15.20466;3.32536;,
 0.01530;-13.93056;3.32536;,
 -2.45910;-13.93056;2.49298;,
 -3.06027;-18.84558;3.32536;,
 0.01530;-18.84558;3.32536;,
 3.04147;-15.20466;3.32536;,
 3.04147;-18.84558;3.32536;,
 2.44033;-13.93056;2.49298;,
 0.01529;-17.34644;-11.88302;,
 0.01529;-18.84558;-11.88302;,
 -2.23762;-18.84558;-11.88301;,
 -2.23762;-17.34644;-11.88301;,
 2.21885;-17.34644;-11.88301;,
 2.21885;-18.84558;-11.88301;,
 0.01529;-16.30216;-8.29300;,
 -2.36329;-16.61487;-7.77162;,
 2.34451;-16.61487;-7.77161;,
 -3.06027;-18.84558;-6.63480;,
 3.04147;-18.84558;-6.63480;,
 0.01529;-18.84558;-6.63480;,
 -3.06027;-18.36160;-3.74420;,
 0.01529;-18.36160;-3.08974;,
 0.01529;-18.84558;-2.77638;,
 -3.06026;-18.84558;-2.77638;,
 3.04147;-18.36160;-3.74420;,
 3.04147;-18.84558;-2.77638;,
 -3.06026;-18.36160;-6.37731;,
 0.01530;-18.36160;-6.37732;,
 3.04147;-18.36160;-6.37732;;
 
 60;
 4;0,1,2,3;,
 4;3,2,4,5;,
 4;5,4,6,7;,
 4;7,6,8,9;,
 4;9,8,10,11;,
 4;11,10,12,13;,
 4;13,12,14,15;,
 4;15,14,16,17;,
 3;18,0,3;,
 3;19,3,5;,
 3;20,5,7;,
 3;21,7,9;,
 3;22,9,11;,
 3;23,11,13;,
 3;24,13,15;,
 3;25,15,17;,
 3;26,2,1;,
 3;27,4,2;,
 3;28,6,4;,
 3;29,8,6;,
 3;30,10,8;,
 3;31,12,10;,
 3;32,14,12;,
 3;33,16,14;,
 4;34,35,36,37;,
 4;34,38,39,35;,
 4;40,41,42,43;,
 4;40,44,45,41;,
 4;46,47,48,49;,
 4;46,49,50,51;,
 4;52,53,54,36;,
 4;52,45,55,53;,
 4;56,57,58,42;,
 4;56,39,59,57;,
 4;60,61,62,63;,
 4;60,64,65,61;,
 4;66,61,65,67;,
 4;66,68,62,61;,
 4;69,70,71,72;,
 4;69,73,74,70;,
 4;75,69,72,76;,
 4;75,77,73,69;,
 4;76,72,71,78;,
 4;77,79,74,73;,
 4;78,71,70,80;,
 4;79,80,70,74;,
 4;81,82,83,84;,
 4;82,85,86,83;,
 4;87,88,82,81;,
 4;87,78,80,88;,
 4;87,81,47,76;,
 4;88,89,85,82;,
 4;88,80,79,89;,
 4;76,47,46,75;,
 4;89,77,51,85;,
 4;75,46,51,77;,
 3;47,81,84;,
 3;76,78,87;,
 3;51,86,85;,
 3;77,89,79;;
 
 MeshMaterialList {
  3;
  60;
  2,
  2,
  2,
  2,
  2,
  2,
  2,
  2,
  2,
  2,
  2,
  2,
  2,
  2,
  2,
  2,
  2,
  2,
  2,
  2,
  2,
  2,
  2,
  2,
  1,
  1,
  1,
  1,
  1,
  1,
  1,
  1,
  1,
  1,
  1,
  1,
  1,
  1,
  1,
  1,
  1,
  1,
  1,
  1,
  1,
  1,
  1,
  1,
  1,
  1,
  1,
  1,
  1,
  1,
  1,
  1,
  1,
  1,
  1,
  1;;
  Material {
   0.800000;0.012800;0.000000;1.000000;;
   5.000000;
   0.000000;0.000000;0.000000;;
   0.000000;0.000000;0.000000;;
  }
  Material {
   0.068800;0.392000;0.000000;1.000000;;
   5.000000;
   0.000000;0.000000;0.000000;;
   0.000000;0.000000;0.000000;;
  }
  Material {
   0.800000;0.668000;0.630400;1.000000;;
   5.000000;
   0.000000;0.000000;0.000000;;
   0.000000;0.000000;0.000000;;
  }
 }
 MeshNormals {
  60;
  0.000000;1.000000;0.000000;,
  -0.000001;0.000000;1.000000;,
  0.707110;0.000000;0.707103;,
  1.000000;0.000000;-0.000001;,
  0.707109;0.000000;-0.707105;,
  0.000000;0.000000;-1.000000;,
  -0.707105;0.000000;-0.707108;,
  -1.000000;0.000000;-0.000002;,
  -0.707108;0.000000;0.707105;,
  0.000000;-1.000000;-0.000000;,
  0.156936;0.917630;-0.365139;,
  -0.026747;-0.933769;-0.356875;,
  -0.154509;0.917768;-0.365826;,
  0.026321;-0.933780;-0.356877;,
  0.001217;0.929032;-0.369997;,
  -0.000213;-0.934104;-0.357002;,
  -0.979986;0.198870;0.008878;,
  0.979986;0.198867;0.008878;,
  0.000802;0.147106;0.989120;,
  0.000003;0.000000;-1.000000;,
  -0.000002;0.000000;-1.000000;,
  0.000001;0.000000;-1.000000;,
  -0.973031;0.132673;-0.188700;,
  0.973032;0.132662;-0.188706;,
  -0.000213;-0.934104;-0.357002;,
  -0.948079;0.268558;-0.170362;,
  0.001871;0.869895;-0.493233;,
  0.815361;0.523576;-0.247092;,
  -0.110403;0.963342;-0.244505;,
  0.001105;0.969256;-0.246054;,
  0.112600;0.963081;-0.244533;,
  -0.920744;0.389780;0.017401;,
  -1.000000;0.000000;0.000005;,
  -1.000000;0.000000;-0.000001;,
  1.000000;0.000000;0.000001;,
  1.000000;0.000000;0.000000;,
  0.920746;0.389773;0.017399;,
  -0.085411;0.146513;0.985515;,
  0.001597;0.293111;0.956077;,
  -0.168347;0.288782;0.942478;,
  0.000000;0.000000;1.000000;,
  -0.000000;0.000000;1.000000;,
  0.087021;0.146604;0.985360;,
  -0.000001;0.000000;1.000000;,
  0.171496;0.288916;0.941869;,
  0.000875;0.973089;-0.230428;,
  -0.083627;0.969689;-0.229587;,
  0.085372;0.969529;-0.229620;,
  -0.979168;0.126326;-0.158971;,
  -0.989385;0.112898;-0.091495;,
  0.979169;0.126317;-0.158974;,
  0.989386;0.112893;-0.091493;,
  0.000001;-0.469678;0.882838;,
  0.000000;-0.469678;0.882838;,
  -0.972248;0.132841;-0.192578;,
  -0.997140;0.056830;-0.049817;,
  -0.000000;-0.469678;0.882838;,
  -0.137071;0.956052;-0.259184;,
  0.972249;0.132830;-0.192582;,
  0.997140;0.056828;-0.049821;;
  60;
  4;1,1,2,2;,
  4;2,2,3,3;,
  4;3,3,4,4;,
  4;4,4,5,5;,
  4;5,5,6,6;,
  4;6,6,7,7;,
  4;7,7,8,8;,
  4;8,8,1,1;,
  3;0,0,0;,
  3;0,0,0;,
  3;0,0,0;,
  3;0,0,0;,
  3;0,0,0;,
  3;0,0,0;,
  3;0,0,0;,
  3;0,0,0;,
  3;9,9,9;,
  3;9,9,9;,
  3;9,9,9;,
  3;9,9,9;,
  3;9,9,9;,
  3;9,9,9;,
  3;9,9,9;,
  3;9,9,9;,
  4;0,14,12,0;,
  4;0,0,10,14;,
  4;9,15,11,9;,
  4;9,9,13,15;,
  4;26,25,12,14;,
  4;26,14,10,27;,
  4;25,16,31,31;,
  4;25,32,33,16;,
  4;34,17,34,35;,
  4;27,36,36,17;,
  4;37,18,38,39;,
  4;37,40,41,18;,
  4;42,18,41,43;,
  4;42,44,38,18;,
  4;21,21,20,20;,
  4;21,19,19,21;,
  4;29,45,46,28;,
  4;29,30,47,45;,
  4;48,49,49,22;,
  4;50,23,51,51;,
  4;9,9,9,9;,
  4;9,9,9,9;,
  4;13,24,15,13;,
  4;24,11,11,15;,
  4;9,9,24,13;,
  4;52,52,53,53;,
  4;54,55,25,48;,
  4;9,9,11,24;,
  4;53,53,56,56;,
  4;28,57,26,29;,
  4;58,50,27,59;,
  4;29,26,27,30;,
  3;25,55,32;,
  3;48,22,54;,
  3;27,35,59;,
  3;50,58,23;;
 }
 MeshTextureCoords {
  90;
  0.000000;0.000000;,
  0.000000;1.000000;,
  0.125000;1.000000;,
  0.125000;0.000000;,
  0.250000;1.000000;,
  0.250000;0.000000;,
  0.375000;1.000000;,
  0.375000;0.000000;,
  0.500000;1.000000;,
  0.500000;0.000000;,
  0.625000;1.000000;,
  0.625000;0.000000;,
  0.750000;1.000000;,
  0.750000;0.000000;,
  0.875000;1.000000;,
  0.875000;0.000000;,
  1.000000;1.000000;,
  1.000000;0.000000;,
  0.062500;0.000000;,
  0.187500;0.000000;,
  0.312500;0.000000;,
  0.437500;0.000000;,
  0.562500;0.000000;,
  0.687500;0.000000;,
  0.812500;0.000000;,
  0.937500;0.000000;,
  0.062500;1.000000;,
  0.187500;1.000000;,
  0.312500;1.000000;,
  0.437500;1.000000;,
  0.562500;1.000000;,
  0.687500;1.000000;,
  0.812500;1.000000;,
  0.937500;1.000000;,
  0.504050;1.000000;,
  0.504050;0.000000;,
  0.000000;0.000000;,
  0.000000;1.000000;,
  1.000000;1.000000;,
  1.000000;0.000000;,
  0.504050;0.000000;,
  0.504050;1.000000;,
  1.000000;1.000000;,
  1.000000;0.000000;,
  0.000000;0.000000;,
  0.000000;1.000000;,
  0.495950;0.208810;,
  1.000000;0.208810;,
  1.000000;0.000000;,
  0.495950;0.000000;,
  0.000000;0.000000;,
  0.000000;0.208810;,
  0.000000;0.208810;,
  1.000000;0.208810;,
  1.000000;0.000000;,
  1.000000;1.000000;,
  1.000000;0.208810;,
  0.000000;0.208810;,
  0.000000;1.000000;,
  0.000000;0.000000;,
  0.000000;0.208810;,
  0.504050;0.208810;,
  0.504050;0.000000;,
  0.000000;0.000000;,
  0.000000;1.000000;,
  0.504050;1.000000;,
  1.000000;0.208810;,
  1.000000;1.000000;,
  1.000000;0.000000;,
  0.495950;0.208810;,
  0.495950;1.000000;,
  1.000000;1.000000;,
  1.000000;0.208810;,
  0.000000;0.208810;,
  0.000000;1.000000;,
  0.495950;0.208810;,
  1.000000;0.208810;,
  0.000000;0.208810;,
  1.000000;1.000000;,
  0.000000;1.000000;,
  0.495950;1.000000;,
  1.000000;1.000000;,
  0.495950;1.000000;,
  0.495950;1.000000;,
  1.000000;1.000000;,
  0.000000;1.000000;,
  0.000000;1.000000;,
  1.000000;1.000000;,
  0.495950;1.000000;,
  0.000000;1.000000;;
 }
}
