xof 0302txt 0064
template Header {
 <3D82AB43-62DA-11cf-AB39-0020AF71E433>
 WORD major;
 WORD minor;
 DWORD flags;
}

template Vector {
 <3D82AB5E-62DA-11cf-AB39-0020AF71E433>
 FLOAT x;
 FLOAT y;
 FLOAT z;
}

template Coords2d {
 <F6F23F44-7686-11cf-8F52-0040333594A3>
 FLOAT u;
 FLOAT v;
}

template Matrix4x4 {
 <F6F23F45-7686-11cf-8F52-0040333594A3>
 array FLOAT matrix[16];
}

template ColorRGBA {
 <35FF44E0-6C7C-11cf-8F52-0040333594A3>
 FLOAT red;
 FLOAT green;
 FLOAT blue;
 FLOAT alpha;
}

template ColorRGB {
 <D3E16E81-7835-11cf-8F52-0040333594A3>
 FLOAT red;
 FLOAT green;
 FLOAT blue;
}

template IndexedColor {
 <1630B820-7842-11cf-8F52-0040333594A3>
 DWORD index;
 ColorRGBA indexColor;
}

template Boolean {
 <4885AE61-78E8-11cf-8F52-0040333594A3>
 WORD truefalse;
}

template Boolean2d {
 <4885AE63-78E8-11cf-8F52-0040333594A3>
 Boolean u;
 Boolean v;
}

template MaterialWrap {
 <4885AE60-78E8-11cf-8F52-0040333594A3>
 Boolean u;
 Boolean v;
}

template TextureFilename {
 <A42790E1-7810-11cf-8F52-0040333594A3>
 STRING filename;
}

template Material {
 <3D82AB4D-62DA-11cf-AB39-0020AF71E433>
 ColorRGBA faceColor;
 FLOAT power;
 ColorRGB specularColor;
 ColorRGB emissiveColor;
 [...]
}

template MeshFace {
 <3D82AB5F-62DA-11cf-AB39-0020AF71E433>
 DWORD nFaceVertexIndices;
 array DWORD faceVertexIndices[nFaceVertexIndices];
}

template MeshFaceWraps {
 <4885AE62-78E8-11cf-8F52-0040333594A3>
 DWORD nFaceWrapValues;
 Boolean2d faceWrapValues;
}

template MeshTextureCoords {
 <F6F23F40-7686-11cf-8F52-0040333594A3>
 DWORD nTextureCoords;
 array Coords2d textureCoords[nTextureCoords];
}

template MeshMaterialList {
 <F6F23F42-7686-11cf-8F52-0040333594A3>
 DWORD nMaterials;
 DWORD nFaceIndexes;
 array DWORD faceIndexes[nFaceIndexes];
 [Material]
}

template MeshNormals {
 <F6F23F43-7686-11cf-8F52-0040333594A3>
 DWORD nNormals;
 array Vector normals[nNormals];
 DWORD nFaceNormals;
 array MeshFace faceNormals[nFaceNormals];
}

template MeshVertexColors {
 <1630B821-7842-11cf-8F52-0040333594A3>
 DWORD nVertexColors;
 array IndexedColor vertexColors[nVertexColors];
}

template Mesh {
 <3D82AB44-62DA-11cf-AB39-0020AF71E433>
 DWORD nVertices;
 array Vector vertices[nVertices];
 DWORD nFaces;
 array MeshFace faces[nFaces];
 [...]
}

Header{
1;
0;
1;
}

Mesh {
 187;
 -16.52915;23.88791;-0.50071;,
 16.73432;23.88791;-0.50071;,
 16.73432;-17.74533;-0.50071;,
 -16.52915;-17.74533;-0.50071;,
 16.73432;23.88791;-0.50071;,
 16.73432;23.88791;0.41180;,
 16.73432;-17.74533;0.41180;,
 16.73432;-17.74533;-0.50071;,
 16.73432;23.88791;0.41180;,
 -16.52915;23.88791;0.41180;,
 -16.52915;-17.74533;0.41180;,
 16.73432;-17.74533;0.41180;,
 -16.52915;23.88791;0.41180;,
 -16.52915;23.88791;-0.50071;,
 -16.52915;-17.74533;-0.50071;,
 -16.52915;-17.74533;0.41180;,
 16.73432;23.88791;-0.50071;,
 -16.52915;23.88791;-0.50071;,
 -16.52915;-17.74533;-0.50071;,
 16.73432;-17.74533;-0.50071;,
 -16.52915;17.76920;-0.52920;,
 16.73432;17.76920;-0.52920;,
 16.73432;-15.49431;-0.52920;,
 -16.52915;-15.49431;-0.52920;,
 12.23389;10.05541;1.49633;,
 13.37336;9.58343;1.49633;,
 12.23389;9.58343;1.26879;,
 12.23389;10.05541;1.49633;,
 12.23389;9.58343;1.72387;,
 12.23389;10.05541;1.49633;,
 11.09441;9.58343;1.49633;,
 12.23389;10.05541;1.49633;,
 12.23389;9.58343;1.26879;,
 13.84536;8.44396;1.49633;,
 12.23389;8.44396;1.17453;,
 12.23389;8.44396;1.81813;,
 10.62242;8.44396;1.49633;,
 12.23389;8.44396;1.17453;,
 13.37336;7.30448;1.49633;,
 12.23389;7.30448;1.26879;,
 12.23389;7.30448;1.72387;,
 11.09441;7.30448;1.49633;,
 12.23389;7.30448;1.26879;,
 12.23389;6.83249;1.49633;,
 12.23389;6.83249;1.49633;,
 12.23389;6.83249;1.49633;,
 12.23389;6.83249;1.49633;,
 -12.12524;10.88587;1.37509;,
 -10.98577;10.41386;1.37509;,
 -12.12524;10.41386;1.14754;,
 -12.12524;10.88587;1.37509;,
 -12.12524;10.41386;1.60264;,
 -12.12524;10.88587;1.37509;,
 -13.26472;10.41386;1.37509;,
 -12.12524;10.88587;1.37509;,
 -12.12524;10.41386;1.14754;,
 -10.51379;9.27439;1.37509;,
 -12.12524;9.27439;1.05329;,
 -12.12524;9.27439;1.69689;,
 -13.73671;9.27439;1.37509;,
 -12.12524;9.27439;1.05329;,
 -10.98577;8.13491;1.37509;,
 -12.12524;8.13491;1.14754;,
 -12.12524;8.13491;1.60264;,
 -13.26472;8.13491;1.37509;,
 -12.12524;8.13491;1.14754;,
 -12.12524;7.66293;1.37509;,
 -12.12524;7.66293;1.37509;,
 -12.12524;7.66293;1.37509;,
 -12.12524;7.66293;1.37509;,
 -0.05278;-8.22113;0.42786;,
 -0.05278;-3.48807;0.64170;,
 14.72621;-3.48807;1.28322;,
 15.45726;-8.22113;1.28322;,
 -0.05278;-3.48807;1.92475;,
 -0.05278;-8.22113;2.13858;,
 -14.83176;-3.48807;1.28322;,
 -15.56281;-8.22113;1.28322;,
 -0.05278;-3.48807;0.64170;,
 -0.05278;-8.22113;0.42786;,
 -0.05278;-2.10613;0.85556;,
 2.95352;-2.10613;1.28322;,
 -0.05278;-2.10613;1.71089;,
 -3.05907;-2.10613;1.28322;,
 -0.05278;-2.10613;0.85556;,
 -0.05278;1.09705;1.06935;,
 1.60804;1.09705;1.28322;,
 -0.05278;1.09705;1.49710;,
 -1.71359;1.09705;1.28322;,
 -0.05278;1.09705;1.06935;,
 -0.05278;10.71113;1.28322;,
 -0.05278;10.71113;1.28322;,
 -0.05278;10.71113;1.28322;,
 -0.05278;10.71113;1.28322;,
 -0.05278;-8.22113;1.28322;,
 -0.05278;-8.22113;0.42786;,
 15.45726;-8.22113;1.28322;,
 -0.05278;-8.22113;2.13858;,
 -15.56281;-8.22113;1.28322;,
 12.14280;-3.37523;0.77975;,
 12.14280;4.89825;1.06669;,
 13.31402;4.89825;1.35365;,
 14.48526;-3.37523;1.35365;,
 12.14280;4.89825;1.64061;,
 12.14280;-3.37523;1.92757;,
 10.97153;4.89825;1.35365;,
 9.80031;-3.37523;1.35365;,
 12.14280;4.89825;1.06669;,
 12.14280;-3.37523;0.77975;,
 12.14280;8.15077;1.35365;,
 12.14280;8.15077;1.35365;,
 12.14280;8.15077;1.35365;,
 12.14280;8.15077;1.35365;,
 12.14280;-3.37523;1.35365;,
 12.14280;-3.37523;0.77975;,
 14.48526;-3.37523;1.35365;,
 12.14280;-3.37523;1.92757;,
 9.80031;-3.37523;1.35365;,
 -12.27738;-3.37523;0.77975;,
 -12.27738;4.89825;1.06669;,
 -11.10616;4.89825;1.35365;,
 -9.93491;-3.37523;1.35365;,
 -12.27738;4.89825;1.64061;,
 -12.27738;-3.37523;1.92757;,
 -13.44863;4.89825;1.35365;,
 -14.61987;-3.37523;1.35365;,
 -12.27738;4.89825;1.06669;,
 -12.27738;-3.37523;0.77975;,
 -12.27738;9.23874;1.35365;,
 -12.27738;9.23874;1.35365;,
 -12.27738;9.23874;1.35365;,
 -12.27738;9.23874;1.35365;,
 -12.27738;-3.37523;1.35365;,
 -12.27738;-3.37523;0.77975;,
 -9.93491;-3.37523;1.35365;,
 -12.27738;-3.37523;1.92757;,
 -14.61987;-3.37523;1.35365;,
 -0.05278;11.35276;1.12226;,
 1.08670;10.88078;1.12226;,
 -0.05278;10.88078;0.89472;,
 -0.05278;11.35276;1.12226;,
 -0.05278;10.88078;1.34981;,
 -0.05278;11.35276;1.12226;,
 -1.19225;10.88078;1.12226;,
 -0.05278;11.35276;1.12226;,
 -0.05278;10.88078;0.89472;,
 1.55869;9.74130;1.12226;,
 -0.05278;9.74130;0.80047;,
 -0.05278;9.74130;1.44406;,
 -1.66424;9.74130;1.12226;,
 -0.05278;9.74130;0.80047;,
 1.08670;8.60181;1.12226;,
 -0.05278;8.60181;0.89472;,
 -0.05278;8.60181;1.34981;,
 -1.19225;8.60181;1.12226;,
 -0.05278;8.60181;0.89472;,
 -0.05278;8.12983;1.12226;,
 -0.05278;8.12983;1.12226;,
 -0.05278;8.12983;1.12226;,
 -0.05278;8.12983;1.12226;,
 16.73177;17.76920;0.47441;,
 -16.52663;17.76920;1.05494;,
 -16.52663;-15.49431;1.05494;,
 16.73178;-15.49431;0.47442;,
 0.00000;14.83811;-1.15045;,
 10.64393;10.64393;-1.73991;,
 0.00000;10.85861;-3.26743;,
 0.00000;14.83811;-1.15045;,
 -0.00000;10.64393;-0.80186;,
 0.00000;14.83811;-1.15045;,
 -10.64393;10.48501;-0.59161;,
 0.00000;14.83811;-1.15045;,
 0.00000;10.85861;-3.26743;,
 15.00832;-0.00000;-3.06203;,
 -0.91943;-0.00000;-6.66733;,
 -0.00000;-0.00000;-0.41331;,
 -15.63549;0.15891;-3.19093;,
 -0.91943;-0.00000;-6.66733;,
 10.64393;-10.64393;-1.73991;,
 0.00000;-10.77393;-3.08998;,
 -0.00000;-10.64393;-0.80186;,
 -10.64393;-10.64393;-1.73991;,
 0.00000;-10.77393;-3.08998;,
 0.00000;-14.92279;-1.32790;,
 0.00000;-14.92279;-1.32790;,
 0.00000;-14.92279;-1.32790;,
 0.00000;-14.92279;-1.32790;;
 
 116;
 4;0,1,2,3;,
 4;4,5,6,7;,
 4;8,9,10,11;,
 4;12,13,14,15;,
 4;12,5,16,17;,
 4;18,19,6,15;,
 4;20,21,22,23;,
 3;24,25,26;,
 3;27,28,25;,
 3;29,30,28;,
 3;31,32,30;,
 4;26,25,33,34;,
 4;25,28,35,33;,
 4;28,30,36,35;,
 4;30,32,37,36;,
 4;34,33,38,39;,
 4;33,35,40,38;,
 4;35,36,41,40;,
 4;36,37,42,41;,
 3;39,38,43;,
 3;38,40,44;,
 3;40,41,45;,
 3;41,42,46;,
 3;47,48,49;,
 3;50,51,48;,
 3;52,53,51;,
 3;54,55,53;,
 4;49,48,56,57;,
 4;48,51,58,56;,
 4;51,53,59,58;,
 4;53,55,60,59;,
 4;57,56,61,62;,
 4;56,58,63,61;,
 4;58,59,64,63;,
 4;59,60,65,64;,
 3;62,61,66;,
 3;61,63,67;,
 3;63,64,68;,
 3;64,65,69;,
 4;70,71,72,73;,
 4;73,72,74,75;,
 4;75,74,76,77;,
 4;77,76,78,79;,
 4;71,80,81,72;,
 4;72,81,82,74;,
 4;74,82,83,76;,
 4;76,83,84,78;,
 4;80,85,86,81;,
 4;81,86,87,82;,
 4;82,87,88,83;,
 4;83,88,89,84;,
 3;85,90,86;,
 3;86,91,87;,
 3;87,92,88;,
 3;88,93,89;,
 3;94,95,96;,
 3;94,96,97;,
 3;94,97,98;,
 3;94,98,95;,
 4;99,100,101,102;,
 4;102,101,103,104;,
 4;104,103,105,106;,
 4;106,105,107,108;,
 3;100,109,101;,
 3;101,110,103;,
 3;103,111,105;,
 3;105,112,107;,
 3;113,114,115;,
 3;113,115,116;,
 3;113,116,117;,
 3;113,117,114;,
 4;118,119,120,121;,
 4;121,120,122,123;,
 4;123,122,124,125;,
 4;125,124,126,127;,
 3;119,128,120;,
 3;120,129,122;,
 3;122,130,124;,
 3;124,131,126;,
 3;132,133,134;,
 3;132,134,135;,
 3;132,135,136;,
 3;132,136,133;,
 3;137,138,139;,
 3;140,141,138;,
 3;142,143,141;,
 3;144,145,143;,
 4;139,138,146,147;,
 4;138,141,148,146;,
 4;141,143,149,148;,
 4;143,145,150,149;,
 4;147,146,151,152;,
 4;146,148,153,151;,
 4;148,149,154,153;,
 4;149,150,155,154;,
 3;152,151,156;,
 3;151,153,157;,
 3;153,154,158;,
 3;154,155,159;,
 4;160,161,162,163;,
 3;164,165,166;,
 3;167,168,165;,
 3;169,170,168;,
 3;171,172,170;,
 4;166,165,173,174;,
 4;165,168,175,173;,
 4;168,170,176,175;,
 4;170,172,177,176;,
 4;174,173,178,179;,
 4;173,175,180,178;,
 4;175,176,181,180;,
 4;176,177,182,181;,
 3;179,178,183;,
 3;178,180,184;,
 3;180,181,185;,
 3;181,182,186;;
 
 MeshMaterialList {
  10;
  116;
  2,
  2,
  2,
  2,
  2,
  2,
  3,
  5,
  5,
  5,
  5,
  5,
  5,
  5,
  5,
  5,
  5,
  5,
  5,
  5,
  5,
  5,
  5,
  5,
  5,
  5,
  5,
  5,
  5,
  5,
  5,
  5,
  5,
  5,
  5,
  5,
  5,
  5,
  5,
  5,
  5,
  5,
  5,
  5,
  5,
  5,
  5,
  5,
  5,
  5,
  5,
  5,
  5,
  5,
  5,
  5,
  5,
  5,
  5,
  5,
  5,
  5,
  5,
  5,
  5,
  5,
  5,
  5,
  5,
  5,
  5,
  5,
  5,
  5,
  5,
  5,
  5,
  5,
  5,
  5,
  5,
  5,
  5,
  5,
  5,
  5,
  5,
  5,
  5,
  5,
  5,
  5,
  5,
  5,
  5,
  5,
  5,
  5,
  5,
  3,
  0,
  0,
  0,
  0,
  0,
  0,
  0,
  0,
  0,
  0,
  0,
  0,
  0,
  0,
  0,
  0;;
  Material {
   0.454902;0.439216;0.445490;1.000000;;
   5.000000;
   0.330000;0.330000;0.330000;;
   0.045490;0.043922;0.044549;;
  }
  Material {
   0.800000;0.000000;0.031200;1.000000;;
   5.000000;
   0.000000;0.000000;0.000000;;
   0.000000;0.000000;0.000000;;
  }
  Material {
   0.800000;0.473600;0.116000;1.000000;;
   5.000000;
   0.000000;0.000000;0.000000;;
   0.000000;0.000000;0.000000;;
  }
  Material {
   0.800000;0.800000;0.800000;1.000000;;
   5.000000;
   0.000000;0.000000;0.000000;;
   0.000000;0.000000;0.000000;;
  }
  Material {
   0.800000;0.652800;0.486400;1.000000;;
   5.000000;
   0.000000;0.000000;0.000000;;
   0.000000;0.000000;0.000000;;
  }
  Material {
   0.800000;0.627200;0.047200;1.000000;;
   5.000000;
   0.540000;0.540000;0.540000;;
   0.000000;0.000000;0.000000;;
  }
  Material {
   0.800000;0.800000;0.800000;1.000000;;
   5.000000;
   0.000000;0.000000;0.000000;;
   0.000000;0.000000;0.000000;;
  }
  Material {
   0.000000;0.024800;0.489600;1.000000;;
   5.000000;
   0.000000;0.000000;0.000000;;
   0.000000;0.000000;0.000000;;
  }
  Material {
   0.489600;0.354400;0.222400;1.000000;;
   5.000000;
   0.000000;0.000000;0.000000;;
   0.000000;0.000000;0.000000;;
  }
  Material {
   0.100392;0.752941;0.800000;1.000000;;
   5.000000;
   0.460000;0.460000;0.460000;;
   0.023843;0.178824;0.190000;;
  }
 }
 MeshNormals {
  151;
  0.000000;0.000000;-1.000000;,
  1.000000;0.000000;0.000000;,
  0.000000;0.000000;1.000000;,
  -1.000000;0.000000;0.000000;,
  0.000000;1.000000;0.000000;,
  0.000000;-1.000000;-0.000000;,
  0.000000;0.000000;-1.000000;,
  0.000001;0.434265;-0.900785;,
  0.000001;0.263069;-0.964777;,
  0.189178;0.258319;-0.947356;,
  0.000001;0.263069;0.964777;,
  -0.189177;0.258319;0.947356;,
  0.000000;0.000000;-1.000000;,
  0.195825;0.000000;-0.980639;,
  0.000000;0.000000;1.000000;,
  -0.195824;0.000000;0.980639;,
  0.000001;-0.263065;-0.964778;,
  0.189178;-0.258315;-0.947357;,
  0.000001;-0.263065;0.964778;,
  -0.189177;-0.258314;0.947357;,
  0.000001;-0.434258;-0.900789;,
  0.000001;0.434259;-0.900788;,
  0.000001;0.263063;-0.964779;,
  0.189185;0.258312;-0.947356;,
  0.000001;0.263063;0.964779;,
  -0.189183;0.258313;0.947356;,
  0.000001;0.000000;-1.000000;,
  0.195830;0.000001;-0.980638;,
  0.000001;0.000001;1.000000;,
  -0.195828;0.000001;0.980638;,
  0.000001;-0.263075;-0.964775;,
  0.189184;-0.258324;-0.947353;,
  0.000001;-0.263075;0.964775;,
  -0.189182;-0.258324;0.947353;,
  0.000001;-0.434281;-0.900777;,
  -0.000000;0.026836;-0.999640;,
  0.049202;0.026803;-0.998429;,
  -0.000000;0.026835;0.999640;,
  -0.049202;0.026802;0.998429;,
  -0.000000;0.139950;-0.990159;,
  0.070322;0.139604;-0.987707;,
  -0.000000;0.139951;0.990158;,
  -0.070323;0.139605;0.987707;,
  -0.000000;0.158309;-0.987390;,
  0.112799;0.157299;-0.981088;,
  -0.000000;0.158311;0.987389;,
  -0.112802;0.157300;0.981087;,
  -0.000000;0.042683;-0.999089;,
  0.130881;0.042315;-0.990495;,
  -0.000000;0.042683;0.999089;,
  -0.130887;0.042316;0.990494;,
  -0.000000;0.022240;-0.999753;,
  0.000000;-1.000000;-0.000000;,
  0.000003;0.034662;-0.999399;,
  0.237831;0.033668;-0.970723;,
  0.000003;0.034663;0.999399;,
  -0.237829;0.033668;0.970723;,
  0.000004;0.061298;-0.998119;,
  0.237546;0.059544;-0.969549;,
  0.000004;0.061299;0.998119;,
  -0.237540;0.059544;0.969551;,
  0.000005;0.087886;-0.996131;,
  0.000002;0.034662;-0.999399;,
  0.237831;0.033667;-0.970723;,
  0.000002;0.034664;0.999399;,
  -0.237831;0.033669;0.970723;,
  0.000002;0.050322;-0.998733;,
  0.237684;0.048880;-0.970112;,
  0.000002;0.050323;0.998733;,
  -0.237681;0.048881;0.970113;,
  0.000003;0.065968;-0.997822;,
  -0.000001;0.434265;-0.900785;,
  -0.000001;0.263066;-0.964778;,
  0.189175;0.258316;-0.947357;,
  -0.000001;0.263075;0.964775;,
  -0.189184;0.258324;0.947353;,
  -0.000001;0.000000;-1.000000;,
  0.195821;0.000000;-0.980640;,
  -0.000001;0.000000;1.000000;,
  -0.195830;0.000000;0.980638;,
  -0.000001;-0.263066;-0.964778;,
  0.189175;-0.258315;-0.947357;,
  -0.000001;-0.263075;0.964776;,
  -0.189184;-0.258324;0.947353;,
  -0.000001;-0.434266;-0.900785;,
  0.000001;0.434265;0.900785;,
  0.189178;0.258319;0.947356;,
  -0.189177;0.258318;-0.947356;,
  0.195825;0.000000;0.980639;,
  -0.195824;0.000000;-0.980639;,
  0.189178;-0.258315;0.947357;,
  -0.189177;-0.258314;-0.947357;,
  0.000001;-0.434258;0.900788;,
  0.000001;0.434258;0.900788;,
  0.189185;0.258312;0.947356;,
  -0.189183;0.258313;-0.947356;,
  0.195830;0.000001;0.980638;,
  -0.195829;0.000000;-0.980638;,
  0.189184;-0.258324;0.947353;,
  -0.189182;-0.258325;-0.947353;,
  0.000001;-0.434281;0.900777;,
  0.049202;0.026802;0.998429;,
  0.070323;0.139605;0.987707;,
  -0.049202;0.026803;-0.998429;,
  -0.070322;0.139604;-0.987707;,
  0.112802;0.157300;0.981087;,
  -0.112799;0.157299;-0.981088;,
  0.130886;0.042316;0.990494;,
  -0.130882;0.042315;-0.990494;,
  -0.000000;0.022241;0.999753;,
  0.237835;0.033669;0.970722;,
  0.237548;0.059544;0.969549;,
  -0.237825;0.033667;-0.970724;,
  -0.237538;0.059543;-0.969551;,
  0.000005;0.087886;0.996131;,
  0.237834;0.033669;0.970722;,
  0.237686;0.048881;0.970111;,
  -0.237827;0.033668;-0.970724;,
  -0.237679;0.048880;-0.970113;,
  0.000003;0.065968;0.997822;,
  -0.000001;0.434281;0.900778;,
  0.189182;0.258324;0.947354;,
  -0.189177;0.258316;-0.947357;,
  0.195828;0.000000;0.980638;,
  -0.195823;0.000000;-0.980639;,
  0.189182;-0.258324;0.947354;,
  -0.189177;-0.258316;-0.947357;,
  -0.000001;-0.434281;0.900777;,
  0.017452;0.000000;0.999848;,
  -0.049340;0.469079;-0.881777;,
  -0.037290;0.381676;-0.923544;,
  0.158148;0.358351;-0.920094;,
  0.039842;0.023982;0.998918;,
  -0.030029;0.010176;0.999497;,
  -0.014155;0.009159;-0.999858;,
  0.180427;-0.004854;-0.983576;,
  0.013181;-0.013827;0.999818;,
  -0.104839;-0.027472;0.994110;,
  -0.001210;-0.331711;-0.943380;,
  0.145781;-0.322751;-0.935189;,
  -0.000076;-0.057509;0.998345;,
  -0.109426;-0.057087;0.992354;,
  0.000000;-0.390918;-0.920426;,
  0.053000;0.082712;0.995163;,
  0.109331;0.037632;0.993293;,
  -0.230457;0.390205;-0.891420;,
  0.130903;0.000000;0.991395;,
  -0.211103;0.023023;-0.977193;,
  0.109273;-0.057241;0.992362;,
  -0.148077;-0.333456;-0.931064;,
  -0.000000;-0.122022;0.992527;;
  116;
  4;0,0,0,0;,
  4;1,1,1,1;,
  4;2,2,2,2;,
  4;3,3,3,3;,
  4;4,4,4,4;,
  4;5,5,5,5;,
  4;6,6,6,6;,
  3;7,9,8;,
  3;85,10,86;,
  3;85,11,10;,
  3;7,8,87;,
  4;8,9,13,12;,
  4;86,10,14,88;,
  4;10,11,15,14;,
  4;87,8,12,89;,
  4;12,13,17,16;,
  4;88,14,18,90;,
  4;14,15,19,18;,
  4;89,12,16,91;,
  3;16,17,20;,
  3;90,18,92;,
  3;18,19,92;,
  3;91,16,20;,
  3;21,23,22;,
  3;93,24,94;,
  3;93,25,24;,
  3;21,22,95;,
  4;22,23,27,26;,
  4;94,24,28,96;,
  4;24,25,29,28;,
  4;95,22,26,97;,
  4;26,27,31,30;,
  4;96,28,32,98;,
  4;28,29,33,32;,
  4;97,26,30,99;,
  3;30,31,34;,
  3;98,32,100;,
  3;32,33,100;,
  3;99,30,34;,
  4;35,39,40,36;,
  4;101,102,41,37;,
  4;37,41,42,38;,
  4;103,104,39,35;,
  4;39,43,44,40;,
  4;102,105,45,41;,
  4;41,45,46,42;,
  4;104,106,43,39;,
  4;43,47,48,44;,
  4;105,107,49,45;,
  4;45,49,50,46;,
  4;106,108,47,43;,
  3;47,51,48;,
  3;107,109,49;,
  3;49,109,50;,
  3;108,51,47;,
  3;52,52,52;,
  3;52,52,52;,
  3;52,52,52;,
  3;52,52,52;,
  4;53,57,58,54;,
  4;110,111,59,55;,
  4;55,59,60,56;,
  4;112,113,57,53;,
  3;57,61,58;,
  3;111,114,59;,
  3;59,114,60;,
  3;113,61,57;,
  3;52,52,52;,
  3;52,52,52;,
  3;52,52,52;,
  3;52,52,52;,
  4;62,66,67,63;,
  4;115,116,68,64;,
  4;64,68,69,65;,
  4;117,118,66,62;,
  3;66,70,67;,
  3;116,119,68;,
  3;68,119,69;,
  3;118,70,66;,
  3;52,52,52;,
  3;52,52,52;,
  3;52,52,52;,
  3;52,52,52;,
  3;71,73,72;,
  3;120,74,121;,
  3;120,75,74;,
  3;71,72,122;,
  4;72,73,77,76;,
  4;121,74,78,123;,
  4;74,75,79,78;,
  4;122,72,76,124;,
  4;76,77,81,80;,
  4;123,78,82,125;,
  4;78,79,83,82;,
  4;124,76,80,126;,
  3;80,81,84;,
  3;125,82,127;,
  3;82,83,127;,
  3;126,80,84;,
  4;128,128,128,128;,
  3;129,131,130;,
  3;143,132,144;,
  3;143,133,132;,
  3;129,130,145;,
  4;130,131,135,134;,
  4;144,132,136,146;,
  4;132,133,137,136;,
  4;145,130,134,147;,
  4;134,135,139,138;,
  4;146,136,140,148;,
  4;136,137,141,140;,
  4;147,134,138,149;,
  3;138,139,142;,
  3;148,140,150;,
  3;140,141,150;,
  3;149,138,142;;
 }
 MeshTextureCoords {
  187;
  0.000000;0.000000;,
  1.000000;0.000000;,
  1.000000;1.000000;,
  0.000000;1.000000;,
  0.000000;0.000000;,
  1.000000;0.000000;,
  1.000000;1.000000;,
  0.000000;1.000000;,
  0.000000;0.000000;,
  1.000000;0.000000;,
  1.000000;1.000000;,
  0.000000;1.000000;,
  0.000000;0.000000;,
  1.000000;0.000000;,
  1.000000;1.000000;,
  0.000000;1.000000;,
  1.000000;1.000000;,
  0.000000;1.000000;,
  0.000000;0.000000;,
  1.000000;0.000000;,
  0.000000;0.000000;,
  1.000000;0.000000;,
  1.000000;1.000000;,
  0.000000;1.000000;,
  0.125000;0.000000;,
  0.250000;0.250000;,
  0.000000;0.250000;,
  0.375000;0.000000;,
  0.500000;0.250000;,
  0.625000;0.000000;,
  0.750000;0.250000;,
  0.875000;0.000000;,
  1.000000;0.250000;,
  0.250000;0.500000;,
  0.000000;0.500000;,
  0.500000;0.500000;,
  0.750000;0.500000;,
  1.000000;0.500000;,
  0.250000;0.750000;,
  0.000000;0.750000;,
  0.500000;0.750000;,
  0.750000;0.750000;,
  1.000000;0.750000;,
  0.125000;1.000000;,
  0.375000;1.000000;,
  0.625000;1.000000;,
  0.875000;1.000000;,
  0.125000;0.000000;,
  0.250000;0.250000;,
  0.000000;0.250000;,
  0.375000;0.000000;,
  0.500000;0.250000;,
  0.625000;0.000000;,
  0.750000;0.250000;,
  0.875000;0.000000;,
  1.000000;0.250000;,
  0.250000;0.500000;,
  0.000000;0.500000;,
  0.500000;0.500000;,
  0.750000;0.500000;,
  1.000000;0.500000;,
  0.250000;0.750000;,
  0.000000;0.750000;,
  0.500000;0.750000;,
  0.750000;0.750000;,
  1.000000;0.750000;,
  0.125000;1.000000;,
  0.375000;1.000000;,
  0.625000;1.000000;,
  0.875000;1.000000;,
  0.000000;1.000000;,
  0.000000;0.750000;,
  0.250000;0.750000;,
  0.250000;1.000000;,
  0.500000;0.750000;,
  0.500000;1.000000;,
  0.750000;0.750000;,
  0.750000;1.000000;,
  1.000000;0.750000;,
  1.000000;1.000000;,
  0.000000;0.500000;,
  0.250000;0.500000;,
  0.500000;0.500000;,
  0.750000;0.500000;,
  1.000000;0.500000;,
  0.000000;0.250000;,
  0.250000;0.250000;,
  0.500000;0.250000;,
  0.750000;0.250000;,
  1.000000;0.250000;,
  0.125000;0.000000;,
  0.250000;0.000000;,
  0.375000;0.000000;,
  0.500000;0.000000;,
  0.000000;0.000000;,
  0.000000;0.000000;,
  0.000000;0.000000;,
  0.000000;0.000000;,
  0.000000;0.000000;,
  0.000000;1.000000;,
  0.000000;0.500000;,
  0.250000;0.500000;,
  0.250000;1.000000;,
  0.500000;0.500000;,
  0.500000;1.000000;,
  0.750000;0.500000;,
  0.750000;1.000000;,
  1.000000;0.500000;,
  1.000000;1.000000;,
  0.125000;0.000000;,
  0.250000;0.000000;,
  0.375000;0.000000;,
  0.500000;0.000000;,
  0.000000;0.000000;,
  0.000000;0.000000;,
  0.000000;0.000000;,
  0.000000;0.000000;,
  0.000000;0.000000;,
  0.000000;1.000000;,
  0.000000;0.500000;,
  0.250000;0.500000;,
  0.250000;1.000000;,
  0.500000;0.500000;,
  0.500000;1.000000;,
  0.750000;0.500000;,
  0.750000;1.000000;,
  1.000000;0.500000;,
  1.000000;1.000000;,
  0.125000;0.000000;,
  0.250000;0.000000;,
  0.375000;0.000000;,
  0.500000;0.000000;,
  0.000000;0.000000;,
  0.000000;0.000000;,
  0.000000;0.000000;,
  0.000000;0.000000;,
  0.000000;0.000000;,
  0.125000;0.000000;,
  0.250000;0.250000;,
  0.000000;0.250000;,
  0.375000;0.000000;,
  0.500000;0.250000;,
  0.625000;0.000000;,
  0.750000;0.250000;,
  0.875000;0.000000;,
  1.000000;0.250000;,
  0.250000;0.500000;,
  0.000000;0.500000;,
  0.500000;0.500000;,
  0.750000;0.500000;,
  1.000000;0.500000;,
  0.250000;0.750000;,
  0.000000;0.750000;,
  0.500000;0.750000;,
  0.750000;0.750000;,
  1.000000;0.750000;,
  0.125000;1.000000;,
  0.375000;1.000000;,
  0.625000;1.000000;,
  0.875000;1.000000;,
  0.000000;0.000000;,
  1.000000;0.000000;,
  1.000000;1.000000;,
  0.000000;1.000000;,
  0.125000;0.000000;,
  0.250000;0.250000;,
  0.000000;0.250000;,
  0.375000;0.000000;,
  0.500000;0.250000;,
  0.625000;0.000000;,
  0.750000;0.250000;,
  0.875000;0.000000;,
  1.000000;0.250000;,
  0.250000;0.500000;,
  0.000000;0.500000;,
  0.500000;0.500000;,
  0.750000;0.500000;,
  1.000000;0.500000;,
  0.250000;0.750000;,
  0.000000;0.750000;,
  0.500000;0.750000;,
  0.750000;0.750000;,
  1.000000;0.750000;,
  0.125000;1.000000;,
  0.375000;1.000000;,
  0.625000;1.000000;,
  0.875000;1.000000;;
 }
}
