xof 0302txt 0064
template Header {
 <3D82AB43-62DA-11cf-AB39-0020AF71E433>
 WORD major;
 WORD minor;
 DWORD flags;
}

template Vector {
 <3D82AB5E-62DA-11cf-AB39-0020AF71E433>
 FLOAT x;
 FLOAT y;
 FLOAT z;
}

template Coords2d {
 <F6F23F44-7686-11cf-8F52-0040333594A3>
 FLOAT u;
 FLOAT v;
}

template Matrix4x4 {
 <F6F23F45-7686-11cf-8F52-0040333594A3>
 array FLOAT matrix[16];
}

template ColorRGBA {
 <35FF44E0-6C7C-11cf-8F52-0040333594A3>
 FLOAT red;
 FLOAT green;
 FLOAT blue;
 FLOAT alpha;
}

template ColorRGB {
 <D3E16E81-7835-11cf-8F52-0040333594A3>
 FLOAT red;
 FLOAT green;
 FLOAT blue;
}

template IndexedColor {
 <1630B820-7842-11cf-8F52-0040333594A3>
 DWORD index;
 ColorRGBA indexColor;
}

template Boolean {
 <4885AE61-78E8-11cf-8F52-0040333594A3>
 WORD truefalse;
}

template Boolean2d {
 <4885AE63-78E8-11cf-8F52-0040333594A3>
 Boolean u;
 Boolean v;
}

template MaterialWrap {
 <4885AE60-78E8-11cf-8F52-0040333594A3>
 Boolean u;
 Boolean v;
}

template TextureFilename {
 <A42790E1-7810-11cf-8F52-0040333594A3>
 STRING filename;
}

template Material {
 <3D82AB4D-62DA-11cf-AB39-0020AF71E433>
 ColorRGBA faceColor;
 FLOAT power;
 ColorRGB specularColor;
 ColorRGB emissiveColor;
 [...]
}

template MeshFace {
 <3D82AB5F-62DA-11cf-AB39-0020AF71E433>
 DWORD nFaceVertexIndices;
 array DWORD faceVertexIndices[nFaceVertexIndices];
}

template MeshFaceWraps {
 <4885AE62-78E8-11cf-8F52-0040333594A3>
 DWORD nFaceWrapValues;
 Boolean2d faceWrapValues;
}

template MeshTextureCoords {
 <F6F23F40-7686-11cf-8F52-0040333594A3>
 DWORD nTextureCoords;
 array Coords2d textureCoords[nTextureCoords];
}

template MeshMaterialList {
 <F6F23F42-7686-11cf-8F52-0040333594A3>
 DWORD nMaterials;
 DWORD nFaceIndexes;
 array DWORD faceIndexes[nFaceIndexes];
 [Material]
}

template MeshNormals {
 <F6F23F43-7686-11cf-8F52-0040333594A3>
 DWORD nNormals;
 array Vector normals[nNormals];
 DWORD nFaceNormals;
 array MeshFace faceNormals[nFaceNormals];
}

template MeshVertexColors {
 <1630B821-7842-11cf-8F52-0040333594A3>
 DWORD nVertexColors;
 array IndexedColor vertexColors[nVertexColors];
}

template Mesh {
 <3D82AB44-62DA-11cf-AB39-0020AF71E433>
 DWORD nVertices;
 array Vector vertices[nVertices];
 DWORD nFaces;
 array MeshFace faces[nFaces];
 [...]
}

Header{
1;
0;
1;
}

Mesh {
 474;
 -16.71492;23.98260;-1.05113;,
 16.71492;23.98260;-1.05113;,
 16.71492;-17.85890;-1.05113;,
 -16.71492;-17.85890;-1.05113;,
 16.71492;23.98260;-1.05113;,
 16.71492;23.98260;0.28195;,
 16.71492;-17.85890;0.28195;,
 16.71492;-17.85890;-1.05113;,
 16.71492;23.98260;0.28195;,
 -16.71492;23.98260;0.28195;,
 -16.71492;-17.85890;0.28195;,
 16.71492;-17.85890;0.28195;,
 -16.71492;23.98260;0.28195;,
 -16.71492;23.98260;-1.05113;,
 -16.71492;-17.85890;-1.05113;,
 -16.71492;-17.85890;0.28195;,
 16.71492;23.98260;-1.05113;,
 -16.71492;23.98260;-1.05113;,
 -16.71492;-17.85890;-1.05113;,
 16.71492;-17.85890;-1.05113;,
 -16.71492;17.83326;-1.09275;,
 16.71492;17.83326;-1.09275;,
 16.71492;-15.59661;-1.09275;,
 -16.71492;-15.59661;-1.09275;,
 -7.66659;-1.44682;-1.63447;,
 -5.53672;-1.95251;-2.02323;,
 -7.66659;-1.95251;-2.18431;,
 -7.66659;-1.44682;-1.63447;,
 -4.65451;-1.95251;-1.63447;,
 -7.66659;-1.44682;-1.63447;,
 -5.53672;-1.95251;-1.24566;,
 -7.66659;-1.44682;-1.63447;,
 -7.66661;-1.95251;-1.08460;,
 -7.66659;-1.44682;-1.63447;,
 -9.79648;-1.95251;-1.24566;,
 -7.66659;-1.44682;-1.63447;,
 -10.67868;-1.95251;-1.63447;,
 -7.66659;-1.44682;-1.63447;,
 -9.79648;-1.95251;-2.02323;,
 -7.66659;-1.44682;-1.63447;,
 -7.66659;-1.95251;-2.18431;,
 -3.73111;-3.39260;-2.35287;,
 -7.66659;-3.39260;-2.65042;,
 -2.10097;-3.39260;-1.63447;,
 -3.73111;-3.39260;-0.91605;,
 -7.66661;-3.39260;-0.61847;,
 -11.60208;-3.39260;-0.91605;,
 -13.23222;-3.39260;-1.63447;,
 -11.60208;-3.39260;-2.35287;,
 -7.66659;-3.39260;-2.65042;,
 -2.52464;-5.54784;-2.57313;,
 -7.66659;-5.54784;-2.96188;,
 -0.39477;-5.54784;-1.63447;,
 -2.52464;-5.54784;-0.69579;,
 -7.66661;-5.54784;-0.30700;,
 -12.80856;-5.54784;-0.69579;,
 -14.93843;-5.54784;-1.63447;,
 -12.80856;-5.54784;-2.57313;,
 -7.66659;-5.54784;-2.96188;,
 -2.10097;-8.09010;-2.65042;,
 -7.66659;-8.09010;-3.07127;,
 0.20439;-8.09010;-1.63447;,
 -2.10097;-8.09010;-0.61847;,
 -7.66661;-8.09010;-0.19765;,
 -13.23222;-8.09010;-0.61847;,
 -15.53758;-8.09010;-1.63447;,
 -13.23222;-8.09010;-2.65042;,
 -7.66659;-8.09010;-3.07127;,
 -2.52464;-10.63238;-2.57313;,
 -7.66659;-10.63238;-2.96188;,
 -0.39477;-10.63238;-1.63447;,
 -2.52464;-10.63238;-0.69579;,
 -7.66661;-10.63238;-0.30700;,
 -12.80856;-10.63238;-0.69579;,
 -14.93843;-10.63238;-1.63447;,
 -12.80856;-10.63238;-2.57313;,
 -7.66659;-10.63238;-2.96188;,
 -3.73111;-12.78762;-2.35287;,
 -7.66659;-12.78762;-2.65042;,
 -2.10097;-12.78762;-1.63447;,
 -3.73111;-12.78762;-0.91605;,
 -7.66661;-12.78762;-0.61847;,
 -11.60208;-12.78762;-0.91605;,
 -13.23222;-12.78762;-1.63447;,
 -11.60208;-12.78762;-2.35287;,
 -7.66659;-12.78762;-2.65042;,
 -5.53672;-14.22771;-2.02323;,
 -7.66659;-14.22771;-2.18431;,
 -4.65451;-14.22771;-1.63447;,
 -5.53672;-14.22771;-1.24566;,
 -7.66661;-14.22771;-1.08460;,
 -9.79648;-14.22771;-1.24566;,
 -10.67868;-14.22771;-1.63447;,
 -9.79648;-14.22771;-2.02323;,
 -7.66659;-14.22771;-2.18431;,
 -7.66659;-14.73338;-1.63447;,
 -7.66659;-14.73338;-1.63447;,
 -7.66659;-14.73338;-1.63447;,
 -7.66659;-14.73338;-1.63447;,
 -7.66659;-14.73338;-1.63447;,
 -7.66659;-14.73338;-1.63447;,
 -7.66659;-14.73338;-1.63447;,
 -7.66659;-14.73338;-1.63447;,
 3.32014;-2.94497;-1.63447;,
 5.05611;-3.35919;-1.93742;,
 3.32014;-3.35919;-2.06296;,
 3.32014;-2.94497;-1.63447;,
 5.77518;-3.35919;-1.63447;,
 3.32014;-2.94497;-1.63447;,
 5.05611;-3.35919;-1.33147;,
 3.32014;-2.94497;-1.63447;,
 3.32014;-3.35919;-1.20598;,
 3.32014;-2.94497;-1.63447;,
 1.58416;-3.35919;-1.33147;,
 3.32014;-2.94497;-1.63447;,
 0.86509;-3.35919;-1.63447;,
 3.32014;-2.94497;-1.63447;,
 1.58416;-3.35919;-1.93742;,
 3.32014;-2.94497;-1.63447;,
 3.32014;-3.35919;-2.06296;,
 6.52781;-4.53881;-2.19430;,
 3.32014;-4.53881;-2.42620;,
 7.85646;-4.53881;-1.63447;,
 6.52781;-4.53881;-1.07462;,
 3.32014;-4.53881;-0.84272;,
 0.11246;-4.53881;-1.07462;,
 -1.21619;-4.53881;-1.63447;,
 0.11246;-4.53881;-2.19430;,
 3.32014;-4.53881;-2.42620;,
 7.51117;-6.30426;-2.36595;,
 3.32014;-6.30426;-2.66893;,
 9.24715;-6.30426;-1.63447;,
 7.51117;-6.30426;-0.90300;,
 3.32014;-6.30426;-0.59999;,
 -0.87088;-6.30426;-0.90300;,
 -2.60686;-6.30426;-1.63447;,
 -0.87088;-6.30426;-2.36595;,
 3.32014;-6.30426;-2.66893;,
 7.85646;-8.38672;-2.42620;,
 3.32014;-8.38672;-2.75415;,
 9.73548;-8.38672;-1.63447;,
 7.85646;-8.38672;-0.84272;,
 3.32014;-8.38672;-0.51475;,
 -1.21619;-8.38672;-0.84272;,
 -3.09521;-8.38672;-1.63447;,
 -1.21619;-8.38672;-2.42620;,
 3.32014;-8.38672;-2.75415;,
 7.51117;-10.46920;-2.36595;,
 3.32014;-10.46920;-2.66893;,
 9.24715;-10.46920;-1.63447;,
 7.51117;-10.46920;-0.90300;,
 3.32014;-10.46920;-0.59999;,
 -0.87088;-10.46920;-0.90300;,
 -2.60686;-10.46920;-1.63447;,
 -0.87088;-10.46920;-2.36595;,
 3.32014;-10.46920;-2.66893;,
 6.52781;-12.23463;-2.19430;,
 3.32014;-12.23463;-2.42620;,
 7.85646;-12.23463;-1.63447;,
 6.52781;-12.23463;-1.07462;,
 3.32014;-12.23463;-0.84272;,
 0.11246;-12.23463;-1.07462;,
 -1.21619;-12.23463;-1.63447;,
 0.11246;-12.23463;-2.19430;,
 3.32014;-12.23463;-2.42620;,
 5.05611;-13.41427;-1.93742;,
 3.32014;-13.41427;-2.06296;,
 5.77518;-13.41427;-1.63447;,
 5.05611;-13.41427;-1.33147;,
 3.32014;-13.41427;-1.20598;,
 1.58416;-13.41427;-1.33147;,
 0.86509;-13.41427;-1.63447;,
 1.58416;-13.41427;-1.93742;,
 3.32014;-13.41427;-2.06296;,
 3.32014;-13.82850;-1.63447;,
 3.32014;-13.82850;-1.63447;,
 3.32014;-13.82850;-1.63447;,
 3.32014;-13.82850;-1.63447;,
 3.32014;-13.82850;-1.63447;,
 3.32014;-13.82850;-1.63447;,
 3.32014;-13.82850;-1.63447;,
 3.32014;-13.82850;-1.63447;,
 11.02690;8.58462;-1.63447;,
 12.16872;7.72666;-1.93742;,
 11.02690;7.72666;-2.06296;,
 11.02690;8.58462;-1.63447;,
 12.64167;7.72666;-1.63447;,
 11.02690;8.58462;-1.63447;,
 12.16872;7.72666;-1.33147;,
 11.02690;8.58462;-1.63447;,
 11.02690;7.72666;-1.20598;,
 11.02690;8.58462;-1.63447;,
 9.88510;7.72666;-1.33147;,
 11.02690;8.58462;-1.63447;,
 9.41213;7.72666;-1.63447;,
 11.02690;8.58462;-1.63447;,
 9.88510;7.72666;-1.93742;,
 11.02690;8.58462;-1.63447;,
 11.02690;7.72666;-2.06296;,
 13.13670;5.28326;-2.19430;,
 11.02690;5.28326;-2.42620;,
 14.01061;5.28326;-1.63447;,
 13.13670;5.28326;-1.07462;,
 11.02690;5.28326;-0.84272;,
 8.91711;5.28326;-1.07462;,
 8.04321;5.28326;-1.63447;,
 8.91711;5.28326;-2.19430;,
 11.02690;5.28326;-2.42620;,
 13.78350;1.62650;-2.36595;,
 11.02690;1.62650;-2.66893;,
 14.92530;1.62650;-1.63447;,
 13.78350;1.62650;-0.90300;,
 11.02690;1.62650;-0.59999;,
 8.27033;1.62650;-0.90300;,
 7.12852;1.62650;-1.63447;,
 8.27033;1.62650;-2.36595;,
 11.02690;1.62650;-2.66893;,
 14.01061;-2.68694;-2.42620;,
 11.02690;-2.68694;-2.75415;,
 15.24651;-2.68694;-1.63447;,
 14.01061;-2.68694;-0.84272;,
 11.02690;-2.68694;-0.51475;,
 8.04321;-2.68694;-0.84272;,
 6.80732;-2.68694;-1.63447;,
 8.04321;-2.68694;-2.42620;,
 11.02690;-2.68694;-2.75415;,
 13.78350;-7.00039;-2.36595;,
 11.02690;-7.00039;-2.66893;,
 14.92530;-7.00039;-1.63447;,
 13.78350;-7.00039;-0.90300;,
 11.02690;-7.00039;-0.59999;,
 8.27033;-7.00039;-0.90300;,
 7.12852;-7.00039;-1.63447;,
 8.27033;-7.00039;-2.36595;,
 11.02690;-7.00039;-2.66893;,
 13.13670;-10.65715;-2.19430;,
 11.02690;-10.65715;-2.42620;,
 14.01061;-10.65715;-1.63447;,
 13.13670;-10.65715;-1.07462;,
 11.02690;-10.65715;-0.84272;,
 8.91711;-10.65715;-1.07462;,
 8.04321;-10.65715;-1.63447;,
 8.91711;-10.65715;-2.19430;,
 11.02690;-10.65715;-2.42620;,
 12.16872;-13.10053;-1.93742;,
 11.02690;-13.10053;-2.06296;,
 12.64167;-13.10053;-1.63447;,
 12.16872;-13.10053;-1.33147;,
 11.02690;-13.10053;-1.20598;,
 9.88510;-13.10053;-1.33147;,
 9.41213;-13.10053;-1.63447;,
 9.88510;-13.10053;-1.93742;,
 11.02690;-13.10053;-2.06296;,
 11.02690;-13.95852;-1.63447;,
 11.02690;-13.95852;-1.63447;,
 11.02690;-13.95852;-1.63447;,
 11.02690;-13.95852;-1.63447;,
 11.02690;-13.95852;-1.63447;,
 11.02690;-13.95852;-1.63447;,
 11.02690;-13.95852;-1.63447;,
 11.02690;-13.95852;-1.63447;,
 5.39224;15.12875;-1.24692;,
 8.29539;13.42813;-1.94065;,
 5.39224;13.42813;-2.22799;,
 5.39224;15.12875;-1.24692;,
 9.49793;13.42813;-1.24692;,
 5.39224;15.12875;-1.24692;,
 8.29539;13.42813;-0.55313;,
 5.39224;15.12875;-1.24692;,
 5.39224;13.42813;-0.26575;,
 5.39224;15.12875;-1.24692;,
 2.48910;13.42813;-0.55313;,
 5.39224;15.12875;-1.24692;,
 1.28658;13.42813;-1.24692;,
 5.39224;15.12875;-1.24692;,
 2.48910;13.42813;-1.94065;,
 5.39224;15.12875;-1.24692;,
 5.39224;13.42813;-2.22799;,
 9.49793;9.32246;-2.22799;,
 5.39224;9.32246;-2.63440;,
 11.19855;9.32246;-1.24692;,
 9.49793;9.32246;-0.26575;,
 5.39224;9.32246;0.14062;,
 1.28658;9.32246;-0.26575;,
 -0.41405;9.32246;-1.24692;,
 1.28658;9.32246;-2.22799;,
 5.39224;9.32246;-2.63440;,
 8.29539;5.21677;-1.94065;,
 5.39224;5.21677;-2.22799;,
 9.49793;5.21677;-1.24692;,
 8.29539;5.21677;-0.55313;,
 5.39224;5.21677;-0.26575;,
 2.48910;5.21677;-0.55313;,
 1.28658;5.21677;-1.24692;,
 2.48910;5.21677;-1.94065;,
 5.39224;5.21677;-2.22799;,
 5.39224;3.51616;-1.24692;,
 5.39224;3.51616;-1.24692;,
 5.39224;3.51616;-1.24692;,
 5.39224;3.51616;-1.24692;,
 5.39224;3.51616;-1.24692;,
 5.39224;3.51616;-1.24692;,
 5.39224;3.51616;-1.24692;,
 5.39224;3.51616;-1.24692;,
 -12.25842;8.85413;-1.52085;,
 -4.54386;8.85413;-1.52085;,
 -4.54386;-0.70575;-1.52087;,
 -12.25842;-0.70575;-1.52087;,
 -8.32459;7.20797;-1.91211;,
 -8.32459;18.25559;-1.10638;,
 -2.61843;7.20797;-1.72223;,
 -8.32459;18.25559;-1.10638;,
 -0.25486;7.20797;-1.40240;,
 -8.32459;18.25559;-1.10638;,
 -2.61843;7.20797;-0.36593;,
 -8.32459;18.25559;-1.10638;,
 -8.32459;7.20797;0.06339;,
 -8.32459;18.25559;-1.10638;,
 -14.03076;7.20797;-0.36593;,
 -8.32459;18.25559;-1.10638;,
 -16.39434;7.20797;-1.40240;,
 -8.32459;18.25559;-1.10638;,
 -14.03076;7.20797;-1.72223;,
 -8.32459;18.25559;-1.10638;,
 -8.32459;7.20797;-1.91211;,
 -8.32459;7.20797;-1.40240;,
 -8.32459;7.20797;-1.91211;,
 -2.61843;7.20797;-1.72223;,
 -0.25486;7.20797;-1.40240;,
 -2.61843;7.20797;-0.36593;,
 -8.32459;7.20797;0.06339;,
 -14.03076;7.20797;-0.36593;,
 -16.39434;7.20797;-1.40240;,
 -14.03076;7.20797;-1.72223;,
 -16.71402;17.83326;0.42790;,
 -16.71402;-15.59661;0.42790;,
 16.71456;-15.59661;0.71963;,
 16.71455;17.83326;0.71962;,
 12.97960;9.61544;1.21998;,
 14.18334;9.11684;1.21998;,
 12.97960;9.11684;0.97961;,
 12.97960;9.61544;1.21998;,
 12.97960;9.11684;1.46036;,
 12.97960;9.61544;1.21998;,
 11.77586;9.11684;1.21998;,
 12.97960;9.61544;1.21998;,
 12.97960;9.11684;0.97961;,
 14.68195;7.91310;1.21998;,
 12.97960;7.91310;0.88004;,
 12.97960;7.91310;1.55993;,
 11.27725;7.91310;1.21998;,
 12.97960;7.91310;0.88004;,
 14.18334;6.70935;1.21998;,
 12.97960;6.70935;0.97961;,
 12.97960;6.70935;1.46036;,
 11.77586;6.70935;1.21998;,
 12.97960;6.70935;0.97961;,
 12.97960;6.21075;1.21998;,
 12.97960;6.21075;1.21998;,
 12.97960;6.21075;1.21998;,
 12.97960;6.21075;1.21998;,
 -12.75333;10.49272;1.09191;,
 -11.54959;9.99411;1.09191;,
 -12.75333;9.99411;0.85153;,
 -12.75333;10.49272;1.09191;,
 -12.75333;9.99411;1.33229;,
 -12.75333;10.49272;1.09191;,
 -13.95707;9.99411;1.09191;,
 -12.75333;10.49272;1.09191;,
 -12.75333;9.99411;0.85153;,
 -11.05098;8.79037;1.09191;,
 -12.75333;8.79037;0.75196;,
 -12.75333;8.79037;1.43186;,
 -14.45567;8.79037;1.09191;,
 -12.75333;8.79037;0.75196;,
 -11.54959;7.58663;1.09191;,
 -12.75333;7.58663;0.85153;,
 -12.75333;7.58663;1.33229;,
 -13.95707;7.58663;1.09191;,
 -12.75333;7.58663;0.85153;,
 -12.75333;7.08802;1.09191;,
 -12.75333;7.08802;1.09191;,
 -12.75333;7.08802;1.09191;,
 -12.75333;7.08802;1.09191;,
 0.00000;-9.69187;0.09126;,
 0.00000;-4.69187;0.31716;,
 15.61248;-4.69187;0.99486;,
 16.38476;-9.69187;0.99486;,
 -0.00000;-4.69187;1.67257;,
 -0.00000;-9.69187;1.89846;,
 -15.61248;-4.69187;0.99486;,
 -16.38476;-9.69187;0.99486;,
 0.00000;-4.69187;0.31716;,
 0.00000;-9.69187;0.09126;,
 0.00000;-3.23199;0.54307;,
 3.17584;-3.23199;0.99486;,
 -0.00000;-3.23199;1.44665;,
 -3.17584;-3.23199;0.99486;,
 0.00000;-3.23199;0.54307;,
 0.00000;0.15185;0.76892;,
 1.75448;0.15185;0.99486;,
 0.00000;0.15185;1.22080;,
 -1.75448;0.15185;0.99486;,
 0.00000;0.15185;0.76892;,
 0.00000;10.30813;0.99486;,
 0.00000;10.30813;0.99486;,
 0.00000;10.30813;0.99486;,
 0.00000;10.30813;0.99486;,
 0.00000;-9.69187;0.99486;,
 0.00000;-9.69187;0.09126;,
 16.38476;-9.69187;0.99486;,
 -0.00000;-9.69187;1.89846;,
 -16.38476;-9.69187;0.99486;,
 12.88336;-4.57266;0.46299;,
 12.88336;4.16743;0.76612;,
 14.12065;4.16743;1.06926;,
 15.35795;-4.57266;1.06926;,
 12.88336;4.16743;1.37240;,
 12.88336;-4.57266;1.67554;,
 11.64606;4.16743;1.06926;,
 10.40877;-4.57266;1.06926;,
 12.88336;4.16743;0.76612;,
 12.88336;-4.57266;0.46299;,
 12.88336;7.60338;1.06926;,
 12.88336;7.60338;1.06926;,
 12.88336;7.60338;1.06926;,
 12.88336;7.60338;1.06926;,
 12.88336;-4.57266;1.06926;,
 12.88336;-4.57266;0.46299;,
 15.35795;-4.57266;1.06926;,
 12.88336;-4.57266;1.67554;,
 10.40877;-4.57266;1.06926;,
 -12.91405;-4.57266;0.46299;,
 -12.91405;4.16743;0.76612;,
 -11.67676;4.16743;1.06926;,
 -10.43946;-4.57266;1.06926;,
 -12.91405;4.16743;1.37240;,
 -12.91405;-4.57266;1.67554;,
 -14.15134;4.16743;1.06926;,
 -15.38864;-4.57266;1.06926;,
 -12.91405;4.16743;0.76612;,
 -12.91405;-4.57266;0.46299;,
 -12.91405;8.75270;1.06926;,
 -12.91405;8.75270;1.06926;,
 -12.91405;8.75270;1.06926;,
 -12.91405;8.75270;1.06926;,
 -12.91405;-4.57266;1.06926;,
 -12.91405;-4.57266;0.46299;,
 -10.43946;-4.57266;1.06926;,
 -12.91405;-4.57266;1.67554;,
 -15.38864;-4.57266;1.06926;,
 0.00000;10.98595;0.82482;,
 1.20374;10.48734;0.82482;,
 0.00000;10.48734;0.58445;,
 0.00000;10.98595;0.82482;,
 0.00000;10.48734;1.06520;,
 0.00000;10.98595;0.82482;,
 -1.20374;10.48734;0.82482;,
 0.00000;10.98595;0.82482;,
 0.00000;10.48734;0.58445;,
 1.70235;9.28360;0.82482;,
 0.00000;9.28360;0.48488;,
 0.00000;9.28360;1.16477;,
 -1.70235;9.28360;0.82482;,
 0.00000;9.28360;0.48488;,
 1.20374;8.07986;0.82482;,
 0.00000;8.07986;0.58445;,
 0.00000;8.07986;1.06520;,
 -1.20374;8.07986;0.82482;,
 0.00000;8.07986;0.58445;,
 0.00000;7.58125;0.82482;,
 0.00000;7.58125;0.82482;,
 0.00000;7.58125;0.82482;,
 0.00000;7.58125;0.82482;;
 
 341;
 4;0,1,2,3;,
 4;4,5,6,7;,
 4;8,9,10,11;,
 4;12,13,14,15;,
 4;12,5,16,17;,
 4;18,19,6,15;,
 4;20,21,22,23;,
 3;24,25,26;,
 3;27,28,25;,
 3;29,30,28;,
 3;31,32,30;,
 3;33,34,32;,
 3;35,36,34;,
 3;37,38,36;,
 3;39,40,38;,
 4;26,25,41,42;,
 4;25,28,43,41;,
 4;28,30,44,43;,
 4;30,32,45,44;,
 4;32,34,46,45;,
 4;34,36,47,46;,
 4;36,38,48,47;,
 4;38,40,49,48;,
 4;42,41,50,51;,
 4;41,43,52,50;,
 4;43,44,53,52;,
 4;44,45,54,53;,
 4;45,46,55,54;,
 4;46,47,56,55;,
 4;47,48,57,56;,
 4;48,49,58,57;,
 4;51,50,59,60;,
 4;50,52,61,59;,
 4;52,53,62,61;,
 4;53,54,63,62;,
 4;54,55,64,63;,
 4;55,56,65,64;,
 4;56,57,66,65;,
 4;57,58,67,66;,
 4;60,59,68,69;,
 4;59,61,70,68;,
 4;61,62,71,70;,
 4;62,63,72,71;,
 4;63,64,73,72;,
 4;64,65,74,73;,
 4;65,66,75,74;,
 4;66,67,76,75;,
 4;69,68,77,78;,
 4;68,70,79,77;,
 4;70,71,80,79;,
 4;71,72,81,80;,
 4;72,73,82,81;,
 4;73,74,83,82;,
 4;74,75,84,83;,
 4;75,76,85,84;,
 4;78,77,86,87;,
 4;77,79,88,86;,
 4;79,80,89,88;,
 4;80,81,90,89;,
 4;81,82,91,90;,
 4;82,83,92,91;,
 4;83,84,93,92;,
 4;84,85,94,93;,
 3;87,86,95;,
 3;86,88,96;,
 3;88,89,97;,
 3;89,90,98;,
 3;90,91,99;,
 3;91,92,100;,
 3;92,93,101;,
 3;93,94,102;,
 3;103,104,105;,
 3;106,107,104;,
 3;108,109,107;,
 3;110,111,109;,
 3;112,113,111;,
 3;114,115,113;,
 3;116,117,115;,
 3;118,119,117;,
 4;105,104,120,121;,
 4;104,107,122,120;,
 4;107,109,123,122;,
 4;109,111,124,123;,
 4;111,113,125,124;,
 4;113,115,126,125;,
 4;115,117,127,126;,
 4;117,119,128,127;,
 4;121,120,129,130;,
 4;120,122,131,129;,
 4;122,123,132,131;,
 4;123,124,133,132;,
 4;124,125,134,133;,
 4;125,126,135,134;,
 4;126,127,136,135;,
 4;127,128,137,136;,
 4;130,129,138,139;,
 4;129,131,140,138;,
 4;131,132,141,140;,
 4;132,133,142,141;,
 4;133,134,143,142;,
 4;134,135,144,143;,
 4;135,136,145,144;,
 4;136,137,146,145;,
 4;139,138,147,148;,
 4;138,140,149,147;,
 4;140,141,150,149;,
 4;141,142,151,150;,
 4;142,143,152,151;,
 4;143,144,153,152;,
 4;144,145,154,153;,
 4;145,146,155,154;,
 4;148,147,156,157;,
 4;147,149,158,156;,
 4;149,150,159,158;,
 4;150,151,160,159;,
 4;151,152,161,160;,
 4;152,153,162,161;,
 4;153,154,163,162;,
 4;154,155,164,163;,
 4;157,156,165,166;,
 4;156,158,167,165;,
 4;158,159,168,167;,
 4;159,160,169,168;,
 4;160,161,170,169;,
 4;161,162,171,170;,
 4;162,163,172,171;,
 4;163,164,173,172;,
 3;166,165,174;,
 3;165,167,175;,
 3;167,168,176;,
 3;168,169,177;,
 3;169,170,178;,
 3;170,171,179;,
 3;171,172,180;,
 3;172,173,181;,
 3;182,183,184;,
 3;185,186,183;,
 3;187,188,186;,
 3;189,190,188;,
 3;191,192,190;,
 3;193,194,192;,
 3;195,196,194;,
 3;197,198,196;,
 4;184,183,199,200;,
 4;183,186,201,199;,
 4;186,188,202,201;,
 4;188,190,203,202;,
 4;190,192,204,203;,
 4;192,194,205,204;,
 4;194,196,206,205;,
 4;196,198,207,206;,
 4;200,199,208,209;,
 4;199,201,210,208;,
 4;201,202,211,210;,
 4;202,203,212,211;,
 4;203,204,213,212;,
 4;204,205,214,213;,
 4;205,206,215,214;,
 4;206,207,216,215;,
 4;209,208,217,218;,
 4;208,210,219,217;,
 4;210,211,220,219;,
 4;211,212,221,220;,
 4;212,213,222,221;,
 4;213,214,223,222;,
 4;214,215,224,223;,
 4;215,216,225,224;,
 4;218,217,226,227;,
 4;217,219,228,226;,
 4;219,220,229,228;,
 4;220,221,230,229;,
 4;221,222,231,230;,
 4;222,223,232,231;,
 4;223,224,233,232;,
 4;224,225,234,233;,
 4;227,226,235,236;,
 4;226,228,237,235;,
 4;228,229,238,237;,
 4;229,230,239,238;,
 4;230,231,240,239;,
 4;231,232,241,240;,
 4;232,233,242,241;,
 4;233,234,243,242;,
 4;236,235,244,245;,
 4;235,237,246,244;,
 4;237,238,247,246;,
 4;238,239,248,247;,
 4;239,240,249,248;,
 4;240,241,250,249;,
 4;241,242,251,250;,
 4;242,243,252,251;,
 3;245,244,253;,
 3;244,246,254;,
 3;246,247,255;,
 3;247,248,256;,
 3;248,249,257;,
 3;249,250,258;,
 3;250,251,259;,
 3;251,252,260;,
 3;261,262,263;,
 3;264,265,262;,
 3;266,267,265;,
 3;268,269,267;,
 3;270,271,269;,
 3;272,273,271;,
 3;274,275,273;,
 3;276,277,275;,
 4;263,262,278,279;,
 4;262,265,280,278;,
 4;265,267,281,280;,
 4;267,269,282,281;,
 4;269,271,283,282;,
 4;271,273,284,283;,
 4;273,275,285,284;,
 4;275,277,286,285;,
 4;279,278,287,288;,
 4;278,280,289,287;,
 4;280,281,290,289;,
 4;281,282,291,290;,
 4;282,283,292,291;,
 4;283,284,293,292;,
 4;284,285,294,293;,
 4;285,286,295,294;,
 3;288,287,296;,
 3;287,289,297;,
 3;289,290,298;,
 3;290,291,299;,
 3;291,292,300;,
 3;292,293,301;,
 3;293,294,302;,
 3;294,295,303;,
 4;304,305,306,307;,
 3;308,309,310;,
 3;310,311,312;,
 3;312,313,314;,
 3;314,315,316;,
 3;316,317,318;,
 3;318,319,320;,
 3;320,321,322;,
 3;322,323,324;,
 3;325,326,327;,
 3;325,327,328;,
 3;325,328,329;,
 3;325,329,330;,
 3;325,330,331;,
 3;325,331,332;,
 3;325,332,333;,
 3;325,333,326;,
 4;334,335,336,337;,
 3;338,339,340;,
 3;341,342,339;,
 3;343,344,342;,
 3;345,346,344;,
 4;340,339,347,348;,
 4;339,342,349,347;,
 4;342,344,350,349;,
 4;344,346,351,350;,
 4;348,347,352,353;,
 4;347,349,354,352;,
 4;349,350,355,354;,
 4;350,351,356,355;,
 3;353,352,357;,
 3;352,354,358;,
 3;354,355,359;,
 3;355,356,360;,
 3;361,362,363;,
 3;364,365,362;,
 3;366,367,365;,
 3;368,369,367;,
 4;363,362,370,371;,
 4;362,365,372,370;,
 4;365,367,373,372;,
 4;367,369,374,373;,
 4;371,370,375,376;,
 4;370,372,377,375;,
 4;372,373,378,377;,
 4;373,374,379,378;,
 3;376,375,380;,
 3;375,377,381;,
 3;377,378,382;,
 3;378,379,383;,
 4;384,385,386,387;,
 4;387,386,388,389;,
 4;389,388,390,391;,
 4;391,390,392,393;,
 4;385,394,395,386;,
 4;386,395,396,388;,
 4;388,396,397,390;,
 4;390,397,398,392;,
 4;394,399,400,395;,
 4;395,400,401,396;,
 4;396,401,402,397;,
 4;397,402,403,398;,
 3;399,404,400;,
 3;400,405,401;,
 3;401,406,402;,
 3;402,407,403;,
 3;408,409,410;,
 3;408,410,411;,
 3;408,411,412;,
 3;408,412,409;,
 4;413,414,415,416;,
 4;416,415,417,418;,
 4;418,417,419,420;,
 4;420,419,421,422;,
 3;414,423,415;,
 3;415,424,417;,
 3;417,425,419;,
 3;419,426,421;,
 3;427,428,429;,
 3;427,429,430;,
 3;427,430,431;,
 3;427,431,428;,
 4;432,433,434,435;,
 4;435,434,436,437;,
 4;437,436,438,439;,
 4;439,438,440,441;,
 3;433,442,434;,
 3;434,443,436;,
 3;436,444,438;,
 3;438,445,440;,
 3;446,447,448;,
 3;446,448,449;,
 3;446,449,450;,
 3;446,450,447;,
 3;451,452,453;,
 3;454,455,452;,
 3;456,457,455;,
 3;458,459,457;,
 4;453,452,460,461;,
 4;452,455,462,460;,
 4;455,457,463,462;,
 4;457,459,464,463;,
 4;461,460,465,466;,
 4;460,462,467,465;,
 4;462,463,468,467;,
 4;463,464,469,468;,
 3;466,465,470;,
 3;465,467,471;,
 3;467,468,472;,
 3;468,469,473;;
 
 MeshMaterialList {
  6;
  341;
  2,
  2,
  2,
  2,
  2,
  2,
  3,
  4,
  4,
  4,
  4,
  4,
  4,
  4,
  4,
  4,
  4,
  4,
  4,
  4,
  4,
  4,
  4,
  4,
  4,
  4,
  4,
  4,
  4,
  4,
  4,
  4,
  4,
  4,
  4,
  4,
  4,
  4,
  4,
  4,
  4,
  4,
  4,
  4,
  4,
  4,
  4,
  4,
  4,
  4,
  4,
  4,
  4,
  4,
  4,
  4,
  4,
  4,
  4,
  4,
  4,
  4,
  4,
  4,
  4,
  4,
  4,
  4,
  4,
  4,
  4,
  4,
  4,
  4,
  4,
  4,
  4,
  4,
  4,
  4,
  4,
  4,
  4,
  4,
  4,
  4,
  4,
  4,
  4,
  4,
  4,
  4,
  4,
  4,
  4,
  4,
  4,
  4,
  4,
  4,
  4,
  4,
  4,
  4,
  4,
  4,
  4,
  4,
  4,
  4,
  4,
  4,
  4,
  4,
  4,
  4,
  4,
  4,
  4,
  4,
  4,
  4,
  4,
  4,
  4,
  4,
  4,
  4,
  4,
  4,
  4,
  4,
  4,
  4,
  4,
  4,
  4,
  4,
  4,
  4,
  4,
  4,
  4,
  4,
  4,
  4,
  4,
  4,
  4,
  4,
  4,
  4,
  4,
  4,
  4,
  4,
  4,
  4,
  4,
  4,
  4,
  4,
  4,
  4,
  4,
  4,
  4,
  4,
  4,
  4,
  4,
  4,
  4,
  4,
  4,
  4,
  4,
  4,
  4,
  4,
  4,
  4,
  4,
  4,
  4,
  4,
  4,
  4,
  4,
  4,
  4,
  4,
  4,
  4,
  4,
  4,
  4,
  4,
  4,
  4,
  4,
  4,
  4,
  4,
  4,
  4,
  4,
  4,
  4,
  4,
  4,
  4,
  4,
  4,
  4,
  4,
  4,
  4,
  4,
  4,
  4,
  4,
  4,
  4,
  4,
  4,
  4,
  4,
  4,
  4,
  4,
  1,
  1,
  1,
  1,
  1,
  1,
  1,
  1,
  1,
  1,
  1,
  1,
  1,
  1,
  1,
  1,
  1,
  3,
  5,
  5,
  5,
  5,
  5,
  5,
  5,
  5,
  5,
  5,
  5,
  5,
  5,
  5,
  5,
  5,
  5,
  5,
  5,
  5,
  5,
  5,
  5,
  5,
  5,
  5,
  5,
  5,
  5,
  5,
  5,
  5,
  5,
  5,
  5,
  5,
  5,
  5,
  5,
  5,
  5,
  5,
  5,
  5,
  5,
  5,
  5,
  5,
  5,
  5,
  5,
  5,
  5,
  5,
  5,
  5,
  5,
  5,
  5,
  5,
  5,
  5,
  5,
  5,
  5,
  5,
  5,
  5,
  5,
  5,
  5,
  5,
  5,
  5,
  5,
  5,
  5,
  5,
  5,
  5,
  5,
  5,
  5,
  5,
  5,
  5,
  5,
  5,
  5,
  5,
  5,
  5;;
  Material {
   0.674400;0.652800;0.661600;1.000000;;
   5.000000;
   0.000000;0.000000;0.000000;;
   0.000000;0.000000;0.000000;;
  }
  Material {
   0.800000;0.000000;0.031200;1.000000;;
   5.000000;
   0.000000;0.000000;0.000000;;
   0.000000;0.000000;0.000000;;
  }
  Material {
   0.800000;0.473600;0.116000;1.000000;;
   5.000000;
   0.000000;0.000000;0.000000;;
   0.000000;0.000000;0.000000;;
  }
  Material {
   0.800000;0.800000;0.800000;1.000000;;
   5.000000;
   0.000000;0.000000;0.000000;;
   0.000000;0.000000;0.000000;;
  }
  Material {
   0.800000;0.652800;0.486400;1.000000;;
   5.000000;
   0.000000;0.000000;0.000000;;
   0.000000;0.000000;0.000000;;
  }
  Material {
   0.696800;0.627200;0.000000;1.000000;;
   10.000000;
   0.510000;0.510000;0.510000;;
   0.000000;0.000000;0.000000;;
  }
 }
 MeshNormals {
  397;
  0.000000;0.000000;-1.000000;,
  1.000000;0.000000;0.000000;,
  0.000000;0.000000;1.000000;,
  -1.000000;0.000000;0.000000;,
  0.000000;1.000000;0.000000;,
  0.000000;-1.000000;-0.000000;,
  0.000000;0.000000;-1.000000;,
  0.000000;1.000000;-0.000018;,
  0.000000;0.539875;-0.841745;,
  0.160457;0.674525;-0.720603;,
  0.243654;0.927263;-0.284283;,
  0.160461;0.674541;0.720587;,
  -0.000000;0.539887;0.841737;,
  -0.160461;0.674543;0.720586;,
  -0.243662;0.927272;0.284246;,
  -0.160457;0.674526;-0.720603;,
  0.000000;0.226313;-0.974055;,
  0.220674;0.343277;-0.912943;,
  0.360470;0.448335;-0.817959;,
  0.220682;0.343284;0.912938;,
  -0.000000;0.226317;0.974054;,
  -0.220683;0.343285;0.912937;,
  -0.360484;0.448346;0.817947;,
  -0.220674;0.343277;-0.912942;,
  0.000000;0.093122;-0.995655;,
  0.238420;0.148883;-0.959682;,
  0.395087;0.200523;-0.896491;,
  0.238427;0.148887;0.959680;,
  -0.000000;0.093124;0.995655;,
  -0.238427;0.148887;0.959680;,
  -0.395096;0.200530;0.896486;,
  -0.238420;0.148883;-0.959682;,
  0.000000;0.000000;-1.000000;,
  0.242531;0.000000;-0.970144;,
  0.403276;0.000000;-0.915078;,
  0.242537;0.000000;0.970142;,
  -0.000000;0.000000;1.000000;,
  -0.242538;0.000000;0.970142;,
  -0.403288;0.000000;0.915073;,
  -0.242531;0.000000;-0.970144;,
  0.000000;-0.093123;-0.995655;,
  0.238420;-0.148883;-0.959682;,
  0.395087;-0.200523;-0.896491;,
  0.238427;-0.148887;0.959680;,
  -0.000000;-0.093123;0.995655;,
  -0.238427;-0.148887;0.959680;,
  -0.395096;-0.200530;0.896486;,
  -0.238420;-0.148883;-0.959682;,
  0.000000;-0.226316;-0.974054;,
  0.220674;-0.343276;-0.912943;,
  0.360471;-0.448333;-0.817960;,
  0.220682;-0.343285;0.912938;,
  -0.000000;-0.226317;0.974054;,
  -0.220683;-0.343286;0.912937;,
  -0.360483;-0.448347;0.817947;,
  -0.220674;-0.343279;-0.912942;,
  0.000000;-0.539885;-0.841739;,
  0.160456;-0.674530;-0.720599;,
  0.243650;-0.927264;-0.284283;,
  0.160459;-0.674548;0.720581;,
  -0.000000;-0.539896;0.841732;,
  -0.160460;-0.674550;0.720580;,
  -0.243657;-0.927274;0.284245;,
  -0.160456;-0.674534;-0.720596;,
  0.000000;-1.000000;-0.000018;,
  0.328043;0.581675;0.744340;,
  0.360483;0.448345;0.817948;,
  -0.328027;0.581662;-0.744357;,
  -0.360471;0.448336;-0.817958;,
  0.395096;0.200530;0.896486;,
  -0.395087;0.200523;-0.896491;,
  0.403288;0.000001;0.915073;,
  -0.403276;0.000001;-0.915078;,
  0.395096;-0.200530;0.896486;,
  -0.395087;-0.200523;-0.896491;,
  0.360483;-0.448346;0.817948;,
  -0.360471;-0.448334;-0.817959;,
  0.328043;-0.581676;0.744339;,
  -0.328028;-0.581659;-0.744359;,
  0.000000;1.000000;-0.000016;,
  0.000000;0.523262;-0.852172;,
  0.157272;0.660108;-0.734522;,
  0.242733;0.924779;-0.293028;,
  0.157271;0.660124;0.734508;,
  0.000000;0.523260;0.852173;,
  -0.157271;0.660124;0.734508;,
  -0.242742;0.924792;0.292979;,
  -0.157272;0.660108;-0.734522;,
  0.000000;0.215975;-0.976399;,
  0.213495;0.330281;-0.919421;,
  0.349844;0.433828;-0.830302;,
  0.213499;0.330284;0.919419;,
  0.000000;0.215969;0.976400;,
  -0.213499;0.330283;0.919419;,
  -0.349858;0.433837;0.830292;,
  -0.213495;0.330279;-0.919421;,
  0.000000;0.088651;-0.996063;,
  0.229407;0.142459;-0.962849;,
  0.381026;0.192608;-0.904280;,
  0.229410;0.142460;0.962848;,
  0.000000;0.088653;0.996062;,
  -0.229410;0.142460;0.962848;,
  -0.381028;0.192609;0.904278;,
  -0.229407;0.142458;-0.962849;,
  -0.000000;0.000000;-1.000000;,
  0.233041;0.000000;-0.972467;,
  0.388296;0.000000;-0.921534;,
  0.233045;0.000000;0.972466;,
  0.000000;0.000000;1.000000;,
  -0.233045;0.000000;0.972466;,
  -0.388298;0.000000;0.921534;,
  -0.233041;0.000000;-0.972467;,
  0.000000;-0.088652;-0.996063;,
  0.229407;-0.142459;-0.962849;,
  0.381026;-0.192609;-0.904279;,
  0.229410;-0.142461;0.962848;,
  0.000000;-0.088655;0.996062;,
  -0.229410;-0.142461;0.962848;,
  -0.381028;-0.192610;0.904278;,
  -0.229407;-0.142459;-0.962849;,
  0.000000;-0.215973;-0.976399;,
  0.213495;-0.330280;-0.919421;,
  0.349844;-0.433829;-0.830302;,
  0.213500;-0.330281;0.919420;,
  0.000000;-0.215967;0.976401;,
  -0.213500;-0.330281;0.919420;,
  -0.349859;-0.433834;0.830293;,
  -0.213495;-0.330279;-0.919421;,
  0.000000;-0.523254;-0.852176;,
  0.157273;-0.660103;-0.734527;,
  0.242736;-0.924778;-0.293029;,
  0.157273;-0.660117;0.734514;,
  0.000000;-0.523252;0.852178;,
  -0.157272;-0.660118;0.734514;,
  -0.242746;-0.924790;0.292982;,
  -0.157273;-0.660103;-0.734527;,
  0.000000;-1.000000;-0.000016;,
  0.320338;0.565190;0.760226;,
  0.349858;0.433838;0.830291;,
  -0.320317;0.565167;-0.760252;,
  -0.349845;0.433826;-0.830303;,
  0.381029;0.192609;0.904278;,
  -0.381026;0.192607;-0.904280;,
  0.388298;0.000000;0.921534;,
  -0.388296;0.000001;-0.921534;,
  0.381028;-0.192610;0.904278;,
  -0.381026;-0.192608;-0.904279;,
  0.349858;-0.433836;0.830292;,
  -0.349844;-0.433827;-0.830303;,
  0.320340;-0.565183;0.760230;,
  -0.320317;-0.565166;-0.760253;,
  0.000001;0.615587;-0.788069;,
  -0.000001;0.300748;-0.953704;,
  0.289644;0.419020;-0.860540;,
  0.461751;0.516884;-0.720845;,
  0.289647;0.419036;0.860531;,
  -0.000001;0.300744;0.953705;,
  -0.289645;0.419032;0.860534;,
  -0.461777;0.516905;0.720813;,
  -0.289641;0.419014;-0.860544;,
  -0.000001;0.106737;-0.994287;,
  0.326486;0.163509;-0.930952;,
  0.527130;0.212179;-0.822869;,
  0.326494;0.163507;0.930950;,
  -0.000001;0.106730;0.994288;,
  -0.326493;0.163507;0.930950;,
  -0.527148;0.212180;0.822857;,
  -0.326485;0.163507;-0.930953;,
  -0.000000;0.043005;-0.999075;,
  0.331972;0.066642;-0.940932;,
  0.537379;0.087024;-0.838839;,
  0.331977;0.066643;0.940930;,
  -0.000000;0.043006;0.999075;,
  -0.331978;0.066643;0.940930;,
  -0.537382;0.087024;0.838837;,
  -0.331973;0.066642;-0.940932;,
  -0.000000;-0.000000;-1.000000;,
  0.333056;0.000000;-0.942907;,
  0.539426;0.000000;-0.842033;,
  0.333061;0.000000;0.942905;,
  -0.000000;0.000000;1.000000;,
  -0.333061;0.000000;0.942905;,
  -0.539428;0.000000;0.842031;,
  -0.333056;0.000000;-0.942907;,
  -0.000000;-0.043005;-0.999075;,
  0.331972;-0.066642;-0.940932;,
  0.537379;-0.087024;-0.838839;,
  0.331977;-0.066643;0.940930;,
  -0.000000;-0.043006;0.999075;,
  -0.331978;-0.066643;0.940930;,
  -0.537382;-0.087024;0.838837;,
  -0.331973;-0.066642;-0.940932;,
  -0.000001;-0.106736;-0.994287;,
  0.326486;-0.163507;-0.930952;,
  0.527130;-0.212179;-0.822869;,
  0.326494;-0.163509;0.930949;,
  -0.000001;-0.106732;0.994288;,
  -0.326493;-0.163508;0.930950;,
  -0.527148;-0.212181;0.822857;,
  -0.326485;-0.163509;-0.930952;,
  -0.000001;-0.300740;-0.953706;,
  0.289646;-0.419011;-0.860544;,
  0.461753;-0.516876;-0.720849;,
  0.289649;-0.419030;0.860533;,
  -0.000001;-0.300738;0.953707;,
  -0.289646;-0.419026;0.860536;,
  -0.461779;-0.516899;0.720816;,
  -0.289643;-0.419009;-0.860546;,
  0.000001;-0.615574;-0.788079;,
  0.000001;0.615616;0.788046;,
  0.461783;0.516913;0.720803;,
  -0.461745;0.516875;-0.720855;,
  0.527151;0.212182;0.822856;,
  -0.527128;0.212175;-0.822872;,
  0.537382;0.087024;0.838837;,
  -0.537379;0.087024;-0.838839;,
  0.539428;0.000000;0.842031;,
  -0.539426;0.000000;-0.842033;,
  0.537382;-0.087024;0.838837;,
  -0.537379;-0.087024;-0.838839;,
  0.527150;-0.212184;0.822855;,
  -0.527128;-0.212178;-0.822871;,
  0.461785;-0.516907;0.720806;,
  -0.461746;-0.516870;-0.720857;,
  0.000001;-0.615603;0.788056;,
  -0.000001;0.667081;-0.744985;,
  -0.000000;0.306090;-0.952003;,
  0.264708;0.418677;-0.868700;,
  0.428241;0.515323;-0.742329;,
  0.264724;0.418699;0.868684;,
  -0.000000;0.306111;0.951996;,
  -0.264726;0.418700;0.868683;,
  -0.428267;0.515344;0.742299;,
  -0.264710;0.418678;-0.868699;,
  -0.000000;-0.000000;-1.000000;,
  0.304312;-0.000000;-0.952573;,
  0.499700;0.000001;-0.866199;,
  0.304332;0.000000;0.952566;,
  -0.000000;-0.000000;1.000000;,
  -0.304333;0.000000;0.952566;,
  -0.499737;0.000000;0.866177;,
  -0.304313;0.000001;-0.952572;,
  -0.000000;-0.306091;-0.952002;,
  0.264708;-0.418678;-0.868699;,
  0.428240;-0.515324;-0.742329;,
  0.264724;-0.418700;0.868684;,
  -0.000000;-0.306112;0.951995;,
  -0.264726;-0.418701;0.868683;,
  -0.428266;-0.515345;0.742299;,
  -0.264710;-0.418679;-0.868698;,
  -0.000001;-0.667083;-0.744983;,
  -0.000001;0.667113;0.744957;,
  0.428264;0.515343;0.742301;,
  -0.428243;0.515324;-0.742327;,
  0.499735;0.000001;0.866178;,
  -0.499702;0.000001;-0.866197;,
  0.428264;-0.515344;0.742301;,
  -0.428243;-0.515325;-0.742326;,
  -0.000001;-0.667115;0.744955;,
  0.000000;0.000002;-1.000000;,
  0.000000;0.072739;-0.997351;,
  0.083251;0.098280;-0.991670;,
  0.133067;0.123548;-0.983376;,
  0.235181;0.185419;0.954101;,
  0.000000;0.105296;0.994441;,
  -0.235180;0.185419;0.954102;,
  -0.387833;0.259595;0.884419;,
  -0.083251;0.098280;-0.991670;,
  0.000000;0.098623;-0.995125;,
  0.000000;-1.000000;-0.000000;,
  0.387834;0.259595;0.884418;,
  0.000000;0.190770;0.981635;,
  -0.133066;0.123548;-0.983376;,
  -0.008726;0.000000;0.999962;,
  0.000000;0.434260;-0.900787;,
  0.000000;0.263064;-0.964778;,
  0.189175;0.258314;-0.947358;,
  0.000000;0.263073;0.964776;,
  -0.189181;0.258322;0.947354;,
  0.000000;0.000000;-1.000000;,
  0.195821;0.000000;-0.980640;,
  0.000000;0.000000;1.000000;,
  -0.195828;0.000000;0.980638;,
  0.000000;-0.263064;-0.964778;,
  0.189175;-0.258314;-0.947358;,
  0.000000;-0.263072;0.964776;,
  -0.189181;-0.258322;0.947354;,
  0.000000;-0.434260;-0.900787;,
  0.000000;0.434275;0.900780;,
  0.189181;0.258322;0.947354;,
  -0.189175;0.258314;-0.947358;,
  0.195828;0.000000;0.980638;,
  -0.195821;0.000000;-0.980640;,
  0.189181;-0.258322;0.947354;,
  -0.189175;-0.258314;-0.947358;,
  0.000000;-0.434275;0.900780;,
  -0.000000;0.434268;-0.900784;,
  -0.000000;0.263069;-0.964777;,
  0.189182;0.258318;-0.947355;,
  -0.000000;0.263069;0.964777;,
  -0.189182;0.258318;0.947355;,
  -0.000000;0.000000;-1.000000;,
  0.195828;0.000000;-0.980638;,
  -0.000000;0.000000;1.000000;,
  -0.195829;0.000000;0.980638;,
  -0.000000;-0.263069;-0.964777;,
  0.189182;-0.258318;-0.947355;,
  -0.000000;-0.263069;0.964777;,
  -0.189182;-0.258318;0.947355;,
  -0.000000;-0.434268;-0.900784;,
  -0.000000;0.434268;0.900784;,
  0.189182;0.258318;0.947355;,
  -0.189182;0.258318;-0.947355;,
  0.195828;0.000000;0.980638;,
  -0.195829;0.000000;-0.980638;,
  0.189182;-0.258318;0.947355;,
  -0.189182;-0.258318;-0.947355;,
  -0.000000;-0.434268;0.900784;,
  0.000000;0.026836;-0.999640;,
  0.049202;0.026803;-0.998429;,
  0.000000;0.026835;0.999640;,
  -0.049202;0.026802;0.998429;,
  0.000000;0.139948;-0.990159;,
  0.070323;0.139602;-0.987707;,
  0.000000;0.139951;0.990158;,
  -0.070323;0.139604;0.987707;,
  0.000000;0.158308;-0.987390;,
  0.112802;0.157297;-0.981088;,
  0.000000;0.158311;0.987389;,
  -0.112802;0.157300;0.981087;,
  0.000000;0.042683;-0.999089;,
  0.130886;0.042316;-0.990494;,
  0.000000;0.042683;0.999089;,
  -0.130886;0.042316;0.990494;,
  0.000000;0.022241;-0.999753;,
  0.000000;-1.000000;-0.000000;,
  0.049202;0.026802;0.998429;,
  0.070323;0.139604;0.987707;,
  -0.049202;0.026803;-0.998429;,
  -0.070323;0.139602;-0.987707;,
  0.112802;0.157300;0.981087;,
  -0.112802;0.157297;-0.981088;,
  0.130886;0.042316;0.990494;,
  -0.130886;0.042316;-0.990494;,
  0.000000;0.022241;0.999753;,
  0.000001;0.034662;-0.999399;,
  0.237828;0.033668;-0.970724;,
  0.000001;0.034663;0.999399;,
  -0.237829;0.033668;0.970723;,
  0.000001;0.061298;-0.998120;,
  0.237542;0.059543;-0.969551;,
  0.000001;0.061298;0.998120;,
  -0.237541;0.059544;0.969551;,
  0.000001;0.087885;-0.996131;,
  0.000000;-1.000000;-0.000000;,
  0.237830;0.033669;0.970723;,
  0.237543;0.059544;0.969550;,
  -0.237827;0.033668;-0.970724;,
  -0.237540;0.059543;-0.969551;,
  0.000001;0.087885;0.996131;,
  -0.000000;0.034662;-0.999399;,
  0.237828;0.033668;-0.970724;,
  -0.000000;0.034663;0.999399;,
  -0.237830;0.033669;0.970723;,
  -0.000000;0.050322;-0.998733;,
  0.237680;0.048880;-0.970113;,
  -0.000000;0.050322;0.998733;,
  -0.237681;0.048880;0.970113;,
  -0.000000;0.065968;-0.997822;,
  0.000000;-1.000000;-0.000000;,
  0.237830;0.033669;0.970723;,
  0.237680;0.048880;0.970113;,
  -0.237828;0.033668;-0.970724;,
  -0.237680;0.048880;-0.970113;,
  -0.000000;0.065968;0.997822;,
  0.000000;0.434253;-0.900791;,
  0.000000;0.263060;-0.964779;,
  0.189175;0.258310;-0.947359;,
  0.000000;0.263069;0.964777;,
  -0.189181;0.258318;0.947355;,
  0.000000;0.000000;-1.000000;,
  0.195821;0.000000;-0.980640;,
  0.000000;0.000000;1.000000;,
  -0.195828;0.000000;0.980638;,
  0.000000;-0.263060;-0.964779;,
  0.189175;-0.258310;-0.947359;,
  0.000000;-0.263069;0.964777;,
  -0.189181;-0.258318;0.947355;,
  0.000000;-0.434253;-0.900791;,
  0.000000;0.434268;0.900784;,
  0.189181;0.258318;0.947355;,
  -0.189175;0.258310;-0.947359;,
  0.195828;0.000000;0.980638;,
  -0.195821;0.000000;-0.980640;,
  0.189181;-0.258318;0.947355;,
  -0.189175;-0.258310;-0.947359;,
  0.000000;-0.434268;0.900784;;
  341;
  4;0,0,0,0;,
  4;1,1,1,1;,
  4;2,2,2,2;,
  4;3,3,3,3;,
  4;4,4,4,4;,
  4;5,5,5,5;,
  4;6,6,6,6;,
  3;7,9,8;,
  3;7,10,9;,
  3;7,11,10;,
  3;7,12,11;,
  3;7,13,12;,
  3;7,14,13;,
  3;7,15,14;,
  3;7,8,15;,
  4;8,9,17,16;,
  4;9,10,18,17;,
  4;65,11,19,66;,
  4;11,12,20,19;,
  4;12,13,21,20;,
  4;13,14,22,21;,
  4;67,15,23,68;,
  4;15,8,16,23;,
  4;16,17,25,24;,
  4;17,18,26,25;,
  4;66,19,27,69;,
  4;19,20,28,27;,
  4;20,21,29,28;,
  4;21,22,30,29;,
  4;68,23,31,70;,
  4;23,16,24,31;,
  4;24,25,33,32;,
  4;25,26,34,33;,
  4;69,27,35,71;,
  4;27,28,36,35;,
  4;28,29,37,36;,
  4;29,30,38,37;,
  4;70,31,39,72;,
  4;31,24,32,39;,
  4;32,33,41,40;,
  4;33,34,42,41;,
  4;71,35,43,73;,
  4;35,36,44,43;,
  4;36,37,45,44;,
  4;37,38,46,45;,
  4;72,39,47,74;,
  4;39,32,40,47;,
  4;40,41,49,48;,
  4;41,42,50,49;,
  4;73,43,51,75;,
  4;43,44,52,51;,
  4;44,45,53,52;,
  4;45,46,54,53;,
  4;74,47,55,76;,
  4;47,40,48,55;,
  4;48,49,57,56;,
  4;49,50,58,57;,
  4;75,51,59,77;,
  4;51,52,60,59;,
  4;52,53,61,60;,
  4;53,54,62,61;,
  4;76,55,63,78;,
  4;55,48,56,63;,
  3;56,57,64;,
  3;57,58,64;,
  3;58,59,64;,
  3;59,60,64;,
  3;60,61,64;,
  3;61,62,64;,
  3;62,63,64;,
  3;63,56,64;,
  3;79,81,80;,
  3;79,82,81;,
  3;79,83,82;,
  3;79,84,83;,
  3;79,85,84;,
  3;79,86,85;,
  3;79,87,86;,
  3;79,80,87;,
  4;80,81,89,88;,
  4;81,82,90,89;,
  4;137,83,91,138;,
  4;83,84,92,91;,
  4;84,85,93,92;,
  4;85,86,94,93;,
  4;139,87,95,140;,
  4;87,80,88,95;,
  4;88,89,97,96;,
  4;89,90,98,97;,
  4;138,91,99,141;,
  4;91,92,100,99;,
  4;92,93,101,100;,
  4;93,94,102,101;,
  4;140,95,103,142;,
  4;95,88,96,103;,
  4;96,97,105,104;,
  4;97,98,106,105;,
  4;141,99,107,143;,
  4;99,100,108,107;,
  4;100,101,109,108;,
  4;101,102,110,109;,
  4;142,103,111,144;,
  4;103,96,104,111;,
  4;104,105,113,112;,
  4;105,106,114,113;,
  4;143,107,115,145;,
  4;107,108,116,115;,
  4;108,109,117,116;,
  4;109,110,118,117;,
  4;144,111,119,146;,
  4;111,104,112,119;,
  4;112,113,121,120;,
  4;113,114,122,121;,
  4;145,115,123,147;,
  4;115,116,124,123;,
  4;116,117,125,124;,
  4;117,118,126,125;,
  4;146,119,127,148;,
  4;119,112,120,127;,
  4;120,121,129,128;,
  4;121,122,130,129;,
  4;147,123,131,149;,
  4;123,124,132,131;,
  4;124,125,133,132;,
  4;125,126,134,133;,
  4;148,127,135,150;,
  4;127,120,128,135;,
  3;128,129,136;,
  3;129,130,136;,
  3;130,131,136;,
  3;131,132,136;,
  3;132,133,136;,
  3;133,134,136;,
  3;134,135,136;,
  3;135,128,136;,
  3;151,153,152;,
  3;151,154,153;,
  3;209,155,210;,
  3;209,156,155;,
  3;209,157,156;,
  3;209,158,157;,
  3;151,159,211;,
  3;151,152,159;,
  4;152,153,161,160;,
  4;153,154,162,161;,
  4;210,155,163,212;,
  4;155,156,164,163;,
  4;156,157,165,164;,
  4;157,158,166,165;,
  4;211,159,167,213;,
  4;159,152,160,167;,
  4;160,161,169,168;,
  4;161,162,170,169;,
  4;212,163,171,214;,
  4;163,164,172,171;,
  4;164,165,173,172;,
  4;165,166,174,173;,
  4;213,167,175,215;,
  4;167,160,168,175;,
  4;168,169,177,176;,
  4;169,170,178,177;,
  4;214,171,179,216;,
  4;171,172,180,179;,
  4;172,173,181,180;,
  4;173,174,182,181;,
  4;215,175,183,217;,
  4;175,168,176,183;,
  4;176,177,185,184;,
  4;177,178,186,185;,
  4;216,179,187,218;,
  4;179,180,188,187;,
  4;180,181,189,188;,
  4;181,182,190,189;,
  4;217,183,191,219;,
  4;183,176,184,191;,
  4;184,185,193,192;,
  4;185,186,194,193;,
  4;218,187,195,220;,
  4;187,188,196,195;,
  4;188,189,197,196;,
  4;189,190,198,197;,
  4;219,191,199,221;,
  4;191,184,192,199;,
  4;192,193,201,200;,
  4;193,194,202,201;,
  4;220,195,203,222;,
  4;195,196,204,203;,
  4;196,197,205,204;,
  4;197,198,206,205;,
  4;221,199,207,223;,
  4;199,192,200,207;,
  3;200,201,208;,
  3;201,202,208;,
  3;222,203,224;,
  3;203,204,224;,
  3;204,205,224;,
  3;205,206,224;,
  3;223,207,208;,
  3;207,200,208;,
  3;225,227,226;,
  3;225,228,227;,
  3;251,229,252;,
  3;251,230,229;,
  3;251,231,230;,
  3;251,232,231;,
  3;225,233,253;,
  3;225,226,233;,
  4;226,227,235,234;,
  4;227,228,236,235;,
  4;252,229,237,254;,
  4;229,230,238,237;,
  4;230,231,239,238;,
  4;231,232,240,239;,
  4;253,233,241,255;,
  4;233,226,234,241;,
  4;234,235,243,242;,
  4;235,236,244,243;,
  4;254,237,245,256;,
  4;237,238,246,245;,
  4;238,239,247,246;,
  4;239,240,248,247;,
  4;255,241,249,257;,
  4;241,234,242,249;,
  3;242,243,250;,
  3;243,244,250;,
  3;256,245,258;,
  3;245,246,258;,
  3;246,247,258;,
  3;247,248,258;,
  3;257,249,250;,
  3;249,242,250;,
  4;259,259,259,259;,
  3;260,268,261;,
  3;261,268,262;,
  3;270,271,263;,
  3;263,271,264;,
  3;264,271,265;,
  3;265,271,266;,
  3;272,268,267;,
  3;267,268,260;,
  3;269,269,269;,
  3;269,269,269;,
  3;269,269,269;,
  3;269,269,269;,
  3;269,269,269;,
  3;269,269,269;,
  3;269,269,269;,
  3;269,269,269;,
  4;273,273,273,273;,
  3;274,276,275;,
  3;288,277,289;,
  3;288,278,277;,
  3;274,275,290;,
  4;275,276,280,279;,
  4;289,277,281,291;,
  4;277,278,282,281;,
  4;290,275,279,292;,
  4;279,280,284,283;,
  4;291,281,285,293;,
  4;281,282,286,285;,
  4;292,279,283,294;,
  3;283,284,287;,
  3;293,285,295;,
  3;285,286,295;,
  3;294,283,287;,
  3;296,298,297;,
  3;310,299,311;,
  3;310,300,299;,
  3;296,297,312;,
  4;297,298,302,301;,
  4;311,299,303,313;,
  4;299,300,304,303;,
  4;312,297,301,314;,
  4;301,302,306,305;,
  4;313,303,307,315;,
  4;303,304,308,307;,
  4;314,301,305,316;,
  3;305,306,309;,
  3;315,307,317;,
  3;307,308,317;,
  3;316,305,309;,
  4;318,322,323,319;,
  4;336,337,324,320;,
  4;320,324,325,321;,
  4;338,339,322,318;,
  4;322,326,327,323;,
  4;337,340,328,324;,
  4;324,328,329,325;,
  4;339,341,326,322;,
  4;326,330,331,327;,
  4;340,342,332,328;,
  4;328,332,333,329;,
  4;341,343,330,326;,
  3;330,334,331;,
  3;342,344,332;,
  3;332,344,333;,
  3;343,334,330;,
  3;335,335,335;,
  3;335,335,335;,
  3;335,335,335;,
  3;335,335,335;,
  4;345,349,350,346;,
  4;355,356,351,347;,
  4;347,351,352,348;,
  4;357,358,349,345;,
  3;349,353,350;,
  3;356,359,351;,
  3;351,359,352;,
  3;358,353,349;,
  3;354,354,354;,
  3;354,354,354;,
  3;354,354,354;,
  3;354,354,354;,
  4;360,364,365,361;,
  4;370,371,366,362;,
  4;362,366,367,363;,
  4;372,373,364,360;,
  3;364,368,365;,
  3;371,374,366;,
  3;366,374,367;,
  3;373,368,364;,
  3;369,369,369;,
  3;369,369,369;,
  3;369,369,369;,
  3;369,369,369;,
  3;375,377,376;,
  3;389,378,390;,
  3;389,379,378;,
  3;375,376,391;,
  4;376,377,381,380;,
  4;390,378,382,392;,
  4;378,379,383,382;,
  4;391,376,380,393;,
  4;380,381,385,384;,
  4;392,382,386,394;,
  4;382,383,387,386;,
  4;393,380,384,395;,
  3;384,385,388;,
  3;394,386,396;,
  3;386,387,396;,
  3;395,384,388;;
 }
 MeshTextureCoords {
  474;
  0.000000;0.000000;,
  1.000000;0.000000;,
  1.000000;1.000000;,
  0.000000;1.000000;,
  0.000000;0.000000;,
  1.000000;0.000000;,
  1.000000;1.000000;,
  0.000000;1.000000;,
  0.000000;0.000000;,
  1.000000;0.000000;,
  1.000000;1.000000;,
  0.000000;1.000000;,
  0.000000;0.000000;,
  1.000000;0.000000;,
  1.000000;1.000000;,
  0.000000;1.000000;,
  1.000000;1.000000;,
  0.000000;1.000000;,
  0.000000;0.000000;,
  1.000000;0.000000;,
  0.000000;0.000000;,
  1.000000;0.000000;,
  1.000000;1.000000;,
  0.000000;1.000000;,
  0.062500;0.000000;,
  0.125000;0.125000;,
  0.000000;0.125000;,
  0.187500;0.000000;,
  0.250000;0.125000;,
  0.312500;0.000000;,
  0.375000;0.125000;,
  0.437500;0.000000;,
  0.500000;0.125000;,
  0.562500;0.000000;,
  0.625000;0.125000;,
  0.687500;0.000000;,
  0.750000;0.125000;,
  0.812500;0.000000;,
  0.875000;0.125000;,
  0.937500;0.000000;,
  1.000000;0.125000;,
  0.125000;0.250000;,
  0.000000;0.250000;,
  0.250000;0.250000;,
  0.375000;0.250000;,
  0.500000;0.250000;,
  0.625000;0.250000;,
  0.750000;0.250000;,
  0.875000;0.250000;,
  1.000000;0.250000;,
  0.125000;0.375000;,
  0.000000;0.375000;,
  0.250000;0.375000;,
  0.375000;0.375000;,
  0.500000;0.375000;,
  0.625000;0.375000;,
  0.750000;0.375000;,
  0.875000;0.375000;,
  1.000000;0.375000;,
  0.125000;0.500000;,
  0.000000;0.500000;,
  0.250000;0.500000;,
  0.375000;0.500000;,
  0.500000;0.500000;,
  0.625000;0.500000;,
  0.750000;0.500000;,
  0.875000;0.500000;,
  1.000000;0.500000;,
  0.125000;0.625000;,
  0.000000;0.625000;,
  0.250000;0.625000;,
  0.375000;0.625000;,
  0.500000;0.625000;,
  0.625000;0.625000;,
  0.750000;0.625000;,
  0.875000;0.625000;,
  1.000000;0.625000;,
  0.125000;0.750000;,
  0.000000;0.750000;,
  0.250000;0.750000;,
  0.375000;0.750000;,
  0.500000;0.750000;,
  0.625000;0.750000;,
  0.750000;0.750000;,
  0.875000;0.750000;,
  1.000000;0.750000;,
  0.125000;0.875000;,
  0.000000;0.875000;,
  0.250000;0.875000;,
  0.375000;0.875000;,
  0.500000;0.875000;,
  0.625000;0.875000;,
  0.750000;0.875000;,
  0.875000;0.875000;,
  1.000000;0.875000;,
  0.062500;1.000000;,
  0.187500;1.000000;,
  0.312500;1.000000;,
  0.437500;1.000000;,
  0.562500;1.000000;,
  0.687500;1.000000;,
  0.812500;1.000000;,
  0.937500;1.000000;,
  0.062500;0.000000;,
  0.125000;0.125000;,
  0.000000;0.125000;,
  0.187500;0.000000;,
  0.250000;0.125000;,
  0.312500;0.000000;,
  0.375000;0.125000;,
  0.437500;0.000000;,
  0.500000;0.125000;,
  0.562500;0.000000;,
  0.625000;0.125000;,
  0.687500;0.000000;,
  0.750000;0.125000;,
  0.812500;0.000000;,
  0.875000;0.125000;,
  0.937500;0.000000;,
  1.000000;0.125000;,
  0.125000;0.250000;,
  0.000000;0.250000;,
  0.250000;0.250000;,
  0.375000;0.250000;,
  0.500000;0.250000;,
  0.625000;0.250000;,
  0.750000;0.250000;,
  0.875000;0.250000;,
  1.000000;0.250000;,
  0.125000;0.375000;,
  0.000000;0.375000;,
  0.250000;0.375000;,
  0.375000;0.375000;,
  0.500000;0.375000;,
  0.625000;0.375000;,
  0.750000;0.375000;,
  0.875000;0.375000;,
  1.000000;0.375000;,
  0.125000;0.500000;,
  0.000000;0.500000;,
  0.250000;0.500000;,
  0.375000;0.500000;,
  0.500000;0.500000;,
  0.625000;0.500000;,
  0.750000;0.500000;,
  0.875000;0.500000;,
  1.000000;0.500000;,
  0.125000;0.625000;,
  0.000000;0.625000;,
  0.250000;0.625000;,
  0.375000;0.625000;,
  0.500000;0.625000;,
  0.625000;0.625000;,
  0.750000;0.625000;,
  0.875000;0.625000;,
  1.000000;0.625000;,
  0.125000;0.750000;,
  0.000000;0.750000;,
  0.250000;0.750000;,
  0.375000;0.750000;,
  0.500000;0.750000;,
  0.625000;0.750000;,
  0.750000;0.750000;,
  0.875000;0.750000;,
  1.000000;0.750000;,
  0.125000;0.875000;,
  0.000000;0.875000;,
  0.250000;0.875000;,
  0.375000;0.875000;,
  0.500000;0.875000;,
  0.625000;0.875000;,
  0.750000;0.875000;,
  0.875000;0.875000;,
  1.000000;0.875000;,
  0.062500;1.000000;,
  0.187500;1.000000;,
  0.312500;1.000000;,
  0.437500;1.000000;,
  0.562500;1.000000;,
  0.687500;1.000000;,
  0.812500;1.000000;,
  0.937500;1.000000;,
  0.062500;0.000000;,
  0.125000;0.125000;,
  0.000000;0.125000;,
  0.187500;0.000000;,
  0.250000;0.125000;,
  0.312500;0.000000;,
  0.375000;0.125000;,
  0.437500;0.000000;,
  0.500000;0.125000;,
  0.562500;0.000000;,
  0.625000;0.125000;,
  0.687500;0.000000;,
  0.750000;0.125000;,
  0.812500;0.000000;,
  0.875000;0.125000;,
  0.937500;0.000000;,
  1.000000;0.125000;,
  0.125000;0.250000;,
  0.000000;0.250000;,
  0.250000;0.250000;,
  0.375000;0.250000;,
  0.500000;0.250000;,
  0.625000;0.250000;,
  0.750000;0.250000;,
  0.875000;0.250000;,
  1.000000;0.250000;,
  0.125000;0.375000;,
  0.000000;0.375000;,
  0.250000;0.375000;,
  0.375000;0.375000;,
  0.500000;0.375000;,
  0.625000;0.375000;,
  0.750000;0.375000;,
  0.875000;0.375000;,
  1.000000;0.375000;,
  0.125000;0.500000;,
  0.000000;0.500000;,
  0.250000;0.500000;,
  0.375000;0.500000;,
  0.500000;0.500000;,
  0.625000;0.500000;,
  0.750000;0.500000;,
  0.875000;0.500000;,
  1.000000;0.500000;,
  0.125000;0.625000;,
  0.000000;0.625000;,
  0.250000;0.625000;,
  0.375000;0.625000;,
  0.500000;0.625000;,
  0.625000;0.625000;,
  0.750000;0.625000;,
  0.875000;0.625000;,
  1.000000;0.625000;,
  0.125000;0.750000;,
  0.000000;0.750000;,
  0.250000;0.750000;,
  0.375000;0.750000;,
  0.500000;0.750000;,
  0.625000;0.750000;,
  0.750000;0.750000;,
  0.875000;0.750000;,
  1.000000;0.750000;,
  0.125000;0.875000;,
  0.000000;0.875000;,
  0.250000;0.875000;,
  0.375000;0.875000;,
  0.500000;0.875000;,
  0.625000;0.875000;,
  0.750000;0.875000;,
  0.875000;0.875000;,
  1.000000;0.875000;,
  0.062500;1.000000;,
  0.187500;1.000000;,
  0.312500;1.000000;,
  0.437500;1.000000;,
  0.562500;1.000000;,
  0.687500;1.000000;,
  0.812500;1.000000;,
  0.937500;1.000000;,
  0.062500;0.000000;,
  0.125000;0.250000;,
  0.000000;0.250000;,
  0.187500;0.000000;,
  0.250000;0.250000;,
  0.312500;0.000000;,
  0.375000;0.250000;,
  0.437500;0.000000;,
  0.500000;0.250000;,
  0.562500;0.000000;,
  0.625000;0.250000;,
  0.687500;0.000000;,
  0.750000;0.250000;,
  0.812500;0.000000;,
  0.875000;0.250000;,
  0.937500;0.000000;,
  1.000000;0.250000;,
  0.125000;0.500000;,
  0.000000;0.500000;,
  0.250000;0.500000;,
  0.375000;0.500000;,
  0.500000;0.500000;,
  0.625000;0.500000;,
  0.750000;0.500000;,
  0.875000;0.500000;,
  1.000000;0.500000;,
  0.125000;0.750000;,
  0.000000;0.750000;,
  0.250000;0.750000;,
  0.375000;0.750000;,
  0.500000;0.750000;,
  0.625000;0.750000;,
  0.750000;0.750000;,
  0.875000;0.750000;,
  1.000000;0.750000;,
  0.062500;1.000000;,
  0.187500;1.000000;,
  0.312500;1.000000;,
  0.437500;1.000000;,
  0.562500;1.000000;,
  0.687500;1.000000;,
  0.812500;1.000000;,
  0.937500;1.000000;,
  0.000000;0.000000;,
  1.000000;0.000000;,
  1.000000;1.000000;,
  0.000000;1.000000;,
  0.000000;1.000000;,
  0.062500;0.000000;,
  0.125000;1.000000;,
  0.125000;0.000000;,
  0.250000;1.000000;,
  0.187500;0.000000;,
  0.375000;1.000000;,
  0.250000;0.000000;,
  0.500000;1.000000;,
  0.312500;0.000000;,
  0.625000;1.000000;,
  0.375000;0.000000;,
  0.750000;1.000000;,
  0.437500;0.000000;,
  0.875000;1.000000;,
  0.500000;0.000000;,
  1.000000;1.000000;,
  0.000000;0.000000;,
  0.000000;0.000000;,
  0.000000;0.000000;,
  0.000000;0.000000;,
  0.000000;0.000000;,
  0.000000;0.000000;,
  0.000000;0.000000;,
  0.000000;0.000000;,
  0.000000;0.000000;,
  0.000000;0.000000;,
  0.000000;1.000000;,
  1.000000;1.000000;,
  1.000000;0.000000;,
  0.125000;0.000000;,
  0.250000;0.250000;,
  0.000000;0.250000;,
  0.375000;0.000000;,
  0.500000;0.250000;,
  0.625000;0.000000;,
  0.750000;0.250000;,
  0.875000;0.000000;,
  1.000000;0.250000;,
  0.250000;0.500000;,
  0.000000;0.500000;,
  0.500000;0.500000;,
  0.750000;0.500000;,
  1.000000;0.500000;,
  0.250000;0.750000;,
  0.000000;0.750000;,
  0.500000;0.750000;,
  0.750000;0.750000;,
  1.000000;0.750000;,
  0.125000;1.000000;,
  0.375000;1.000000;,
  0.625000;1.000000;,
  0.875000;1.000000;,
  0.125000;0.000000;,
  0.250000;0.250000;,
  0.000000;0.250000;,
  0.375000;0.000000;,
  0.500000;0.250000;,
  0.625000;0.000000;,
  0.750000;0.250000;,
  0.875000;0.000000;,
  1.000000;0.250000;,
  0.250000;0.500000;,
  0.000000;0.500000;,
  0.500000;0.500000;,
  0.750000;0.500000;,
  1.000000;0.500000;,
  0.250000;0.750000;,
  0.000000;0.750000;,
  0.500000;0.750000;,
  0.750000;0.750000;,
  1.000000;0.750000;,
  0.125000;1.000000;,
  0.375000;1.000000;,
  0.625000;1.000000;,
  0.875000;1.000000;,
  0.000000;1.000000;,
  0.000000;0.750000;,
  0.250000;0.750000;,
  0.250000;1.000000;,
  0.500000;0.750000;,
  0.500000;1.000000;,
  0.750000;0.750000;,
  0.750000;1.000000;,
  1.000000;0.750000;,
  1.000000;1.000000;,
  0.000000;0.500000;,
  0.250000;0.500000;,
  0.500000;0.500000;,
  0.750000;0.500000;,
  1.000000;0.500000;,
  0.000000;0.250000;,
  0.250000;0.250000;,
  0.500000;0.250000;,
  0.750000;0.250000;,
  1.000000;0.250000;,
  0.125000;0.000000;,
  0.250000;0.000000;,
  0.375000;0.000000;,
  0.500000;0.000000;,
  0.000000;0.000000;,
  0.000000;0.000000;,
  0.000000;0.000000;,
  0.000000;0.000000;,
  0.000000;0.000000;,
  0.000000;1.000000;,
  0.000000;0.500000;,
  0.250000;0.500000;,
  0.250000;1.000000;,
  0.500000;0.500000;,
  0.500000;1.000000;,
  0.750000;0.500000;,
  0.750000;1.000000;,
  1.000000;0.500000;,
  1.000000;1.000000;,
  0.125000;0.000000;,
  0.250000;0.000000;,
  0.375000;0.000000;,
  0.500000;0.000000;,
  0.000000;0.000000;,
  0.000000;0.000000;,
  0.000000;0.000000;,
  0.000000;0.000000;,
  0.000000;0.000000;,
  0.000000;1.000000;,
  0.000000;0.500000;,
  0.250000;0.500000;,
  0.250000;1.000000;,
  0.500000;0.500000;,
  0.500000;1.000000;,
  0.750000;0.500000;,
  0.750000;1.000000;,
  1.000000;0.500000;,
  1.000000;1.000000;,
  0.125000;0.000000;,
  0.250000;0.000000;,
  0.375000;0.000000;,
  0.500000;0.000000;,
  0.000000;0.000000;,
  0.000000;0.000000;,
  0.000000;0.000000;,
  0.000000;0.000000;,
  0.000000;0.000000;,
  0.125000;0.000000;,
  0.250000;0.250000;,
  0.000000;0.250000;,
  0.375000;0.000000;,
  0.500000;0.250000;,
  0.625000;0.000000;,
  0.750000;0.250000;,
  0.875000;0.000000;,
  1.000000;0.250000;,
  0.250000;0.500000;,
  0.000000;0.500000;,
  0.500000;0.500000;,
  0.750000;0.500000;,
  1.000000;0.500000;,
  0.250000;0.750000;,
  0.000000;0.750000;,
  0.500000;0.750000;,
  0.750000;0.750000;,
  1.000000;0.750000;,
  0.125000;1.000000;,
  0.375000;1.000000;,
  0.625000;1.000000;,
  0.875000;1.000000;;
 }
}
