xof 0302txt 0064
template Header {
 <3D82AB43-62DA-11cf-AB39-0020AF71E433>
 WORD major;
 WORD minor;
 DWORD flags;
}

template Vector {
 <3D82AB5E-62DA-11cf-AB39-0020AF71E433>
 FLOAT x;
 FLOAT y;
 FLOAT z;
}

template Coords2d {
 <F6F23F44-7686-11cf-8F52-0040333594A3>
 FLOAT u;
 FLOAT v;
}

template Matrix4x4 {
 <F6F23F45-7686-11cf-8F52-0040333594A3>
 array FLOAT matrix[16];
}

template ColorRGBA {
 <35FF44E0-6C7C-11cf-8F52-0040333594A3>
 FLOAT red;
 FLOAT green;
 FLOAT blue;
 FLOAT alpha;
}

template ColorRGB {
 <D3E16E81-7835-11cf-8F52-0040333594A3>
 FLOAT red;
 FLOAT green;
 FLOAT blue;
}

template IndexedColor {
 <1630B820-7842-11cf-8F52-0040333594A3>
 DWORD index;
 ColorRGBA indexColor;
}

template Boolean {
 <4885AE61-78E8-11cf-8F52-0040333594A3>
 WORD truefalse;
}

template Boolean2d {
 <4885AE63-78E8-11cf-8F52-0040333594A3>
 Boolean u;
 Boolean v;
}

template MaterialWrap {
 <4885AE60-78E8-11cf-8F52-0040333594A3>
 Boolean u;
 Boolean v;
}

template TextureFilename {
 <A42790E1-7810-11cf-8F52-0040333594A3>
 STRING filename;
}

template Material {
 <3D82AB4D-62DA-11cf-AB39-0020AF71E433>
 ColorRGBA faceColor;
 FLOAT power;
 ColorRGB specularColor;
 ColorRGB emissiveColor;
 [...]
}

template MeshFace {
 <3D82AB5F-62DA-11cf-AB39-0020AF71E433>
 DWORD nFaceVertexIndices;
 array DWORD faceVertexIndices[nFaceVertexIndices];
}

template MeshFaceWraps {
 <4885AE62-78E8-11cf-8F52-0040333594A3>
 DWORD nFaceWrapValues;
 Boolean2d faceWrapValues;
}

template MeshTextureCoords {
 <F6F23F40-7686-11cf-8F52-0040333594A3>
 DWORD nTextureCoords;
 array Coords2d textureCoords[nTextureCoords];
}

template MeshMaterialList {
 <F6F23F42-7686-11cf-8F52-0040333594A3>
 DWORD nMaterials;
 DWORD nFaceIndexes;
 array DWORD faceIndexes[nFaceIndexes];
 [Material]
}

template MeshNormals {
 <F6F23F43-7686-11cf-8F52-0040333594A3>
 DWORD nNormals;
 array Vector normals[nNormals];
 DWORD nFaceNormals;
 array MeshFace faceNormals[nFaceNormals];
}

template MeshVertexColors {
 <1630B821-7842-11cf-8F52-0040333594A3>
 DWORD nVertexColors;
 array IndexedColor vertexColors[nVertexColors];
}

template Mesh {
 <3D82AB44-62DA-11cf-AB39-0020AF71E433>
 DWORD nVertices;
 array Vector vertices[nVertices];
 DWORD nFaces;
 array MeshFace faces[nFaces];
 [...]
}

Header{
1;
0;
1;
}

Mesh {
 712;
 -230.36892;9.51232;-71.70368;,
 230.34305;9.51232;-71.70368;,
 230.34305;-9.51232;-71.70368;,
 -230.36892;-9.51232;-71.70368;,
 230.34305;9.51232;-71.70368;,
 230.34305;9.51232;71.70368;,
 230.34305;-9.51232;71.70368;,
 230.34305;-9.51232;-71.70368;,
 230.34305;9.51232;71.70368;,
 -230.36892;9.51232;71.70368;,
 -230.36892;-9.51232;71.70368;,
 230.34305;-9.51232;71.70368;,
 -230.36892;9.51232;71.70368;,
 -230.36892;9.51232;-71.70368;,
 -230.36892;-9.51232;-71.70368;,
 -230.36892;-9.51232;71.70368;,
 230.34305;9.51232;-71.70368;,
 -230.36892;9.51232;-71.70368;,
 -230.36892;-9.51232;-71.70368;,
 230.34305;-9.51232;-71.70368;,
 -247.25467;36.93646;77.73908;,
 -237.45725;34.12486;67.74412;,
 -247.25467;34.12486;63.60408;,
 -247.25467;36.93646;77.73908;,
 -233.39886;34.12486;77.73908;,
 -247.25467;36.93646;77.73908;,
 -237.45725;34.12486;87.73400;,
 -247.25467;36.93646;77.73908;,
 -247.25467;34.12486;91.87406;,
 -247.25467;36.93646;77.73908;,
 -257.05218;34.12486;87.73400;,
 -247.25467;36.93646;77.73908;,
 -261.11053;34.12486;77.73908;,
 -247.25467;36.93646;77.73908;,
 -257.05218;34.12486;67.74412;,
 -247.25467;36.93646;77.73908;,
 -247.25467;34.12486;63.60408;,
 -229.15120;26.11802;59.27084;,
 -247.25467;26.11802;51.62104;,
 -221.65252;26.11802;77.73908;,
 -229.15120;26.11802;96.20730;,
 -247.25467;26.11802;103.85711;,
 -265.35818;26.11802;96.20728;,
 -272.85682;26.11802;77.73908;,
 -265.35818;26.11802;59.27084;,
 -247.25467;26.11802;51.62104;,
 -223.60149;14.13498;53.60914;,
 -247.25467;14.13498;43.61422;,
 -213.80403;14.13498;77.73908;,
 -223.60149;14.13498;101.86898;,
 -247.25467;14.13498;111.86392;,
 -270.90813;14.13498;101.86898;,
 -280.70545;14.13498;77.73908;,
 -270.90813;14.13498;53.60914;,
 -247.25467;14.13498;43.61422;,
 -221.65252;0.00000;51.62104;,
 -247.25467;0.00000;40.80262;,
 -211.04778;0.00000;77.73908;,
 -221.65252;0.00000;103.85711;,
 -247.25467;0.00000;114.67553;,
 -272.85682;0.00000;103.85711;,
 -283.46175;0.00000;77.73908;,
 -272.85682;0.00000;51.62104;,
 -247.25467;0.00000;40.80262;,
 -223.60149;-14.13498;53.60914;,
 -247.25467;-14.13498;43.61422;,
 -213.80403;-14.13498;77.73908;,
 -223.60149;-14.13498;101.86898;,
 -247.25467;-14.13498;111.86392;,
 -270.90813;-14.13498;101.86898;,
 -280.70545;-14.13498;77.73908;,
 -270.90813;-14.13498;53.60914;,
 -247.25467;-14.13498;43.61422;,
 -229.15120;-26.11802;59.27084;,
 -247.25467;-26.11802;51.62104;,
 -221.65252;-26.11802;77.73908;,
 -229.15120;-26.11802;96.20730;,
 -247.25467;-26.11802;103.85711;,
 -265.35818;-26.11802;96.20728;,
 -272.85682;-26.11802;77.73908;,
 -265.35818;-26.11802;59.27084;,
 -247.25467;-26.11802;51.62104;,
 -237.45725;-34.12486;67.74412;,
 -247.25467;-34.12486;63.60408;,
 -233.39886;-34.12486;77.73908;,
 -237.45725;-34.12486;87.73400;,
 -247.25467;-34.12486;91.87406;,
 -257.05218;-34.12486;87.73400;,
 -261.11053;-34.12486;77.73908;,
 -257.05218;-34.12486;67.74412;,
 -247.25467;-34.12486;63.60408;,
 -247.25467;-36.93646;77.73908;,
 -247.25467;-36.93646;77.73908;,
 -247.25467;-36.93646;77.73908;,
 -247.25467;-36.93646;77.73908;,
 -247.25467;-36.93646;77.73908;,
 -247.25467;-36.93646;77.73908;,
 -247.25467;-36.93646;77.73908;,
 -247.25467;-36.93646;77.73908;,
 256.04656;36.93646;77.73908;,
 265.84410;34.12486;67.74412;,
 256.04656;34.12486;63.60408;,
 256.04656;36.93646;77.73908;,
 269.90247;34.12486;77.73908;,
 256.04656;36.93646;77.73908;,
 265.84410;34.12486;87.73400;,
 256.04656;36.93646;77.73908;,
 256.04656;34.12486;91.87406;,
 256.04656;36.93646;77.73908;,
 246.24920;34.12486;87.73400;,
 256.04656;36.93646;77.73908;,
 242.19087;34.12486;77.73908;,
 256.04656;36.93646;77.73908;,
 246.24920;34.12486;67.74412;,
 256.04656;36.93646;77.73908;,
 256.04656;34.12486;63.60408;,
 274.15003;26.11802;59.27084;,
 256.04656;26.11802;51.62104;,
 281.64869;26.11802;77.73908;,
 274.15003;26.11802;96.20730;,
 256.04656;26.11802;103.85711;,
 237.94302;26.11802;96.20728;,
 230.44441;26.11802;77.73908;,
 237.94302;26.11802;59.27084;,
 256.04656;26.11802;51.62104;,
 279.69996;14.13498;53.60914;,
 256.04656;14.13498;43.61422;,
 289.49725;14.13498;77.73908;,
 279.69996;14.13498;101.86898;,
 256.04656;14.13498;111.86392;,
 232.39336;14.13498;101.86898;,
 222.59590;14.13498;77.73908;,
 232.39336;14.13498;53.60914;,
 256.04656;14.13498;43.61422;,
 281.64869;-0.00000;51.62104;,
 256.04656;-0.00000;40.80262;,
 292.25354;-0.00000;77.73908;,
 281.64869;-0.00000;103.85711;,
 256.04656;-0.00000;114.67553;,
 230.44441;-0.00000;103.85711;,
 219.83968;-0.00000;77.73908;,
 230.44441;-0.00000;51.62104;,
 256.04656;-0.00000;40.80262;,
 279.69996;-14.13498;53.60914;,
 256.04656;-14.13498;43.61422;,
 289.49725;-14.13498;77.73908;,
 279.69996;-14.13498;101.86898;,
 256.04656;-14.13498;111.86392;,
 232.39336;-14.13498;101.86898;,
 222.59590;-14.13498;77.73908;,
 232.39336;-14.13498;53.60914;,
 256.04656;-14.13498;43.61422;,
 274.15003;-26.11802;59.27084;,
 256.04656;-26.11802;51.62104;,
 281.64869;-26.11802;77.73908;,
 274.15003;-26.11802;96.20730;,
 256.04656;-26.11802;103.85711;,
 237.94302;-26.11802;96.20728;,
 230.44441;-26.11802;77.73908;,
 237.94302;-26.11802;59.27084;,
 256.04656;-26.11802;51.62104;,
 265.84410;-34.12486;67.74412;,
 256.04656;-34.12486;63.60408;,
 269.90247;-34.12486;77.73908;,
 265.84410;-34.12486;87.73400;,
 256.04656;-34.12486;91.87406;,
 246.24920;-34.12486;87.73400;,
 242.19087;-34.12486;77.73908;,
 246.24920;-34.12486;67.74412;,
 256.04656;-34.12486;63.60408;,
 256.04656;-36.93646;77.73908;,
 256.04656;-36.93646;77.73908;,
 256.04656;-36.93646;77.73908;,
 256.04656;-36.93646;77.73908;,
 256.04656;-36.93646;77.73908;,
 256.04656;-36.93646;77.73908;,
 256.04656;-36.93646;77.73908;,
 256.04656;-36.93646;77.73908;,
 257.21609;-50.11058;54.51124;,
 257.21609;0.20460;79.66886;,
 274.65384;-50.11058;61.87976;,
 257.21609;0.20460;79.66886;,
 281.87671;-50.11058;79.66886;,
 257.21609;0.20460;79.66886;,
 274.65384;-50.11058;97.45790;,
 257.21609;0.20460;79.66886;,
 257.21609;-50.11058;104.82644;,
 257.21609;0.20460;79.66886;,
 239.77837;-50.11058;97.45790;,
 257.21609;0.20460;79.66886;,
 232.55540;-50.11058;79.66886;,
 257.21609;0.20460;79.66886;,
 239.77837;-50.11058;61.87978;,
 257.21609;0.20460;79.66886;,
 257.21609;-50.11058;54.51124;,
 257.21609;-33.51408;79.66886;,
 257.21609;-50.11058;54.51124;,
 274.65384;-50.11058;61.87976;,
 281.87671;-50.11058;79.66886;,
 274.65384;-50.11058;97.45790;,
 257.21609;-50.11058;104.82644;,
 239.77837;-50.11058;97.45790;,
 232.55540;-50.11058;79.66886;,
 239.77837;-50.11058;61.87978;,
 -247.55887;-50.11058;54.51124;,
 -247.55887;0.20460;79.66886;,
 -230.12102;-50.11058;61.87976;,
 -247.55887;0.20460;79.66886;,
 -222.89812;-50.11058;79.66886;,
 -247.55887;0.20460;79.66886;,
 -230.12102;-50.11058;97.45790;,
 -247.55887;0.20460;79.66886;,
 -247.55887;-50.11058;104.82644;,
 -247.55887;0.20460;79.66886;,
 -264.99656;-50.11058;97.45790;,
 -247.55887;0.20460;79.66886;,
 -272.21946;-50.11058;79.66886;,
 -247.55887;0.20460;79.66886;,
 -264.99656;-50.11058;61.87978;,
 -247.55887;0.20460;79.66886;,
 -247.55887;-50.11058;54.51124;,
 -247.55887;-33.51408;79.66886;,
 -247.55887;-50.11058;54.51124;,
 -230.12102;-50.11058;61.87976;,
 -222.89812;-50.11058;79.66886;,
 -230.12102;-50.11058;97.45790;,
 -247.55887;-50.11058;104.82644;,
 -264.99656;-50.11058;97.45790;,
 -272.21946;-50.11058;79.66886;,
 -264.99656;-50.11058;61.87978;,
 -210.36866;58.72410;-71.89612;,
 -202.07491;58.72410;-69.79946;,
 -202.07491;15.18454;-69.79946;,
 -210.36866;15.18454;-71.89612;,
 -198.63963;58.72410;-64.73764;,
 -198.63963;15.18454;-64.73764;,
 -202.07491;58.72410;-59.67586;,
 -202.07491;15.18454;-59.67586;,
 -210.36866;58.72410;-57.57916;,
 -210.36866;15.18454;-57.57916;,
 -218.66231;58.72410;-59.67586;,
 -218.66231;15.18454;-59.67586;,
 -222.09771;58.72410;-64.73764;,
 -222.09771;15.18454;-64.73764;,
 -218.66231;58.72410;-69.79946;,
 -218.66231;15.18454;-69.79946;,
 -210.36866;58.72410;-71.89612;,
 -210.36866;15.18454;-71.89612;,
 -210.36866;58.72410;-64.73764;,
 -210.36866;58.72410;-64.73764;,
 -210.36866;58.72410;-64.73764;,
 -210.36866;58.72410;-64.73764;,
 -210.36866;58.72410;-64.73764;,
 -210.36866;58.72410;-64.73764;,
 -210.36866;58.72410;-64.73764;,
 -210.36866;58.72410;-64.73764;,
 -210.36866;-1.18638;-64.73764;,
 -210.36866;-1.18638;-64.73764;,
 -210.36866;-1.18638;-64.73764;,
 -210.36866;-1.18638;-64.73764;,
 -210.36866;-1.18638;-64.73764;,
 -210.36866;-1.18638;-64.73764;,
 -210.36866;-1.18638;-64.73764;,
 -210.36866;-1.18638;-64.73764;,
 -210.36866;58.72410;56.44604;,
 -202.07491;58.72410;58.54274;,
 -202.07491;15.18454;58.54274;,
 -210.36866;15.18454;56.44604;,
 -198.63963;58.72410;63.60460;,
 -198.63963;15.18454;63.60460;,
 -202.07491;58.72410;68.66642;,
 -202.07491;15.18454;68.66642;,
 -210.36866;58.72410;70.76300;,
 -210.36866;15.18454;70.76300;,
 -218.66231;58.72410;68.66642;,
 -218.66231;15.18454;68.66642;,
 -222.09771;58.72410;63.60460;,
 -222.09771;15.18454;63.60460;,
 -218.66231;58.72410;58.54274;,
 -218.66231;15.18454;58.54274;,
 -210.36866;58.72410;56.44604;,
 -210.36866;15.18454;56.44604;,
 -210.36866;58.72410;63.60460;,
 -210.36866;58.72410;63.60460;,
 -210.36866;58.72410;63.60460;,
 -210.36866;58.72410;63.60460;,
 -210.36866;58.72410;63.60460;,
 -210.36866;58.72410;63.60460;,
 -210.36866;58.72410;63.60460;,
 -210.36866;58.72410;63.60460;,
 -210.36866;-1.18638;63.60460;,
 -210.36866;-1.18638;63.60460;,
 -210.36866;-1.18638;63.60460;,
 -210.36866;-1.18638;63.60460;,
 -210.36866;-1.18638;63.60460;,
 -210.36866;-1.18638;63.60460;,
 -210.36866;-1.18638;63.60460;,
 -210.36866;-1.18638;63.60460;,
 216.29568;58.72410;56.44604;,
 224.58946;58.72410;58.54274;,
 224.58946;15.18454;58.54274;,
 216.29568;15.18454;56.44604;,
 228.02466;58.72410;63.60460;,
 228.02466;15.18454;63.60460;,
 224.58946;58.72410;68.66642;,
 224.58946;15.18454;68.66642;,
 216.29568;58.72410;70.76300;,
 216.29568;15.18454;70.76300;,
 208.00196;58.72410;68.66642;,
 208.00196;15.18454;68.66642;,
 204.56663;58.72410;63.60460;,
 204.56663;15.18454;63.60460;,
 208.00196;58.72410;58.54274;,
 208.00196;15.18454;58.54274;,
 216.29568;58.72410;56.44604;,
 216.29568;15.18454;56.44604;,
 216.29568;58.72410;63.60460;,
 216.29568;58.72410;63.60460;,
 216.29568;58.72410;63.60460;,
 216.29568;58.72410;63.60460;,
 216.29568;58.72410;63.60460;,
 216.29568;58.72410;63.60460;,
 216.29568;58.72410;63.60460;,
 216.29568;58.72410;63.60460;,
 216.29568;-1.18638;63.60460;,
 216.29568;-1.18638;63.60460;,
 216.29568;-1.18638;63.60460;,
 216.29568;-1.18638;63.60460;,
 216.29568;-1.18638;63.60460;,
 216.29568;-1.18638;63.60460;,
 216.29568;-1.18638;63.60460;,
 216.29568;-1.18638;63.60460;,
 216.29568;58.72410;-70.22146;,
 224.58946;58.72410;-68.12478;,
 224.58946;15.18454;-68.12478;,
 216.29568;15.18454;-70.22146;,
 228.02466;58.72410;-63.06290;,
 228.02466;15.18454;-63.06290;,
 224.58946;58.72410;-58.00116;,
 224.58946;15.18454;-58.00116;,
 216.29568;58.72410;-55.90444;,
 216.29568;15.18454;-55.90444;,
 208.00196;58.72410;-58.00116;,
 208.00196;15.18454;-58.00116;,
 204.56663;58.72410;-63.06290;,
 204.56663;15.18454;-63.06290;,
 208.00196;58.72410;-68.12478;,
 208.00196;15.18454;-68.12478;,
 216.29568;58.72410;-70.22146;,
 216.29568;15.18454;-70.22146;,
 216.29568;58.72410;-63.06290;,
 216.29568;58.72410;-63.06290;,
 216.29568;58.72410;-63.06290;,
 216.29568;58.72410;-63.06290;,
 216.29568;58.72410;-63.06290;,
 216.29568;58.72410;-63.06290;,
 216.29568;58.72410;-63.06290;,
 216.29568;58.72410;-63.06290;,
 216.29568;-1.18638;-63.06290;,
 216.29568;-1.18638;-63.06290;,
 216.29568;-1.18638;-63.06290;,
 216.29568;-1.18638;-63.06290;,
 216.29568;-1.18638;-63.06290;,
 216.29568;-1.18638;-63.06290;,
 216.29568;-1.18638;-63.06290;,
 216.29568;-1.18638;-63.06290;,
 -212.92935;55.22964;59.39150;,
 -208.67810;54.78064;59.38452;,
 -208.67810;55.34404;-59.25936;,
 -212.92935;55.79300;-59.25230;,
 -206.91765;53.69682;59.36712;,
 -206.91765;54.26014;-59.27668;,
 -208.67810;52.61298;59.34962;,
 -208.67810;53.17632;-59.29414;,
 -212.92935;52.16400;59.34256;,
 -212.92935;52.72740;-59.30132;,
 -217.18003;52.61298;59.34962;,
 -217.18003;53.17632;-59.29414;,
 -218.94121;53.69682;59.36712;,
 -218.94121;54.26014;-59.27668;,
 -217.18003;54.78064;59.38452;,
 -217.18003;55.34404;-59.25936;,
 -212.92935;55.22964;59.39150;,
 -212.92935;55.79300;-59.25230;,
 -212.92935;53.69682;59.36712;,
 -212.92935;53.69682;59.36712;,
 -212.92935;53.69682;59.36712;,
 -212.92935;53.69682;59.36712;,
 -212.92935;53.69682;59.36712;,
 -212.92935;53.69682;59.36712;,
 -212.92935;53.69682;59.36712;,
 -212.92935;53.69682;59.36712;,
 -212.92935;54.26014;-59.27668;,
 -212.92935;54.26014;-59.27668;,
 -212.92935;54.26014;-59.27668;,
 -212.92935;54.26014;-59.27668;,
 -212.92935;54.26014;-59.27668;,
 -212.92935;54.26014;-59.27668;,
 -212.92935;54.26014;-59.27668;,
 -212.92935;54.26014;-59.27668;,
 -212.92935;46.31160;59.39150;,
 -208.67810;45.86274;59.38452;,
 -208.67810;46.42610;-59.25936;,
 -212.92935;46.87508;-59.25230;,
 -206.91765;44.77882;59.36712;,
 -206.91765;45.34218;-59.27668;,
 -208.67810;43.69500;59.34962;,
 -208.67810;44.25836;-59.29414;,
 -212.92935;43.24600;59.34256;,
 -212.92935;43.80944;-59.30132;,
 -217.18003;43.69500;59.34962;,
 -217.18003;44.25836;-59.29414;,
 -218.94121;44.77882;59.36712;,
 -218.94121;45.34218;-59.27668;,
 -217.18003;45.86274;59.38452;,
 -217.18003;46.42610;-59.25936;,
 -212.92935;46.31160;59.39150;,
 -212.92935;46.87508;-59.25230;,
 -212.92935;44.77882;59.36712;,
 -212.92935;44.77882;59.36712;,
 -212.92935;44.77882;59.36712;,
 -212.92935;44.77882;59.36712;,
 -212.92935;44.77882;59.36712;,
 -212.92935;44.77882;59.36712;,
 -212.92935;44.77882;59.36712;,
 -212.92935;44.77882;59.36712;,
 -212.92935;45.34218;-59.27668;,
 -212.92935;45.34218;-59.27668;,
 -212.92935;45.34218;-59.27668;,
 -212.92935;45.34218;-59.27668;,
 -212.92935;45.34218;-59.27668;,
 -212.92935;45.34218;-59.27668;,
 -212.92935;45.34218;-59.27668;,
 -212.92935;45.34218;-59.27668;,
 215.42827;46.31160;59.39150;,
 219.67918;45.86274;59.38452;,
 219.67918;46.42610;-59.25936;,
 215.42827;46.87508;-59.25230;,
 221.43990;44.77882;59.36712;,
 221.43990;45.34218;-59.27668;,
 219.67918;43.69500;59.34962;,
 219.67918;44.25836;-59.29414;,
 215.42827;43.24600;59.34256;,
 215.42827;43.80944;-59.30132;,
 211.17720;43.69500;59.34962;,
 211.17720;44.25836;-59.29414;,
 209.41631;44.77882;59.36712;,
 209.41631;45.34218;-59.27668;,
 211.17720;45.86274;59.38452;,
 211.17720;46.42610;-59.25936;,
 215.42827;46.31160;59.39150;,
 215.42827;46.87508;-59.25230;,
 215.42827;44.77882;59.36712;,
 215.42827;44.77882;59.36712;,
 215.42827;44.77882;59.36712;,
 215.42827;44.77882;59.36712;,
 215.42827;44.77882;59.36712;,
 215.42827;44.77882;59.36712;,
 215.42827;44.77882;59.36712;,
 215.42827;44.77882;59.36712;,
 215.42827;45.34218;-59.27668;,
 215.42827;45.34218;-59.27668;,
 215.42827;45.34218;-59.27668;,
 215.42827;45.34218;-59.27668;,
 215.42827;45.34218;-59.27668;,
 215.42827;45.34218;-59.27668;,
 215.42827;45.34218;-59.27668;,
 215.42827;45.34218;-59.27668;,
 215.42827;53.91036;59.39150;,
 219.67918;53.46138;59.38452;,
 219.67918;54.02476;-59.25936;,
 215.42827;54.47376;-59.25230;,
 221.43990;52.37754;59.36712;,
 221.43990;52.94092;-59.27668;,
 219.67918;51.29368;59.34962;,
 219.67918;51.85704;-59.29414;,
 215.42827;50.84474;59.34256;,
 215.42827;51.40810;-59.30132;,
 211.17720;51.29368;59.34962;,
 211.17720;51.85702;-59.29414;,
 209.41631;52.37754;59.36712;,
 209.41631;52.94092;-59.27668;,
 211.17720;53.46138;59.38452;,
 211.17720;54.02476;-59.25936;,
 215.42827;53.91036;59.39150;,
 215.42827;54.47376;-59.25230;,
 215.42827;52.37754;59.36712;,
 215.42827;52.37754;59.36712;,
 215.42827;52.37754;59.36712;,
 215.42827;52.37754;59.36712;,
 215.42827;52.37754;59.36712;,
 215.42827;52.37754;59.36712;,
 215.42827;52.37754;59.36712;,
 215.42827;52.37754;59.36712;,
 215.42827;52.94092;-59.27668;,
 215.42827;52.94092;-59.27668;,
 215.42827;52.94092;-59.27668;,
 215.42827;52.94092;-59.27668;,
 215.42827;52.94092;-59.27668;,
 215.42827;52.94092;-59.27668;,
 215.42827;52.94092;-59.27668;,
 215.42827;52.94092;-59.27668;,
 -247.25467;36.93646;-79.01658;,
 -237.45725;34.12486;-89.01154;,
 -247.25467;34.12486;-93.15156;,
 -247.25467;36.93646;-79.01658;,
 -233.39886;34.12486;-79.01658;,
 -247.25467;36.93646;-79.01658;,
 -237.45725;34.12486;-69.02166;,
 -247.25467;36.93646;-79.01658;,
 -247.25467;34.12486;-64.88162;,
 -247.25467;36.93646;-79.01658;,
 -257.05218;34.12486;-69.02166;,
 -247.25467;36.93646;-79.01658;,
 -261.11053;34.12486;-79.01658;,
 -247.25467;36.93646;-79.01658;,
 -257.05218;34.12486;-89.01154;,
 -247.25467;36.93646;-79.01658;,
 -247.25467;34.12486;-93.15156;,
 -229.15120;26.11802;-97.48482;,
 -247.25467;26.11802;-105.13465;,
 -221.65252;26.11802;-79.01658;,
 -229.15120;26.11802;-60.54838;,
 -247.25467;26.11802;-52.89856;,
 -265.35818;26.11802;-60.54838;,
 -272.85682;26.11802;-79.01658;,
 -265.35818;26.11802;-97.48482;,
 -247.25467;26.11802;-105.13465;,
 -223.60149;14.13498;-103.14652;,
 -247.25467;14.13498;-113.14144;,
 -213.80403;14.13498;-79.01658;,
 -223.60149;14.13498;-54.88668;,
 -247.25467;14.13498;-44.89176;,
 -270.90813;14.13498;-54.88668;,
 -280.70545;14.13498;-79.01658;,
 -270.90813;14.13498;-103.14650;,
 -247.25467;14.13498;-113.14144;,
 -221.65252;0.00000;-105.13465;,
 -247.25467;0.00000;-115.95307;,
 -211.04778;0.00000;-79.01658;,
 -221.65252;0.00000;-52.89856;,
 -247.25467;0.00000;-42.08016;,
 -272.85682;0.00000;-52.89856;,
 -283.46175;0.00000;-79.01658;,
 -272.85682;0.00000;-105.13465;,
 -247.25467;0.00000;-115.95307;,
 -223.60149;-14.13498;-103.14652;,
 -247.25467;-14.13498;-113.14144;,
 -213.80403;-14.13498;-79.01658;,
 -223.60149;-14.13498;-54.88668;,
 -247.25467;-14.13498;-44.89176;,
 -270.90813;-14.13498;-54.88668;,
 -280.70545;-14.13498;-79.01658;,
 -270.90813;-14.13498;-103.14650;,
 -247.25467;-14.13498;-113.14144;,
 -229.15120;-26.11802;-97.48482;,
 -247.25467;-26.11802;-105.13465;,
 -221.65252;-26.11802;-79.01658;,
 -229.15120;-26.11802;-60.54838;,
 -247.25467;-26.11802;-52.89856;,
 -265.35818;-26.11802;-60.54838;,
 -272.85682;-26.11802;-79.01658;,
 -265.35818;-26.11802;-97.48482;,
 -247.25467;-26.11802;-105.13465;,
 -237.45725;-34.12486;-89.01154;,
 -247.25467;-34.12486;-93.15156;,
 -233.39886;-34.12486;-79.01658;,
 -237.45725;-34.12486;-69.02166;,
 -247.25467;-34.12486;-64.88162;,
 -257.05218;-34.12486;-69.02166;,
 -261.11053;-34.12486;-79.01658;,
 -257.05218;-34.12486;-89.01154;,
 -247.25467;-34.12486;-93.15156;,
 -247.25467;-36.93646;-79.01658;,
 -247.25467;-36.93646;-79.01658;,
 -247.25467;-36.93646;-79.01658;,
 -247.25467;-36.93646;-79.01658;,
 -247.25467;-36.93646;-79.01658;,
 -247.25467;-36.93646;-79.01658;,
 -247.25467;-36.93646;-79.01658;,
 -247.25467;-36.93646;-79.01658;,
 256.04656;36.93646;-79.01658;,
 265.84410;34.12486;-89.01154;,
 256.04656;34.12486;-93.15156;,
 256.04656;36.93646;-79.01658;,
 269.90247;34.12486;-79.01658;,
 256.04656;36.93646;-79.01658;,
 265.84410;34.12486;-69.02166;,
 256.04656;36.93646;-79.01658;,
 256.04656;34.12486;-64.88162;,
 256.04656;36.93646;-79.01658;,
 246.24920;34.12486;-69.02166;,
 256.04656;36.93646;-79.01658;,
 242.19087;34.12486;-79.01658;,
 256.04656;36.93646;-79.01658;,
 246.24920;34.12486;-89.01154;,
 256.04656;36.93646;-79.01658;,
 256.04656;34.12486;-93.15156;,
 274.15003;26.11802;-97.48482;,
 256.04656;26.11802;-105.13465;,
 281.64869;26.11802;-79.01658;,
 274.15003;26.11802;-60.54838;,
 256.04656;26.11802;-52.89856;,
 237.94302;26.11802;-60.54838;,
 230.44441;26.11802;-79.01658;,
 237.94302;26.11802;-97.48482;,
 256.04656;26.11802;-105.13465;,
 279.69996;14.13498;-103.14652;,
 256.04656;14.13498;-113.14144;,
 289.49725;14.13498;-79.01658;,
 279.69996;14.13498;-54.88668;,
 256.04656;14.13498;-44.89176;,
 232.39336;14.13498;-54.88668;,
 222.59590;14.13498;-79.01658;,
 232.39336;14.13498;-103.14650;,
 256.04656;14.13498;-113.14144;,
 281.64869;0.00000;-105.13465;,
 256.04656;0.00000;-115.95307;,
 292.25354;0.00000;-79.01658;,
 281.64869;0.00000;-52.89856;,
 256.04656;0.00000;-42.08016;,
 230.44441;0.00000;-52.89856;,
 219.83968;0.00000;-79.01658;,
 230.44441;0.00000;-105.13465;,
 256.04656;0.00000;-115.95307;,
 279.69996;-14.13498;-103.14652;,
 256.04656;-14.13498;-113.14144;,
 289.49725;-14.13498;-79.01658;,
 279.69996;-14.13498;-54.88668;,
 256.04656;-14.13498;-44.89176;,
 232.39336;-14.13498;-54.88668;,
 222.59590;-14.13498;-79.01658;,
 232.39336;-14.13498;-103.14650;,
 256.04656;-14.13498;-113.14144;,
 274.15003;-26.11802;-97.48482;,
 256.04656;-26.11802;-105.13465;,
 281.64869;-26.11802;-79.01658;,
 274.15003;-26.11802;-60.54838;,
 256.04656;-26.11802;-52.89856;,
 237.94302;-26.11802;-60.54838;,
 230.44441;-26.11802;-79.01658;,
 237.94302;-26.11802;-97.48482;,
 256.04656;-26.11802;-105.13465;,
 265.84410;-34.12486;-89.01154;,
 256.04656;-34.12486;-93.15156;,
 269.90247;-34.12486;-79.01658;,
 265.84410;-34.12486;-69.02166;,
 256.04656;-34.12486;-64.88162;,
 246.24920;-34.12486;-69.02166;,
 242.19087;-34.12486;-79.01658;,
 246.24920;-34.12486;-89.01154;,
 256.04656;-34.12486;-93.15156;,
 256.04656;-36.93646;-79.01658;,
 256.04656;-36.93646;-79.01658;,
 256.04656;-36.93646;-79.01658;,
 256.04656;-36.93646;-79.01658;,
 256.04656;-36.93646;-79.01658;,
 256.04656;-36.93646;-79.01658;,
 256.04656;-36.93646;-79.01658;,
 256.04656;-36.93646;-79.01658;,
 257.21609;-50.11058;-102.24442;,
 257.21609;0.20460;-77.08682;,
 274.65384;-50.11058;-94.87590;,
 257.21609;0.20460;-77.08682;,
 281.87671;-50.11058;-77.08682;,
 257.21609;0.20460;-77.08682;,
 274.65384;-50.11058;-59.29776;,
 257.21609;0.20460;-77.08682;,
 257.21609;-50.11058;-51.92922;,
 257.21609;0.20460;-77.08682;,
 239.77837;-50.11058;-59.29776;,
 257.21609;0.20460;-77.08682;,
 232.55540;-50.11058;-77.08682;,
 257.21609;0.20460;-77.08682;,
 239.77837;-50.11058;-94.87586;,
 257.21609;0.20460;-77.08682;,
 257.21609;-50.11058;-102.24442;,
 257.21609;-33.51408;-77.08682;,
 257.21609;-50.11058;-102.24442;,
 274.65384;-50.11058;-94.87590;,
 281.87671;-50.11058;-77.08682;,
 274.65384;-50.11058;-59.29776;,
 257.21609;-50.11058;-51.92922;,
 239.77837;-50.11058;-59.29776;,
 232.55540;-50.11058;-77.08682;,
 239.77837;-50.11058;-94.87586;,
 -247.55887;-50.11058;-102.24442;,
 -247.55887;0.20460;-77.08682;,
 -230.12102;-50.11058;-94.87590;,
 -247.55887;0.20460;-77.08682;,
 -222.89812;-50.11058;-77.08682;,
 -247.55887;0.20460;-77.08682;,
 -230.12102;-50.11058;-59.29776;,
 -247.55887;0.20460;-77.08682;,
 -247.55887;-50.11058;-51.92922;,
 -247.55887;0.20460;-77.08682;,
 -264.99656;-50.11058;-59.29776;,
 -247.55887;0.20460;-77.08682;,
 -272.21946;-50.11058;-77.08682;,
 -247.55887;0.20460;-77.08682;,
 -264.99656;-50.11058;-94.87586;,
 -247.55887;0.20460;-77.08682;,
 -247.55887;-50.11058;-102.24442;,
 -247.55887;-33.51408;-77.08682;,
 -247.55887;-50.11058;-102.24442;,
 -230.12102;-50.11058;-94.87590;,
 -222.89812;-50.11058;-77.08682;,
 -230.12102;-50.11058;-59.29776;,
 -247.55887;-50.11058;-51.92922;,
 -264.99656;-50.11058;-59.29776;,
 -272.21946;-50.11058;-77.08682;,
 -264.99656;-50.11058;-94.87586;;
 
 518;
 4;0,1,2,3;,
 4;4,5,6,7;,
 4;8,9,10,11;,
 4;12,13,14,15;,
 4;12,5,16,17;,
 4;18,19,6,15;,
 3;20,21,22;,
 3;23,24,21;,
 3;25,26,24;,
 3;27,28,26;,
 3;29,30,28;,
 3;31,32,30;,
 3;33,34,32;,
 3;35,36,34;,
 4;22,21,37,38;,
 4;21,24,39,37;,
 4;24,26,40,39;,
 4;26,28,41,40;,
 4;28,30,42,41;,
 4;30,32,43,42;,
 4;32,34,44,43;,
 4;34,36,45,44;,
 4;38,37,46,47;,
 4;37,39,48,46;,
 4;39,40,49,48;,
 4;40,41,50,49;,
 4;41,42,51,50;,
 4;42,43,52,51;,
 4;43,44,53,52;,
 4;44,45,54,53;,
 4;47,46,55,56;,
 4;46,48,57,55;,
 4;48,49,58,57;,
 4;49,50,59,58;,
 4;50,51,60,59;,
 4;51,52,61,60;,
 4;52,53,62,61;,
 4;53,54,63,62;,
 4;56,55,64,65;,
 4;55,57,66,64;,
 4;57,58,67,66;,
 4;58,59,68,67;,
 4;59,60,69,68;,
 4;60,61,70,69;,
 4;61,62,71,70;,
 4;62,63,72,71;,
 4;65,64,73,74;,
 4;64,66,75,73;,
 4;66,67,76,75;,
 4;67,68,77,76;,
 4;68,69,78,77;,
 4;69,70,79,78;,
 4;70,71,80,79;,
 4;71,72,81,80;,
 4;74,73,82,83;,
 4;73,75,84,82;,
 4;75,76,85,84;,
 4;76,77,86,85;,
 4;77,78,87,86;,
 4;78,79,88,87;,
 4;79,80,89,88;,
 4;80,81,90,89;,
 3;83,82,91;,
 3;82,84,92;,
 3;84,85,93;,
 3;85,86,94;,
 3;86,87,95;,
 3;87,88,96;,
 3;88,89,97;,
 3;89,90,98;,
 3;99,100,101;,
 3;102,103,100;,
 3;104,105,103;,
 3;106,107,105;,
 3;108,109,107;,
 3;110,111,109;,
 3;112,113,111;,
 3;114,115,113;,
 4;101,100,116,117;,
 4;100,103,118,116;,
 4;103,105,119,118;,
 4;105,107,120,119;,
 4;107,109,121,120;,
 4;109,111,122,121;,
 4;111,113,123,122;,
 4;113,115,124,123;,
 4;117,116,125,126;,
 4;116,118,127,125;,
 4;118,119,128,127;,
 4;119,120,129,128;,
 4;120,121,130,129;,
 4;121,122,131,130;,
 4;122,123,132,131;,
 4;123,124,133,132;,
 4;126,125,134,135;,
 4;125,127,136,134;,
 4;127,128,137,136;,
 4;128,129,138,137;,
 4;129,130,139,138;,
 4;130,131,140,139;,
 4;131,132,141,140;,
 4;132,133,142,141;,
 4;135,134,143,144;,
 4;134,136,145,143;,
 4;136,137,146,145;,
 4;137,138,147,146;,
 4;138,139,148,147;,
 4;139,140,149,148;,
 4;140,141,150,149;,
 4;141,142,151,150;,
 4;144,143,152,153;,
 4;143,145,154,152;,
 4;145,146,155,154;,
 4;146,147,156,155;,
 4;147,148,157,156;,
 4;148,149,158,157;,
 4;149,150,159,158;,
 4;150,151,160,159;,
 4;153,152,161,162;,
 4;152,154,163,161;,
 4;154,155,164,163;,
 4;155,156,165,164;,
 4;156,157,166,165;,
 4;157,158,167,166;,
 4;158,159,168,167;,
 4;159,160,169,168;,
 3;162,161,170;,
 3;161,163,171;,
 3;163,164,172;,
 3;164,165,173;,
 3;165,166,174;,
 3;166,167,175;,
 3;167,168,176;,
 3;168,169,177;,
 3;178,179,180;,
 3;180,181,182;,
 3;182,183,184;,
 3;184,185,186;,
 3;186,187,188;,
 3;188,189,190;,
 3;190,191,192;,
 3;192,193,194;,
 3;195,196,197;,
 3;195,197,198;,
 3;195,198,199;,
 3;195,199,200;,
 3;195,200,201;,
 3;195,201,202;,
 3;195,202,203;,
 3;195,203,196;,
 3;204,205,206;,
 3;206,207,208;,
 3;208,209,210;,
 3;210,211,212;,
 3;212,213,214;,
 3;214,215,216;,
 3;216,217,218;,
 3;218,219,220;,
 3;221,222,223;,
 3;221,223,224;,
 3;221,224,225;,
 3;221,225,226;,
 3;221,226,227;,
 3;221,227,228;,
 3;221,228,229;,
 3;221,229,222;,
 4;230,231,232,233;,
 4;231,234,235,232;,
 4;234,236,237,235;,
 4;236,238,239,237;,
 4;238,240,241,239;,
 4;240,242,243,241;,
 4;242,244,245,243;,
 4;244,246,247,245;,
 3;248,231,230;,
 3;249,234,231;,
 3;250,236,234;,
 3;251,238,236;,
 3;252,240,238;,
 3;253,242,240;,
 3;254,244,242;,
 3;255,246,244;,
 3;256,233,232;,
 3;257,232,235;,
 3;258,235,237;,
 3;259,237,239;,
 3;260,239,241;,
 3;261,241,243;,
 3;262,243,245;,
 3;263,245,247;,
 4;264,265,266,267;,
 4;265,268,269,266;,
 4;268,270,271,269;,
 4;270,272,273,271;,
 4;272,274,275,273;,
 4;274,276,277,275;,
 4;276,278,279,277;,
 4;278,280,281,279;,
 3;282,265,264;,
 3;283,268,265;,
 3;284,270,268;,
 3;285,272,270;,
 3;286,274,272;,
 3;287,276,274;,
 3;288,278,276;,
 3;289,280,278;,
 3;290,267,266;,
 3;291,266,269;,
 3;292,269,271;,
 3;293,271,273;,
 3;294,273,275;,
 3;295,275,277;,
 3;296,277,279;,
 3;297,279,281;,
 4;298,299,300,301;,
 4;299,302,303,300;,
 4;302,304,305,303;,
 4;304,306,307,305;,
 4;306,308,309,307;,
 4;308,310,311,309;,
 4;310,312,313,311;,
 4;312,314,315,313;,
 3;316,299,298;,
 3;317,302,299;,
 3;318,304,302;,
 3;319,306,304;,
 3;320,308,306;,
 3;321,310,308;,
 3;322,312,310;,
 3;323,314,312;,
 3;324,301,300;,
 3;325,300,303;,
 3;326,303,305;,
 3;327,305,307;,
 3;328,307,309;,
 3;329,309,311;,
 3;330,311,313;,
 3;331,313,315;,
 4;332,333,334,335;,
 4;333,336,337,334;,
 4;336,338,339,337;,
 4;338,340,341,339;,
 4;340,342,343,341;,
 4;342,344,345,343;,
 4;344,346,347,345;,
 4;346,348,349,347;,
 3;350,333,332;,
 3;351,336,333;,
 3;352,338,336;,
 3;353,340,338;,
 3;354,342,340;,
 3;355,344,342;,
 3;356,346,344;,
 3;357,348,346;,
 3;358,335,334;,
 3;359,334,337;,
 3;360,337,339;,
 3;361,339,341;,
 3;362,341,343;,
 3;363,343,345;,
 3;364,345,347;,
 3;365,347,349;,
 4;366,367,368,369;,
 4;367,370,371,368;,
 4;370,372,373,371;,
 4;372,374,375,373;,
 4;374,376,377,375;,
 4;376,378,379,377;,
 4;378,380,381,379;,
 4;380,382,383,381;,
 3;384,367,366;,
 3;385,370,367;,
 3;386,372,370;,
 3;387,374,372;,
 3;388,376,374;,
 3;389,378,376;,
 3;390,380,378;,
 3;391,382,380;,
 3;392,369,368;,
 3;393,368,371;,
 3;394,371,373;,
 3;395,373,375;,
 3;396,375,377;,
 3;397,377,379;,
 3;398,379,381;,
 3;399,381,383;,
 4;400,401,402,403;,
 4;401,404,405,402;,
 4;404,406,407,405;,
 4;406,408,409,407;,
 4;408,410,411,409;,
 4;410,412,413,411;,
 4;412,414,415,413;,
 4;414,416,417,415;,
 3;418,401,400;,
 3;419,404,401;,
 3;420,406,404;,
 3;421,408,406;,
 3;422,410,408;,
 3;423,412,410;,
 3;424,414,412;,
 3;425,416,414;,
 3;426,403,402;,
 3;427,402,405;,
 3;428,405,407;,
 3;429,407,409;,
 3;430,409,411;,
 3;431,411,413;,
 3;432,413,415;,
 3;433,415,417;,
 4;434,435,436,437;,
 4;435,438,439,436;,
 4;438,440,441,439;,
 4;440,442,443,441;,
 4;442,444,445,443;,
 4;444,446,447,445;,
 4;446,448,449,447;,
 4;448,450,451,449;,
 3;452,435,434;,
 3;453,438,435;,
 3;454,440,438;,
 3;455,442,440;,
 3;456,444,442;,
 3;457,446,444;,
 3;458,448,446;,
 3;459,450,448;,
 3;460,437,436;,
 3;461,436,439;,
 3;462,439,441;,
 3;463,441,443;,
 3;464,443,445;,
 3;465,445,447;,
 3;466,447,449;,
 3;467,449,451;,
 4;468,469,470,471;,
 4;469,472,473,470;,
 4;472,474,475,473;,
 4;474,476,477,475;,
 4;476,478,479,477;,
 4;478,480,481,479;,
 4;480,482,483,481;,
 4;482,484,485,483;,
 3;486,469,468;,
 3;487,472,469;,
 3;488,474,472;,
 3;489,476,474;,
 3;490,478,476;,
 3;491,480,478;,
 3;492,482,480;,
 3;493,484,482;,
 3;494,471,470;,
 3;495,470,473;,
 3;496,473,475;,
 3;497,475,477;,
 3;498,477,479;,
 3;499,479,481;,
 3;500,481,483;,
 3;501,483,485;,
 3;502,503,504;,
 3;505,506,503;,
 3;507,508,506;,
 3;509,510,508;,
 3;511,512,510;,
 3;513,514,512;,
 3;515,516,514;,
 3;517,518,516;,
 4;504,503,519,520;,
 4;503,506,521,519;,
 4;506,508,522,521;,
 4;508,510,523,522;,
 4;510,512,524,523;,
 4;512,514,525,524;,
 4;514,516,526,525;,
 4;516,518,527,526;,
 4;520,519,528,529;,
 4;519,521,530,528;,
 4;521,522,531,530;,
 4;522,523,532,531;,
 4;523,524,533,532;,
 4;524,525,534,533;,
 4;525,526,535,534;,
 4;526,527,536,535;,
 4;529,528,537,538;,
 4;528,530,539,537;,
 4;530,531,540,539;,
 4;531,532,541,540;,
 4;532,533,542,541;,
 4;533,534,543,542;,
 4;534,535,544,543;,
 4;535,536,545,544;,
 4;538,537,546,547;,
 4;537,539,548,546;,
 4;539,540,549,548;,
 4;540,541,550,549;,
 4;541,542,551,550;,
 4;542,543,552,551;,
 4;543,544,553,552;,
 4;544,545,554,553;,
 4;547,546,555,556;,
 4;546,548,557,555;,
 4;548,549,558,557;,
 4;549,550,559,558;,
 4;550,551,560,559;,
 4;551,552,561,560;,
 4;552,553,562,561;,
 4;553,554,563,562;,
 4;556,555,564,565;,
 4;555,557,566,564;,
 4;557,558,567,566;,
 4;558,559,568,567;,
 4;559,560,569,568;,
 4;560,561,570,569;,
 4;561,562,571,570;,
 4;562,563,572,571;,
 3;565,564,573;,
 3;564,566,574;,
 3;566,567,575;,
 3;567,568,576;,
 3;568,569,577;,
 3;569,570,578;,
 3;570,571,579;,
 3;571,572,580;,
 3;581,582,583;,
 3;584,585,582;,
 3;586,587,585;,
 3;588,589,587;,
 3;590,591,589;,
 3;592,593,591;,
 3;594,595,593;,
 3;596,597,595;,
 4;583,582,598,599;,
 4;582,585,600,598;,
 4;585,587,601,600;,
 4;587,589,602,601;,
 4;589,591,603,602;,
 4;591,593,604,603;,
 4;593,595,605,604;,
 4;595,597,606,605;,
 4;599,598,607,608;,
 4;598,600,609,607;,
 4;600,601,610,609;,
 4;601,602,611,610;,
 4;602,603,612,611;,
 4;603,604,613,612;,
 4;604,605,614,613;,
 4;605,606,615,614;,
 4;608,607,616,617;,
 4;607,609,618,616;,
 4;609,610,619,618;,
 4;610,611,620,619;,
 4;611,612,621,620;,
 4;612,613,622,621;,
 4;613,614,623,622;,
 4;614,615,624,623;,
 4;617,616,625,626;,
 4;616,618,627,625;,
 4;618,619,628,627;,
 4;619,620,629,628;,
 4;620,621,630,629;,
 4;621,622,631,630;,
 4;622,623,632,631;,
 4;623,624,633,632;,
 4;626,625,634,635;,
 4;625,627,636,634;,
 4;627,628,637,636;,
 4;628,629,638,637;,
 4;629,630,639,638;,
 4;630,631,640,639;,
 4;631,632,641,640;,
 4;632,633,642,641;,
 4;635,634,643,644;,
 4;634,636,645,643;,
 4;636,637,646,645;,
 4;637,638,647,646;,
 4;638,639,648,647;,
 4;639,640,649,648;,
 4;640,641,650,649;,
 4;641,642,651,650;,
 3;644,643,652;,
 3;643,645,653;,
 3;645,646,654;,
 3;646,647,655;,
 3;647,648,656;,
 3;648,649,657;,
 3;649,650,658;,
 3;650,651,659;,
 3;660,661,662;,
 3;662,663,664;,
 3;664,665,666;,
 3;666,667,668;,
 3;668,669,670;,
 3;670,671,672;,
 3;672,673,674;,
 3;674,675,676;,
 3;677,678,679;,
 3;677,679,680;,
 3;677,680,681;,
 3;677,681,682;,
 3;677,682,683;,
 3;677,683,684;,
 3;677,684,685;,
 3;677,685,678;,
 3;686,687,688;,
 3;688,689,690;,
 3;690,691,692;,
 3;692,693,694;,
 3;694,695,696;,
 3;696,697,698;,
 3;698,699,700;,
 3;700,701,702;,
 3;703,704,705;,
 3;703,705,706;,
 3;703,706,707;,
 3;703,707,708;,
 3;703,708,709;,
 3;703,709,710;,
 3;703,710,711;,
 3;703,711,704;;
 
 MeshMaterialList {
  4;
  518;
  0,
  0,
  0,
  0,
  0,
  0,
  1,
  1,
  1,
  1,
  1,
  1,
  1,
  1,
  1,
  1,
  1,
  1,
  1,
  1,
  1,
  1,
  1,
  1,
  1,
  1,
  1,
  1,
  1,
  1,
  1,
  1,
  1,
  1,
  1,
  1,
  1,
  1,
  1,
  1,
  1,
  1,
  1,
  1,
  1,
  1,
  1,
  1,
  1,
  1,
  1,
  1,
  1,
  1,
  1,
  1,
  1,
  1,
  1,
  1,
  1,
  1,
  1,
  1,
  1,
  1,
  1,
  1,
  1,
  1,
  1,
  1,
  1,
  1,
  1,
  1,
  1,
  1,
  1,
  1,
  1,
  1,
  1,
  1,
  1,
  1,
  1,
  1,
  1,
  1,
  1,
  1,
  1,
  1,
  1,
  1,
  1,
  1,
  1,
  1,
  1,
  1,
  1,
  1,
  1,
  1,
  1,
  1,
  1,
  1,
  1,
  1,
  1,
  1,
  1,
  1,
  1,
  1,
  1,
  1,
  1,
  1,
  1,
  1,
  1,
  1,
  1,
  1,
  1,
  1,
  1,
  1,
  1,
  1,
  2,
  2,
  2,
  2,
  2,
  2,
  2,
  2,
  2,
  2,
  2,
  2,
  2,
  2,
  2,
  2,
  2,
  2,
  2,
  2,
  2,
  2,
  2,
  2,
  2,
  2,
  2,
  2,
  2,
  2,
  2,
  2,
  3,
  3,
  3,
  3,
  3,
  3,
  3,
  3,
  3,
  3,
  3,
  3,
  3,
  3,
  3,
  3,
  3,
  3,
  3,
  3,
  3,
  3,
  3,
  3,
  3,
  3,
  3,
  3,
  3,
  3,
  3,
  3,
  3,
  3,
  3,
  3,
  3,
  3,
  3,
  3,
  3,
  3,
  3,
  3,
  3,
  3,
  3,
  3,
  3,
  3,
  3,
  3,
  3,
  3,
  3,
  3,
  3,
  3,
  3,
  3,
  3,
  3,
  3,
  3,
  3,
  3,
  3,
  3,
  3,
  3,
  3,
  3,
  3,
  3,
  3,
  3,
  3,
  3,
  3,
  3,
  3,
  3,
  3,
  3,
  3,
  3,
  3,
  3,
  3,
  3,
  3,
  3,
  3,
  3,
  3,
  3,
  3,
  3,
  3,
  3,
  3,
  3,
  3,
  3,
  3,
  3,
  3,
  3,
  3,
  3,
  3,
  3,
  3,
  3,
  3,
  3,
  3,
  3,
  3,
  3,
  3,
  3,
  3,
  3,
  3,
  3,
  3,
  3,
  3,
  3,
  3,
  3,
  3,
  3,
  3,
  3,
  3,
  3,
  3,
  3,
  3,
  3,
  3,
  3,
  3,
  3,
  3,
  3,
  3,
  3,
  3,
  3,
  3,
  3,
  3,
  3,
  3,
  3,
  3,
  3,
  3,
  3,
  3,
  3,
  3,
  3,
  3,
  3,
  3,
  3,
  3,
  3,
  3,
  3,
  3,
  3,
  3,
  3,
  3,
  3,
  3,
  3,
  3,
  3,
  3,
  3,
  3,
  3,
  3,
  3,
  3,
  3,
  1,
  1,
  1,
  1,
  1,
  1,
  1,
  1,
  1,
  1,
  1,
  1,
  1,
  1,
  1,
  1,
  1,
  1,
  1,
  1,
  1,
  1,
  1,
  1,
  1,
  1,
  1,
  1,
  1,
  1,
  1,
  1,
  1,
  1,
  1,
  1,
  1,
  1,
  1,
  1,
  1,
  1,
  1,
  1,
  1,
  1,
  1,
  1,
  1,
  1,
  1,
  1,
  1,
  1,
  1,
  1,
  1,
  1,
  1,
  1,
  1,
  1,
  1,
  1,
  1,
  1,
  1,
  1,
  1,
  1,
  1,
  1,
  1,
  1,
  1,
  1,
  1,
  1,
  1,
  1,
  1,
  1,
  1,
  1,
  1,
  1,
  1,
  1,
  1,
  1,
  1,
  1,
  1,
  1,
  1,
  1,
  1,
  1,
  1,
  1,
  1,
  1,
  1,
  1,
  1,
  1,
  1,
  1,
  1,
  1,
  1,
  1,
  1,
  1,
  1,
  1,
  1,
  1,
  1,
  1,
  1,
  1,
  1,
  1,
  1,
  1,
  1,
  1,
  2,
  2,
  2,
  2,
  2,
  2,
  2,
  2,
  2,
  2,
  2,
  2,
  2,
  2,
  2,
  2,
  2,
  2,
  2,
  2,
  2,
  2,
  2,
  2,
  2,
  2,
  2,
  2,
  2,
  2,
  2,
  2;;
  Material {
   0.420000;0.300800;0.194400;1.000000;;
   5.000000;
   0.000000;0.000000;0.000000;;
   0.000000;0.000000;0.000000;;
  }
  Material {
   0.800000;0.000000;0.060000;1.000000;;
   5.000000;
   0.000000;0.000000;0.000000;;
   0.000000;0.000000;0.000000;;
  }
  Material {
   0.517600;0.517600;0.517600;1.000000;;
   5.000000;
   0.000000;0.000000;0.000000;;
   0.000000;0.000000;0.000000;;
  }
  Material {
   0.800000;0.800000;0.800000;1.000000;;
   5.000000;
   0.000000;0.000000;0.000000;;
   0.000000;0.000000;0.000000;;
  }
 }
 MeshNormals {
  511;
  0.000000;0.000000;-1.000000;,
  1.000000;0.000000;0.000000;,
  0.000000;0.000000;1.000000;,
  -1.000000;0.000000;0.000000;,
  0.000000;1.000000;0.000000;,
  0.000000;-1.000000;-0.000000;,
  0.000000;1.000000;0.000000;,
  0.000001;0.924769;-0.380528;,
  0.273738;0.923493;-0.268752;,
  0.386659;0.922223;0.000000;,
  0.273738;0.923493;0.268752;,
  0.000000;0.924769;0.380528;,
  -0.273738;0.923493;0.268752;,
  -0.386659;0.922223;0.000000;,
  -0.273738;0.923494;-0.268752;,
  0.000001;0.709310;-0.704897;,
  0.504959;0.705948;-0.496644;,
  0.711565;0.702620;0.000000;,
  0.504959;0.705947;0.496644;,
  0.000001;0.709310;0.704897;,
  -0.504957;0.705950;0.496642;,
  -0.711562;0.702623;0.000000;,
  -0.504957;0.705950;-0.496642;,
  0.000001;0.384617;-0.923076;,
  0.658496;0.381494;-0.648726;,
  0.925633;0.378423;0.000000;,
  0.658496;0.381494;0.648726;,
  0.000001;0.384617;0.923076;,
  -0.658495;0.381495;0.648726;,
  -0.925632;0.378425;0.000000;,
  -0.658495;0.381494;-0.648727;,
  0.000001;0.000000;-1.000000;,
  0.712143;-0.000000;-0.702035;,
  1.000000;0.000000;0.000000;,
  0.712143;0.000000;0.702035;,
  0.000001;0.000000;1.000000;,
  -0.712142;-0.000000;0.702036;,
  -1.000000;-0.000000;0.000000;,
  -0.712142;0.000000;-0.702036;,
  0.000001;-0.384617;-0.923076;,
  0.658496;-0.381494;-0.648726;,
  0.925633;-0.378423;0.000000;,
  0.658496;-0.381494;0.648726;,
  0.000001;-0.384617;0.923076;,
  -0.658495;-0.381495;0.648726;,
  -0.925632;-0.378425;0.000000;,
  -0.658495;-0.381494;-0.648727;,
  0.000001;-0.709310;-0.704897;,
  0.504959;-0.705948;-0.496643;,
  0.711565;-0.702620;0.000000;,
  0.504959;-0.705947;0.496644;,
  0.000001;-0.709310;0.704897;,
  -0.504957;-0.705950;0.496642;,
  -0.711562;-0.702623;0.000000;,
  -0.504957;-0.705950;-0.496642;,
  0.000001;-0.924769;-0.380528;,
  0.273738;-0.923493;-0.268752;,
  0.386659;-0.922223;0.000000;,
  0.273738;-0.923493;0.268752;,
  0.000000;-0.924769;0.380528;,
  -0.273738;-0.923493;0.268752;,
  -0.386659;-0.922223;0.000000;,
  -0.273738;-0.923494;-0.268752;,
  0.000000;-1.000000;0.000000;,
  -0.000001;1.000000;0.000000;,
  -0.000001;0.924769;-0.380528;,
  0.273738;0.923493;-0.268753;,
  0.386660;0.922222;0.000000;,
  0.273738;0.923493;0.268753;,
  -0.000001;0.924769;0.380528;,
  -0.273738;0.923494;0.268751;,
  -0.386658;0.922223;0.000000;,
  -0.273738;0.923494;-0.268751;,
  -0.000001;0.709309;-0.704897;,
  0.504958;0.705949;-0.496642;,
  0.711564;0.702621;0.000000;,
  0.504958;0.705949;0.496642;,
  -0.000001;0.709309;0.704897;,
  -0.504959;0.705948;0.496642;,
  -0.711564;0.702621;0.000000;,
  -0.504959;0.705948;-0.496642;,
  -0.000001;0.384616;-0.923077;,
  0.658496;0.381494;-0.648726;,
  0.925633;0.378424;0.000000;,
  0.658496;0.381495;0.648726;,
  -0.000001;0.384617;0.923076;,
  -0.658496;0.381493;0.648726;,
  -0.925633;0.378422;0.000000;,
  -0.658496;0.381493;-0.648726;,
  -0.000001;0.000000;-1.000000;,
  0.712143;0.000000;-0.702035;,
  1.000000;0.000000;0.000000;,
  0.712143;0.000000;0.702035;,
  -0.000001;0.000000;1.000000;,
  -0.712143;0.000000;0.702035;,
  -1.000000;0.000000;0.000000;,
  -0.712143;0.000000;-0.702035;,
  -0.000001;-0.384616;-0.923077;,
  0.658496;-0.381494;-0.648726;,
  0.925633;-0.378424;0.000000;,
  0.658496;-0.381495;0.648726;,
  -0.000001;-0.384617;0.923076;,
  -0.658496;-0.381493;0.648726;,
  -0.925633;-0.378422;0.000000;,
  -0.658496;-0.381493;-0.648726;,
  -0.000001;-0.709309;-0.704897;,
  0.504958;-0.705949;-0.496642;,
  0.711564;-0.702621;0.000000;,
  0.504958;-0.705949;0.496642;,
  -0.000001;-0.709309;0.704897;,
  -0.504959;-0.705948;0.496642;,
  -0.711564;-0.702621;0.000000;,
  -0.504959;-0.705948;-0.496642;,
  -0.000001;-0.924769;-0.380528;,
  0.273738;-0.923493;-0.268753;,
  0.386660;-0.922222;0.000000;,
  0.273738;-0.923493;0.268753;,
  -0.000001;-0.924769;0.380528;,
  -0.273738;-0.923494;0.268751;,
  -0.386658;-0.922223;0.000000;,
  -0.273738;-0.923494;-0.268751;,
  -0.000001;-1.000000;0.000000;,
  -0.000001;0.447214;-0.894427;,
  0.638488;0.443633;-0.628906;,
  0.897947;0.440104;0.000001;,
  0.638489;0.443632;0.628906;,
  -0.000000;0.447213;0.894427;,
  -0.638487;0.443632;0.628908;,
  -0.897946;0.440105;0.000000;,
  -0.638487;0.443632;-0.628907;,
  -0.000000;-1.000000;-0.000000;,
  0.000000;-0.834724;0.550668;,
  -0.395615;-0.832165;0.388575;,
  -0.558330;-0.829619;-0.000000;,
  -0.395615;-0.832165;-0.388575;,
  0.000000;-0.834724;-0.550669;,
  0.395614;-0.832164;-0.388576;,
  0.558329;-0.829620;-0.000000;,
  0.395614;-0.832165;0.388576;,
  -0.000002;0.447214;-0.894427;,
  0.638487;0.443634;-0.628906;,
  0.897946;0.440106;0.000001;,
  0.638487;0.443633;0.628907;,
  -0.000001;0.447213;0.894427;,
  -0.638489;0.443632;0.628906;,
  -0.897947;0.440104;0.000000;,
  -0.638489;0.443632;-0.628906;,
  0.000001;-1.000000;-0.000000;,
  0.000001;-0.834724;0.550668;,
  -0.395613;-0.832166;0.388575;,
  -0.558328;-0.829620;-0.000000;,
  -0.395614;-0.832165;-0.388575;,
  0.000001;-0.834724;-0.550669;,
  0.395616;-0.832164;-0.388576;,
  0.558331;-0.829619;-0.000000;,
  0.395615;-0.832165;0.388575;,
  0.000000;1.000000;0.000000;,
  -0.000001;0.000000;-1.000000;,
  0.573746;0.000000;-0.819033;,
  0.827440;0.000000;-0.561554;,
  0.573747;0.000000;0.819033;,
  -0.000001;0.000000;1.000000;,
  -0.573741;0.000000;0.819037;,
  -0.827429;0.000000;0.561571;,
  -0.573741;0.000000;-0.819037;,
  -0.000001;-0.205147;-0.978731;,
  0.551150;-0.246861;-0.797053;,
  0.797998;-0.264382;-0.541573;,
  0.551151;-0.246860;0.797053;,
  -0.000001;-0.205147;0.978731;,
  -0.551146;-0.246858;0.797057;,
  -0.797988;-0.264380;0.541590;,
  -0.551145;-0.246859;-0.797057;,
  0.263127;-0.477098;-0.838535;,
  0.827438;0.000000;0.561557;,
  0.797996;-0.264381;0.541576;,
  -0.827431;0.000000;-0.561568;,
  -0.797990;-0.264380;-0.541586;,
  0.263126;-0.477098;0.838536;,
  -0.812898;-0.582406;0.000002;,
  0.000000;1.000000;0.000000;,
  -0.000001;0.000000;-1.000000;,
  0.573750;0.000000;-0.819031;,
  0.827442;0.000000;-0.561551;,
  0.573743;0.000000;0.819036;,
  -0.000001;0.000000;1.000000;,
  -0.573737;0.000000;0.819040;,
  -0.827431;0.000000;0.561568;,
  -0.573744;0.000000;-0.819034;,
  -0.000001;-0.205150;-0.978731;,
  0.551154;-0.246862;-0.797050;,
  0.798000;-0.264382;-0.541570;,
  0.551147;-0.246860;0.797056;,
  -0.000001;-0.205145;0.978732;,
  -0.551142;-0.246858;0.797059;,
  -0.797989;-0.264380;0.541587;,
  -0.551149;-0.246860;-0.797054;,
  0.263128;-0.477102;-0.838533;,
  0.827440;0.000000;0.561554;,
  0.797998;-0.264382;0.541573;,
  -0.827433;0.000000;-0.561565;,
  -0.797991;-0.264381;-0.541584;,
  0.263127;-0.477096;0.838537;,
  -0.812898;-0.582406;0.000002;,
  0.000000;1.000000;0.000000;,
  -0.000001;0.000000;-1.000000;,
  0.573754;0.000000;-0.819028;,
  0.827448;0.000000;-0.561543;,
  0.573747;0.000000;0.819033;,
  -0.000001;0.000000;1.000000;,
  -0.573740;0.000000;0.819037;,
  -0.827436;0.000000;0.561560;,
  -0.573748;0.000000;-0.819032;,
  -0.000001;-0.205149;-0.978731;,
  0.551157;-0.246863;-0.797048;,
  0.798005;-0.264383;-0.541562;,
  0.551150;-0.246861;0.797053;,
  -0.000001;-0.205145;0.978732;,
  -0.551144;-0.246859;0.797057;,
  -0.797994;-0.264381;0.541579;,
  -0.551151;-0.246861;-0.797052;,
  0.263130;-0.477103;-0.838532;,
  0.827445;0.000000;0.561546;,
  0.798003;-0.264382;0.541565;,
  -0.827438;0.000000;-0.561557;,
  -0.797996;-0.264382;-0.541575;,
  0.263129;-0.477097;0.838535;,
  -0.812898;-0.582406;0.000002;,
  0.000000;1.000000;0.000000;,
  -0.000001;0.000000;-1.000000;,
  0.573753;0.000000;-0.819028;,
  0.827448;0.000000;-0.561542;,
  0.573750;0.000000;0.819030;,
  -0.000001;0.000000;1.000000;,
  -0.573744;0.000000;0.819035;,
  -0.827432;0.000000;0.561566;,
  -0.573747;0.000000;-0.819033;,
  -0.000001;-0.205149;-0.978731;,
  0.551157;-0.246863;-0.797048;,
  0.798006;-0.264383;-0.541561;,
  0.551154;-0.246860;0.797050;,
  -0.000001;-0.205147;0.978731;,
  -0.551149;-0.246858;0.797055;,
  -0.797991;-0.264380;0.541584;,
  -0.551151;-0.246861;-0.797052;,
  0.263130;-0.477103;-0.838532;,
  0.827442;0.000000;0.561552;,
  0.798000;-0.264381;0.541571;,
  -0.827439;0.000000;-0.561555;,
  -0.797997;-0.264382;-0.541574;,
  0.263128;-0.477098;0.838535;,
  -0.812898;-0.582406;0.000006;,
  0.000000;-0.016030;0.999872;,
  -0.000007;0.999989;0.004748;,
  0.322681;0.946497;0.004494;,
  0.524301;0.851524;0.004043;,
  0.322671;-0.946500;-0.004494;,
  -0.000007;-0.999989;-0.004748;,
  -0.322590;-0.946528;-0.004494;,
  -0.524131;-0.851628;-0.004044;,
  -0.322600;0.946525;0.004495;,
  -0.000000;0.016014;-0.999872;,
  0.524289;-0.851531;-0.004043;,
  -0.524142;0.851621;0.004044;,
  -0.000019;-0.015977;0.999872;,
  0.000000;-0.015902;0.999874;,
  0.000000;-0.016098;0.999870;,
  0.000016;-0.016082;0.999871;,
  -0.000000;-0.016021;0.999872;,
  -0.000016;-0.016082;0.999871;,
  0.000019;-0.015977;0.999872;,
  -0.000000;0.015901;-0.999874;,
  0.000009;0.015937;-0.999873;,
  0.000000;0.016041;-0.999871;,
  -0.000005;0.016092;-0.999871;,
  0.000000;0.016074;-0.999871;,
  0.000005;0.016092;-0.999871;,
  0.000000;0.016041;-0.999871;,
  -0.000009;0.015937;-0.999873;,
  0.000000;-0.016030;0.999872;,
  -0.000007;0.999989;0.004749;,
  0.322685;0.946496;0.004495;,
  0.524320;0.851511;0.004043;,
  0.322671;-0.946500;-0.004494;,
  -0.000007;-0.999989;-0.004749;,
  -0.322590;-0.946528;-0.004495;,
  -0.524128;-0.851630;-0.004044;,
  -0.322604;0.946523;0.004495;,
  -0.000000;0.016014;-0.999872;,
  0.524286;-0.851532;-0.004043;,
  -0.524162;0.851609;0.004044;,
  -0.000019;-0.015977;0.999872;,
  0.000000;-0.015902;0.999874;,
  0.000000;-0.016098;0.999870;,
  0.000016;-0.016082;0.999871;,
  -0.000000;-0.016021;0.999872;,
  -0.000016;-0.016082;0.999871;,
  0.000000;-0.016098;0.999870;,
  0.000019;-0.015977;0.999872;,
  -0.000000;0.015901;-0.999874;,
  0.000009;0.015937;-0.999873;,
  0.000000;0.016041;-0.999871;,
  -0.000005;0.016092;-0.999871;,
  0.000000;0.016074;-0.999871;,
  0.000005;0.016092;-0.999871;,
  0.000000;0.016041;-0.999871;,
  -0.000009;0.015937;-0.999873;,
  -0.000000;-0.016030;0.999872;,
  0.000002;0.999989;0.004749;,
  0.322657;0.946505;0.004495;,
  0.524262;0.851547;0.004043;,
  0.322643;-0.946510;-0.004495;,
  0.000002;-0.999989;-0.004749;,
  -0.322620;-0.946518;-0.004495;,
  -0.524191;-0.851591;-0.004044;,
  -0.322635;0.946513;0.004495;,
  0.000000;0.016014;-0.999872;,
  0.524228;-0.851568;-0.004044;,
  -0.524225;0.851570;0.004044;,
  -0.000019;-0.015977;0.999872;,
  -0.000000;-0.015902;0.999874;,
  0.000000;-0.016098;0.999870;,
  0.000016;-0.016082;0.999871;,
  0.000000;-0.016021;0.999872;,
  -0.000016;-0.016082;0.999871;,
  0.000019;-0.015977;0.999872;,
  0.000000;0.015901;-0.999874;,
  0.000009;0.015937;-0.999873;,
  0.000000;0.016041;-0.999871;,
  -0.000005;0.016092;-0.999871;,
  -0.000000;0.016074;-0.999871;,
  0.000005;0.016092;-0.999871;,
  0.000000;0.016041;-0.999871;,
  -0.000009;0.015937;-0.999873;,
  -0.000000;-0.016030;0.999872;,
  0.000002;0.999989;0.004749;,
  0.322650;0.946508;0.004495;,
  0.524235;0.851564;0.004044;,
  0.322650;-0.946508;-0.004494;,
  0.000003;-0.999989;-0.004748;,
  -0.322628;-0.946515;-0.004494;,
  -0.524211;-0.851579;-0.004044;,
  -0.322627;0.946515;0.004495;,
  -0.000000;0.016014;-0.999872;,
  0.524245;-0.851558;-0.004044;,
  -0.524198;0.851587;0.004044;,
  -0.000019;-0.015977;0.999872;,
  -0.000000;-0.015902;0.999874;,
  0.000000;-0.016098;0.999870;,
  0.000016;-0.016082;0.999871;,
  0.000000;-0.016021;0.999872;,
  -0.000016;-0.016082;0.999871;,
  0.000019;-0.015977;0.999872;,
  0.000000;0.015901;-0.999874;,
  0.000009;0.015938;-0.999873;,
  0.000000;0.016041;-0.999871;,
  -0.000005;0.016091;-0.999871;,
  -0.000000;0.016073;-0.999871;,
  0.000005;0.016091;-0.999871;,
  0.000000;0.016041;-0.999871;,
  -0.000009;0.015938;-0.999873;,
  0.000000;1.000000;0.000000;,
  0.000000;0.924769;-0.380528;,
  0.273738;0.923493;-0.268752;,
  0.386659;0.922223;0.000000;,
  0.273738;0.923493;0.268753;,
  0.000001;0.924769;0.380529;,
  -0.273738;0.923493;0.268752;,
  -0.386659;0.922223;0.000000;,
  -0.273737;0.923494;-0.268752;,
  0.000001;0.709310;-0.704897;,
  0.504959;0.705948;-0.496643;,
  0.711565;0.702620;0.000000;,
  0.504959;0.705947;0.496644;,
  0.000001;0.709310;0.704897;,
  -0.504957;0.705950;0.496642;,
  -0.711562;0.702623;0.000001;,
  -0.504957;0.705950;-0.496641;,
  0.000001;0.384617;-0.923076;,
  0.658496;0.381494;-0.648726;,
  0.925633;0.378423;0.000000;,
  0.658496;0.381494;0.648726;,
  0.000001;0.384617;0.923076;,
  -0.658495;0.381494;0.648727;,
  -0.925632;0.378424;0.000000;,
  -0.658495;0.381495;-0.648726;,
  0.000001;0.000000;-1.000000;,
  0.712143;-0.000000;-0.702035;,
  1.000000;0.000000;0.000000;,
  0.712142;-0.000000;0.702035;,
  0.000001;0.000000;1.000000;,
  -0.712142;-0.000000;0.702036;,
  -1.000000;0.000000;0.000000;,
  -0.712142;0.000000;-0.702035;,
  0.000001;-0.384617;-0.923076;,
  0.658496;-0.381494;-0.648726;,
  0.925633;-0.378423;0.000000;,
  0.658496;-0.381494;0.648726;,
  0.000001;-0.384617;0.923076;,
  -0.658495;-0.381494;0.648727;,
  -0.925632;-0.378424;0.000000;,
  -0.658495;-0.381495;-0.648726;,
  0.000001;-0.709310;-0.704897;,
  0.504959;-0.705948;-0.496643;,
  0.711565;-0.702620;0.000000;,
  0.504959;-0.705947;0.496644;,
  0.000001;-0.709310;0.704897;,
  -0.504957;-0.705950;0.496642;,
  -0.711562;-0.702623;0.000001;,
  -0.504957;-0.705950;-0.496642;,
  0.000000;-0.924769;-0.380528;,
  0.273738;-0.923493;-0.268752;,
  0.386659;-0.922223;0.000000;,
  0.273738;-0.923493;0.268753;,
  0.000001;-0.924769;0.380528;,
  -0.273738;-0.923493;0.268752;,
  -0.386659;-0.922223;0.000000;,
  -0.273737;-0.923494;-0.268752;,
  0.000000;-1.000000;0.000000;,
  -0.000001;1.000000;0.000000;,
  -0.000001;0.924769;-0.380528;,
  0.273738;0.923493;-0.268752;,
  0.386660;0.922222;0.000000;,
  0.273738;0.923493;0.268753;,
  -0.000001;0.924769;0.380528;,
  -0.273737;0.923494;0.268751;,
  -0.386658;0.922223;0.000000;,
  -0.273737;0.923494;-0.268751;,
  -0.000001;0.709309;-0.704897;,
  0.504958;0.705949;-0.496642;,
  0.711564;0.702621;0.000000;,
  0.504958;0.705949;0.496642;,
  -0.000000;0.709310;0.704897;,
  -0.504958;0.705949;0.496642;,
  -0.711564;0.702621;0.000000;,
  -0.504959;0.705948;-0.496642;,
  -0.000001;0.384617;-0.923076;,
  0.658496;0.381494;-0.648726;,
  0.925633;0.378423;0.000000;,
  0.658496;0.381494;0.648726;,
  -0.000001;0.384617;0.923076;,
  -0.658496;0.381493;0.648726;,
  -0.925633;0.378422;0.000000;,
  -0.658496;0.381493;-0.648726;,
  -0.000001;0.000000;-1.000000;,
  0.712143;0.000000;-0.702035;,
  1.000000;0.000000;0.000000;,
  0.712142;0.000000;0.702035;,
  -0.000001;0.000000;1.000000;,
  -0.712142;0.000000;0.702035;,
  -1.000000;0.000000;0.000000;,
  -0.712143;-0.000000;-0.702035;,
  -0.000001;-0.384617;-0.923076;,
  0.658496;-0.381495;-0.648726;,
  0.925633;-0.378423;0.000000;,
  0.658496;-0.381494;0.648726;,
  -0.000001;-0.384617;0.923076;,
  -0.658496;-0.381493;0.648726;,
  -0.925633;-0.378422;0.000000;,
  -0.658496;-0.381493;-0.648726;,
  -0.000001;-0.709309;-0.704897;,
  0.504958;-0.705949;-0.496642;,
  0.711564;-0.702621;0.000000;,
  0.504958;-0.705949;0.496642;,
  -0.000000;-0.709310;0.704897;,
  -0.504958;-0.705949;0.496642;,
  -0.711564;-0.702621;0.000000;,
  -0.504959;-0.705948;-0.496642;,
  -0.000001;-0.924769;-0.380528;,
  0.273738;-0.923493;-0.268752;,
  0.386660;-0.922222;0.000000;,
  0.273738;-0.923493;0.268753;,
  -0.000001;-0.924769;0.380528;,
  -0.273737;-0.923494;0.268751;,
  -0.386658;-0.922223;0.000000;,
  -0.273737;-0.923494;-0.268751;,
  -0.000001;-1.000000;0.000000;,
  -0.000001;0.447214;-0.894427;,
  0.638488;0.443633;-0.628906;,
  0.897947;0.440104;0.000000;,
  0.638489;0.443632;0.628906;,
  -0.000000;0.447214;0.894427;,
  -0.638487;0.443632;0.628907;,
  -0.897946;0.440105;-0.000000;,
  -0.638488;0.443632;-0.628907;,
  -0.000000;-1.000000;0.000000;,
  -0.000002;0.447214;-0.894427;,
  0.638487;0.443634;-0.628907;,
  0.897946;0.440106;0.000000;,
  0.638487;0.443633;0.628906;,
  -0.000001;0.447214;0.894427;,
  -0.638489;0.443632;0.628906;,
  -0.897947;0.440104;-0.000000;,
  -0.638489;0.443632;-0.628906;,
  0.000001;-1.000000;0.000000;,
  0.000001;-0.834724;0.550668;,
  -0.395615;-0.832165;0.388575;,
  -0.558330;-0.829619;-0.000000;,
  -0.395615;-0.832165;-0.388575;,
  0.000000;-0.834724;-0.550668;,
  0.395614;-0.832165;-0.388576;,
  0.558329;-0.829620;0.000000;,
  0.395615;-0.832164;0.388576;,
  0.000001;-0.834724;0.550669;,
  -0.395613;-0.832166;0.388575;,
  -0.558328;-0.829620;-0.000000;,
  -0.395614;-0.832165;-0.388575;,
  0.000001;-0.834724;-0.550668;,
  0.395616;-0.832164;-0.388575;,
  0.558331;-0.829619;0.000000;,
  0.395616;-0.832164;0.388576;;
  518;
  4;0,0,0,0;,
  4;1,1,1,1;,
  4;2,2,2,2;,
  4;3,3,3,3;,
  4;4,4,4,4;,
  4;5,5,5,5;,
  3;6,8,7;,
  3;6,9,8;,
  3;6,10,9;,
  3;6,11,10;,
  3;6,12,11;,
  3;6,13,12;,
  3;6,14,13;,
  3;6,7,14;,
  4;7,8,16,15;,
  4;8,9,17,16;,
  4;9,10,18,17;,
  4;10,11,19,18;,
  4;11,12,20,19;,
  4;12,13,21,20;,
  4;13,14,22,21;,
  4;14,7,15,22;,
  4;15,16,24,23;,
  4;16,17,25,24;,
  4;17,18,26,25;,
  4;18,19,27,26;,
  4;19,20,28,27;,
  4;20,21,29,28;,
  4;21,22,30,29;,
  4;22,15,23,30;,
  4;23,24,32,31;,
  4;24,25,33,32;,
  4;25,26,34,33;,
  4;26,27,35,34;,
  4;27,28,36,35;,
  4;28,29,37,36;,
  4;29,30,38,37;,
  4;30,23,31,38;,
  4;31,32,40,39;,
  4;32,33,41,40;,
  4;33,34,42,41;,
  4;34,35,43,42;,
  4;35,36,44,43;,
  4;36,37,45,44;,
  4;37,38,46,45;,
  4;38,31,39,46;,
  4;39,40,48,47;,
  4;40,41,49,48;,
  4;41,42,50,49;,
  4;42,43,51,50;,
  4;43,44,52,51;,
  4;44,45,53,52;,
  4;45,46,54,53;,
  4;46,39,47,54;,
  4;47,48,56,55;,
  4;48,49,57,56;,
  4;49,50,58,57;,
  4;50,51,59,58;,
  4;51,52,60,59;,
  4;52,53,61,60;,
  4;53,54,62,61;,
  4;54,47,55,62;,
  3;55,56,63;,
  3;56,57,63;,
  3;57,58,63;,
  3;58,59,63;,
  3;59,60,63;,
  3;60,61,63;,
  3;61,62,63;,
  3;62,55,63;,
  3;64,66,65;,
  3;64,67,66;,
  3;64,68,67;,
  3;64,69,68;,
  3;64,70,69;,
  3;64,71,70;,
  3;64,72,71;,
  3;64,65,72;,
  4;65,66,74,73;,
  4;66,67,75,74;,
  4;67,68,76,75;,
  4;68,69,77,76;,
  4;69,70,78,77;,
  4;70,71,79,78;,
  4;71,72,80,79;,
  4;72,65,73,80;,
  4;73,74,82,81;,
  4;74,75,83,82;,
  4;75,76,84,83;,
  4;76,77,85,84;,
  4;77,78,86,85;,
  4;78,79,87,86;,
  4;79,80,88,87;,
  4;80,73,81,88;,
  4;81,82,90,89;,
  4;82,83,91,90;,
  4;83,84,92,91;,
  4;84,85,93,92;,
  4;85,86,94,93;,
  4;86,87,95,94;,
  4;87,88,96,95;,
  4;88,81,89,96;,
  4;89,90,98,97;,
  4;90,91,99,98;,
  4;91,92,100,99;,
  4;92,93,101,100;,
  4;93,94,102,101;,
  4;94,95,103,102;,
  4;95,96,104,103;,
  4;96,89,97,104;,
  4;97,98,106,105;,
  4;98,99,107,106;,
  4;99,100,108,107;,
  4;100,101,109,108;,
  4;101,102,110,109;,
  4;102,103,111,110;,
  4;103,104,112,111;,
  4;104,97,105,112;,
  4;105,106,114,113;,
  4;106,107,115,114;,
  4;107,108,116,115;,
  4;108,109,117,116;,
  4;109,110,118,117;,
  4;110,111,119,118;,
  4;111,112,120,119;,
  4;112,105,113,120;,
  3;113,114,121;,
  3;114,115,121;,
  3;115,116,121;,
  3;116,117,121;,
  3;117,118,121;,
  3;118,119,121;,
  3;119,120,121;,
  3;120,113,121;,
  3;122,123,123;,
  3;123,123,124;,
  3;124,125,125;,
  3;125,125,126;,
  3;126,127,127;,
  3;127,127,128;,
  3;128,129,129;,
  3;129,129,122;,
  3;130,131,132;,
  3;130,132,133;,
  3;130,133,134;,
  3;130,134,135;,
  3;130,135,136;,
  3;130,136,137;,
  3;130,137,138;,
  3;130,138,131;,
  3;139,140,140;,
  3;140,140,141;,
  3;141,142,142;,
  3;142,142,143;,
  3;143,144,144;,
  3;144,144,145;,
  3;145,146,146;,
  3;146,146,139;,
  3;147,148,149;,
  3;147,149,150;,
  3;147,150,151;,
  3;147,151,152;,
  3;147,152,153;,
  3;147,153,154;,
  3;147,154,155;,
  3;147,155,148;,
  4;157,158,166,165;,
  4;158,159,167,166;,
  4;174,160,168,175;,
  4;160,161,169,168;,
  4;161,162,170,169;,
  4;162,163,171,170;,
  4;176,164,172,177;,
  4;164,157,165,172;,
  3;156,156,156;,
  3;156,156,156;,
  3;156,156,156;,
  3;156,156,156;,
  3;156,156,156;,
  3;156,156,156;,
  3;156,156,156;,
  3;156,156,156;,
  3;173,165,166;,
  3;173,166,167;,
  3;178,175,168;,
  3;178,168,169;,
  3;178,169,170;,
  3;179,170,171;,
  3;179,177,172;,
  3;173,172,165;,
  4;181,182,190,189;,
  4;182,183,191,190;,
  4;198,184,192,199;,
  4;184,185,193,192;,
  4;185,186,194,193;,
  4;186,187,195,194;,
  4;200,188,196,201;,
  4;188,181,189,196;,
  3;180,180,180;,
  3;180,180,180;,
  3;180,180,180;,
  3;180,180,180;,
  3;180,180,180;,
  3;180,180,180;,
  3;180,180,180;,
  3;180,180,180;,
  3;197,189,190;,
  3;197,190,191;,
  3;202,199,192;,
  3;202,192,193;,
  3;202,193,194;,
  3;203,194,195;,
  3;203,201,196;,
  3;197,196,189;,
  4;205,206,214,213;,
  4;206,207,215,214;,
  4;222,208,216,223;,
  4;208,209,217,216;,
  4;209,210,218,217;,
  4;210,211,219,218;,
  4;224,212,220,225;,
  4;212,205,213,220;,
  3;204,204,204;,
  3;204,204,204;,
  3;204,204,204;,
  3;204,204,204;,
  3;204,204,204;,
  3;204,204,204;,
  3;204,204,204;,
  3;204,204,204;,
  3;221,213,214;,
  3;221,214,215;,
  3;226,223,216;,
  3;226,216,217;,
  3;226,217,218;,
  3;227,218,219;,
  3;227,225,220;,
  3;221,220,213;,
  4;229,230,238,237;,
  4;230,231,239,238;,
  4;246,232,240,247;,
  4;232,233,241,240;,
  4;233,234,242,241;,
  4;234,235,243,242;,
  4;248,236,244,249;,
  4;236,229,237,244;,
  3;228,228,228;,
  3;228,228,228;,
  3;228,228,228;,
  3;228,228,228;,
  3;228,228,228;,
  3;228,228,228;,
  3;228,228,228;,
  3;228,228,228;,
  3;245,237,238;,
  3;245,238,239;,
  3;250,247,240;,
  3;250,240,241;,
  3;250,241,242;,
  3;251,242,243;,
  3;251,249,244;,
  3;245,244,237;,
  4;253,254,254,253;,
  4;254,255,255,254;,
  4;262,256,256,262;,
  4;256,257,257,256;,
  4;257,258,258,257;,
  4;258,259,259,258;,
  4;263,260,260,263;,
  4;260,253,253,260;,
  3;252,264,265;,
  3;252,266,264;,
  3;252,267,266;,
  3;252,268,267;,
  3;252,269,268;,
  3;252,266,269;,
  3;252,270,266;,
  3;252,265,270;,
  3;261,271,272;,
  3;261,272,273;,
  3;261,273,274;,
  3;261,274,275;,
  3;261,275,276;,
  3;261,276,277;,
  3;261,277,278;,
  3;261,278,271;,
  4;280,281,281,280;,
  4;281,282,282,281;,
  4;289,283,283,289;,
  4;283,284,284,283;,
  4;284,285,285,284;,
  4;285,286,286,285;,
  4;290,287,287,290;,
  4;287,280,280,287;,
  3;279,291,292;,
  3;279,293,291;,
  3;279,294,293;,
  3;279,295,294;,
  3;279,296,295;,
  3;279,297,296;,
  3;279,298,297;,
  3;279,292,298;,
  3;288,299,300;,
  3;288,300,301;,
  3;288,301,302;,
  3;288,302,303;,
  3;288,303,304;,
  3;288,304,305;,
  3;288,305,306;,
  3;288,306,299;,
  4;308,309,309,308;,
  4;309,310,310,309;,
  4;317,311,311,317;,
  4;311,312,312,311;,
  4;312,313,313,312;,
  4;313,314,314,313;,
  4;318,315,315,318;,
  4;315,308,308,315;,
  3;307,319,320;,
  3;307,321,319;,
  3;307,322,321;,
  3;307,323,322;,
  3;307,324,323;,
  3;307,321,324;,
  3;307,325,321;,
  3;307,320,325;,
  3;316,326,327;,
  3;316,327,328;,
  3;316,328,329;,
  3;316,329,330;,
  3;316,330,331;,
  3;316,331,332;,
  3;316,332,333;,
  3;316,333,326;,
  4;335,336,336,335;,
  4;336,337,337,336;,
  4;344,338,338,344;,
  4;338,339,339,338;,
  4;339,340,340,339;,
  4;340,341,341,340;,
  4;345,342,342,345;,
  4;342,335,335,342;,
  3;334,346,347;,
  3;334,348,346;,
  3;334,349,348;,
  3;334,350,349;,
  3;334,351,350;,
  3;334,348,351;,
  3;334,352,348;,
  3;334,347,352;,
  3;343,353,354;,
  3;343,354,355;,
  3;343,355,356;,
  3;343,356,357;,
  3;343,357,358;,
  3;343,358,359;,
  3;343,359,360;,
  3;343,360,353;,
  3;361,363,362;,
  3;361,364,363;,
  3;361,365,364;,
  3;361,366,365;,
  3;361,367,366;,
  3;361,368,367;,
  3;361,369,368;,
  3;361,362,369;,
  4;362,363,371,370;,
  4;363,364,372,371;,
  4;364,365,373,372;,
  4;365,366,374,373;,
  4;366,367,375,374;,
  4;367,368,376,375;,
  4;368,369,377,376;,
  4;369,362,370,377;,
  4;370,371,379,378;,
  4;371,372,380,379;,
  4;372,373,381,380;,
  4;373,374,382,381;,
  4;374,375,383,382;,
  4;375,376,384,383;,
  4;376,377,385,384;,
  4;377,370,378,385;,
  4;378,379,387,386;,
  4;379,380,388,387;,
  4;380,381,389,388;,
  4;381,382,390,389;,
  4;382,383,391,390;,
  4;383,384,392,391;,
  4;384,385,393,392;,
  4;385,378,386,393;,
  4;386,387,395,394;,
  4;387,388,396,395;,
  4;388,389,397,396;,
  4;389,390,398,397;,
  4;390,391,399,398;,
  4;391,392,400,399;,
  4;392,393,401,400;,
  4;393,386,394,401;,
  4;394,395,403,402;,
  4;395,396,404,403;,
  4;396,397,405,404;,
  4;397,398,406,405;,
  4;398,399,407,406;,
  4;399,400,408,407;,
  4;400,401,409,408;,
  4;401,394,402,409;,
  4;402,403,411,410;,
  4;403,404,412,411;,
  4;404,405,413,412;,
  4;405,406,414,413;,
  4;406,407,415,414;,
  4;407,408,416,415;,
  4;408,409,417,416;,
  4;409,402,410,417;,
  3;410,411,418;,
  3;411,412,418;,
  3;412,413,418;,
  3;413,414,418;,
  3;414,415,418;,
  3;415,416,418;,
  3;416,417,418;,
  3;417,410,418;,
  3;419,421,420;,
  3;419,422,421;,
  3;419,423,422;,
  3;419,424,423;,
  3;419,425,424;,
  3;419,426,425;,
  3;419,427,426;,
  3;419,420,427;,
  4;420,421,429,428;,
  4;421,422,430,429;,
  4;422,423,431,430;,
  4;423,424,432,431;,
  4;424,425,433,432;,
  4;425,426,434,433;,
  4;426,427,435,434;,
  4;427,420,428,435;,
  4;428,429,437,436;,
  4;429,430,438,437;,
  4;430,431,439,438;,
  4;431,432,440,439;,
  4;432,433,441,440;,
  4;433,434,442,441;,
  4;434,435,443,442;,
  4;435,428,436,443;,
  4;436,437,445,444;,
  4;437,438,446,445;,
  4;438,439,447,446;,
  4;439,440,448,447;,
  4;440,441,449,448;,
  4;441,442,450,449;,
  4;442,443,451,450;,
  4;443,436,444,451;,
  4;444,445,453,452;,
  4;445,446,454,453;,
  4;446,447,455,454;,
  4;447,448,456,455;,
  4;448,449,457,456;,
  4;449,450,458,457;,
  4;450,451,459,458;,
  4;451,444,452,459;,
  4;452,453,461,460;,
  4;453,454,462,461;,
  4;454,455,463,462;,
  4;455,456,464,463;,
  4;456,457,465,464;,
  4;457,458,466,465;,
  4;458,459,467,466;,
  4;459,452,460,467;,
  4;460,461,469,468;,
  4;461,462,470,469;,
  4;462,463,471,470;,
  4;463,464,472,471;,
  4;464,465,473,472;,
  4;465,466,474,473;,
  4;466,467,475,474;,
  4;467,460,468,475;,
  3;468,469,476;,
  3;469,470,476;,
  3;470,471,476;,
  3;471,472,476;,
  3;472,473,476;,
  3;473,474,476;,
  3;474,475,476;,
  3;475,468,476;,
  3;477,478,478;,
  3;478,478,479;,
  3;479,480,480;,
  3;480,480,481;,
  3;481,482,482;,
  3;482,482,483;,
  3;483,484,484;,
  3;484,484,477;,
  3;485,495,496;,
  3;485,496,497;,
  3;485,497,498;,
  3;485,498,499;,
  3;485,499,500;,
  3;485,500,501;,
  3;485,501,502;,
  3;485,502,495;,
  3;486,487,487;,
  3;487,487,488;,
  3;488,489,489;,
  3;489,489,490;,
  3;490,491,491;,
  3;491,491,492;,
  3;492,493,493;,
  3;493,493,486;,
  3;494,503,504;,
  3;494,504,505;,
  3;494,505,506;,
  3;494,506,507;,
  3;494,507,508;,
  3;494,508,509;,
  3;494,509,510;,
  3;494,510,503;;
 }
 MeshTextureCoords {
  712;
  0.000000;0.000000;,
  1.000000;0.000000;,
  1.000000;1.000000;,
  0.000000;1.000000;,
  0.000000;0.000000;,
  1.000000;0.000000;,
  1.000000;1.000000;,
  0.000000;1.000000;,
  0.000000;0.000000;,
  1.000000;0.000000;,
  1.000000;1.000000;,
  0.000000;1.000000;,
  0.000000;0.000000;,
  1.000000;0.000000;,
  1.000000;1.000000;,
  0.000000;1.000000;,
  1.000000;1.000000;,
  0.000000;1.000000;,
  0.000000;0.000000;,
  1.000000;0.000000;,
  0.062500;0.000000;,
  0.125000;0.125000;,
  0.000000;0.125000;,
  0.187500;0.000000;,
  0.250000;0.125000;,
  0.312500;0.000000;,
  0.375000;0.125000;,
  0.437500;0.000000;,
  0.500000;0.125000;,
  0.562500;0.000000;,
  0.625000;0.125000;,
  0.687500;0.000000;,
  0.750000;0.125000;,
  0.812500;0.000000;,
  0.875000;0.125000;,
  0.937500;0.000000;,
  1.000000;0.125000;,
  0.125000;0.250000;,
  0.000000;0.250000;,
  0.250000;0.250000;,
  0.375000;0.250000;,
  0.500000;0.250000;,
  0.625000;0.250000;,
  0.750000;0.250000;,
  0.875000;0.250000;,
  1.000000;0.250000;,
  0.125000;0.375000;,
  0.000000;0.375000;,
  0.250000;0.375000;,
  0.375000;0.375000;,
  0.500000;0.375000;,
  0.625000;0.375000;,
  0.750000;0.375000;,
  0.875000;0.375000;,
  1.000000;0.375000;,
  0.125000;0.500000;,
  0.000000;0.500000;,
  0.250000;0.500000;,
  0.375000;0.500000;,
  0.500000;0.500000;,
  0.625000;0.500000;,
  0.750000;0.500000;,
  0.875000;0.500000;,
  1.000000;0.500000;,
  0.125000;0.625000;,
  0.000000;0.625000;,
  0.250000;0.625000;,
  0.375000;0.625000;,
  0.500000;0.625000;,
  0.625000;0.625000;,
  0.750000;0.625000;,
  0.875000;0.625000;,
  1.000000;0.625000;,
  0.125000;0.750000;,
  0.000000;0.750000;,
  0.250000;0.750000;,
  0.375000;0.750000;,
  0.500000;0.750000;,
  0.625000;0.750000;,
  0.750000;0.750000;,
  0.875000;0.750000;,
  1.000000;0.750000;,
  0.125000;0.875000;,
  0.000000;0.875000;,
  0.250000;0.875000;,
  0.375000;0.875000;,
  0.500000;0.875000;,
  0.625000;0.875000;,
  0.750000;0.875000;,
  0.875000;0.875000;,
  1.000000;0.875000;,
  0.062500;1.000000;,
  0.187500;1.000000;,
  0.312500;1.000000;,
  0.437500;1.000000;,
  0.562500;1.000000;,
  0.687500;1.000000;,
  0.812500;1.000000;,
  0.937500;1.000000;,
  0.062500;0.000000;,
  0.125000;0.125000;,
  0.000000;0.125000;,
  0.187500;0.000000;,
  0.250000;0.125000;,
  0.312500;0.000000;,
  0.375000;0.125000;,
  0.437500;0.000000;,
  0.500000;0.125000;,
  0.562500;0.000000;,
  0.625000;0.125000;,
  0.687500;0.000000;,
  0.750000;0.125000;,
  0.812500;0.000000;,
  0.875000;0.125000;,
  0.937500;0.000000;,
  1.000000;0.125000;,
  0.125000;0.250000;,
  0.000000;0.250000;,
  0.250000;0.250000;,
  0.375000;0.250000;,
  0.500000;0.250000;,
  0.625000;0.250000;,
  0.750000;0.250000;,
  0.875000;0.250000;,
  1.000000;0.250000;,
  0.125000;0.375000;,
  0.000000;0.375000;,
  0.250000;0.375000;,
  0.375000;0.375000;,
  0.500000;0.375000;,
  0.625000;0.375000;,
  0.750000;0.375000;,
  0.875000;0.375000;,
  1.000000;0.375000;,
  0.125000;0.500000;,
  0.000000;0.500000;,
  0.250000;0.500000;,
  0.375000;0.500000;,
  0.500000;0.500000;,
  0.625000;0.500000;,
  0.750000;0.500000;,
  0.875000;0.500000;,
  1.000000;0.500000;,
  0.125000;0.625000;,
  0.000000;0.625000;,
  0.250000;0.625000;,
  0.375000;0.625000;,
  0.500000;0.625000;,
  0.625000;0.625000;,
  0.750000;0.625000;,
  0.875000;0.625000;,
  1.000000;0.625000;,
  0.125000;0.750000;,
  0.000000;0.750000;,
  0.250000;0.750000;,
  0.375000;0.750000;,
  0.500000;0.750000;,
  0.625000;0.750000;,
  0.750000;0.750000;,
  0.875000;0.750000;,
  1.000000;0.750000;,
  0.125000;0.875000;,
  0.000000;0.875000;,
  0.250000;0.875000;,
  0.375000;0.875000;,
  0.500000;0.875000;,
  0.625000;0.875000;,
  0.750000;0.875000;,
  0.875000;0.875000;,
  1.000000;0.875000;,
  0.062500;1.000000;,
  0.187500;1.000000;,
  0.312500;1.000000;,
  0.437500;1.000000;,
  0.562500;1.000000;,
  0.687500;1.000000;,
  0.812500;1.000000;,
  0.937500;1.000000;,
  0.000000;1.000000;,
  0.062500;0.000000;,
  0.125000;1.000000;,
  0.125000;0.000000;,
  0.250000;1.000000;,
  0.187500;0.000000;,
  0.375000;1.000000;,
  0.250000;0.000000;,
  0.500000;1.000000;,
  0.312500;0.000000;,
  0.625000;1.000000;,
  0.375000;0.000000;,
  0.750000;1.000000;,
  0.437500;0.000000;,
  0.875000;1.000000;,
  0.500000;0.000000;,
  1.000000;1.000000;,
  0.000000;0.000000;,
  0.000000;0.000000;,
  0.000000;0.000000;,
  0.000000;0.000000;,
  0.000000;0.000000;,
  0.000000;0.000000;,
  0.000000;0.000000;,
  0.000000;0.000000;,
  0.000000;0.000000;,
  0.000000;1.000000;,
  0.062500;0.000000;,
  0.125000;1.000000;,
  0.125000;0.000000;,
  0.250000;1.000000;,
  0.187500;0.000000;,
  0.375000;1.000000;,
  0.250000;0.000000;,
  0.500000;1.000000;,
  0.312500;0.000000;,
  0.625000;1.000000;,
  0.375000;0.000000;,
  0.750000;1.000000;,
  0.437500;0.000000;,
  0.875000;1.000000;,
  0.500000;0.000000;,
  1.000000;1.000000;,
  0.000000;0.000000;,
  0.000000;0.000000;,
  0.000000;0.000000;,
  0.000000;0.000000;,
  0.000000;0.000000;,
  0.000000;0.000000;,
  0.000000;0.000000;,
  0.000000;0.000000;,
  0.000000;0.000000;,
  0.000000;0.000000;,
  0.125000;0.000000;,
  0.125000;1.000000;,
  0.000000;1.000000;,
  0.250000;0.000000;,
  0.250000;1.000000;,
  0.375000;0.000000;,
  0.375000;1.000000;,
  0.500000;0.000000;,
  0.500000;1.000000;,
  0.625000;0.000000;,
  0.625000;1.000000;,
  0.750000;0.000000;,
  0.750000;1.000000;,
  0.875000;0.000000;,
  0.875000;1.000000;,
  1.000000;0.000000;,
  1.000000;1.000000;,
  0.062500;0.000000;,
  0.187500;0.000000;,
  0.312500;0.000000;,
  0.437500;0.000000;,
  0.562500;0.000000;,
  0.687500;0.000000;,
  0.812500;0.000000;,
  0.937500;0.000000;,
  0.062500;1.000000;,
  0.187500;1.000000;,
  0.312500;1.000000;,
  0.437500;1.000000;,
  0.562500;1.000000;,
  0.687500;1.000000;,
  0.812500;1.000000;,
  0.937500;1.000000;,
  0.000000;0.000000;,
  0.125000;0.000000;,
  0.125000;1.000000;,
  0.000000;1.000000;,
  0.250000;0.000000;,
  0.250000;1.000000;,
  0.375000;0.000000;,
  0.375000;1.000000;,
  0.500000;0.000000;,
  0.500000;1.000000;,
  0.625000;0.000000;,
  0.625000;1.000000;,
  0.750000;0.000000;,
  0.750000;1.000000;,
  0.875000;0.000000;,
  0.875000;1.000000;,
  1.000000;0.000000;,
  1.000000;1.000000;,
  0.062500;0.000000;,
  0.187500;0.000000;,
  0.312500;0.000000;,
  0.437500;0.000000;,
  0.562500;0.000000;,
  0.687500;0.000000;,
  0.812500;0.000000;,
  0.937500;0.000000;,
  0.062500;1.000000;,
  0.187500;1.000000;,
  0.312500;1.000000;,
  0.437500;1.000000;,
  0.562500;1.000000;,
  0.687500;1.000000;,
  0.812500;1.000000;,
  0.937500;1.000000;,
  0.000000;0.000000;,
  0.125000;0.000000;,
  0.125000;1.000000;,
  0.000000;1.000000;,
  0.250000;0.000000;,
  0.250000;1.000000;,
  0.375000;0.000000;,
  0.375000;1.000000;,
  0.500000;0.000000;,
  0.500000;1.000000;,
  0.625000;0.000000;,
  0.625000;1.000000;,
  0.750000;0.000000;,
  0.750000;1.000000;,
  0.875000;0.000000;,
  0.875000;1.000000;,
  1.000000;0.000000;,
  1.000000;1.000000;,
  0.062500;0.000000;,
  0.187500;0.000000;,
  0.312500;0.000000;,
  0.437500;0.000000;,
  0.562500;0.000000;,
  0.687500;0.000000;,
  0.812500;0.000000;,
  0.937500;0.000000;,
  0.062500;1.000000;,
  0.187500;1.000000;,
  0.312500;1.000000;,
  0.437500;1.000000;,
  0.562500;1.000000;,
  0.687500;1.000000;,
  0.812500;1.000000;,
  0.937500;1.000000;,
  0.000000;0.000000;,
  0.125000;0.000000;,
  0.125000;1.000000;,
  0.000000;1.000000;,
  0.250000;0.000000;,
  0.250000;1.000000;,
  0.375000;0.000000;,
  0.375000;1.000000;,
  0.500000;0.000000;,
  0.500000;1.000000;,
  0.625000;0.000000;,
  0.625000;1.000000;,
  0.750000;0.000000;,
  0.750000;1.000000;,
  0.875000;0.000000;,
  0.875000;1.000000;,
  1.000000;0.000000;,
  1.000000;1.000000;,
  0.062500;0.000000;,
  0.187500;0.000000;,
  0.312500;0.000000;,
  0.437500;0.000000;,
  0.562500;0.000000;,
  0.687500;0.000000;,
  0.812500;0.000000;,
  0.937500;0.000000;,
  0.062500;1.000000;,
  0.187500;1.000000;,
  0.312500;1.000000;,
  0.437500;1.000000;,
  0.562500;1.000000;,
  0.687500;1.000000;,
  0.812500;1.000000;,
  0.937500;1.000000;,
  0.000000;0.000000;,
  0.125000;0.000000;,
  0.125000;1.000000;,
  0.000000;1.000000;,
  0.250000;0.000000;,
  0.250000;1.000000;,
  0.375000;0.000000;,
  0.375000;1.000000;,
  0.500000;0.000000;,
  0.500000;1.000000;,
  0.625000;0.000000;,
  0.625000;1.000000;,
  0.750000;0.000000;,
  0.750000;1.000000;,
  0.875000;0.000000;,
  0.875000;1.000000;,
  1.000000;0.000000;,
  1.000000;1.000000;,
  0.062500;0.000000;,
  0.187500;0.000000;,
  0.312500;0.000000;,
  0.437500;0.000000;,
  0.562500;0.000000;,
  0.687500;0.000000;,
  0.812500;0.000000;,
  0.937500;0.000000;,
  0.062500;1.000000;,
  0.187500;1.000000;,
  0.312500;1.000000;,
  0.437500;1.000000;,
  0.562500;1.000000;,
  0.687500;1.000000;,
  0.812500;1.000000;,
  0.937500;1.000000;,
  0.000000;0.000000;,
  0.125000;0.000000;,
  0.125000;1.000000;,
  0.000000;1.000000;,
  0.250000;0.000000;,
  0.250000;1.000000;,
  0.375000;0.000000;,
  0.375000;1.000000;,
  0.500000;0.000000;,
  0.500000;1.000000;,
  0.625000;0.000000;,
  0.625000;1.000000;,
  0.750000;0.000000;,
  0.750000;1.000000;,
  0.875000;0.000000;,
  0.875000;1.000000;,
  1.000000;0.000000;,
  1.000000;1.000000;,
  0.062500;0.000000;,
  0.187500;0.000000;,
  0.312500;0.000000;,
  0.437500;0.000000;,
  0.562500;0.000000;,
  0.687500;0.000000;,
  0.812500;0.000000;,
  0.937500;0.000000;,
  0.062500;1.000000;,
  0.187500;1.000000;,
  0.312500;1.000000;,
  0.437500;1.000000;,
  0.562500;1.000000;,
  0.687500;1.000000;,
  0.812500;1.000000;,
  0.937500;1.000000;,
  0.000000;0.000000;,
  0.125000;0.000000;,
  0.125000;1.000000;,
  0.000000;1.000000;,
  0.250000;0.000000;,
  0.250000;1.000000;,
  0.375000;0.000000;,
  0.375000;1.000000;,
  0.500000;0.000000;,
  0.500000;1.000000;,
  0.625000;0.000000;,
  0.625000;1.000000;,
  0.750000;0.000000;,
  0.750000;1.000000;,
  0.875000;0.000000;,
  0.875000;1.000000;,
  1.000000;0.000000;,
  1.000000;1.000000;,
  0.062500;0.000000;,
  0.187500;0.000000;,
  0.312500;0.000000;,
  0.437500;0.000000;,
  0.562500;0.000000;,
  0.687500;0.000000;,
  0.812500;0.000000;,
  0.937500;0.000000;,
  0.062500;1.000000;,
  0.187500;1.000000;,
  0.312500;1.000000;,
  0.437500;1.000000;,
  0.562500;1.000000;,
  0.687500;1.000000;,
  0.812500;1.000000;,
  0.937500;1.000000;,
  0.000000;0.000000;,
  0.125000;0.000000;,
  0.125000;1.000000;,
  0.000000;1.000000;,
  0.250000;0.000000;,
  0.250000;1.000000;,
  0.375000;0.000000;,
  0.375000;1.000000;,
  0.500000;0.000000;,
  0.500000;1.000000;,
  0.625000;0.000000;,
  0.625000;1.000000;,
  0.750000;0.000000;,
  0.750000;1.000000;,
  0.875000;0.000000;,
  0.875000;1.000000;,
  1.000000;0.000000;,
  1.000000;1.000000;,
  0.062500;0.000000;,
  0.187500;0.000000;,
  0.312500;0.000000;,
  0.437500;0.000000;,
  0.562500;0.000000;,
  0.687500;0.000000;,
  0.812500;0.000000;,
  0.937500;0.000000;,
  0.062500;1.000000;,
  0.187500;1.000000;,
  0.312500;1.000000;,
  0.437500;1.000000;,
  0.562500;1.000000;,
  0.687500;1.000000;,
  0.812500;1.000000;,
  0.937500;1.000000;,
  0.062500;0.000000;,
  0.125000;0.125000;,
  0.000000;0.125000;,
  0.187500;0.000000;,
  0.250000;0.125000;,
  0.312500;0.000000;,
  0.375000;0.125000;,
  0.437500;0.000000;,
  0.500000;0.125000;,
  0.562500;0.000000;,
  0.625000;0.125000;,
  0.687500;0.000000;,
  0.750000;0.125000;,
  0.812500;0.000000;,
  0.875000;0.125000;,
  0.937500;0.000000;,
  1.000000;0.125000;,
  0.125000;0.250000;,
  0.000000;0.250000;,
  0.250000;0.250000;,
  0.375000;0.250000;,
  0.500000;0.250000;,
  0.625000;0.250000;,
  0.750000;0.250000;,
  0.875000;0.250000;,
  1.000000;0.250000;,
  0.125000;0.375000;,
  0.000000;0.375000;,
  0.250000;0.375000;,
  0.375000;0.375000;,
  0.500000;0.375000;,
  0.625000;0.375000;,
  0.750000;0.375000;,
  0.875000;0.375000;,
  1.000000;0.375000;,
  0.125000;0.500000;,
  0.000000;0.500000;,
  0.250000;0.500000;,
  0.375000;0.500000;,
  0.500000;0.500000;,
  0.625000;0.500000;,
  0.750000;0.500000;,
  0.875000;0.500000;,
  1.000000;0.500000;,
  0.125000;0.625000;,
  0.000000;0.625000;,
  0.250000;0.625000;,
  0.375000;0.625000;,
  0.500000;0.625000;,
  0.625000;0.625000;,
  0.750000;0.625000;,
  0.875000;0.625000;,
  1.000000;0.625000;,
  0.125000;0.750000;,
  0.000000;0.750000;,
  0.250000;0.750000;,
  0.375000;0.750000;,
  0.500000;0.750000;,
  0.625000;0.750000;,
  0.750000;0.750000;,
  0.875000;0.750000;,
  1.000000;0.750000;,
  0.125000;0.875000;,
  0.000000;0.875000;,
  0.250000;0.875000;,
  0.375000;0.875000;,
  0.500000;0.875000;,
  0.625000;0.875000;,
  0.750000;0.875000;,
  0.875000;0.875000;,
  1.000000;0.875000;,
  0.062500;1.000000;,
  0.187500;1.000000;,
  0.312500;1.000000;,
  0.437500;1.000000;,
  0.562500;1.000000;,
  0.687500;1.000000;,
  0.812500;1.000000;,
  0.937500;1.000000;,
  0.062500;0.000000;,
  0.125000;0.125000;,
  0.000000;0.125000;,
  0.187500;0.000000;,
  0.250000;0.125000;,
  0.312500;0.000000;,
  0.375000;0.125000;,
  0.437500;0.000000;,
  0.500000;0.125000;,
  0.562500;0.000000;,
  0.625000;0.125000;,
  0.687500;0.000000;,
  0.750000;0.125000;,
  0.812500;0.000000;,
  0.875000;0.125000;,
  0.937500;0.000000;,
  1.000000;0.125000;,
  0.125000;0.250000;,
  0.000000;0.250000;,
  0.250000;0.250000;,
  0.375000;0.250000;,
  0.500000;0.250000;,
  0.625000;0.250000;,
  0.750000;0.250000;,
  0.875000;0.250000;,
  1.000000;0.250000;,
  0.125000;0.375000;,
  0.000000;0.375000;,
  0.250000;0.375000;,
  0.375000;0.375000;,
  0.500000;0.375000;,
  0.625000;0.375000;,
  0.750000;0.375000;,
  0.875000;0.375000;,
  1.000000;0.375000;,
  0.125000;0.500000;,
  0.000000;0.500000;,
  0.250000;0.500000;,
  0.375000;0.500000;,
  0.500000;0.500000;,
  0.625000;0.500000;,
  0.750000;0.500000;,
  0.875000;0.500000;,
  1.000000;0.500000;,
  0.125000;0.625000;,
  0.000000;0.625000;,
  0.250000;0.625000;,
  0.375000;0.625000;,
  0.500000;0.625000;,
  0.625000;0.625000;,
  0.750000;0.625000;,
  0.875000;0.625000;,
  1.000000;0.625000;,
  0.125000;0.750000;,
  0.000000;0.750000;,
  0.250000;0.750000;,
  0.375000;0.750000;,
  0.500000;0.750000;,
  0.625000;0.750000;,
  0.750000;0.750000;,
  0.875000;0.750000;,
  1.000000;0.750000;,
  0.125000;0.875000;,
  0.000000;0.875000;,
  0.250000;0.875000;,
  0.375000;0.875000;,
  0.500000;0.875000;,
  0.625000;0.875000;,
  0.750000;0.875000;,
  0.875000;0.875000;,
  1.000000;0.875000;,
  0.062500;1.000000;,
  0.187500;1.000000;,
  0.312500;1.000000;,
  0.437500;1.000000;,
  0.562500;1.000000;,
  0.687500;1.000000;,
  0.812500;1.000000;,
  0.937500;1.000000;,
  0.000000;1.000000;,
  0.062500;0.000000;,
  0.125000;1.000000;,
  0.125000;0.000000;,
  0.250000;1.000000;,
  0.187500;0.000000;,
  0.375000;1.000000;,
  0.250000;0.000000;,
  0.500000;1.000000;,
  0.312500;0.000000;,
  0.625000;1.000000;,
  0.375000;0.000000;,
  0.750000;1.000000;,
  0.437500;0.000000;,
  0.875000;1.000000;,
  0.500000;0.000000;,
  1.000000;1.000000;,
  0.000000;0.000000;,
  0.000000;0.000000;,
  0.000000;0.000000;,
  0.000000;0.000000;,
  0.000000;0.000000;,
  0.000000;0.000000;,
  0.000000;0.000000;,
  0.000000;0.000000;,
  0.000000;0.000000;,
  0.000000;1.000000;,
  0.062500;0.000000;,
  0.125000;1.000000;,
  0.125000;0.000000;,
  0.250000;1.000000;,
  0.187500;0.000000;,
  0.375000;1.000000;,
  0.250000;0.000000;,
  0.500000;1.000000;,
  0.312500;0.000000;,
  0.625000;1.000000;,
  0.375000;0.000000;,
  0.750000;1.000000;,
  0.437500;0.000000;,
  0.875000;1.000000;,
  0.500000;0.000000;,
  1.000000;1.000000;,
  0.000000;0.000000;,
  0.000000;0.000000;,
  0.000000;0.000000;,
  0.000000;0.000000;,
  0.000000;0.000000;,
  0.000000;0.000000;,
  0.000000;0.000000;,
  0.000000;0.000000;,
  0.000000;0.000000;;
 }
}
