xof 0302txt 0064
template Header {
 <3D82AB43-62DA-11cf-AB39-0020AF71E433>
 WORD major;
 WORD minor;
 DWORD flags;
}

template Vector {
 <3D82AB5E-62DA-11cf-AB39-0020AF71E433>
 FLOAT x;
 FLOAT y;
 FLOAT z;
}

template Coords2d {
 <F6F23F44-7686-11cf-8F52-0040333594A3>
 FLOAT u;
 FLOAT v;
}

template Matrix4x4 {
 <F6F23F45-7686-11cf-8F52-0040333594A3>
 array FLOAT matrix[16];
}

template ColorRGBA {
 <35FF44E0-6C7C-11cf-8F52-0040333594A3>
 FLOAT red;
 FLOAT green;
 FLOAT blue;
 FLOAT alpha;
}

template ColorRGB {
 <D3E16E81-7835-11cf-8F52-0040333594A3>
 FLOAT red;
 FLOAT green;
 FLOAT blue;
}

template IndexedColor {
 <1630B820-7842-11cf-8F52-0040333594A3>
 DWORD index;
 ColorRGBA indexColor;
}

template Boolean {
 <4885AE61-78E8-11cf-8F52-0040333594A3>
 WORD truefalse;
}

template Boolean2d {
 <4885AE63-78E8-11cf-8F52-0040333594A3>
 Boolean u;
 Boolean v;
}

template MaterialWrap {
 <4885AE60-78E8-11cf-8F52-0040333594A3>
 Boolean u;
 Boolean v;
}

template TextureFilename {
 <A42790E1-7810-11cf-8F52-0040333594A3>
 STRING filename;
}

template Material {
 <3D82AB4D-62DA-11cf-AB39-0020AF71E433>
 ColorRGBA faceColor;
 FLOAT power;
 ColorRGB specularColor;
 ColorRGB emissiveColor;
 [...]
}

template MeshFace {
 <3D82AB5F-62DA-11cf-AB39-0020AF71E433>
 DWORD nFaceVertexIndices;
 array DWORD faceVertexIndices[nFaceVertexIndices];
}

template MeshFaceWraps {
 <4885AE62-78E8-11cf-8F52-0040333594A3>
 DWORD nFaceWrapValues;
 Boolean2d faceWrapValues;
}

template MeshTextureCoords {
 <F6F23F40-7686-11cf-8F52-0040333594A3>
 DWORD nTextureCoords;
 array Coords2d textureCoords[nTextureCoords];
}

template MeshMaterialList {
 <F6F23F42-7686-11cf-8F52-0040333594A3>
 DWORD nMaterials;
 DWORD nFaceIndexes;
 array DWORD faceIndexes[nFaceIndexes];
 [Material]
}

template MeshNormals {
 <F6F23F43-7686-11cf-8F52-0040333594A3>
 DWORD nNormals;
 array Vector normals[nNormals];
 DWORD nFaceNormals;
 array MeshFace faceNormals[nFaceNormals];
}

template MeshVertexColors {
 <1630B821-7842-11cf-8F52-0040333594A3>
 DWORD nVertexColors;
 array IndexedColor vertexColors[nVertexColors];
}

template Mesh {
 <3D82AB44-62DA-11cf-AB39-0020AF71E433>
 DWORD nVertices;
 array Vector vertices[nVertices];
 DWORD nFaces;
 array MeshFace faces[nFaces];
 [...]
}

Header{
1;
0;
1;
}

Mesh {
 922;
 -16.52916;23.88791;-0.50071;,
 16.73432;23.88791;-0.50071;,
 16.73432;-17.74533;-0.50071;,
 -16.52916;-17.74533;-0.50071;,
 16.73432;23.88791;-0.50071;,
 16.73432;23.88791;0.41180;,
 16.73432;-17.74533;0.41180;,
 16.73432;-17.74533;-0.50071;,
 16.73432;23.88791;0.41180;,
 -16.52916;23.88791;0.41180;,
 -16.52916;-17.74533;0.41180;,
 16.73432;-17.74533;0.41180;,
 -16.52916;23.88791;0.41180;,
 -16.52916;23.88791;-0.50071;,
 -16.52916;-17.74533;-0.50071;,
 -16.52916;-17.74533;0.41180;,
 16.73432;23.88791;-0.50071;,
 -16.52916;23.88791;-0.50071;,
 -16.52916;-17.74533;-0.50071;,
 16.73432;-17.74533;-0.50071;,
 -16.52916;17.76920;-0.52920;,
 16.73432;17.76920;-0.52920;,
 16.73432;-15.49431;-0.52920;,
 -16.52916;-15.49431;-0.52920;,
 0.10258;12.28608;-0.49971;,
 6.74665;8.39408;-0.57548;,
 0.10258;8.39408;-0.60686;,
 0.10258;12.28608;-0.49971;,
 9.49870;8.39408;-0.49971;,
 0.10258;12.28608;-0.49971;,
 6.74665;8.39408;-0.42394;,
 0.10258;12.28608;-0.49971;,
 0.10258;8.39408;-0.39255;,
 0.10258;12.28608;-0.49971;,
 -6.54149;8.39408;-0.42394;,
 0.10258;12.28608;-0.49971;,
 -9.29354;8.39408;-0.49971;,
 0.10258;12.28608;-0.49971;,
 -6.54149;8.39408;-0.57548;,
 0.10258;12.28608;-0.49971;,
 0.10258;8.39408;-0.60686;,
 9.49870;-1.00206;-0.60686;,
 0.10258;-1.00206;-0.65124;,
 13.39072;-1.00206;-0.49971;,
 9.49870;-1.00206;-0.39255;,
 0.10258;-1.00206;-0.34818;,
 -9.29354;-1.00206;-0.39255;,
 -13.18556;-1.00206;-0.49971;,
 -9.29354;-1.00206;-0.60686;,
 0.10258;-1.00206;-0.65124;,
 6.74665;-10.39819;-0.57548;,
 0.10258;-10.39819;-0.60686;,
 9.49870;-10.39819;-0.49971;,
 6.74665;-10.39819;-0.42394;,
 0.10258;-10.39819;-0.39255;,
 -6.54149;-10.39819;-0.42394;,
 -9.29354;-10.39819;-0.49971;,
 -6.54149;-10.39819;-0.57548;,
 0.10258;-10.39819;-0.60686;,
 0.10258;-14.29018;-0.49971;,
 0.10258;-14.29018;-0.49971;,
 0.10258;-14.29018;-0.49971;,
 0.10258;-14.29018;-0.49971;,
 0.10258;-14.29018;-0.49971;,
 0.10258;-14.29018;-0.49971;,
 0.10258;-14.29018;-0.49971;,
 0.10258;-14.29018;-0.49971;,
 0.10258;6.23850;-0.52550;,
 0.10258;6.23850;-0.56117;,
 2.76291;6.23850;-0.55072;,
 3.86485;6.23850;-0.52550;,
 2.76291;6.23850;-0.50027;,
 0.10258;6.23850;-0.48983;,
 -2.55776;6.23850;-0.50027;,
 -3.65970;6.23850;-0.52550;,
 -2.55776;6.23850;-0.55072;,
 0.10504;11.09250;-0.55529;,
 0.10258;17.79329;-0.52550;,
 2.63641;11.12396;-0.54648;,
 2.76291;6.23850;-0.55072;,
 0.10258;6.23850;-0.56117;,
 2.63641;11.12396;-0.54648;,
 0.10258;17.79329;-0.52550;,
 3.67726;11.14053;-0.52550;,
 3.86485;6.23850;-0.52550;,
 3.67726;11.14053;-0.52550;,
 0.10258;17.79329;-0.52550;,
 2.63356;11.13268;-0.50454;,
 2.76291;6.23850;-0.50027;,
 2.63356;11.13268;-0.50454;,
 0.10258;17.79329;-0.52550;,
 0.10504;11.10485;-0.49575;,
 0.10258;6.23850;-0.48983;,
 0.10504;11.10485;-0.49575;,
 0.10258;17.79329;-0.52550;,
 -2.44299;11.07320;-0.50438;,
 -2.55776;6.23850;-0.50027;,
 -2.44299;11.07320;-0.50438;,
 0.10258;17.79329;-0.52550;,
 -3.50623;11.05636;-0.52550;,
 -3.65970;6.23850;-0.52550;,
 -3.50623;11.05636;-0.52550;,
 0.10258;17.79329;-0.52550;,
 -2.44589;11.06440;-0.54664;,
 -2.55776;6.23850;-0.55072;,
 -2.44589;11.06440;-0.54664;,
 0.10258;17.79329;-0.52550;,
 0.10504;11.09250;-0.55529;,
 0.10258;6.23850;-0.56117;,
 -6.43606;-0.87360;-0.54645;,
 -6.39961;-0.86603;-0.58185;,
 -6.45597;1.79100;-0.56426;,
 -6.50066;2.88712;-0.53624;,
 -6.50753;1.78029;-0.51419;,
 -6.47252;-0.88115;-0.51104;,
 -6.41616;-3.53817;-0.52863;,
 -6.37147;-4.63432;-0.55665;,
 -6.36461;-3.52745;-0.57870;,
 -11.22374;-0.93408;-0.64492;,
 -17.90526;-1.03844;-0.71051;,
 -11.30741;1.59392;-0.62976;,
 -6.45597;1.79100;-0.56426;,
 -6.39961;-0.86603;-0.58185;,
 -11.30741;1.59392;-0.62976;,
 -17.90526;-1.03844;-0.71051;,
 -11.36315;2.62968;-0.60635;,
 -6.50066;2.88712;-0.53624;,
 -11.36315;2.62968;-0.60635;,
 -17.90526;-1.03844;-0.71051;,
 -11.35886;1.58208;-0.58827;,
 -6.50753;1.78029;-0.51419;,
 -11.35886;1.58208;-0.58827;,
 -17.90526;-1.03844;-0.71051;,
 -11.29679;-0.94688;-0.58602;,
 -6.47252;-0.88115;-0.51104;,
 -11.29679;-0.94688;-0.58602;,
 -17.90526;-1.03844;-0.71051;,
 -11.21282;-3.49158;-0.60104;,
 -6.41616;-3.53817;-0.52863;,
 -11.21282;-3.49158;-0.60104;,
 -17.90526;-1.03844;-0.71051;,
 -11.15627;-4.54964;-0.62465;,
 -6.37147;-4.63432;-0.55665;,
 -11.15627;-4.54964;-0.62465;,
 -17.90526;-1.03844;-0.71051;,
 -11.16086;-3.48539;-0.64287;,
 -6.36461;-3.52745;-0.57870;,
 -11.16086;-3.48539;-0.64287;,
 -17.90526;-1.03844;-0.71051;,
 -11.22374;-0.93408;-0.64492;,
 -6.39961;-0.86603;-0.58185;,
 6.15764;-1.06804;-0.55076;,
 6.12111;-1.07528;-0.58616;,
 6.15428;-3.73269;-0.56857;,
 6.18941;-4.82920;-0.54055;,
 6.20591;-3.72244;-0.51850;,
 6.19416;-1.06079;-0.51536;,
 6.16097;1.59662;-0.53294;,
 6.12584;2.69312;-0.56097;,
 6.10933;1.58637;-0.58301;,
 10.94563;-1.04933;-0.64924;,
 17.62784;-1.00328;-0.71482;,
 11.00725;-3.57798;-0.63407;,
 6.15428;-3.73269;-0.56857;,
 6.12111;-1.07528;-0.58616;,
 11.00725;-3.57798;-0.63407;,
 17.62784;-1.00328;-0.71482;,
 11.05396;-4.61416;-0.61066;,
 6.18941;-4.82920;-0.54055;,
 11.05396;-4.61416;-0.61066;,
 17.62784;-1.00328;-0.71482;,
 11.05882;-3.56658;-0.59258;,
 6.20591;-3.72244;-0.51850;,
 11.05882;-3.56658;-0.59258;,
 17.62784;-1.00328;-0.71482;,
 11.01880;-1.03717;-0.59033;,
 6.19416;-1.06079;-0.51536;,
 11.01880;-1.03717;-0.59033;,
 17.62784;-1.00328;-0.71482;,
 10.95704;1.50814;-0.60536;,
 6.16097;1.59662;-0.53294;,
 10.95704;1.50814;-0.60536;,
 17.62784;-1.00328;-0.71482;,
 10.90976;2.56669;-0.62896;,
 6.12584;2.69312;-0.56097;,
 10.90976;2.56669;-0.62896;,
 17.62784;-1.00328;-0.71482;,
 10.90504;1.50241;-0.64717;,
 6.10933;1.58637;-0.58301;,
 10.90504;1.50241;-0.64717;,
 17.62784;-1.00328;-0.71482;,
 10.94563;-1.04933;-0.64924;,
 6.12111;-1.07528;-0.58616;,
 -0.04867;-6.30011;-0.52518;,
 -0.05436;-6.26275;-0.56058;,
 -2.71212;-6.32834;-0.54508;,
 -3.80966;-6.37742;-0.51793;,
 -2.70406;-6.38118;-0.49502;,
 -0.04297;-6.33748;-0.48979;,
 2.61477;-6.27185;-0.50528;,
 3.71231;-6.22279;-0.53243;,
 2.60671;-6.21901;-0.55534;,
 0.03330;-11.08488;-0.62537;,
 0.16361;-17.76427;-0.69332;,
 -2.49521;-11.17734;-0.61220;,
 -2.71212;-6.32834;-0.54508;,
 -0.05436;-6.26275;-0.56058;,
 -2.49521;-11.17734;-0.61220;,
 0.16361;-17.76427;-0.69332;,
 -3.53205;-11.23715;-0.58963;,
 -3.80966;-6.37742;-0.51793;,
 -3.53205;-11.23715;-0.58963;,
 0.16361;-17.76427;-0.69332;,
 -2.48554;-11.22988;-0.57073;,
 -2.70406;-6.38118;-0.49502;,
 -2.48554;-11.22988;-0.57073;,
 0.16361;-17.76427;-0.69332;,
 0.04302;-11.15947;-0.56648;,
 -0.04297;-6.33748;-0.48979;,
 0.04302;-11.15947;-0.56648;,
 0.16361;-17.76427;-0.69332;,
 2.58821;-11.06670;-0.57948;,
 2.61477;-6.27185;-0.50528;,
 2.58821;-11.06670;-0.57948;,
 0.16361;-17.76427;-0.69332;,
 3.64739;-11.00601;-0.60225;,
 3.71231;-6.22279;-0.53243;,
 3.64739;-11.00601;-0.60225;,
 0.16361;-17.76427;-0.69332;,
 2.58419;-11.01365;-0.62129;,
 2.60671;-6.21901;-0.55534;,
 2.58419;-11.01365;-0.62129;,
 0.16361;-17.76427;-0.69332;,
 0.03330;-11.08488;-0.62537;,
 -0.05436;-6.26275;-0.56058;,
 5.61235;5.71686;-0.54334;,
 5.61290;5.71664;-0.57901;,
 7.34951;3.70150;-0.56803;,
 8.06850;2.86693;-0.54258;,
 7.34871;3.70178;-0.51758;,
 5.61179;5.71705;-0.50767;,
 3.87519;7.73220;-0.51865;,
 3.15619;8.56674;-0.54410;,
 3.87599;7.73190;-0.56910;,
 9.29129;8.88369;-0.57257;,
 14.36502;13.26028;-0.54202;,
 10.96759;6.98678;-0.56325;,
 7.34951;3.70150;-0.56803;,
 5.61290;5.71664;-0.57901;,
 10.96759;6.98678;-0.56325;,
 14.36502;13.26028;-0.54202;,
 11.65931;6.20926;-0.54206;,
 8.06850;2.86693;-0.54258;,
 11.65931;6.20926;-0.54206;,
 14.36502;13.26028;-0.54202;,
 10.97165;6.99487;-0.52132;,
 7.34871;3.70178;-0.51758;,
 10.97165;6.99487;-0.52132;,
 14.36502;13.26028;-0.54202;,
 9.29970;8.89209;-0.51304;,
 5.61179;5.71705;-0.50767;,
 9.29970;8.89209;-0.51304;,
 14.36502;13.26028;-0.54202;,
 7.61243;10.80149;-0.52218;,
 3.87519;7.73220;-0.51865;,
 7.61243;10.80149;-0.52218;,
 14.36502;13.26028;-0.54202;,
 6.90590;11.59579;-0.54351;,
 3.15619;8.56674;-0.54410;,
 6.90590;11.59579;-0.54351;,
 14.36502;13.26028;-0.54202;,
 7.60455;10.79770;-0.56444;,
 3.87599;7.73190;-0.56910;,
 7.60455;10.79770;-0.56444;,
 14.36502;13.26028;-0.54202;,
 9.29129;8.88369;-0.57257;,
 5.61290;5.71664;-0.57901;,
 -5.09698;6.19516;-0.54334;,
 -5.09683;6.19574;-0.57901;,
 -3.30835;8.16500;-0.56803;,
 -2.56762;8.98033;-0.54258;,
 -3.30855;8.16418;-0.51758;,
 -5.09708;6.19458;-0.50767;,
 -6.88558;4.22536;-0.51865;,
 -7.62628;3.41001;-0.54410;,
 -6.88539;4.22617;-0.56910;,
 -8.68856;9.46075;-0.57257;,
 -13.65085;13.96330;-0.54202;,
 -7.01008;11.35573;-0.56325;,
 -3.30835;8.16500;-0.56803;,
 -5.09683;6.19574;-0.57901;,
 -7.01008;11.35573;-0.56325;,
 -13.65085;13.96330;-0.54202;,
 -6.32265;12.13705;-0.54206;,
 -2.56762;8.98033;-0.54258;,
 -6.32265;12.13705;-0.54206;,
 -13.65085;13.96330;-0.54202;,
 -7.01860;11.35875;-0.52132;,
 -3.30855;8.16418;-0.51758;,
 -7.01860;11.35875;-0.52132;,
 -13.65085;13.96330;-0.54202;,
 -8.69791;9.46807;-0.51304;,
 -5.09708;6.19458;-0.50767;,
 -8.69791;9.46807;-0.51304;,
 -13.65085;13.96330;-0.54202;,
 -10.38748;7.56067;-0.52218;,
 -6.88558;4.22536;-0.51865;,
 -10.38748;7.56067;-0.52218;,
 -13.65085;13.96330;-0.54202;,
 -11.08973;6.76260;-0.54351;,
 -7.62628;3.41001;-0.54410;,
 -11.08973;6.76260;-0.54351;,
 -13.65085;13.96330;-0.54202;,
 -10.38275;7.55332;-0.56444;,
 -6.88539;4.22617;-0.56910;,
 -10.38275;7.55332;-0.56444;,
 -13.65085;13.96330;-0.54202;,
 -8.68856;9.46075;-0.57257;,
 -5.09683;6.19574;-0.57901;,
 -5.53494;-7.34457;-0.54334;,
 -5.53552;-7.34436;-0.57901;,
 -7.21877;-5.28444;-0.56803;,
 -7.91568;-4.43133;-0.54258;,
 -7.21797;-5.28475;-0.51758;,
 -5.53440;-7.34477;-0.50767;,
 -3.85116;-9.40468;-0.51865;,
 -3.15425;-10.25777;-0.54410;,
 -3.85193;-9.40436;-0.56910;,
 -9.29555;-10.41401;-0.57257;,
 -14.48212;-14.65630;-0.54202;,
 -10.92158;-8.47388;-0.56325;,
 -7.21877;-5.28444;-0.56803;,
 -5.53552;-7.34436;-0.57901;,
 -10.92158;-8.47388;-0.56325;,
 -14.48212;-14.65630;-0.54202;,
 -11.59273;-7.67854;-0.54206;,
 -7.91568;-4.43133;-0.54258;,
 -11.59273;-7.67854;-0.54206;,
 -14.48212;-14.65630;-0.54202;,
 -10.92589;-8.48187;-0.52132;,
 -7.21797;-5.28475;-0.51758;,
 -10.92589;-8.48187;-0.52132;,
 -14.48212;-14.65630;-0.54202;,
 -9.30417;-10.42220;-0.51304;,
 -5.53440;-7.34477;-0.50767;,
 -9.30417;-10.42220;-0.51304;,
 -14.48212;-14.65630;-0.54202;,
 -7.66745;-12.37514;-0.52218;,
 -3.85116;-9.40468;-0.51865;,
 -7.66745;-12.37514;-0.52218;,
 -14.48212;-14.65630;-0.54202;,
 -6.98195;-13.18762;-0.54351;,
 -3.15425;-10.25777;-0.54410;,
 -6.98195;-13.18762;-0.54351;,
 -14.48212;-14.65630;-0.54202;,
 -7.65946;-12.37155;-0.56444;,
 -3.85193;-9.40436;-0.56910;,
 -7.65946;-12.37155;-0.56444;,
 -14.48212;-14.65630;-0.54202;,
 -9.29555;-10.41401;-0.57257;,
 -5.53552;-7.34436;-0.57901;,
 6.23140;-7.35324;-0.55852;,
 6.22094;-7.37987;-0.59404;,
 4.62864;-9.48722;-0.55518;,
 3.97521;-10.34450;-0.51828;,
 4.64341;-9.44955;-0.50496;,
 6.24182;-7.32664;-0.52301;,
 7.83413;-5.21932;-0.56186;,
 8.48755;-4.36203;-0.59876;,
 7.81937;-5.25695;-0.61209;,
 10.10194;-10.29051;-0.57372;,
 15.46939;-14.28774;-0.52416;,
 8.61165;-12.31541;-0.53778;,
 4.62864;-9.48722;-0.55518;,
 6.22094;-7.37987;-0.59404;,
 8.61165;-12.31541;-0.53778;,
 15.46939;-14.28774;-0.52416;,
 8.00686;-13.13726;-0.50571;,
 3.97521;-10.34450;-0.51828;,
 8.00686;-13.13726;-0.50571;,
 15.46939;-14.28774;-0.52416;,
 8.63261;-12.28709;-0.49603;,
 4.64341;-9.44955;-0.50496;,
 8.63261;-12.28709;-0.49603;,
 15.46939;-14.28774;-0.52416;,
 10.12923;-10.25348;-0.51442;,
 6.24182;-7.32664;-0.52301;,
 10.12923;-10.25348;-0.51442;,
 15.46939;-14.28774;-0.52416;,
 11.62942;-8.21511;-0.55035;,
 7.83413;-5.21932;-0.56186;,
 11.62942;-8.21511;-0.55035;,
 15.46939;-14.28774;-0.52416;,
 12.24736;-7.37541;-0.58280;,
 8.48755;-4.36203;-0.59876;,
 12.24736;-7.37541;-0.58280;,
 15.46939;-14.28774;-0.52416;,
 11.61175;-8.23905;-0.59248;,
 7.81937;-5.25695;-0.61209;,
 11.61175;-8.23905;-0.59248;,
 15.46939;-14.28774;-0.52416;,
 10.10194;-10.29051;-0.57372;,
 6.22094;-7.37987;-0.59404;,
 0.03663;8.66970;-0.58150;,
 4.86507;5.92464;-0.65727;,
 0.03663;5.92464;-0.68866;,
 0.03663;8.66970;-0.58150;,
 6.86508;5.92464;-0.58150;,
 0.03663;8.66970;-0.58150;,
 4.86507;5.92464;-0.50574;,
 0.03663;8.66970;-0.58150;,
 0.03663;5.92464;-0.47435;,
 0.03663;8.66970;-0.58150;,
 -4.79180;5.92464;-0.50574;,
 0.03663;8.66970;-0.58150;,
 -6.79179;5.92464;-0.58150;,
 0.03663;8.66970;-0.58150;,
 -4.79180;5.92464;-0.65727;,
 0.03663;8.66970;-0.58150;,
 0.03663;5.92464;-0.68866;,
 6.86508;-0.70248;-0.68866;,
 0.03663;-0.70248;-0.73304;,
 9.69352;-0.70248;-0.58150;,
 6.86508;-0.70248;-0.47435;,
 0.03663;-0.70248;-0.42997;,
 -6.79179;-0.70248;-0.47435;,
 -9.62022;-0.70248;-0.58150;,
 -6.79179;-0.70248;-0.68866;,
 0.03663;-0.70248;-0.73304;,
 4.86507;-7.32960;-0.65727;,
 0.03663;-7.32960;-0.68866;,
 6.86508;-7.32960;-0.58150;,
 4.86507;-7.32960;-0.50574;,
 0.03663;-7.32960;-0.47435;,
 -4.79180;-7.32960;-0.50574;,
 -6.79179;-7.32960;-0.58150;,
 -4.79180;-7.32960;-0.65727;,
 0.03663;-7.32960;-0.68866;,
 0.03663;-10.07462;-0.58150;,
 0.03663;-10.07462;-0.58150;,
 0.03663;-10.07462;-0.58150;,
 0.03663;-10.07462;-0.58150;,
 0.03663;-10.07462;-0.58150;,
 0.03663;-10.07462;-0.58150;,
 0.03663;-10.07462;-0.58150;,
 0.03663;-10.07462;-0.58150;,
 0.03663;4.40431;-0.60729;,
 0.03663;4.40431;-0.64297;,
 1.96999;4.40431;-0.63252;,
 2.77079;4.40431;-0.60729;,
 1.96999;4.40431;-0.58207;,
 0.03663;4.40431;-0.57162;,
 -1.89670;4.40431;-0.58207;,
 -2.69751;4.40431;-0.60729;,
 -1.89670;4.40431;-0.63252;,
 0.03842;7.82786;-0.63708;,
 0.03663;12.55395;-0.60729;,
 1.87805;7.85005;-0.62827;,
 1.96999;4.40431;-0.63252;,
 0.03663;4.40431;-0.64297;,
 1.87805;7.85005;-0.62827;,
 0.03663;12.55395;-0.60729;,
 2.63447;7.86174;-0.60729;,
 2.77079;4.40431;-0.60729;,
 2.63447;7.86174;-0.60729;,
 0.03663;12.55395;-0.60729;,
 1.87598;7.85619;-0.58634;,
 1.96999;4.40431;-0.58207;,
 1.87598;7.85619;-0.58634;,
 0.03663;12.55395;-0.60729;,
 0.03842;7.83654;-0.57755;,
 0.03663;4.40431;-0.57162;,
 0.03842;7.83654;-0.57755;,
 0.03663;12.55395;-0.60729;,
 -1.81331;7.81424;-0.58617;,
 -1.89670;4.40431;-0.58207;,
 -1.81331;7.81424;-0.58617;,
 0.03663;12.55395;-0.60729;,
 -2.58599;7.80236;-0.60729;,
 -2.69751;4.40431;-0.60729;,
 -2.58599;7.80236;-0.60729;,
 0.03663;12.55395;-0.60729;,
 -1.81539;7.80803;-0.62843;,
 -1.89670;4.40431;-0.63252;,
 -1.81539;7.80803;-0.62843;,
 0.03663;12.55395;-0.60729;,
 0.03842;7.82786;-0.63708;,
 0.03663;4.40431;-0.64297;,
 -4.71519;-0.61187;-0.62825;,
 -4.68867;-0.60655;-0.66365;,
 -4.72964;1.26747;-0.64606;,
 -4.76212;2.04059;-0.61804;,
 -4.76710;1.25992;-0.59599;,
 -4.74166;-0.61721;-0.59284;,
 -4.70070;-2.49120;-0.61043;,
 -4.66822;-3.26432;-0.63845;,
 -4.66325;-2.48365;-0.66049;,
 -8.19450;-0.65452;-0.72672;,
 -13.05015;-0.72814;-0.79231;,
 -8.25533;1.12847;-0.71155;,
 -4.72964;1.26747;-0.64606;,
 -4.68867;-0.60655;-0.66365;,
 -8.25533;1.12847;-0.71155;,
 -13.05015;-0.72814;-0.79231;,
 -8.29582;1.85899;-0.68815;,
 -4.76212;2.04059;-0.61804;,
 -8.29582;1.85899;-0.68815;,
 -13.05015;-0.72814;-0.79231;,
 -8.29272;1.12011;-0.67007;,
 -4.76710;1.25992;-0.59599;,
 -8.29272;1.12011;-0.67007;,
 -13.05015;-0.72814;-0.79231;,
 -8.24760;-0.66356;-0.66781;,
 -4.74166;-0.61721;-0.59284;,
 -8.24760;-0.66356;-0.66781;,
 -13.05015;-0.72814;-0.79231;,
 -8.18657;-2.45834;-0.68284;,
 -4.70070;-2.49120;-0.61043;,
 -8.18657;-2.45834;-0.68284;,
 -13.05015;-0.72814;-0.79231;,
 -8.14549;-3.20460;-0.70644;,
 -4.66822;-3.26432;-0.63845;,
 -8.14549;-3.20460;-0.70644;,
 -13.05015;-0.72814;-0.79231;,
 -8.14881;-2.45395;-0.72466;,
 -4.66325;-2.48365;-0.66049;,
 -8.14881;-2.45395;-0.72466;,
 -13.05015;-0.72814;-0.79231;,
 -8.19450;-0.65452;-0.72672;,
 -4.68867;-0.60655;-0.66365;,
 4.43703;-0.74901;-0.63255;,
 4.41047;-0.75411;-0.66796;,
 4.43459;-2.62840;-0.65037;,
 4.46011;-3.40176;-0.62234;,
 4.47210;-2.62118;-0.60030;,
 4.46356;-0.74390;-0.59715;,
 4.43944;1.13037;-0.61474;,
 4.41392;1.90373;-0.64276;,
 4.40191;1.12314;-0.66480;,
 7.91658;-0.73583;-0.73103;,
 12.77273;-0.70333;-0.79662;,
 7.96137;-2.51927;-0.71587;,
 4.43459;-2.62840;-0.65037;,
 4.41047;-0.75411;-0.66796;,
 7.96137;-2.51927;-0.71587;,
 12.77273;-0.70333;-0.79662;,
 7.99532;-3.25011;-0.69246;,
 4.46011;-3.40176;-0.62234;,
 7.99532;-3.25011;-0.69246;,
 12.77273;-0.70333;-0.79662;,
 7.99885;-2.51124;-0.67438;,
 4.47210;-2.62118;-0.60030;,
 7.99885;-2.51124;-0.67438;,
 12.77273;-0.70333;-0.79662;,
 7.96976;-0.72723;-0.67213;,
 4.46356;-0.74390;-0.59715;,
 7.96976;-0.72723;-0.67213;,
 12.77273;-0.70333;-0.79662;,
 7.92488;1.06798;-0.68715;,
 4.43944;1.13037;-0.61474;,
 7.92488;1.06798;-0.68715;,
 12.77273;-0.70333;-0.79662;,
 7.89050;1.81457;-0.71075;,
 4.41392;1.90373;-0.64276;,
 7.89050;1.81457;-0.71075;,
 12.77273;-0.70333;-0.79662;,
 7.88708;1.06394;-0.72897;,
 4.40191;1.12314;-0.66480;,
 7.88708;1.06394;-0.72897;,
 12.77273;-0.70333;-0.79662;,
 7.91658;-0.73583;-0.73103;,
 4.41047;-0.75411;-0.66796;,
 -0.07329;-4.43922;-0.60698;,
 -0.07741;-4.41285;-0.64237;,
 -2.00888;-4.45913;-0.62688;,
 -2.80649;-4.49373;-0.59973;,
 -2.00302;-4.49640;-0.57683;,
 -0.06913;-4.46556;-0.57159;,
 1.86233;-4.41928;-0.58708;,
 2.65994;-4.38468;-0.61423;,
 1.85645;-4.38202;-0.63714;,
 -0.01371;-7.81391;-0.70716;,
 0.08097;-12.52491;-0.77512;,
 -1.85124;-7.87913;-0.69400;,
 -2.00888;-4.45913;-0.62688;,
 -0.07741;-4.41285;-0.64237;,
 -1.85124;-7.87913;-0.69400;,
 0.08097;-12.52491;-0.77512;,
 -2.60473;-7.92131;-0.67142;,
 -2.80649;-4.49373;-0.59973;,
 -2.60473;-7.92131;-0.67142;,
 0.08097;-12.52491;-0.77512;,
 -1.84421;-7.91619;-0.65253;,
 -2.00302;-4.49640;-0.57683;,
 -1.84421;-7.91619;-0.65253;,
 0.08097;-12.52491;-0.77512;,
 -0.00665;-7.86652;-0.64828;,
 -0.06913;-4.46556;-0.57159;,
 -0.00665;-7.86652;-0.64828;,
 0.08097;-12.52491;-0.77512;,
 1.84301;-7.80107;-0.66129;,
 1.86233;-4.41928;-0.58708;,
 1.84301;-7.80107;-0.66129;,
 0.08097;-12.52491;-0.77512;,
 2.61276;-7.75830;-0.68404;,
 2.65994;-4.38468;-0.61423;,
 2.61276;-7.75830;-0.68404;,
 0.08097;-12.52491;-0.77512;,
 1.84009;-7.76367;-0.70309;,
 1.85645;-4.38202;-0.63714;,
 1.84009;-7.76367;-0.70309;,
 0.08097;-12.52491;-0.77512;,
 -0.01371;-7.81391;-0.70716;,
 -0.07741;-4.41285;-0.64237;,
 4.04073;4.03638;-0.62514;,
 4.04116;4.03623;-0.66081;,
 5.30318;2.61496;-0.64982;,
 5.82571;2.02633;-0.62438;,
 5.30261;2.61515;-0.59938;,
 4.04034;4.03652;-0.58946;,
 2.77829;5.45780;-0.60045;,
 2.25579;6.04643;-0.62590;,
 2.77888;5.45761;-0.65090;,
 6.71434;6.26997;-0.65437;,
 10.40157;9.35680;-0.62381;,
 7.93255;4.93207;-0.64505;,
 5.30318;2.61496;-0.64982;,
 4.04116;4.03623;-0.66081;,
 7.93255;4.93207;-0.64505;,
 10.40157;9.35680;-0.62381;,
 8.43523;4.38370;-0.62385;,
 5.82571;2.02633;-0.62438;,
 8.43523;4.38370;-0.62385;,
 10.40157;9.35680;-0.62381;,
 7.93551;4.93779;-0.60311;,
 5.30261;2.61515;-0.59938;,
 7.93551;4.93779;-0.60311;,
 10.40157;9.35680;-0.62381;,
 6.72045;6.27588;-0.59484;,
 4.04034;4.03652;-0.58946;,
 6.72045;6.27588;-0.59484;,
 10.40157;9.35680;-0.62381;,
 5.49426;7.62262;-0.60398;,
 2.77829;5.45780;-0.60045;,
 5.49426;7.62262;-0.60398;,
 10.40157;9.35680;-0.62381;,
 4.98080;8.18282;-0.62531;,
 2.25579;6.04643;-0.62590;,
 4.98080;8.18282;-0.62531;,
 10.40157;9.35680;-0.62381;,
 5.48853;7.61993;-0.64624;,
 2.77888;5.45761;-0.65090;,
 5.48853;7.61993;-0.64624;,
 10.40157;9.35680;-0.62381;,
 6.71434;6.26997;-0.65437;,
 4.04116;4.03623;-0.66081;,
 -3.74202;4.37375;-0.62514;,
 -3.74192;4.37416;-0.66081;,
 -2.44218;5.76306;-0.64982;,
 -1.90386;6.33813;-0.62438;,
 -2.44232;5.76246;-0.59938;,
 -3.74211;4.37333;-0.58946;,
 -5.04185;2.98444;-0.60045;,
 -5.58014;2.40936;-0.62590;,
 -5.04172;2.98501;-0.65090;,
 -6.35212;6.67699;-0.65437;,
 -9.95836;9.85265;-0.62381;,
 -5.13231;8.01349;-0.64505;,
 -2.44218;5.76306;-0.64982;,
 -3.74192;4.37416;-0.66081;,
 -5.13231;8.01349;-0.64505;,
 -9.95836;9.85265;-0.62381;,
 -4.63275;8.56458;-0.62385;,
 -1.90386;6.33813;-0.62438;,
 -4.63275;8.56458;-0.62385;,
 -9.95836;9.85265;-0.62381;,
 -5.13852;8.01563;-0.60311;,
 -2.44232;5.76246;-0.59938;,
 -5.13852;8.01563;-0.60311;,
 -9.95836;9.85265;-0.62381;,
 -6.35892;6.68213;-0.59484;,
 -3.74211;4.37333;-0.58946;,
 -6.35892;6.68213;-0.59484;,
 -9.95836;9.85265;-0.62381;,
 -7.58678;5.33685;-0.60398;,
 -5.04185;2.98444;-0.60045;,
 -7.58678;5.33685;-0.60398;,
 -9.95836;9.85265;-0.62381;,
 -8.09712;4.77398;-0.62531;,
 -5.58014;2.40936;-0.62590;,
 -8.09712;4.77398;-0.62531;,
 -9.95836;9.85265;-0.62381;,
 -7.58334;5.33165;-0.64624;,
 -5.04172;2.98501;-0.65090;,
 -7.58334;5.33165;-0.64624;,
 -9.95836;9.85265;-0.62381;,
 -6.35212;6.67699;-0.65437;,
 -3.74192;4.37416;-0.66081;,
 -4.06030;-5.17588;-0.62514;,
 -4.06072;-5.17571;-0.66081;,
 -5.28399;-3.72286;-0.64982;,
 -5.79044;-3.12116;-0.62438;,
 -5.28340;-3.72309;-0.59938;,
 -4.05991;-5.17600;-0.58946;,
 -2.83665;-6.62886;-0.60045;,
 -2.33018;-7.23055;-0.62590;,
 -2.83721;-6.62867;-0.65090;,
 -6.79325;-7.34077;-0.65437;,
 -10.56246;-10.33286;-0.62381;,
 -7.97493;-5.97237;-0.64505;,
 -5.28399;-3.72286;-0.64982;,
 -4.06072;-5.17571;-0.66081;,
 -7.97493;-5.97237;-0.64505;,
 -10.56246;-10.33286;-0.62381;,
 -8.46267;-5.41140;-0.62385;,
 -5.79044;-3.12116;-0.62438;,
 -8.46267;-5.41140;-0.62385;,
 -10.56246;-10.33286;-0.62381;,
 -7.97804;-5.97800;-0.60311;,
 -5.28340;-3.72309;-0.59938;,
 -7.97804;-5.97800;-0.60311;,
 -10.56246;-10.33286;-0.62381;,
 -6.79951;-7.34653;-0.59484;,
 -4.05991;-5.17600;-0.58946;,
 -6.79951;-7.34653;-0.59484;,
 -10.56246;-10.33286;-0.62381;,
 -5.61005;-8.72393;-0.60398;,
 -2.83665;-6.62886;-0.60045;,
 -5.61005;-8.72393;-0.60398;,
 -10.56246;-10.33286;-0.62381;,
 -5.11189;-9.29700;-0.62531;,
 -2.33018;-7.23055;-0.62590;,
 -5.11189;-9.29700;-0.62531;,
 -10.56246;-10.33286;-0.62381;,
 -5.60426;-8.72140;-0.64624;,
 -2.83721;-6.62867;-0.65090;,
 -5.60426;-8.72140;-0.64624;,
 -10.56246;-10.33286;-0.62381;,
 -6.79325;-7.34077;-0.65437;,
 -4.06072;-5.17571;-0.66081;,
 4.49061;-5.18199;-0.64031;,
 4.48303;-5.20078;-0.67583;,
 3.32586;-6.68707;-0.63698;,
 2.85098;-7.29173;-0.60008;,
 3.33659;-6.66052;-0.58675;,
 4.49820;-5.16322;-0.60480;,
 5.65537;-3.67692;-0.64366;,
 6.13023;-3.07228;-0.68056;,
 5.64463;-3.70347;-0.69389;,
 7.30345;-7.25365;-0.65552;,
 11.20414;-10.07291;-0.60596;,
 6.22042;-8.68181;-0.61957;,
 3.32586;-6.68707;-0.63698;,
 4.48303;-5.20078;-0.67583;,
 6.22042;-8.68181;-0.61957;,
 11.20414;-10.07291;-0.60596;,
 5.78089;-9.26147;-0.58751;,
 2.85098;-7.29173;-0.60008;,
 5.78089;-9.26147;-0.58751;,
 11.20414;-10.07291;-0.60596;,
 6.23566;-8.66184;-0.57783;,
 3.33659;-6.66052;-0.58675;,
 6.23566;-8.66184;-0.57783;,
 11.20414;-10.07291;-0.60596;,
 7.32328;-7.22754;-0.59621;,
 4.49820;-5.16322;-0.60480;,
 7.32328;-7.22754;-0.59621;,
 11.20414;-10.07291;-0.60596;,
 8.41352;-5.78986;-0.63215;,
 5.65537;-3.67692;-0.64366;,
 8.41352;-5.78986;-0.63215;,
 11.20414;-10.07291;-0.60596;,
 8.86259;-5.19764;-0.66459;,
 6.13023;-3.07228;-0.68056;,
 8.86259;-5.19764;-0.66459;,
 11.20414;-10.07291;-0.60596;,
 8.40066;-5.80675;-0.67428;,
 5.64463;-3.70347;-0.69389;,
 8.40066;-5.80675;-0.67428;,
 11.20414;-10.07291;-0.60596;,
 7.30345;-7.25365;-0.65552;,
 4.48303;-5.20078;-0.67583;,
 12.23389;10.05541;1.49633;,
 13.37336;9.58343;1.49633;,
 12.23389;9.58343;1.26879;,
 12.23389;10.05541;1.49633;,
 12.23389;9.58343;1.72387;,
 12.23389;10.05541;1.49633;,
 11.09441;9.58343;1.49633;,
 12.23389;10.05541;1.49633;,
 12.23389;9.58343;1.26879;,
 13.84536;8.44396;1.49633;,
 12.23389;8.44396;1.17453;,
 12.23389;8.44396;1.81813;,
 10.62242;8.44396;1.49633;,
 12.23389;8.44396;1.17453;,
 13.37336;7.30448;1.49633;,
 12.23389;7.30448;1.26879;,
 12.23389;7.30448;1.72387;,
 11.09441;7.30448;1.49633;,
 12.23389;7.30448;1.26879;,
 12.23389;6.83249;1.49633;,
 12.23389;6.83249;1.49633;,
 12.23389;6.83249;1.49633;,
 12.23389;6.83249;1.49633;,
 -12.12524;10.88587;1.37509;,
 -10.98577;10.41387;1.37509;,
 -12.12524;10.41387;1.14754;,
 -12.12524;10.88587;1.37509;,
 -12.12524;10.41387;1.60264;,
 -12.12524;10.88587;1.37509;,
 -13.26472;10.41387;1.37509;,
 -12.12524;10.88587;1.37509;,
 -12.12524;10.41387;1.14754;,
 -10.51379;9.27439;1.37509;,
 -12.12524;9.27439;1.05329;,
 -12.12524;9.27439;1.69689;,
 -13.73671;9.27439;1.37509;,
 -12.12524;9.27439;1.05329;,
 -10.98577;8.13491;1.37509;,
 -12.12524;8.13491;1.14754;,
 -12.12524;8.13491;1.60264;,
 -13.26472;8.13491;1.37509;,
 -12.12524;8.13491;1.14754;,
 -12.12524;7.66293;1.37509;,
 -12.12524;7.66293;1.37509;,
 -12.12524;7.66293;1.37509;,
 -12.12524;7.66293;1.37509;,
 -0.05278;-8.22113;0.42786;,
 -0.05278;-3.48807;0.64170;,
 14.72621;-3.48807;1.28322;,
 15.45726;-8.22113;1.28322;,
 -0.05278;-3.48807;1.92475;,
 -0.05278;-8.22113;2.13858;,
 -14.83176;-3.48807;1.28322;,
 -15.56281;-8.22113;1.28322;,
 -0.05278;-3.48807;0.64170;,
 -0.05278;-8.22113;0.42786;,
 -0.05278;-2.10613;0.85556;,
 2.95352;-2.10613;1.28322;,
 -0.05278;-2.10613;1.71089;,
 -3.05907;-2.10613;1.28322;,
 -0.05278;-2.10613;0.85556;,
 -0.05278;1.09705;1.06935;,
 1.60804;1.09705;1.28322;,
 -0.05278;1.09705;1.49710;,
 -1.71359;1.09705;1.28322;,
 -0.05278;1.09705;1.06935;,
 -0.05278;10.71113;1.28322;,
 -0.05278;10.71113;1.28322;,
 -0.05278;10.71113;1.28322;,
 -0.05278;10.71113;1.28322;,
 -0.05278;-8.22113;1.28322;,
 -0.05278;-8.22113;0.42786;,
 15.45726;-8.22113;1.28322;,
 -0.05278;-8.22113;2.13858;,
 -15.56281;-8.22113;1.28322;,
 12.14280;-3.37523;0.77975;,
 12.14280;4.89825;1.06669;,
 13.31402;4.89825;1.35365;,
 14.48526;-3.37523;1.35365;,
 12.14280;4.89825;1.64061;,
 12.14280;-3.37523;1.92757;,
 10.97153;4.89825;1.35365;,
 9.80031;-3.37523;1.35365;,
 12.14280;4.89825;1.06669;,
 12.14280;-3.37523;0.77975;,
 12.14280;8.15077;1.35365;,
 12.14280;8.15077;1.35365;,
 12.14280;8.15077;1.35365;,
 12.14280;8.15077;1.35365;,
 12.14280;-3.37523;1.35365;,
 12.14280;-3.37523;0.77975;,
 14.48526;-3.37523;1.35365;,
 12.14280;-3.37523;1.92757;,
 9.80031;-3.37523;1.35365;,
 -12.27739;-3.37523;0.77975;,
 -12.27739;4.89825;1.06669;,
 -11.10616;4.89825;1.35365;,
 -9.93491;-3.37523;1.35365;,
 -12.27739;4.89825;1.64061;,
 -12.27739;-3.37523;1.92757;,
 -13.44863;4.89825;1.35365;,
 -14.61987;-3.37523;1.35365;,
 -12.27739;4.89825;1.06669;,
 -12.27739;-3.37523;0.77975;,
 -12.27739;9.23874;1.35365;,
 -12.27739;9.23874;1.35365;,
 -12.27739;9.23874;1.35365;,
 -12.27739;9.23874;1.35365;,
 -12.27739;-3.37523;1.35365;,
 -12.27739;-3.37523;0.77975;,
 -9.93491;-3.37523;1.35365;,
 -12.27739;-3.37523;1.92757;,
 -14.61987;-3.37523;1.35365;,
 -0.05278;11.35276;1.12226;,
 1.08670;10.88078;1.12226;,
 -0.05278;10.88078;0.89472;,
 -0.05278;11.35276;1.12226;,
 -0.05278;10.88078;1.34981;,
 -0.05278;11.35276;1.12226;,
 -1.19225;10.88078;1.12226;,
 -0.05278;11.35276;1.12226;,
 -0.05278;10.88078;0.89472;,
 1.55869;9.74130;1.12226;,
 -0.05278;9.74130;0.80047;,
 -0.05278;9.74130;1.44406;,
 -1.66424;9.74130;1.12226;,
 -0.05278;9.74130;0.80047;,
 1.08670;8.60181;1.12226;,
 -0.05278;8.60181;0.89472;,
 -0.05278;8.60181;1.34981;,
 -1.19225;8.60181;1.12226;,
 -0.05278;8.60181;0.89472;,
 -0.05278;8.12983;1.12226;,
 -0.05278;8.12983;1.12226;,
 -0.05278;8.12983;1.12226;,
 -0.05278;8.12983;1.12226;,
 16.73178;17.76920;0.47441;,
 -16.52663;17.76920;1.05494;,
 -16.52663;-15.49431;1.05494;,
 16.73178;-15.49431;0.47442;;
 
 548;
 4;0,1,2,3;,
 4;4,5,6,7;,
 4;8,9,10,11;,
 4;12,13,14,15;,
 4;12,5,16,17;,
 4;18,19,6,15;,
 4;20,21,22,23;,
 3;24,25,26;,
 3;27,28,25;,
 3;29,30,28;,
 3;31,32,30;,
 3;33,34,32;,
 3;35,36,34;,
 3;37,38,36;,
 3;39,40,38;,
 4;26,25,41,42;,
 4;25,28,43,41;,
 4;28,30,44,43;,
 4;30,32,45,44;,
 4;32,34,46,45;,
 4;34,36,47,46;,
 4;36,38,48,47;,
 4;38,40,49,48;,
 4;42,41,50,51;,
 4;41,43,52,50;,
 4;43,44,53,52;,
 4;44,45,54,53;,
 4;45,46,55,54;,
 4;46,47,56,55;,
 4;47,48,57,56;,
 4;48,49,58,57;,
 3;51,50,59;,
 3;50,52,60;,
 3;52,53,61;,
 3;53,54,62;,
 3;54,55,63;,
 3;55,56,64;,
 3;56,57,65;,
 3;57,58,66;,
 3;67,68,69;,
 3;67,69,70;,
 3;67,70,71;,
 3;67,71,72;,
 3;67,72,73;,
 3;67,73,74;,
 3;67,74,75;,
 3;67,75,68;,
 3;76,77,78;,
 4;76,78,79,80;,
 3;81,82,83;,
 4;81,83,84,79;,
 3;85,86,87;,
 4;85,87,88,84;,
 3;89,90,91;,
 4;89,91,92,88;,
 3;93,94,95;,
 4;93,95,96,92;,
 3;97,98,99;,
 4;97,99,100,96;,
 3;101,102,103;,
 4;101,103,104,100;,
 3;105,106,107;,
 4;105,107,108,104;,
 3;109,110,111;,
 3;109,111,112;,
 3;109,112,113;,
 3;109,113,114;,
 3;109,114,115;,
 3;109,115,116;,
 3;109,116,117;,
 3;109,117,110;,
 3;118,119,120;,
 4;118,120,121,122;,
 3;123,124,125;,
 4;123,125,126,121;,
 3;127,128,129;,
 4;127,129,130,126;,
 3;131,132,133;,
 4;131,133,134,130;,
 3;135,136,137;,
 4;135,137,138,134;,
 3;139,140,141;,
 4;139,141,142,138;,
 3;143,144,145;,
 4;143,145,146,142;,
 3;147,148,149;,
 4;147,149,150,146;,
 3;151,152,153;,
 3;151,153,154;,
 3;151,154,155;,
 3;151,155,156;,
 3;151,156,157;,
 3;151,157,158;,
 3;151,158,159;,
 3;151,159,152;,
 3;160,161,162;,
 4;160,162,163,164;,
 3;165,166,167;,
 4;165,167,168,163;,
 3;169,170,171;,
 4;169,171,172,168;,
 3;173,174,175;,
 4;173,175,176,172;,
 3;177,178,179;,
 4;177,179,180,176;,
 3;181,182,183;,
 4;181,183,184,180;,
 3;185,186,187;,
 4;185,187,188,184;,
 3;189,190,191;,
 4;189,191,192,188;,
 3;193,194,195;,
 3;193,195,196;,
 3;193,196,197;,
 3;193,197,198;,
 3;193,198,199;,
 3;193,199,200;,
 3;193,200,201;,
 3;193,201,194;,
 3;202,203,204;,
 4;202,204,205,206;,
 3;207,208,209;,
 4;207,209,210,205;,
 3;211,212,213;,
 4;211,213,214,210;,
 3;215,216,217;,
 4;215,217,218,214;,
 3;219,220,221;,
 4;219,221,222,218;,
 3;223,224,225;,
 4;223,225,226,222;,
 3;227,228,229;,
 4;227,229,230,226;,
 3;231,232,233;,
 4;231,233,234,230;,
 3;235,236,237;,
 3;235,237,238;,
 3;235,238,239;,
 3;235,239,240;,
 3;235,240,241;,
 3;235,241,242;,
 3;235,242,243;,
 3;235,243,236;,
 3;244,245,246;,
 4;244,246,247,248;,
 3;249,250,251;,
 4;249,251,252,247;,
 3;253,254,255;,
 4;253,255,256,252;,
 3;257,258,259;,
 4;257,259,260,256;,
 3;261,262,263;,
 4;261,263,264,260;,
 3;265,266,267;,
 4;265,267,268,264;,
 3;269,270,271;,
 4;269,271,272,268;,
 3;273,274,275;,
 4;273,275,276,272;,
 3;277,278,279;,
 3;277,279,280;,
 3;277,280,281;,
 3;277,281,282;,
 3;277,282,283;,
 3;277,283,284;,
 3;277,284,285;,
 3;277,285,278;,
 3;286,287,288;,
 4;286,288,289,290;,
 3;291,292,293;,
 4;291,293,294,289;,
 3;295,296,297;,
 4;295,297,298,294;,
 3;299,300,301;,
 4;299,301,302,298;,
 3;303,304,305;,
 4;303,305,306,302;,
 3;307,308,309;,
 4;307,309,310,306;,
 3;311,312,313;,
 4;311,313,314,310;,
 3;315,316,317;,
 4;315,317,318,314;,
 3;319,320,321;,
 3;319,321,322;,
 3;319,322,323;,
 3;319,323,324;,
 3;319,324,325;,
 3;319,325,326;,
 3;319,326,327;,
 3;319,327,320;,
 3;328,329,330;,
 4;328,330,331,332;,
 3;333,334,335;,
 4;333,335,336,331;,
 3;337,338,339;,
 4;337,339,340,336;,
 3;341,342,343;,
 4;341,343,344,340;,
 3;345,346,347;,
 4;345,347,348,344;,
 3;349,350,351;,
 4;349,351,352,348;,
 3;353,354,355;,
 4;353,355,356,352;,
 3;357,358,359;,
 4;357,359,360,356;,
 3;361,362,363;,
 3;361,363,364;,
 3;361,364,365;,
 3;361,365,366;,
 3;361,366,367;,
 3;361,367,368;,
 3;361,368,369;,
 3;361,369,362;,
 3;370,371,372;,
 4;370,372,373,374;,
 3;375,376,377;,
 4;375,377,378,373;,
 3;379,380,381;,
 4;379,381,382,378;,
 3;383,384,385;,
 4;383,385,386,382;,
 3;387,388,389;,
 4;387,389,390,386;,
 3;391,392,393;,
 4;391,393,394,390;,
 3;395,396,397;,
 4;395,397,398,394;,
 3;399,400,401;,
 4;399,401,402,398;,
 3;403,404,405;,
 3;406,407,404;,
 3;408,409,407;,
 3;410,411,409;,
 3;412,413,411;,
 3;414,415,413;,
 3;416,417,415;,
 3;418,419,417;,
 4;405,404,420,421;,
 4;404,407,422,420;,
 4;407,409,423,422;,
 4;409,411,424,423;,
 4;411,413,425,424;,
 4;413,415,426,425;,
 4;415,417,427,426;,
 4;417,419,428,427;,
 4;421,420,429,430;,
 4;420,422,431,429;,
 4;422,423,432,431;,
 4;423,424,433,432;,
 4;424,425,434,433;,
 4;425,426,435,434;,
 4;426,427,436,435;,
 4;427,428,437,436;,
 3;430,429,438;,
 3;429,431,439;,
 3;431,432,440;,
 3;432,433,441;,
 3;433,434,442;,
 3;434,435,443;,
 3;435,436,444;,
 3;436,437,445;,
 3;446,447,448;,
 3;446,448,449;,
 3;446,449,450;,
 3;446,450,451;,
 3;446,451,452;,
 3;446,452,453;,
 3;446,453,454;,
 3;446,454,447;,
 3;455,456,457;,
 4;455,457,458,459;,
 3;460,461,462;,
 4;460,462,463,458;,
 3;464,465,466;,
 4;464,466,467,463;,
 3;468,469,470;,
 4;468,470,471,467;,
 3;472,473,474;,
 4;472,474,475,471;,
 3;476,477,478;,
 4;476,478,479,475;,
 3;480,481,482;,
 4;480,482,483,479;,
 3;484,485,486;,
 4;484,486,487,483;,
 3;488,489,490;,
 3;488,490,491;,
 3;488,491,492;,
 3;488,492,493;,
 3;488,493,494;,
 3;488,494,495;,
 3;488,495,496;,
 3;488,496,489;,
 3;497,498,499;,
 4;497,499,500,501;,
 3;502,503,504;,
 4;502,504,505,500;,
 3;506,507,508;,
 4;506,508,509,505;,
 3;510,511,512;,
 4;510,512,513,509;,
 3;514,515,516;,
 4;514,516,517,513;,
 3;518,519,520;,
 4;518,520,521,517;,
 3;522,523,524;,
 4;522,524,525,521;,
 3;526,527,528;,
 4;526,528,529,525;,
 3;530,531,532;,
 3;530,532,533;,
 3;530,533,534;,
 3;530,534,535;,
 3;530,535,536;,
 3;530,536,537;,
 3;530,537,538;,
 3;530,538,531;,
 3;539,540,541;,
 4;539,541,542,543;,
 3;544,545,546;,
 4;544,546,547,542;,
 3;548,549,550;,
 4;548,550,551,547;,
 3;552,553,554;,
 4;552,554,555,551;,
 3;556,557,558;,
 4;556,558,559,555;,
 3;560,561,562;,
 4;560,562,563,559;,
 3;564,565,566;,
 4;564,566,567,563;,
 3;568,569,570;,
 4;568,570,571,567;,
 3;572,573,574;,
 3;572,574,575;,
 3;572,575,576;,
 3;572,576,577;,
 3;572,577,578;,
 3;572,578,579;,
 3;572,579,580;,
 3;572,580,573;,
 3;581,582,583;,
 4;581,583,584,585;,
 3;586,587,588;,
 4;586,588,589,584;,
 3;590,591,592;,
 4;590,592,593,589;,
 3;594,595,596;,
 4;594,596,597,593;,
 3;598,599,600;,
 4;598,600,601,597;,
 3;602,603,604;,
 4;602,604,605,601;,
 3;606,607,608;,
 4;606,608,609,605;,
 3;610,611,612;,
 4;610,612,613,609;,
 3;614,615,616;,
 3;614,616,617;,
 3;614,617,618;,
 3;614,618,619;,
 3;614,619,620;,
 3;614,620,621;,
 3;614,621,622;,
 3;614,622,615;,
 3;623,624,625;,
 4;623,625,626,627;,
 3;628,629,630;,
 4;628,630,631,626;,
 3;632,633,634;,
 4;632,634,635,631;,
 3;636,637,638;,
 4;636,638,639,635;,
 3;640,641,642;,
 4;640,642,643,639;,
 3;644,645,646;,
 4;644,646,647,643;,
 3;648,649,650;,
 4;648,650,651,647;,
 3;652,653,654;,
 4;652,654,655,651;,
 3;656,657,658;,
 3;656,658,659;,
 3;656,659,660;,
 3;656,660,661;,
 3;656,661,662;,
 3;656,662,663;,
 3;656,663,664;,
 3;656,664,657;,
 3;665,666,667;,
 4;665,667,668,669;,
 3;670,671,672;,
 4;670,672,673,668;,
 3;674,675,676;,
 4;674,676,677,673;,
 3;678,679,680;,
 4;678,680,681,677;,
 3;682,683,684;,
 4;682,684,685,681;,
 3;686,687,688;,
 4;686,688,689,685;,
 3;690,691,692;,
 4;690,692,693,689;,
 3;694,695,696;,
 4;694,696,697,693;,
 3;698,699,700;,
 3;698,700,701;,
 3;698,701,702;,
 3;698,702,703;,
 3;698,703,704;,
 3;698,704,705;,
 3;698,705,706;,
 3;698,706,699;,
 3;707,708,709;,
 4;707,709,710,711;,
 3;712,713,714;,
 4;712,714,715,710;,
 3;716,717,718;,
 4;716,718,719,715;,
 3;720,721,722;,
 4;720,722,723,719;,
 3;724,725,726;,
 4;724,726,727,723;,
 3;728,729,730;,
 4;728,730,731,727;,
 3;732,733,734;,
 4;732,734,735,731;,
 3;736,737,738;,
 4;736,738,739,735;,
 3;740,741,742;,
 3;740,742,743;,
 3;740,743,744;,
 3;740,744,745;,
 3;740,745,746;,
 3;740,746,747;,
 3;740,747,748;,
 3;740,748,741;,
 3;749,750,751;,
 4;749,751,752,753;,
 3;754,755,756;,
 4;754,756,757,752;,
 3;758,759,760;,
 4;758,760,761,757;,
 3;762,763,764;,
 4;762,764,765,761;,
 3;766,767,768;,
 4;766,768,769,765;,
 3;770,771,772;,
 4;770,772,773,769;,
 3;774,775,776;,
 4;774,776,777,773;,
 3;778,779,780;,
 4;778,780,781,777;,
 3;782,783,784;,
 3;785,786,783;,
 3;787,788,786;,
 3;789,790,788;,
 4;784,783,791,792;,
 4;783,786,793,791;,
 4;786,788,794,793;,
 4;788,790,795,794;,
 4;792,791,796,797;,
 4;791,793,798,796;,
 4;793,794,799,798;,
 4;794,795,800,799;,
 3;797,796,801;,
 3;796,798,802;,
 3;798,799,803;,
 3;799,800,804;,
 3;805,806,807;,
 3;808,809,806;,
 3;810,811,809;,
 3;812,813,811;,
 4;807,806,814,815;,
 4;806,809,816,814;,
 4;809,811,817,816;,
 4;811,813,818,817;,
 4;815,814,819,820;,
 4;814,816,821,819;,
 4;816,817,822,821;,
 4;817,818,823,822;,
 3;820,819,824;,
 3;819,821,825;,
 3;821,822,826;,
 3;822,823,827;,
 4;828,829,830,831;,
 4;831,830,832,833;,
 4;833,832,834,835;,
 4;835,834,836,837;,
 4;829,838,839,830;,
 4;830,839,840,832;,
 4;832,840,841,834;,
 4;834,841,842,836;,
 4;838,843,844,839;,
 4;839,844,845,840;,
 4;840,845,846,841;,
 4;841,846,847,842;,
 3;843,848,844;,
 3;844,849,845;,
 3;845,850,846;,
 3;846,851,847;,
 3;852,853,854;,
 3;852,854,855;,
 3;852,855,856;,
 3;852,856,853;,
 4;857,858,859,860;,
 4;860,859,861,862;,
 4;862,861,863,864;,
 4;864,863,865,866;,
 3;858,867,859;,
 3;859,868,861;,
 3;861,869,863;,
 3;863,870,865;,
 3;871,872,873;,
 3;871,873,874;,
 3;871,874,875;,
 3;871,875,872;,
 4;876,877,878,879;,
 4;879,878,880,881;,
 4;881,880,882,883;,
 4;883,882,884,885;,
 3;877,886,878;,
 3;878,887,880;,
 3;880,888,882;,
 3;882,889,884;,
 3;890,891,892;,
 3;890,892,893;,
 3;890,893,894;,
 3;890,894,891;,
 3;895,896,897;,
 3;898,899,896;,
 3;900,901,899;,
 3;902,903,901;,
 4;897,896,904,905;,
 4;896,899,906,904;,
 4;899,901,907,906;,
 4;901,903,908,907;,
 4;905,904,909,910;,
 4;904,906,911,909;,
 4;906,907,912,911;,
 4;907,908,913,912;,
 3;910,909,914;,
 3;909,911,915;,
 3;911,912,916;,
 3;912,913,917;,
 4;918,919,920,921;;
 
 MeshMaterialList {
  7;
  548;
  2,
  2,
  2,
  2,
  2,
  2,
  3,
  1,
  1,
  1,
  1,
  1,
  1,
  1,
  1,
  1,
  1,
  1,
  1,
  1,
  1,
  1,
  1,
  1,
  1,
  1,
  1,
  1,
  1,
  1,
  1,
  1,
  1,
  1,
  1,
  1,
  1,
  1,
  1,
  1,
  1,
  1,
  1,
  1,
  1,
  1,
  1,
  1,
  1,
  1,
  1,
  1,
  1,
  1,
  1,
  1,
  1,
  1,
  1,
  1,
  1,
  1,
  1,
  1,
  1,
  1,
  1,
  1,
  1,
  1,
  1,
  1,
  1,
  1,
  1,
  1,
  1,
  1,
  1,
  1,
  1,
  1,
  1,
  1,
  1,
  1,
  1,
  1,
  1,
  1,
  1,
  1,
  1,
  1,
  1,
  1,
  1,
  1,
  1,
  1,
  1,
  1,
  1,
  1,
  1,
  1,
  1,
  1,
  1,
  1,
  1,
  1,
  1,
  1,
  1,
  1,
  1,
  1,
  1,
  1,
  1,
  1,
  1,
  1,
  1,
  1,
  1,
  1,
  1,
  1,
  1,
  1,
  1,
  1,
  1,
  1,
  1,
  1,
  1,
  1,
  1,
  1,
  1,
  1,
  1,
  1,
  1,
  1,
  1,
  1,
  1,
  1,
  1,
  1,
  1,
  1,
  1,
  1,
  1,
  1,
  1,
  1,
  1,
  1,
  1,
  1,
  1,
  1,
  1,
  1,
  1,
  1,
  1,
  1,
  1,
  1,
  1,
  1,
  1,
  1,
  1,
  1,
  1,
  1,
  1,
  1,
  1,
  1,
  1,
  1,
  1,
  1,
  1,
  1,
  1,
  1,
  1,
  1,
  1,
  1,
  1,
  1,
  1,
  1,
  1,
  1,
  1,
  1,
  1,
  1,
  1,
  1,
  1,
  1,
  1,
  1,
  1,
  1,
  1,
  1,
  1,
  1,
  1,
  1,
  1,
  1,
  1,
  1,
  1,
  1,
  1,
  5,
  5,
  5,
  5,
  5,
  5,
  5,
  5,
  5,
  5,
  5,
  5,
  5,
  5,
  5,
  5,
  5,
  5,
  5,
  5,
  5,
  5,
  5,
  5,
  5,
  5,
  5,
  5,
  5,
  5,
  5,
  5,
  5,
  5,
  5,
  5,
  5,
  5,
  5,
  5,
  5,
  5,
  5,
  5,
  5,
  5,
  5,
  5,
  5,
  5,
  5,
  5,
  5,
  5,
  5,
  5,
  5,
  5,
  5,
  5,
  5,
  5,
  5,
  5,
  5,
  5,
  5,
  5,
  5,
  5,
  5,
  5,
  5,
  5,
  5,
  5,
  5,
  5,
  5,
  5,
  5,
  5,
  5,
  5,
  5,
  5,
  5,
  5,
  5,
  5,
  5,
  5,
  5,
  5,
  5,
  5,
  5,
  5,
  5,
  5,
  5,
  5,
  5,
  5,
  5,
  5,
  5,
  5,
  5,
  5,
  5,
  5,
  5,
  5,
  5,
  5,
  5,
  5,
  5,
  5,
  5,
  5,
  5,
  5,
  5,
  5,
  5,
  5,
  5,
  5,
  5,
  5,
  5,
  5,
  5,
  5,
  5,
  5,
  5,
  5,
  5,
  5,
  5,
  5,
  5,
  5,
  5,
  5,
  5,
  5,
  5,
  5,
  5,
  5,
  5,
  5,
  5,
  5,
  5,
  5,
  5,
  5,
  5,
  5,
  5,
  5,
  5,
  5,
  5,
  5,
  5,
  5,
  5,
  5,
  5,
  5,
  5,
  5,
  5,
  5,
  5,
  5,
  5,
  5,
  5,
  5,
  5,
  5,
  5,
  5,
  5,
  5,
  5,
  5,
  5,
  5,
  5,
  5,
  5,
  5,
  5,
  5,
  5,
  5,
  5,
  5,
  5,
  5,
  5,
  5,
  5,
  5,
  5,
  5,
  5,
  5,
  5,
  5,
  5,
  5,
  5,
  5,
  5,
  5,
  5,
  5,
  5,
  5,
  5,
  5,
  5,
  5,
  5,
  5,
  5,
  5,
  5,
  5,
  5,
  5,
  5,
  5,
  5,
  5,
  5,
  5,
  5,
  5,
  5,
  5,
  5,
  5,
  5,
  5,
  5,
  5,
  5,
  5,
  5,
  5,
  5,
  5,
  5,
  5,
  5,
  5,
  5,
  5,
  5,
  5,
  5,
  5,
  5,
  5,
  5,
  5,
  5,
  5,
  5,
  5,
  5,
  5,
  5,
  5,
  5,
  5,
  5,
  5,
  5,
  5,
  5,
  5,
  5,
  5,
  5,
  5,
  5,
  5,
  5,
  5,
  5,
  5,
  5,
  5,
  5,
  5,
  5,
  5,
  5,
  5,
  5,
  5,
  5,
  5,
  5,
  5,
  3;;
  Material {
   0.674400;0.652800;0.661600;1.000000;;
   5.000000;
   0.000000;0.000000;0.000000;;
   0.000000;0.000000;0.000000;;
  }
  Material {
   0.800000;0.000000;0.031200;1.000000;;
   5.000000;
   0.000000;0.000000;0.000000;;
   0.000000;0.000000;0.000000;;
  }
  Material {
   0.800000;0.473600;0.116000;1.000000;;
   5.000000;
   0.000000;0.000000;0.000000;;
   0.000000;0.000000;0.000000;;
  }
  Material {
   0.800000;0.800000;0.800000;1.000000;;
   5.000000;
   0.000000;0.000000;0.000000;;
   0.000000;0.000000;0.000000;;
  }
  Material {
   0.800000;0.652800;0.486400;1.000000;;
   5.000000;
   0.000000;0.000000;0.000000;;
   0.000000;0.000000;0.000000;;
  }
  Material {
   0.800000;0.627451;0.047059;1.000000;;
   5.000000;
   0.540000;0.540000;0.540000;;
   0.000000;0.000000;0.000000;;
  }
  Material {
   0.800000;0.800000;0.800000;1.000000;;
   5.000000;
   0.000000;0.000000;0.000000;;
   0.000000;0.000000;0.000000;;
  }
 }
 MeshNormals {
  647;
  0.000000;0.000000;-1.000000;,
  1.000000;0.000000;0.000000;,
  0.000000;0.000000;1.000000;,
  -1.000000;0.000000;0.000000;,
  0.000000;1.000000;0.000000;,
  0.000000;-1.000000;-0.000000;,
  0.000000;0.000000;-1.000000;,
  0.000000;0.046926;-0.998898;,
  0.000000;0.016123;-0.999870;,
  0.016112;0.027494;-0.999492;,
  0.027500;0.038862;-0.998866;,
  0.016112;0.027494;0.999492;,
  0.000000;0.016123;0.999870;,
  -0.016112;0.027494;0.999492;,
  -0.027500;0.038862;0.998866;,
  -0.016112;0.027494;-0.999492;,
  0.000000;-0.000000;-1.000000;,
  0.016123;-0.000000;-0.999870;,
  0.027521;-0.000000;-0.999621;,
  0.016123;-0.000000;0.999870;,
  0.000000;0.000000;1.000000;,
  -0.016123;0.000000;0.999870;,
  -0.027521;-0.000000;0.999621;,
  -0.016123;-0.000000;-0.999870;,
  0.000000;-0.016123;-0.999870;,
  0.016112;-0.027494;-0.999492;,
  0.027500;-0.038862;-0.998866;,
  0.016112;-0.027494;0.999492;,
  0.000000;-0.016123;0.999870;,
  -0.016112;-0.027494;0.999492;,
  -0.027500;-0.038862;0.998866;,
  -0.016112;-0.027494;-0.999492;,
  0.000000;-0.046926;-0.998898;,
  0.000000;0.046926;0.998898;,
  0.027500;0.038862;0.998866;,
  -0.027500;0.038862;-0.998866;,
  0.027521;-0.000000;0.999621;,
  -0.027521;-0.000000;-0.999621;,
  0.027500;-0.038862;0.998866;,
  -0.027500;-0.038862;-0.998866;,
  0.000000;-0.046926;0.998898;,
  0.000000;-1.000000;0.000000;,
  -0.000012;0.007587;-0.999971;,
  0.000004;0.002764;-0.999996;,
  0.012152;0.004351;-0.999917;,
  0.020742;0.005934;-0.999767;,
  0.012148;0.004357;0.999917;,
  0.000004;0.002768;0.999996;,
  -0.012130;0.004321;0.999917;,
  -0.020707;0.005877;0.999768;,
  -0.012132;0.004314;-0.999917;,
  0.012601;0.001112;-0.999920;,
  0.000015;0.001083;-0.999999;,
  0.021505;0.001133;-0.999768;,
  0.020736;0.005942;0.999767;,
  -0.000012;0.007593;0.999971;,
  0.012586;0.001118;0.999920;,
  0.021477;0.001139;0.999769;,
  0.000015;0.001089;0.999999;,
  -0.012524;0.001053;0.999921;,
  -0.021384;0.001025;0.999771;,
  -0.020711;0.005869;-0.999768;,
  -0.012539;0.001047;-0.999921;,
  -0.021411;0.001019;-0.999770;,
  0.695620;0.010000;0.718341;,
  0.695705;0.010001;0.718258;,
  0.491548;0.013790;0.870741;,
  0.367921;0.010643;0.929796;,
  0.368107;0.003808;0.929776;,
  0.368247;-0.003061;0.929723;,
  0.491847;-0.001657;0.870680;,
  0.695603;0.009999;0.718356;,
  0.006630;0.002856;-0.999974;,
  0.695608;0.009999;0.718352;,
  0.011468;0.002919;-0.999930;,
  0.009696;0.015110;-0.999839;,
  0.007980;0.023727;-0.999687;,
  -0.018879;0.009227;0.999779;,
  -0.017078;-0.003005;0.999850;,
  -0.018512;-0.015367;0.999711;,
  -0.020000;-0.024134;0.999509;,
  0.010103;-0.009235;-0.999906;,
  0.012958;0.015676;-0.999793;,
  0.013166;0.002959;-0.999909;,
  0.012808;0.024685;-0.999613;,
  -0.020622;0.017866;0.999628;,
  -0.022032;-0.003147;0.999752;,
  0.008681;-0.017813;-0.999804;,
  0.013383;-0.009637;-0.999864;,
  0.013539;-0.018526;-0.999737;,
  -0.695537;-0.003927;0.718479;,
  -0.695601;-0.003926;0.718418;,
  -0.491742;-0.009501;0.870689;,
  -0.368123;-0.007430;0.929748;,
  -0.368106;-0.000594;0.929783;,
  -0.368198;0.006271;0.929726;,
  -0.491836;0.005945;0.870667;,
  -0.695616;-0.003931;0.718403;,
  -0.006655;-0.002799;-0.999974;,
  -0.695659;-0.003929;0.718361;,
  -0.011493;-0.002818;-0.999930;,
  -0.009822;-0.015024;-0.999839;,
  -0.008178;-0.023654;-0.999687;,
  0.018796;-0.009392;0.999779;,
  0.017102;0.002857;0.999850;,
  0.018645;0.015204;0.999711;,
  0.020210;0.023957;0.999509;,
  -0.010024;0.009321;-0.999906;,
  -0.013083;-0.015559;-0.999793;,
  -0.013191;-0.002844;-0.999909;,
  -0.013006;-0.024568;-0.999614;,
  0.020467;-0.018049;0.999628;,
  0.022058;0.002953;0.999752;,
  -0.008527;0.017885;-0.999804;,
  -0.013300;0.009752;-0.999864;,
  -0.013377;0.018641;-0.999737;,
  -0.012712;0.686642;0.726885;,
  -0.012709;0.686539;0.726982;,
  -0.015968;0.483978;0.874934;,
  -0.012483;0.362087;0.932061;,
  -0.005653;0.362124;0.932113;,
  0.001188;0.362297;0.932062;,
  -0.000551;0.484285;0.874910;,
  -0.012715;0.686639;0.726887;,
  -0.002088;0.006993;-0.999973;,
  -0.012713;0.686631;0.726895;,
  -0.002177;0.011830;-0.999928;,
  -0.014347;0.010008;-0.999847;,
  -0.022942;0.008256;-0.999703;,
  -0.009959;-0.019301;0.999764;,
  0.002283;-0.017444;0.999845;,
  0.014641;-0.018826;0.999716;,
  0.023405;-0.020275;0.999521;,
  0.009990;0.010512;-0.999895;,
  -0.014924;0.013260;-0.999801;,
  -0.002224;0.013527;-0.999906;,
  -0.023916;0.013066;-0.999629;,
  -0.018608;-0.021086;0.999605;,
  0.002430;-0.022402;0.999746;,
  0.018583;0.009123;-0.999786;,
  0.010384;0.013795;-0.999851;,
  0.019286;0.013988;-0.999716;,
  -0.757474;-0.652818;-0.007841;,
  -0.757472;-0.652817;-0.008065;,
  -0.757471;-0.652814;-0.008459;,
  -0.757473;-0.652812;-0.008449;,
  -0.757474;-0.652813;-0.008270;,
  -0.757473;-0.652821;-0.007789;,
  -0.757467;-0.652822;-0.008135;,
  -0.757469;-0.652817;-0.008401;,
  0.005961;0.004883;-0.999970;,
  -0.757472;-0.652817;-0.008176;,
  0.002315;0.001724;-0.999996;,
  0.011452;-0.006444;-0.999914;,
  0.018264;-0.011921;-0.999762;,
  0.011008;-0.006277;0.999920;,
  0.001881;0.001882;0.999996;,
  -0.004865;0.012086;0.999915;,
  -0.009284;0.019599;0.999765;,
  -0.004433;0.011929;-0.999919;,
  0.009290;-0.008900;-0.999917;,
  0.001049;0.000618;-0.999999;,
  0.015122;-0.015635;-0.999763;,
  0.017809;-0.011745;0.999772;,
  0.005522;0.005044;0.999972;,
  0.008842;-0.008723;0.999923;,
  0.014659;-0.015440;0.999773;,
  0.000616;0.000777;1.000000;,
  -0.007597;0.010253;0.999919;,
  -0.013403;0.016946;0.999767;,
  -0.008857;0.019442;-0.999772;,
  -0.007174;0.010103;-0.999923;,
  -0.012987;0.016805;-0.999774;,
  0.740266;-0.672269;-0.007741;,
  0.740264;-0.672269;-0.008062;,
  0.740262;-0.672271;-0.007949;,
  0.740265;-0.672265;-0.008182;,
  0.740260;-0.672262;-0.008849;,
  0.740263;-0.672267;-0.008208;,
  0.740268;-0.672263;-0.008053;,
  0.740265;-0.672266;-0.008141;,
  -0.005574;0.005321;-0.999970;,
  0.740264;-0.672267;-0.008148;,
  -0.001992;0.002087;-0.999996;,
  0.005002;0.012151;-0.999914;,
  0.009607;0.019580;-0.999762;,
  0.004889;0.011691;0.999920;,
  -0.002097;0.001638;0.999996;,
  -0.011404;-0.006301;0.999915;,
  -0.018321;-0.011604;0.999765;,
  -0.011300;-0.005854;-0.999919;,
  0.007705;0.010304;-0.999917;,
  -0.000738;0.000964;-0.999999;,
  0.013676;0.016915;-0.999763;,
  0.009486;0.019108;0.999772;,
  -0.005679;0.004866;0.999972;,
  0.007580;0.009839;0.999923;,
  0.013538;0.016431;0.999773;,
  -0.000847;0.000517;1.000000;,
  -0.009251;-0.008790;0.999919;,
  -0.015187;-0.015368;0.999767;,
  -0.018218;-0.011160;-0.999772;,
  -0.009154;-0.008352;-0.999923;,
  -0.015097;-0.014939;-0.999774;,
  0.774296;0.632764;-0.008686;,
  0.774299;0.632764;-0.008379;,
  0.774297;0.632767;-0.008396;,
  0.774298;0.632764;-0.008475;,
  0.774302;0.632763;-0.008229;,
  0.774303;0.632765;-0.007911;,
  0.774302;0.632768;-0.007817;,
  0.774297;0.632768;-0.008363;,
  -0.006086;-0.004726;-0.999970;,
  0.774299;0.632765;-0.008282;,
  -0.002359;-0.001663;-0.999996;,
  -0.011279;0.006742;-0.999914;,
  -0.017945;0.012395;-0.999762;,
  -0.010840;0.006563;0.999920;,
  -0.001929;-0.001830;0.999996;,
  0.004547;-0.012208;0.999915;,
  0.008768;-0.019835;0.999765;,
  0.004120;-0.012041;-0.999919;,
  -0.009054;0.009141;-0.999917;,
  -0.001065;-0.000590;-0.999999;,
  -0.014707;0.016025;-0.999763;,
  -0.017496;0.012207;0.999772;,
  -0.005652;-0.004898;0.999972;,
  -0.008610;0.008951;0.999923;,
  -0.014249;0.015818;0.999773;,
  -0.000635;-0.000758;1.000000;,
  0.007328;-0.010446;0.999919;,
  0.012954;-0.017291;0.999767;,
  0.008345;-0.019668;-0.999772;,
  0.006907;-0.010288;-0.999923;,
  0.012543;-0.017139;-0.999774;,
  -0.781930;0.586957;-0.209921;,
  -0.781915;0.586941;-0.210021;,
  -0.781887;0.586919;-0.210186;,
  -0.781889;0.586922;-0.210170;,
  -0.781900;0.586935;-0.210093;,
  -0.781955;0.586978;-0.209770;,
  -0.781918;0.586944;-0.210002;,
  -0.781877;0.586913;-0.210241;,
  0.001937;-0.015098;-0.999884;,
  -0.781909;0.586939;-0.210051;,
  -0.001862;-0.012065;-0.999926;,
  -0.008006;-0.022999;-0.999704;,
  -0.012006;-0.031053;-0.999446;,
  0.000278;-0.001874;0.999998;,
  0.006294;0.008713;0.999942;,
  0.015009;0.017650;0.999732;,
  0.021570;0.023721;0.999486;,
  0.006608;-0.003304;-0.999973;,
  -0.010917;-0.021376;-0.999712;,
  -0.003219;-0.011057;-0.999934;,
  -0.016393;-0.028717;-0.999453;,
  -0.003585;-0.009594;0.999948;,
  0.010254;0.005932;0.999930;,
  -0.002548;-0.000292;0.999997;,
  -0.007815;-0.007333;0.999943;,
  0.004941;0.009719;0.999941;,
  0.012614;0.019983;0.999721;,
  0.018066;0.027276;0.999465;,
  0.012933;0.002580;-0.999913;,
  0.004246;-0.001036;-0.999991;,
  0.009490;0.006009;-0.999937;,
  -0.000000;0.066429;-0.997791;,
  -0.000000;0.022854;-0.999739;,
  0.022149;0.038930;-0.998996;,
  0.037799;0.054996;-0.997771;,
  0.022149;0.038930;0.998996;,
  -0.000000;0.022854;0.999739;,
  -0.022149;0.038930;0.998996;,
  -0.037799;0.054996;0.997771;,
  -0.022149;0.038930;-0.998996;,
  -0.000000;0.000000;-1.000000;,
  0.022180;0.000000;-0.999754;,
  0.037857;0.000000;-0.999283;,
  0.022180;0.000000;0.999754;,
  -0.000000;0.000000;1.000000;,
  -0.022180;0.000000;0.999754;,
  -0.037857;0.000000;0.999283;,
  -0.022180;0.000000;-0.999754;,
  -0.000000;-0.022854;-0.999739;,
  0.022149;-0.038930;-0.998996;,
  0.037799;-0.054997;-0.997771;,
  0.022149;-0.038930;0.998996;,
  -0.000000;-0.022854;0.999739;,
  -0.022149;-0.038930;0.998996;,
  -0.037799;-0.054997;0.997771;,
  -0.022149;-0.038930;-0.998996;,
  -0.000000;-0.066429;-0.997791;,
  0.000000;-1.000000;0.000000;,
  -0.000016;0.010757;-0.999942;,
  0.000006;0.003920;-0.999992;,
  0.016719;0.006169;-0.999841;,
  0.028538;0.008412;-0.999557;,
  0.016713;0.006177;0.999841;,
  0.000006;0.003922;0.999992;,
  -0.016687;0.006122;0.999842;,
  -0.028486;0.008330;0.999560;,
  -0.016693;0.006117;-0.999842;,
  0.799436;0.011839;0.600634;,
  0.799592;0.011840;0.600427;,
  0.582825;0.018483;0.812388;,
  0.437599;0.014364;0.899055;,
  0.437760;0.004299;0.899082;,
  0.437950;-0.005807;0.898980;,
  0.583202;-0.004138;0.812316;,
  0.799564;0.011844;0.600464;,
  0.009125;0.004047;-0.999950;,
  0.799777;0.011847;0.600181;,
  0.015782;0.004139;-0.999867;,
  0.013336;0.021413;-0.999682;,
  0.010968;0.033616;-0.999375;,
  -0.025972;0.013083;0.999577;,
  -0.023497;-0.004261;0.999715;,
  -0.025468;-0.021780;0.999438;,
  -0.027508;-0.034201;0.999036;,
  0.013904;-0.013090;-0.999818;,
  -0.799698;-0.004655;0.600384;,
  -0.799813;-0.004652;0.600231;,
  -0.582983;-0.013242;0.812376;,
  -0.437592;-0.010425;0.899113;,
  -0.437603;-0.000360;0.899168;,
  -0.437799;0.009747;0.899020;,
  -0.583059;0.009386;0.812375;,
  -0.799638;-0.004654;0.600464;,
  -0.009160;-0.003966;-0.999950;,
  -0.799821;-0.004654;0.600220;,
  -0.015814;-0.003995;-0.999867;,
  -0.013517;-0.021294;-0.999682;,
  -0.011252;-0.033520;-0.999375;,
  0.025862;-0.013315;0.999577;,
  0.023535;0.004050;0.999715;,
  0.025651;0.021550;0.999439;,
  0.027796;0.033951;0.999037;,
  -0.013791;0.013214;-0.999818;,
  -0.014392;0.801015;0.598472;,
  -0.014396;0.801128;0.598320;,
  -0.020481;0.583839;0.811611;,
  -0.016157;0.437988;0.898836;,
  -0.006369;0.438173;0.898868;,
  0.003440;0.438468;0.898740;,
  0.001497;0.584387;0.811474;,
  -0.014393;0.801133;0.598314;,
  -0.002872;0.009912;-0.999947;,
  -0.014397;0.801198;0.598227;,
  -0.002996;0.016774;-0.999855;,
  -0.019741;0.014192;-0.999704;,
  -0.031569;0.011711;-0.999433;,
  -0.013701;-0.027355;0.999532;,
  0.003141;-0.024725;0.999689;,
  0.020138;-0.026680;0.999441;,
  0.032187;-0.028731;0.999069;,
  0.013744;0.014904;-0.999795;,
  -0.747722;-0.663985;-0.005963;,
  -0.747718;-0.663991;-0.005779;,
  -0.747716;-0.663992;-0.005922;,
  -0.747718;-0.663989;-0.006024;,
  -0.747720;-0.663989;-0.005800;,
  -0.747719;-0.663988;-0.005960;,
  -0.747719;-0.663986;-0.006274;,
  -0.747721;-0.663984;-0.006196;,
  0.008203;0.006923;-0.999942;,
  -0.747719;-0.663988;-0.005990;,
  0.003184;0.002442;-0.999992;,
  0.015756;-0.009138;-0.999834;,
  0.025127;-0.016900;-0.999542;,
  0.015140;-0.008905;0.999846;,
  0.002587;0.002666;0.999993;,
  -0.006694;0.017136;0.999831;,
  -0.012775;0.027785;0.999532;,
  -0.006099;0.016909;-0.999838;,
  0.730166;-0.683245;-0.005788;,
  0.730165;-0.683246;-0.005828;,
  0.730163;-0.683246;-0.006066;,
  0.730163;-0.683245;-0.006279;,
  0.730162;-0.683245;-0.006294;,
  0.730169;-0.683242;-0.005712;,
  0.730174;-0.683236;-0.005874;,
  0.730169;-0.683239;-0.006202;,
  -0.007669;0.007544;-0.999942;,
  0.730166;-0.683243;-0.006005;,
  -0.002741;0.002959;-0.999992;,
  0.006880;0.017228;-0.999828;,
  0.013217;0.027755;-0.999527;,
  0.006728;0.016571;0.999840;,
  -0.002881;0.002320;0.999993;,
  -0.015689;-0.008935;0.999837;,
  -0.025209;-0.016452;0.999547;,
  -0.015544;-0.008299;-0.999845;,
  0.764924;0.644091;-0.006097;,
  0.764924;0.644093;-0.006066;,
  0.764924;0.644093;-0.006004;,
  0.764922;0.644094;-0.006081;,
  0.764924;0.644091;-0.006187;,
  0.764925;0.644094;-0.005776;,
  0.764920;0.644097;-0.006050;,
  0.764921;0.644092;-0.006416;,
  -0.008375;-0.006699;-0.999942;,
  0.764923;0.644093;-0.006085;,
  -0.003245;-0.002356;-0.999992;,
  -0.015519;0.009558;-0.999834;,
  -0.024688;0.017571;-0.999541;,
  -0.014912;0.009306;0.999846;,
  -0.002653;-0.002593;0.999993;,
  0.006257;-0.017308;0.999831;,
  0.012065;-0.028120;0.999532;,
  0.005668;-0.017066;-0.999838;,
  -0.781709;0.604604;-0.152921;,
  -0.781722;0.604620;-0.152789;,
  -0.781748;0.604642;-0.152572;,
  -0.781748;0.604640;-0.152582;,
  -0.781736;0.604631;-0.152675;,
  -0.781744;0.604640;-0.152600;,
  -0.781750;0.604644;-0.152557;,
  -0.781729;0.604621;-0.152755;,
  0.002668;-0.021399;-0.999767;,
  -0.781736;0.604630;-0.152681;,
  -0.002565;-0.017105;-0.999850;,
  -0.011013;-0.032595;-0.999408;,
  -0.016510;-0.044001;-0.998895;,
  0.000380;-0.002657;0.999996;,
  0.008658;0.012353;0.999886;,
  0.020646;0.025017;0.999474;,
  0.029667;0.033616;0.998994;,
  0.009088;-0.004679;-0.999948;,
  -0.000000;0.066429;0.997791;,
  0.037799;0.054996;0.997771;,
  -0.037799;0.054997;-0.997771;,
  0.037856;0.000000;0.999283;,
  -0.037857;0.000000;-0.999283;,
  0.037799;-0.054997;0.997771;,
  -0.037799;-0.054997;-0.997771;,
  -0.000000;-0.066429;0.997791;,
  0.017339;0.001577;-0.999848;,
  0.000021;0.001536;-0.999999;,
  0.029590;0.001607;-0.999561;,
  0.028527;0.008422;0.999558;,
  -0.000016;0.010764;0.999942;,
  0.017315;0.001585;0.999849;,
  0.029546;0.001615;0.999562;,
  0.000022;0.001539;0.999999;,
  -0.017229;0.001489;0.999851;,
  -0.029418;0.001453;0.999566;,
  -0.028497;0.008320;-0.999559;,
  -0.017254;0.001485;-0.999850;,
  -0.029462;0.001445;-0.999565;,
  0.017815;0.022211;-0.999595;,
  0.018119;0.004197;-0.999827;,
  0.017594;0.034969;-0.999233;,
  -0.028369;0.025331;0.999277;,
  -0.030311;-0.004458;0.999531;,
  0.011944;-0.025250;-0.999610;,
  0.018417;-0.013659;-0.999737;,
  0.018626;-0.026259;-0.999482;,
  -0.018003;-0.022053;-0.999595;,
  -0.018149;-0.004032;-0.999827;,
  -0.017891;-0.034816;-0.999234;,
  0.028154;-0.025583;0.999276;,
  0.030347;0.004185;0.999531;,
  -0.011731;0.025352;-0.999610;,
  -0.018295;0.013825;-0.999737;,
  -0.018402;0.026423;-0.999481;,
  -0.020534;0.018809;-0.999612;,
  -0.003061;0.019183;-0.999811;,
  -0.032908;0.018542;-0.999286;,
  -0.025597;-0.029883;0.999226;,
  0.003341;-0.031752;0.999490;,
  0.025568;0.012930;-0.999589;,
  0.014284;0.019561;-0.999707;,
  0.026531;0.019828;-0.999451;,
  0.012779;-0.012622;-0.999839;,
  0.001440;0.000872;-0.999999;,
  0.020804;-0.022163;-0.999538;,
  0.024493;-0.016657;0.999561;,
  0.007597;0.007152;0.999946;,
  0.012154;-0.012378;0.999850;,
  0.020151;-0.021904;0.999557;,
  0.000846;0.001098;0.999999;,
  -0.010454;0.014537;0.999840;,
  -0.018442;0.024026;0.999541;,
  -0.012182;0.027556;-0.999546;,
  -0.009868;0.014321;-0.999849;,
  -0.017863;0.023817;-0.999557;,
  0.010597;0.014610;-0.999837;,
  -0.001015;0.001367;-0.999999;,
  0.018814;0.023977;-0.999535;,
  0.013050;0.027083;0.999548;,
  -0.007815;0.006897;0.999946;,
  0.010432;0.013945;0.999848;,
  0.018624;0.023289;0.999555;,
  -0.001157;0.000729;0.999999;,
  -0.012726;-0.012465;0.999841;,
  -0.020896;-0.021789;0.999544;,
  -0.025061;-0.015817;-0.999561;,
  -0.012589;-0.011840;-0.999851;,
  -0.020766;-0.021172;-0.999560;,
  -0.012457;0.012959;-0.999839;,
  -0.001462;-0.000833;-0.999999;,
  -0.020234;0.022717;-0.999537;,
  -0.024068;0.017303;0.999561;,
  -0.007776;-0.006944;0.999946;,
  -0.011843;0.012693;0.999849;,
  -0.019602;0.022422;0.999556;,
  -0.000871;-0.001071;0.999999;,
  0.010084;-0.014810;0.999840;,
  0.017826;-0.024515;0.999541;,
  0.011478;-0.027876;-0.999546;,
  0.009504;-0.014579;-0.999849;,
  0.017252;-0.024291;-0.999556;,
  -0.015015;-0.030295;-0.999428;,
  -0.004435;-0.015674;-0.999867;,
  -0.022541;-0.040691;-0.998917;,
  -0.004934;-0.013604;0.999895;,
  0.014107;0.008406;0.999865;,
  -0.003511;-0.000414;0.999994;,
  -0.010756;-0.010399;0.999888;,
  0.006794;0.013781;0.999882;,
  0.017352;0.028323;0.999448;,
  0.024847;0.038652;0.998944;,
  0.017790;0.003667;-0.999835;,
  0.005830;-0.001461;-0.999982;,
  0.013042;0.008532;-0.999879;,
  0.000001;0.434265;-0.900785;,
  0.000001;0.263067;-0.964778;,
  0.189177;0.258317;-0.947357;,
  0.000001;0.263072;0.964776;,
  -0.189179;0.258322;0.947355;,
  0.000001;0.000000;-1.000000;,
  0.195823;0.000000;-0.980639;,
  0.000001;0.000000;1.000000;,
  -0.195826;0.000000;0.980639;,
  0.000001;-0.263065;-0.964778;,
  0.189177;-0.258315;-0.947357;,
  0.000001;-0.263070;0.964777;,
  -0.189179;-0.258320;0.947355;,
  0.000001;-0.434263;-0.900786;,
  0.000001;0.434264;-0.900786;,
  0.000001;0.263067;-0.964778;,
  0.189185;0.258316;-0.947355;,
  0.000001;0.263061;0.964779;,
  -0.189180;0.258311;0.947358;,
  0.000001;-0.000000;-1.000000;,
  0.195832;-0.000000;-0.980637;,
  0.000001;-0.000000;1.000000;,
  -0.195826;-0.000000;0.980639;,
  0.000001;-0.263074;-0.964776;,
  0.189185;-0.258324;-0.947353;,
  0.000001;-0.263069;0.964777;,
  -0.189179;-0.258319;0.947356;,
  0.000001;-0.434278;-0.900779;,
  -0.000000;0.026836;-0.999640;,
  0.049202;0.026803;-0.998429;,
  -0.000000;0.026834;0.999640;,
  -0.049202;0.026802;0.998429;,
  -0.000000;0.139950;-0.990159;,
  0.070323;0.139603;-0.987707;,
  -0.000000;0.139951;0.990158;,
  -0.070323;0.139604;0.987707;,
  -0.000000;0.158309;-0.987390;,
  0.112801;0.157298;-0.981088;,
  -0.000000;0.158311;0.987389;,
  -0.112802;0.157300;0.981087;,
  -0.000000;0.042683;-0.999089;,
  0.130886;0.042316;-0.990494;,
  -0.000000;0.042683;0.999089;,
  -0.130886;0.042316;0.990494;,
  0.000000;0.022241;-0.999753;,
  0.000000;-1.000000;-0.000000;,
  0.000002;0.034662;-0.999399;,
  0.237829;0.033668;-0.970723;,
  0.000002;0.034663;0.999399;,
  -0.237827;0.033668;0.970724;,
  0.000003;0.061298;-0.998120;,
  0.237543;0.059543;-0.969550;,
  0.000003;0.061298;0.998119;,
  -0.237539;0.059544;0.969551;,
  0.000003;0.087885;-0.996131;,
  0.000001;0.034662;-0.999399;,
  0.237829;0.033668;-0.970723;,
  0.000001;0.034663;0.999399;,
  -0.237829;0.033668;0.970723;,
  0.000002;0.050322;-0.998733;,
  0.237681;0.048880;-0.970113;,
  0.000002;0.050322;0.998733;,
  -0.237679;0.048880;0.970113;,
  0.000002;0.065968;-0.997822;,
  0.000000;0.434257;-0.900789;,
  0.000000;0.263062;-0.964779;,
  0.189176;0.258312;-0.947358;,
  -0.000000;0.263074;0.964776;,
  -0.189185;0.258323;0.947353;,
  -0.000000;-0.000000;-1.000000;,
  0.195822;-0.000000;-0.980639;,
  -0.000000;0.000000;1.000000;,
  -0.195831;0.000000;0.980638;,
  -0.000000;-0.263063;-0.964779;,
  0.189176;-0.258313;-0.947358;,
  -0.000000;-0.263075;0.964775;,
  -0.189184;-0.258324;0.947353;,
  0.000000;-0.434259;-0.900788;,
  0.000001;0.434275;0.900780;,
  0.189181;0.258322;0.947354;,
  -0.189175;0.258317;-0.947357;,
  0.195827;0.000000;0.980638;,
  -0.195822;-0.000000;-0.980639;,
  0.189181;-0.258320;0.947355;,
  -0.189175;-0.258315;-0.947357;,
  0.000001;-0.434272;0.900782;,
  0.000001;0.434254;0.900790;,
  0.189182;0.258311;0.947357;,
  -0.189184;0.258316;-0.947355;,
  0.195828;-0.000000;0.980638;,
  -0.195830;0.000000;-0.980638;,
  0.189181;-0.258319;0.947355;,
  -0.189183;-0.258324;-0.947353;,
  0.000001;-0.434269;0.900783;,
  0.049202;0.026802;0.998429;,
  0.070323;0.139604;0.987707;,
  -0.049202;0.026803;-0.998429;,
  -0.070323;0.139603;-0.987707;,
  0.112802;0.157300;0.981087;,
  -0.112801;0.157298;-0.981088;,
  0.130886;0.042316;0.990494;,
  -0.130886;0.042316;-0.990494;,
  0.000000;0.022241;0.999753;,
  0.237832;0.033669;0.970723;,
  0.237545;0.059544;0.969550;,
  -0.237825;0.033667;-0.970724;,
  -0.237538;0.059543;-0.969552;,
  0.000003;0.087885;0.996131;,
  0.237832;0.033669;0.970723;,
  0.237683;0.048880;0.970112;,
  -0.237826;0.033668;-0.970724;,
  -0.237678;0.048880;-0.970113;,
  0.000002;0.065968;0.997822;,
  0.000000;0.434277;0.900779;,
  0.189185;0.258323;0.947353;,
  -0.189176;0.258312;-0.947358;,
  0.195831;0.000000;0.980638;,
  -0.195822;-0.000000;-0.980639;,
  0.189184;-0.258324;0.947353;,
  -0.189176;-0.258313;-0.947358;,
  0.000000;-0.434280;0.900778;,
  0.017452;0.000000;0.999848;;
  548;
  4;0,0,0,0;,
  4;1,1,1,1;,
  4;2,2,2,2;,
  4;3,3,3,3;,
  4;4,4,4,4;,
  4;5,5,5,5;,
  4;6,6,6,6;,
  3;7,9,8;,
  3;7,10,9;,
  3;33,11,34;,
  3;33,12,11;,
  3;33,13,12;,
  3;33,14,13;,
  3;7,15,35;,
  3;7,8,15;,
  4;8,9,17,16;,
  4;9,10,18,17;,
  4;34,11,19,36;,
  4;11,12,20,19;,
  4;12,13,21,20;,
  4;13,14,22,21;,
  4;35,15,23,37;,
  4;15,8,16,23;,
  4;16,17,25,24;,
  4;17,18,26,25;,
  4;36,19,27,38;,
  4;19,20,28,27;,
  4;20,21,29,28;,
  4;21,22,30,29;,
  4;37,23,31,39;,
  4;23,16,24,31;,
  3;24,25,32;,
  3;25,26,32;,
  3;38,27,40;,
  3;27,28,40;,
  3;28,29,40;,
  3;29,30,40;,
  3;39,31,32;,
  3;31,24,32;,
  3;41,41,41;,
  3;41,41,41;,
  3;41,41,41;,
  3;41,41,41;,
  3;41,41,41;,
  3;41,41,41;,
  3;41,41,41;,
  3;41,41,41;,
  3;43,42,44;,
  4;43,44,51,52;,
  3;44,42,45;,
  4;44,45,53,51;,
  3;54,55,46;,
  4;54,46,56,57;,
  3;46,55,47;,
  4;46,47,58,56;,
  3;47,55,48;,
  4;47,48,59,58;,
  3;48,55,49;,
  4;48,49,60,59;,
  3;61,42,50;,
  4;61,50,62,63;,
  3;50,42,43;,
  4;50,43,52,62;,
  3;73,64,65;,
  3;73,65,66;,
  3;73,66,67;,
  3;73,67,68;,
  3;73,68,69;,
  3;73,69,70;,
  3;73,70,71;,
  3;73,71,64;,
  3;74,72,75;,
  4;74,75,82,83;,
  3;75,72,76;,
  4;75,76,84,82;,
  3;85,86,77;,
  4;85,77,67,66;,
  3;77,86,78;,
  4;77,78,68,67;,
  3;78,86,79;,
  4;78,79,69,68;,
  3;79,86,80;,
  4;79,80,70,69;,
  3;87,72,81;,
  4;87,81,88,89;,
  3;81,72,74;,
  4;81,74,83,88;,
  3;99,90,91;,
  3;99,91,92;,
  3;99,92,93;,
  3;99,93,94;,
  3;99,94,95;,
  3;99,95,96;,
  3;99,96,97;,
  3;99,97,90;,
  3;100,98,101;,
  4;100,101,108,109;,
  3;101,98,102;,
  4;101,102,110,108;,
  3;111,112,103;,
  4;111,103,93,92;,
  3;103,112,104;,
  4;103,104,94,93;,
  3;104,112,105;,
  4;104,105,95,94;,
  3;105,112,106;,
  4;105,106,96,95;,
  3;113,98,107;,
  4;113,107,114,115;,
  3;107,98,100;,
  4;107,100,109,114;,
  3;125,116,117;,
  3;125,117,118;,
  3;125,118,119;,
  3;125,119,120;,
  3;125,120,121;,
  3;125,121,122;,
  3;125,122,123;,
  3;125,123,116;,
  3;126,124,127;,
  4;126,127,134,135;,
  3;127,124,128;,
  4;127,128,136,134;,
  3;137,138,129;,
  4;137,129,119,118;,
  3;129,138,130;,
  4;129,130,120,119;,
  3;130,138,131;,
  4;130,131,121,120;,
  3;131,138,132;,
  4;131,132,122,121;,
  3;139,124,133;,
  4;139,133,140,141;,
  3;133,124,126;,
  4;133,126,135,140;,
  3;151,142,143;,
  3;151,143,144;,
  3;151,144,145;,
  3;151,145,146;,
  3;151,146,147;,
  3;151,147,148;,
  3;151,148,149;,
  3;151,149,142;,
  3;152,150,153;,
  4;152,153,160,161;,
  3;153,150,154;,
  4;153,154,162,160;,
  3;163,164,155;,
  4;163,155,165,166;,
  3;155,164,156;,
  4;155,156,167,165;,
  3;156,164,157;,
  4;156,157,168,167;,
  3;157,164,158;,
  4;157,158,169,168;,
  3;170,150,159;,
  4;170,159,171,172;,
  3;159,150,152;,
  4;159,152,161,171;,
  3;182,173,174;,
  3;182,174,175;,
  3;182,175,176;,
  3;182,176,177;,
  3;182,177,178;,
  3;182,178,179;,
  3;182,179,180;,
  3;182,180,173;,
  3;183,181,184;,
  4;183,184,191,192;,
  3;184,181,185;,
  4;184,185,193,191;,
  3;194,195,186;,
  4;194,186,196,197;,
  3;186,195,187;,
  4;186,187,198,196;,
  3;187,195,188;,
  4;187,188,199,198;,
  3;188,195,189;,
  4;188,189,200,199;,
  3;201,181,190;,
  4;201,190,202,203;,
  3;190,181,183;,
  4;190,183,192,202;,
  3;213,204,205;,
  3;213,205,206;,
  3;213,206,207;,
  3;213,207,208;,
  3;213,208,209;,
  3;213,209,210;,
  3;213,210,211;,
  3;213,211,204;,
  3;214,212,215;,
  4;214,215,222,223;,
  3;215,212,216;,
  4;215,216,224,222;,
  3;225,226,217;,
  4;225,217,227,228;,
  3;217,226,218;,
  4;217,218,229,227;,
  3;218,226,219;,
  4;218,219,230,229;,
  3;219,226,220;,
  4;219,220,231,230;,
  3;232,212,221;,
  4;232,221,233,234;,
  3;221,212,214;,
  4;221,214,223,233;,
  3;244,235,236;,
  3;244,236,237;,
  3;244,237,238;,
  3;244,238,239;,
  3;244,239,240;,
  3;244,240,241;,
  3;244,241,242;,
  3;244,242,235;,
  3;245,243,246;,
  4;245,246,253,254;,
  3;246,243,247;,
  4;246,247,255,253;,
  3;256,257,248;,
  4;256,248,258,259;,
  3;248,257,249;,
  4;248,249,260,258;,
  3;249,257,250;,
  4;249,250,261,260;,
  3;250,257,251;,
  4;250,251,262,261;,
  3;263,243,252;,
  4;263,252,264,265;,
  3;252,243,245;,
  4;252,245,254,264;,
  3;266,268,267;,
  3;266,269,268;,
  3;428,270,429;,
  3;428,271,270;,
  3;428,272,271;,
  3;428,273,272;,
  3;266,274,430;,
  3;266,267,274;,
  4;267,268,276,275;,
  4;268,269,277,276;,
  4;429,270,278,431;,
  4;270,271,279,278;,
  4;271,272,280,279;,
  4;272,273,281,280;,
  4;430,274,282,432;,
  4;274,267,275,282;,
  4;275,276,284,283;,
  4;276,277,285,284;,
  4;431,278,286,433;,
  4;278,279,287,286;,
  4;279,280,288,287;,
  4;280,281,289,288;,
  4;432,282,290,434;,
  4;282,275,283,290;,
  3;283,284,291;,
  3;284,285,291;,
  3;433,286,435;,
  3;286,287,435;,
  3;287,288,435;,
  3;288,289,435;,
  3;434,290,291;,
  3;290,283,291;,
  3;292,292,292;,
  3;292,292,292;,
  3;292,292,292;,
  3;292,292,292;,
  3;292,292,292;,
  3;292,292,292;,
  3;292,292,292;,
  3;292,292,292;,
  3;294,293,295;,
  4;294,295,436,437;,
  3;295,293,296;,
  4;295,296,438,436;,
  3;439,440,297;,
  4;439,297,441,442;,
  3;297,440,298;,
  4;297,298,443,441;,
  3;298,440,299;,
  4;298,299,444,443;,
  3;299,440,300;,
  4;299,300,445,444;,
  3;446,293,301;,
  4;446,301,447,448;,
  3;301,293,294;,
  4;301,294,437,447;,
  3;311,302,303;,
  3;311,303,304;,
  3;311,304,305;,
  3;311,305,306;,
  3;311,306,307;,
  3;311,307,308;,
  3;311,308,309;,
  3;311,309,302;,
  3;312,310,313;,
  4;312,313,449,450;,
  3;313,310,314;,
  4;313,314,451,449;,
  3;452,453,315;,
  4;452,315,305,304;,
  3;315,453,316;,
  4;315,316,306,305;,
  3;316,453,317;,
  4;316,317,307,306;,
  3;317,453,318;,
  4;317,318,308,307;,
  3;454,310,319;,
  4;454,319,455,456;,
  3;319,310,312;,
  4;319,312,450,455;,
  3;329,320,321;,
  3;329,321,322;,
  3;329,322,323;,
  3;329,323,324;,
  3;329,324,325;,
  3;329,325,326;,
  3;329,326,327;,
  3;329,327,320;,
  3;330,328,331;,
  4;330,331,457,458;,
  3;331,328,332;,
  4;331,332,459,457;,
  3;460,461,333;,
  4;460,333,323,322;,
  3;333,461,334;,
  4;333,334,324,323;,
  3;334,461,335;,
  4;334,335,325,324;,
  3;335,461,336;,
  4;335,336,326,325;,
  3;462,328,337;,
  4;462,337,463,464;,
  3;337,328,330;,
  4;337,330,458,463;,
  3;347,338,339;,
  3;347,339,340;,
  3;347,340,341;,
  3;347,341,342;,
  3;347,342,343;,
  3;347,343,344;,
  3;347,344,345;,
  3;347,345,338;,
  3;348,346,349;,
  4;348,349,465,466;,
  3;349,346,350;,
  4;349,350,467,465;,
  3;468,469,351;,
  4;468,351,341,340;,
  3;351,469,352;,
  4;351,352,342,341;,
  3;352,469,353;,
  4;352,353,343,342;,
  3;353,469,354;,
  4;353,354,344,343;,
  3;470,346,355;,
  4;470,355,471,472;,
  3;355,346,348;,
  4;355,348,466,471;,
  3;365,356,357;,
  3;365,357,358;,
  3;365,358,359;,
  3;365,359,360;,
  3;365,360,361;,
  3;365,361,362;,
  3;365,362,363;,
  3;365,363,356;,
  3;366,364,367;,
  4;366,367,473,474;,
  3;367,364,368;,
  4;367,368,475,473;,
  3;476,477,369;,
  4;476,369,478,479;,
  3;369,477,370;,
  4;369,370,480,478;,
  3;370,477,371;,
  4;370,371,481,480;,
  3;371,477,372;,
  4;371,372,482,481;,
  3;483,364,373;,
  4;483,373,484,485;,
  3;373,364,366;,
  4;373,366,474,484;,
  3;383,374,375;,
  3;383,375,376;,
  3;383,376,377;,
  3;383,377,378;,
  3;383,378,379;,
  3;383,379,380;,
  3;383,380,381;,
  3;383,381,374;,
  3;384,382,385;,
  4;384,385,486,487;,
  3;385,382,386;,
  4;385,386,488,486;,
  3;489,490,387;,
  4;489,387,491,492;,
  3;387,490,388;,
  4;387,388,493,491;,
  3;388,490,389;,
  4;388,389,494,493;,
  3;389,490,390;,
  4;389,390,495,494;,
  3;496,382,391;,
  4;496,391,497,498;,
  3;391,382,384;,
  4;391,384,487,497;,
  3;401,392,393;,
  3;401,393,394;,
  3;401,394,395;,
  3;401,395,396;,
  3;401,396,397;,
  3;401,397,398;,
  3;401,398,399;,
  3;401,399,392;,
  3;402,400,403;,
  4;402,403,499,500;,
  3;403,400,404;,
  4;403,404,501,499;,
  3;502,503,405;,
  4;502,405,504,505;,
  3;405,503,406;,
  4;405,406,506,504;,
  3;406,503,407;,
  4;406,407,507,506;,
  3;407,503,408;,
  4;407,408,508,507;,
  3;509,400,409;,
  4;509,409,510,511;,
  3;409,400,402;,
  4;409,402,500,510;,
  3;419,410,411;,
  3;419,411,412;,
  3;419,412,413;,
  3;419,413,414;,
  3;419,414,415;,
  3;419,415,416;,
  3;419,416,417;,
  3;419,417,410;,
  3;420,418,421;,
  4;420,421,512,513;,
  3;421,418,422;,
  4;421,422,514,512;,
  3;515,516,423;,
  4;515,423,517,518;,
  3;423,516,424;,
  4;423,424,519,517;,
  3;424,516,425;,
  4;424,425,520,519;,
  3;425,516,426;,
  4;425,426,521,520;,
  3;522,418,427;,
  4;522,427,523,524;,
  3;427,418,420;,
  4;427,420,513,523;,
  3;525,527,526;,
  3;603,528,604;,
  3;603,529,528;,
  3;525,526,605;,
  4;526,527,531,530;,
  4;604,528,532,606;,
  4;528,529,533,532;,
  4;605,526,530,607;,
  4;530,531,535,534;,
  4;606,532,536,608;,
  4;532,533,537,536;,
  4;607,530,534,609;,
  3;534,535,538;,
  3;608,536,610;,
  3;536,537,610;,
  3;609,534,538;,
  3;539,541,540;,
  3;611,542,612;,
  3;611,543,542;,
  3;539,540,613;,
  4;540,541,545,544;,
  4;612,542,546,614;,
  4;542,543,547,546;,
  4;613,540,544,615;,
  4;544,545,549,548;,
  4;614,546,550,616;,
  4;546,547,551,550;,
  4;615,544,548,617;,
  3;548,549,552;,
  3;616,550,618;,
  3;550,551,618;,
  3;617,548,552;,
  4;553,557,558,554;,
  4;619,620,559,555;,
  4;555,559,560,556;,
  4;621,622,557,553;,
  4;557,561,562,558;,
  4;620,623,563,559;,
  4;559,563,564,560;,
  4;622,624,561,557;,
  4;561,565,566,562;,
  4;623,625,567,563;,
  4;563,567,568,564;,
  4;624,626,565,561;,
  3;565,569,566;,
  3;625,627,567;,
  3;567,627,568;,
  3;626,569,565;,
  3;570,570,570;,
  3;570,570,570;,
  3;570,570,570;,
  3;570,570,570;,
  4;571,575,576,572;,
  4;628,629,577,573;,
  4;573,577,578,574;,
  4;630,631,575,571;,
  3;575,579,576;,
  3;629,632,577;,
  3;577,632,578;,
  3;631,579,575;,
  3;570,570,570;,
  3;570,570,570;,
  3;570,570,570;,
  3;570,570,570;,
  4;580,584,585,581;,
  4;633,634,586,582;,
  4;582,586,587,583;,
  4;635,636,584,580;,
  3;584,588,585;,
  3;634,637,586;,
  3;586,637,587;,
  3;636,588,584;,
  3;570,570,570;,
  3;570,570,570;,
  3;570,570,570;,
  3;570,570,570;,
  3;589,591,590;,
  3;638,592,639;,
  3;638,593,592;,
  3;589,590,640;,
  4;590,591,595,594;,
  4;639,592,596,641;,
  4;592,593,597,596;,
  4;640,590,594,642;,
  4;594,595,599,598;,
  4;641,596,600,643;,
  4;596,597,601,600;,
  4;642,594,598,644;,
  3;598,599,602;,
  3;643,600,645;,
  3;600,601,645;,
  3;644,598,602;,
  4;646,646,646,646;;
 }
 MeshTextureCoords {
  922;
  0.000000;0.000000;,
  1.000000;0.000000;,
  1.000000;1.000000;,
  0.000000;1.000000;,
  0.000000;0.000000;,
  1.000000;0.000000;,
  1.000000;1.000000;,
  0.000000;1.000000;,
  0.000000;0.000000;,
  1.000000;0.000000;,
  1.000000;1.000000;,
  0.000000;1.000000;,
  0.000000;0.000000;,
  1.000000;0.000000;,
  1.000000;1.000000;,
  0.000000;1.000000;,
  1.000000;1.000000;,
  0.000000;1.000000;,
  0.000000;0.000000;,
  1.000000;0.000000;,
  0.000000;0.000000;,
  1.000000;0.000000;,
  1.000000;1.000000;,
  0.000000;1.000000;,
  0.062500;0.000000;,
  0.125000;0.250000;,
  0.000000;0.250000;,
  0.187500;0.000000;,
  0.250000;0.250000;,
  0.312500;0.000000;,
  0.375000;0.250000;,
  0.437500;0.000000;,
  0.500000;0.250000;,
  0.562500;0.000000;,
  0.625000;0.250000;,
  0.687500;0.000000;,
  0.750000;0.250000;,
  0.812500;0.000000;,
  0.875000;0.250000;,
  0.937500;0.000000;,
  1.000000;0.250000;,
  0.125000;0.500000;,
  0.000000;0.500000;,
  0.250000;0.500000;,
  0.375000;0.500000;,
  0.500000;0.500000;,
  0.625000;0.500000;,
  0.750000;0.500000;,
  0.875000;0.500000;,
  1.000000;0.500000;,
  0.125000;0.750000;,
  0.000000;0.750000;,
  0.250000;0.750000;,
  0.375000;0.750000;,
  0.500000;0.750000;,
  0.625000;0.750000;,
  0.750000;0.750000;,
  0.875000;0.750000;,
  1.000000;0.750000;,
  0.062500;1.000000;,
  0.187500;1.000000;,
  0.312500;1.000000;,
  0.437500;1.000000;,
  0.562500;1.000000;,
  0.687500;1.000000;,
  0.812500;1.000000;,
  0.937500;1.000000;,
  0.000000;0.000000;,
  0.000000;0.000000;,
  0.000000;0.000000;,
  0.000000;0.000000;,
  0.000000;0.000000;,
  0.000000;0.000000;,
  0.000000;0.000000;,
  0.000000;0.000000;,
  0.000000;0.000000;,
  0.020590;0.670500;,
  0.062500;0.000000;,
  0.104240;0.667780;,
  0.125000;1.000000;,
  0.000000;1.000000;,
  0.125000;0.667780;,
  0.125000;0.000000;,
  0.208290;0.666340;,
  0.250000;1.000000;,
  0.229150;0.666340;,
  0.187500;0.000000;,
  0.312570;0.667020;,
  0.375000;1.000000;,
  0.333380;0.667020;,
  0.250000;0.000000;,
  0.417360;0.669430;,
  0.500000;1.000000;,
  0.438020;0.669430;,
  0.312500;0.000000;,
  0.522550;0.672170;,
  0.625000;1.000000;,
  0.543040;0.672170;,
  0.375000;0.000000;,
  0.627610;0.673630;,
  0.750000;1.000000;,
  0.648010;0.673630;,
  0.437500;0.000000;,
  0.731910;0.672930;,
  0.875000;1.000000;,
  0.752350;0.672930;,
  0.500000;0.000000;,
  0.835250;0.670500;,
  1.000000;1.000000;,
  0.000000;0.000000;,
  0.000000;0.000000;,
  0.000000;0.000000;,
  0.000000;0.000000;,
  0.000000;0.000000;,
  0.000000;0.000000;,
  0.000000;0.000000;,
  0.000000;0.000000;,
  0.000000;0.000000;,
  0.020590;0.670500;,
  0.062500;0.000000;,
  0.104240;0.667780;,
  0.125000;1.000000;,
  0.000000;1.000000;,
  0.125000;0.667780;,
  0.125000;0.000000;,
  0.208290;0.666340;,
  0.250000;1.000000;,
  0.229150;0.666340;,
  0.187500;0.000000;,
  0.312570;0.667020;,
  0.375000;1.000000;,
  0.333380;0.667020;,
  0.250000;0.000000;,
  0.417360;0.669430;,
  0.500000;1.000000;,
  0.438020;0.669430;,
  0.312500;0.000000;,
  0.522550;0.672170;,
  0.625000;1.000000;,
  0.543040;0.672170;,
  0.375000;0.000000;,
  0.627610;0.673630;,
  0.750000;1.000000;,
  0.648010;0.673630;,
  0.437500;0.000000;,
  0.731910;0.672930;,
  0.875000;1.000000;,
  0.752350;0.672930;,
  0.500000;0.000000;,
  0.835250;0.670500;,
  1.000000;1.000000;,
  0.000000;0.000000;,
  0.000000;0.000000;,
  0.000000;0.000000;,
  0.000000;0.000000;,
  0.000000;0.000000;,
  0.000000;0.000000;,
  0.000000;0.000000;,
  0.000000;0.000000;,
  0.000000;0.000000;,
  0.020590;0.670500;,
  0.062500;0.000000;,
  0.104240;0.667780;,
  0.125000;1.000000;,
  0.000000;1.000000;,
  0.125000;0.667780;,
  0.125000;0.000000;,
  0.208290;0.666340;,
  0.250000;1.000000;,
  0.229150;0.666340;,
  0.187500;0.000000;,
  0.312570;0.667020;,
  0.375000;1.000000;,
  0.333380;0.667020;,
  0.250000;0.000000;,
  0.417360;0.669430;,
  0.500000;1.000000;,
  0.438020;0.669430;,
  0.312500;0.000000;,
  0.522550;0.672170;,
  0.625000;1.000000;,
  0.543040;0.672170;,
  0.375000;0.000000;,
  0.627610;0.673630;,
  0.750000;1.000000;,
  0.648010;0.673630;,
  0.437500;0.000000;,
  0.731910;0.672930;,
  0.875000;1.000000;,
  0.752350;0.672930;,
  0.500000;0.000000;,
  0.835250;0.670500;,
  1.000000;1.000000;,
  0.000000;0.000000;,
  0.000000;0.000000;,
  0.000000;0.000000;,
  0.000000;0.000000;,
  0.000000;0.000000;,
  0.000000;0.000000;,
  0.000000;0.000000;,
  0.000000;0.000000;,
  0.000000;0.000000;,
  0.020590;0.670500;,
  0.062500;0.000000;,
  0.104240;0.667780;,
  0.125000;1.000000;,
  0.000000;1.000000;,
  0.125000;0.667780;,
  0.125000;0.000000;,
  0.208290;0.666340;,
  0.250000;1.000000;,
  0.229150;0.666340;,
  0.187500;0.000000;,
  0.312570;0.667020;,
  0.375000;1.000000;,
  0.333380;0.667020;,
  0.250000;0.000000;,
  0.417360;0.669430;,
  0.500000;1.000000;,
  0.438020;0.669430;,
  0.312500;0.000000;,
  0.522550;0.672170;,
  0.625000;1.000000;,
  0.543040;0.672170;,
  0.375000;0.000000;,
  0.627610;0.673630;,
  0.750000;1.000000;,
  0.648010;0.673630;,
  0.437500;0.000000;,
  0.731910;0.672930;,
  0.875000;1.000000;,
  0.752350;0.672930;,
  0.500000;0.000000;,
  0.835250;0.670500;,
  1.000000;1.000000;,
  0.000000;0.000000;,
  0.000000;0.000000;,
  0.000000;0.000000;,
  0.000000;0.000000;,
  0.000000;0.000000;,
  0.000000;0.000000;,
  0.000000;0.000000;,
  0.000000;0.000000;,
  0.000000;0.000000;,
  0.020590;0.670500;,
  0.062500;0.000000;,
  0.104240;0.667780;,
  0.125000;1.000000;,
  0.000000;1.000000;,
  0.125000;0.667780;,
  0.125000;0.000000;,
  0.208290;0.666340;,
  0.250000;1.000000;,
  0.229150;0.666340;,
  0.187500;0.000000;,
  0.312570;0.667020;,
  0.375000;1.000000;,
  0.333380;0.667020;,
  0.250000;0.000000;,
  0.417360;0.669430;,
  0.500000;1.000000;,
  0.438020;0.669430;,
  0.312500;0.000000;,
  0.522550;0.672170;,
  0.625000;1.000000;,
  0.543040;0.672170;,
  0.375000;0.000000;,
  0.627610;0.673630;,
  0.750000;1.000000;,
  0.648010;0.673630;,
  0.437500;0.000000;,
  0.731910;0.672930;,
  0.875000;1.000000;,
  0.752350;0.672930;,
  0.500000;0.000000;,
  0.835250;0.670500;,
  1.000000;1.000000;,
  0.000000;0.000000;,
  0.000000;0.000000;,
  0.000000;0.000000;,
  0.000000;0.000000;,
  0.000000;0.000000;,
  0.000000;0.000000;,
  0.000000;0.000000;,
  0.000000;0.000000;,
  0.000000;0.000000;,
  0.020590;0.670500;,
  0.062500;0.000000;,
  0.104240;0.667780;,
  0.125000;1.000000;,
  0.000000;1.000000;,
  0.125000;0.667780;,
  0.125000;0.000000;,
  0.208290;0.666340;,
  0.250000;1.000000;,
  0.229150;0.666340;,
  0.187500;0.000000;,
  0.312570;0.667020;,
  0.375000;1.000000;,
  0.333380;0.667020;,
  0.250000;0.000000;,
  0.417360;0.669430;,
  0.500000;1.000000;,
  0.438020;0.669430;,
  0.312500;0.000000;,
  0.522550;0.672170;,
  0.625000;1.000000;,
  0.543040;0.672170;,
  0.375000;0.000000;,
  0.627610;0.673630;,
  0.750000;1.000000;,
  0.648010;0.673630;,
  0.437500;0.000000;,
  0.731910;0.672930;,
  0.875000;1.000000;,
  0.752350;0.672930;,
  0.500000;0.000000;,
  0.835250;0.670500;,
  1.000000;1.000000;,
  0.000000;0.000000;,
  0.000000;0.000000;,
  0.000000;0.000000;,
  0.000000;0.000000;,
  0.000000;0.000000;,
  0.000000;0.000000;,
  0.000000;0.000000;,
  0.000000;0.000000;,
  0.000000;0.000000;,
  0.020590;0.670500;,
  0.062500;0.000000;,
  0.104240;0.667780;,
  0.125000;1.000000;,
  0.000000;1.000000;,
  0.125000;0.667780;,
  0.125000;0.000000;,
  0.208290;0.666340;,
  0.250000;1.000000;,
  0.229150;0.666340;,
  0.187500;0.000000;,
  0.312570;0.667020;,
  0.375000;1.000000;,
  0.333380;0.667020;,
  0.250000;0.000000;,
  0.417360;0.669430;,
  0.500000;1.000000;,
  0.438020;0.669430;,
  0.312500;0.000000;,
  0.522550;0.672170;,
  0.625000;1.000000;,
  0.543040;0.672170;,
  0.375000;0.000000;,
  0.627610;0.673630;,
  0.750000;1.000000;,
  0.648010;0.673630;,
  0.437500;0.000000;,
  0.731910;0.672930;,
  0.875000;1.000000;,
  0.752350;0.672930;,
  0.500000;0.000000;,
  0.835250;0.670500;,
  1.000000;1.000000;,
  0.000000;0.000000;,
  0.000000;0.000000;,
  0.000000;0.000000;,
  0.000000;0.000000;,
  0.000000;0.000000;,
  0.000000;0.000000;,
  0.000000;0.000000;,
  0.000000;0.000000;,
  0.000000;0.000000;,
  0.020590;0.670500;,
  0.062500;0.000000;,
  0.104240;0.667780;,
  0.125000;1.000000;,
  0.000000;1.000000;,
  0.125000;0.667780;,
  0.125000;0.000000;,
  0.208290;0.666340;,
  0.250000;1.000000;,
  0.229150;0.666340;,
  0.187500;0.000000;,
  0.312570;0.667020;,
  0.375000;1.000000;,
  0.333380;0.667020;,
  0.250000;0.000000;,
  0.417360;0.669430;,
  0.500000;1.000000;,
  0.438020;0.669430;,
  0.312500;0.000000;,
  0.522550;0.672170;,
  0.625000;1.000000;,
  0.543040;0.672170;,
  0.375000;0.000000;,
  0.627610;0.673630;,
  0.750000;1.000000;,
  0.648010;0.673630;,
  0.437500;0.000000;,
  0.731910;0.672930;,
  0.875000;1.000000;,
  0.752350;0.672930;,
  0.500000;0.000000;,
  0.835250;0.670500;,
  1.000000;1.000000;,
  0.062500;0.000000;,
  0.125000;0.250000;,
  0.000000;0.250000;,
  0.187500;0.000000;,
  0.250000;0.250000;,
  0.312500;0.000000;,
  0.375000;0.250000;,
  0.437500;0.000000;,
  0.500000;0.250000;,
  0.562500;0.000000;,
  0.625000;0.250000;,
  0.687500;0.000000;,
  0.750000;0.250000;,
  0.812500;0.000000;,
  0.875000;0.250000;,
  0.937500;0.000000;,
  1.000000;0.250000;,
  0.125000;0.500000;,
  0.000000;0.500000;,
  0.250000;0.500000;,
  0.375000;0.500000;,
  0.500000;0.500000;,
  0.625000;0.500000;,
  0.750000;0.500000;,
  0.875000;0.500000;,
  1.000000;0.500000;,
  0.125000;0.750000;,
  0.000000;0.750000;,
  0.250000;0.750000;,
  0.375000;0.750000;,
  0.500000;0.750000;,
  0.625000;0.750000;,
  0.750000;0.750000;,
  0.875000;0.750000;,
  1.000000;0.750000;,
  0.062500;1.000000;,
  0.187500;1.000000;,
  0.312500;1.000000;,
  0.437500;1.000000;,
  0.562500;1.000000;,
  0.687500;1.000000;,
  0.812500;1.000000;,
  0.937500;1.000000;,
  0.000000;0.000000;,
  0.000000;0.000000;,
  0.000000;0.000000;,
  0.000000;0.000000;,
  0.000000;0.000000;,
  0.000000;0.000000;,
  0.000000;0.000000;,
  0.000000;0.000000;,
  0.000000;0.000000;,
  0.020590;0.670500;,
  0.062500;0.000000;,
  0.104240;0.667780;,
  0.125000;1.000000;,
  0.000000;1.000000;,
  0.125000;0.667780;,
  0.125000;0.000000;,
  0.208290;0.666340;,
  0.250000;1.000000;,
  0.229150;0.666340;,
  0.187500;0.000000;,
  0.312570;0.667020;,
  0.375000;1.000000;,
  0.333380;0.667020;,
  0.250000;0.000000;,
  0.417360;0.669430;,
  0.500000;1.000000;,
  0.438020;0.669430;,
  0.312500;0.000000;,
  0.522550;0.672170;,
  0.625000;1.000000;,
  0.543040;0.672170;,
  0.375000;0.000000;,
  0.627610;0.673630;,
  0.750000;1.000000;,
  0.648010;0.673630;,
  0.437500;0.000000;,
  0.731910;0.672930;,
  0.875000;1.000000;,
  0.752350;0.672930;,
  0.500000;0.000000;,
  0.835250;0.670500;,
  1.000000;1.000000;,
  0.000000;0.000000;,
  0.000000;0.000000;,
  0.000000;0.000000;,
  0.000000;0.000000;,
  0.000000;0.000000;,
  0.000000;0.000000;,
  0.000000;0.000000;,
  0.000000;0.000000;,
  0.000000;0.000000;,
  0.020590;0.670500;,
  0.062500;0.000000;,
  0.104240;0.667780;,
  0.125000;1.000000;,
  0.000000;1.000000;,
  0.125000;0.667780;,
  0.125000;0.000000;,
  0.208290;0.666340;,
  0.250000;1.000000;,
  0.229150;0.666340;,
  0.187500;0.000000;,
  0.312570;0.667020;,
  0.375000;1.000000;,
  0.333380;0.667020;,
  0.250000;0.000000;,
  0.417360;0.669430;,
  0.500000;1.000000;,
  0.438020;0.669430;,
  0.312500;0.000000;,
  0.522550;0.672170;,
  0.625000;1.000000;,
  0.543040;0.672170;,
  0.375000;0.000000;,
  0.627610;0.673630;,
  0.750000;1.000000;,
  0.648010;0.673630;,
  0.437500;0.000000;,
  0.731910;0.672930;,
  0.875000;1.000000;,
  0.752350;0.672930;,
  0.500000;0.000000;,
  0.835250;0.670500;,
  1.000000;1.000000;,
  0.000000;0.000000;,
  0.000000;0.000000;,
  0.000000;0.000000;,
  0.000000;0.000000;,
  0.000000;0.000000;,
  0.000000;0.000000;,
  0.000000;0.000000;,
  0.000000;0.000000;,
  0.000000;0.000000;,
  0.020590;0.670500;,
  0.062500;0.000000;,
  0.104240;0.667780;,
  0.125000;1.000000;,
  0.000000;1.000000;,
  0.125000;0.667780;,
  0.125000;0.000000;,
  0.208290;0.666340;,
  0.250000;1.000000;,
  0.229150;0.666340;,
  0.187500;0.000000;,
  0.312570;0.667020;,
  0.375000;1.000000;,
  0.333380;0.667020;,
  0.250000;0.000000;,
  0.417360;0.669430;,
  0.500000;1.000000;,
  0.438020;0.669430;,
  0.312500;0.000000;,
  0.522550;0.672170;,
  0.625000;1.000000;,
  0.543040;0.672170;,
  0.375000;0.000000;,
  0.627610;0.673630;,
  0.750000;1.000000;,
  0.648010;0.673630;,
  0.437500;0.000000;,
  0.731910;0.672930;,
  0.875000;1.000000;,
  0.752350;0.672930;,
  0.500000;0.000000;,
  0.835250;0.670500;,
  1.000000;1.000000;,
  0.000000;0.000000;,
  0.000000;0.000000;,
  0.000000;0.000000;,
  0.000000;0.000000;,
  0.000000;0.000000;,
  0.000000;0.000000;,
  0.000000;0.000000;,
  0.000000;0.000000;,
  0.000000;0.000000;,
  0.020590;0.670500;,
  0.062500;0.000000;,
  0.104240;0.667780;,
  0.125000;1.000000;,
  0.000000;1.000000;,
  0.125000;0.667780;,
  0.125000;0.000000;,
  0.208290;0.666340;,
  0.250000;1.000000;,
  0.229150;0.666340;,
  0.187500;0.000000;,
  0.312570;0.667020;,
  0.375000;1.000000;,
  0.333380;0.667020;,
  0.250000;0.000000;,
  0.417360;0.669430;,
  0.500000;1.000000;,
  0.438020;0.669430;,
  0.312500;0.000000;,
  0.522550;0.672170;,
  0.625000;1.000000;,
  0.543040;0.672170;,
  0.375000;0.000000;,
  0.627610;0.673630;,
  0.750000;1.000000;,
  0.648010;0.673630;,
  0.437500;0.000000;,
  0.731910;0.672930;,
  0.875000;1.000000;,
  0.752350;0.672930;,
  0.500000;0.000000;,
  0.835250;0.670500;,
  1.000000;1.000000;,
  0.000000;0.000000;,
  0.000000;0.000000;,
  0.000000;0.000000;,
  0.000000;0.000000;,
  0.000000;0.000000;,
  0.000000;0.000000;,
  0.000000;0.000000;,
  0.000000;0.000000;,
  0.000000;0.000000;,
  0.020590;0.670500;,
  0.062500;0.000000;,
  0.104240;0.667780;,
  0.125000;1.000000;,
  0.000000;1.000000;,
  0.125000;0.667780;,
  0.125000;0.000000;,
  0.208290;0.666340;,
  0.250000;1.000000;,
  0.229150;0.666340;,
  0.187500;0.000000;,
  0.312570;0.667020;,
  0.375000;1.000000;,
  0.333380;0.667020;,
  0.250000;0.000000;,
  0.417360;0.669430;,
  0.500000;1.000000;,
  0.438020;0.669430;,
  0.312500;0.000000;,
  0.522550;0.672170;,
  0.625000;1.000000;,
  0.543040;0.672170;,
  0.375000;0.000000;,
  0.627610;0.673630;,
  0.750000;1.000000;,
  0.648010;0.673630;,
  0.437500;0.000000;,
  0.731910;0.672930;,
  0.875000;1.000000;,
  0.752350;0.672930;,
  0.500000;0.000000;,
  0.835250;0.670500;,
  1.000000;1.000000;,
  0.000000;0.000000;,
  0.000000;0.000000;,
  0.000000;0.000000;,
  0.000000;0.000000;,
  0.000000;0.000000;,
  0.000000;0.000000;,
  0.000000;0.000000;,
  0.000000;0.000000;,
  0.000000;0.000000;,
  0.020590;0.670500;,
  0.062500;0.000000;,
  0.104240;0.667780;,
  0.125000;1.000000;,
  0.000000;1.000000;,
  0.125000;0.667780;,
  0.125000;0.000000;,
  0.208290;0.666340;,
  0.250000;1.000000;,
  0.229150;0.666340;,
  0.187500;0.000000;,
  0.312570;0.667020;,
  0.375000;1.000000;,
  0.333380;0.667020;,
  0.250000;0.000000;,
  0.417360;0.669430;,
  0.500000;1.000000;,
  0.438020;0.669430;,
  0.312500;0.000000;,
  0.522550;0.672170;,
  0.625000;1.000000;,
  0.543040;0.672170;,
  0.375000;0.000000;,
  0.627610;0.673630;,
  0.750000;1.000000;,
  0.648010;0.673630;,
  0.437500;0.000000;,
  0.731910;0.672930;,
  0.875000;1.000000;,
  0.752350;0.672930;,
  0.500000;0.000000;,
  0.835250;0.670500;,
  1.000000;1.000000;,
  0.000000;0.000000;,
  0.000000;0.000000;,
  0.000000;0.000000;,
  0.000000;0.000000;,
  0.000000;0.000000;,
  0.000000;0.000000;,
  0.000000;0.000000;,
  0.000000;0.000000;,
  0.000000;0.000000;,
  0.020590;0.670500;,
  0.062500;0.000000;,
  0.104240;0.667780;,
  0.125000;1.000000;,
  0.000000;1.000000;,
  0.125000;0.667780;,
  0.125000;0.000000;,
  0.208290;0.666340;,
  0.250000;1.000000;,
  0.229150;0.666340;,
  0.187500;0.000000;,
  0.312570;0.667020;,
  0.375000;1.000000;,
  0.333380;0.667020;,
  0.250000;0.000000;,
  0.417360;0.669430;,
  0.500000;1.000000;,
  0.438020;0.669430;,
  0.312500;0.000000;,
  0.522550;0.672170;,
  0.625000;1.000000;,
  0.543040;0.672170;,
  0.375000;0.000000;,
  0.627610;0.673630;,
  0.750000;1.000000;,
  0.648010;0.673630;,
  0.437500;0.000000;,
  0.731910;0.672930;,
  0.875000;1.000000;,
  0.752350;0.672930;,
  0.500000;0.000000;,
  0.835250;0.670500;,
  1.000000;1.000000;,
  0.000000;0.000000;,
  0.000000;0.000000;,
  0.000000;0.000000;,
  0.000000;0.000000;,
  0.000000;0.000000;,
  0.000000;0.000000;,
  0.000000;0.000000;,
  0.000000;0.000000;,
  0.000000;0.000000;,
  0.020590;0.670500;,
  0.062500;0.000000;,
  0.104240;0.667780;,
  0.125000;1.000000;,
  0.000000;1.000000;,
  0.125000;0.667780;,
  0.125000;0.000000;,
  0.208290;0.666340;,
  0.250000;1.000000;,
  0.229150;0.666340;,
  0.187500;0.000000;,
  0.312570;0.667020;,
  0.375000;1.000000;,
  0.333380;0.667020;,
  0.250000;0.000000;,
  0.417360;0.669430;,
  0.500000;1.000000;,
  0.438020;0.669430;,
  0.312500;0.000000;,
  0.522550;0.672170;,
  0.625000;1.000000;,
  0.543040;0.672170;,
  0.375000;0.000000;,
  0.627610;0.673630;,
  0.750000;1.000000;,
  0.648010;0.673630;,
  0.437500;0.000000;,
  0.731910;0.672930;,
  0.875000;1.000000;,
  0.752350;0.672930;,
  0.500000;0.000000;,
  0.835250;0.670500;,
  1.000000;1.000000;,
  0.125000;0.000000;,
  0.250000;0.250000;,
  0.000000;0.250000;,
  0.375000;0.000000;,
  0.500000;0.250000;,
  0.625000;0.000000;,
  0.750000;0.250000;,
  0.875000;0.000000;,
  1.000000;0.250000;,
  0.250000;0.500000;,
  0.000000;0.500000;,
  0.500000;0.500000;,
  0.750000;0.500000;,
  1.000000;0.500000;,
  0.250000;0.750000;,
  0.000000;0.750000;,
  0.500000;0.750000;,
  0.750000;0.750000;,
  1.000000;0.750000;,
  0.125000;1.000000;,
  0.375000;1.000000;,
  0.625000;1.000000;,
  0.875000;1.000000;,
  0.125000;0.000000;,
  0.250000;0.250000;,
  0.000000;0.250000;,
  0.375000;0.000000;,
  0.500000;0.250000;,
  0.625000;0.000000;,
  0.750000;0.250000;,
  0.875000;0.000000;,
  1.000000;0.250000;,
  0.250000;0.500000;,
  0.000000;0.500000;,
  0.500000;0.500000;,
  0.750000;0.500000;,
  1.000000;0.500000;,
  0.250000;0.750000;,
  0.000000;0.750000;,
  0.500000;0.750000;,
  0.750000;0.750000;,
  1.000000;0.750000;,
  0.125000;1.000000;,
  0.375000;1.000000;,
  0.625000;1.000000;,
  0.875000;1.000000;,
  0.000000;1.000000;,
  0.000000;0.750000;,
  0.250000;0.750000;,
  0.250000;1.000000;,
  0.500000;0.750000;,
  0.500000;1.000000;,
  0.750000;0.750000;,
  0.750000;1.000000;,
  1.000000;0.750000;,
  1.000000;1.000000;,
  0.000000;0.500000;,
  0.250000;0.500000;,
  0.500000;0.500000;,
  0.750000;0.500000;,
  1.000000;0.500000;,
  0.000000;0.250000;,
  0.250000;0.250000;,
  0.500000;0.250000;,
  0.750000;0.250000;,
  1.000000;0.250000;,
  0.125000;0.000000;,
  0.250000;0.000000;,
  0.375000;0.000000;,
  0.500000;0.000000;,
  0.000000;0.000000;,
  0.000000;0.000000;,
  0.000000;0.000000;,
  0.000000;0.000000;,
  0.000000;0.000000;,
  0.000000;1.000000;,
  0.000000;0.500000;,
  0.250000;0.500000;,
  0.250000;1.000000;,
  0.500000;0.500000;,
  0.500000;1.000000;,
  0.750000;0.500000;,
  0.750000;1.000000;,
  1.000000;0.500000;,
  1.000000;1.000000;,
  0.125000;0.000000;,
  0.250000;0.000000;,
  0.375000;0.000000;,
  0.500000;0.000000;,
  0.000000;0.000000;,
  0.000000;0.000000;,
  0.000000;0.000000;,
  0.000000;0.000000;,
  0.000000;0.000000;,
  0.000000;1.000000;,
  0.000000;0.500000;,
  0.250000;0.500000;,
  0.250000;1.000000;,
  0.500000;0.500000;,
  0.500000;1.000000;,
  0.750000;0.500000;,
  0.750000;1.000000;,
  1.000000;0.500000;,
  1.000000;1.000000;,
  0.125000;0.000000;,
  0.250000;0.000000;,
  0.375000;0.000000;,
  0.500000;0.000000;,
  0.000000;0.000000;,
  0.000000;0.000000;,
  0.000000;0.000000;,
  0.000000;0.000000;,
  0.000000;0.000000;,
  0.125000;0.000000;,
  0.250000;0.250000;,
  0.000000;0.250000;,
  0.375000;0.000000;,
  0.500000;0.250000;,
  0.625000;0.000000;,
  0.750000;0.250000;,
  0.875000;0.000000;,
  1.000000;0.250000;,
  0.250000;0.500000;,
  0.000000;0.500000;,
  0.500000;0.500000;,
  0.750000;0.500000;,
  1.000000;0.500000;,
  0.250000;0.750000;,
  0.000000;0.750000;,
  0.500000;0.750000;,
  0.750000;0.750000;,
  1.000000;0.750000;,
  0.125000;1.000000;,
  0.375000;1.000000;,
  0.625000;1.000000;,
  0.875000;1.000000;,
  0.000000;0.000000;,
  1.000000;0.000000;,
  1.000000;1.000000;,
  0.000000;1.000000;;
 }
}
