xof 0302txt 0064
template Header {
 <3D82AB43-62DA-11cf-AB39-0020AF71E433>
 WORD major;
 WORD minor;
 DWORD flags;
}

template Vector {
 <3D82AB5E-62DA-11cf-AB39-0020AF71E433>
 FLOAT x;
 FLOAT y;
 FLOAT z;
}

template Coords2d {
 <F6F23F44-7686-11cf-8F52-0040333594A3>
 FLOAT u;
 FLOAT v;
}

template Matrix4x4 {
 <F6F23F45-7686-11cf-8F52-0040333594A3>
 array FLOAT matrix[16];
}

template ColorRGBA {
 <35FF44E0-6C7C-11cf-8F52-0040333594A3>
 FLOAT red;
 FLOAT green;
 FLOAT blue;
 FLOAT alpha;
}

template ColorRGB {
 <D3E16E81-7835-11cf-8F52-0040333594A3>
 FLOAT red;
 FLOAT green;
 FLOAT blue;
}

template IndexedColor {
 <1630B820-7842-11cf-8F52-0040333594A3>
 DWORD index;
 ColorRGBA indexColor;
}

template Boolean {
 <4885AE61-78E8-11cf-8F52-0040333594A3>
 WORD truefalse;
}

template Boolean2d {
 <4885AE63-78E8-11cf-8F52-0040333594A3>
 Boolean u;
 Boolean v;
}

template MaterialWrap {
 <4885AE60-78E8-11cf-8F52-0040333594A3>
 Boolean u;
 Boolean v;
}

template TextureFilename {
 <A42790E1-7810-11cf-8F52-0040333594A3>
 STRING filename;
}

template Material {
 <3D82AB4D-62DA-11cf-AB39-0020AF71E433>
 ColorRGBA faceColor;
 FLOAT power;
 ColorRGB specularColor;
 ColorRGB emissiveColor;
 [...]
}

template MeshFace {
 <3D82AB5F-62DA-11cf-AB39-0020AF71E433>
 DWORD nFaceVertexIndices;
 array DWORD faceVertexIndices[nFaceVertexIndices];
}

template MeshFaceWraps {
 <4885AE62-78E8-11cf-8F52-0040333594A3>
 DWORD nFaceWrapValues;
 Boolean2d faceWrapValues;
}

template MeshTextureCoords {
 <F6F23F40-7686-11cf-8F52-0040333594A3>
 DWORD nTextureCoords;
 array Coords2d textureCoords[nTextureCoords];
}

template MeshMaterialList {
 <F6F23F42-7686-11cf-8F52-0040333594A3>
 DWORD nMaterials;
 DWORD nFaceIndexes;
 array DWORD faceIndexes[nFaceIndexes];
 [Material]
}

template MeshNormals {
 <F6F23F43-7686-11cf-8F52-0040333594A3>
 DWORD nNormals;
 array Vector normals[nNormals];
 DWORD nFaceNormals;
 array MeshFace faceNormals[nFaceNormals];
}

template MeshVertexColors {
 <1630B821-7842-11cf-8F52-0040333594A3>
 DWORD nVertexColors;
 array IndexedColor vertexColors[nVertexColors];
}

template Mesh {
 <3D82AB44-62DA-11cf-AB39-0020AF71E433>
 DWORD nVertices;
 array Vector vertices[nVertices];
 DWORD nFaces;
 array MeshFace faces[nFaces];
 [...]
}

Header{
1;
0;
1;
}

Mesh {
 179;
 0.00000;148.73751;-7.52283;,
 5.67779;148.73751;-5.17104;,
 5.67779;0.95638;-5.17104;,
 0.00000;0.95638;-7.52283;,
 8.02958;148.73751;0.50669;,
 8.02958;0.95638;0.50669;,
 5.67779;148.73751;6.18448;,
 5.67779;0.95638;6.18448;,
 0.00000;148.73751;8.53626;,
 0.00000;0.95638;8.53626;,
 -5.67779;148.73751;6.18448;,
 -5.67779;0.95638;6.18448;,
 -8.02958;148.73751;0.50669;,
 -8.02958;0.95638;0.50669;,
 -5.67779;148.73751;-5.17104;,
 -5.67779;0.95638;-5.17104;,
 0.00000;148.73751;-7.52283;,
 0.00000;0.95638;-7.52283;,
 0.00000;148.73751;0.50669;,
 0.00000;148.73751;0.50669;,
 0.00000;148.73751;0.50669;,
 0.00000;148.73751;0.50669;,
 0.00000;148.73751;0.50669;,
 0.00000;148.73751;0.50669;,
 0.00000;148.73751;0.50669;,
 0.00000;148.73751;0.50669;,
 0.00000;0.95638;0.50669;,
 0.00000;0.95638;0.50669;,
 0.00000;0.95638;0.50669;,
 0.00000;0.95638;0.50669;,
 0.00000;0.95638;0.50669;,
 0.00000;0.95638;0.50669;,
 0.00000;0.95638;0.50669;,
 0.00000;0.95638;0.50669;,
 -62.67723;119.11560;-11.79055;,
 62.67723;119.11560;-11.79055;,
 62.67723;97.34591;-11.79055;,
 -62.67723;97.34591;-11.79055;,
 62.67723;119.11560;-11.79055;,
 62.67723;119.11560;-6.04256;,
 62.67723;97.34591;-6.04256;,
 62.67723;97.34591;-11.79055;,
 62.67723;119.11560;-6.04256;,
 -62.67723;119.11560;-6.04256;,
 -62.67723;97.34591;-6.04256;,
 62.67723;97.34591;-6.04256;,
 -62.67723;119.11560;-6.04256;,
 -62.67723;119.11560;-11.79055;,
 -62.67723;97.34591;-11.79055;,
 -62.67723;97.34591;-6.04256;,
 62.67723;119.11560;-11.79055;,
 -62.67723;119.11560;-11.79055;,
 -62.67723;97.34591;-11.79055;,
 62.67723;97.34591;-11.79055;,
 -62.67723;143.22764;-11.79055;,
 62.67723;143.22764;-11.79055;,
 62.67723;121.45796;-11.79055;,
 -62.67723;121.45796;-11.79055;,
 62.67723;143.22764;-11.79055;,
 62.67723;143.22764;-6.04256;,
 62.67723;121.45796;-6.04256;,
 62.67723;121.45796;-11.79055;,
 62.67723;143.22764;-6.04256;,
 -62.67723;143.22764;-6.04256;,
 -62.67723;121.45796;-6.04256;,
 62.67723;121.45796;-6.04256;,
 -62.67723;143.22764;-6.04256;,
 -62.67723;143.22764;-11.79055;,
 -62.67723;121.45796;-11.79055;,
 -62.67723;121.45796;-6.04256;,
 62.67723;143.22764;-11.79055;,
 -62.67723;143.22764;-11.79055;,
 -62.67723;121.45796;-11.79055;,
 62.67723;121.45796;-11.79055;,
 -62.67723;94.58757;-11.79055;,
 62.67723;94.58757;-11.79055;,
 62.67723;72.81793;-11.79055;,
 -62.67723;72.81793;-11.79055;,
 62.67723;94.58757;-11.79055;,
 62.67723;94.58757;-6.04256;,
 62.67723;72.81793;-6.04256;,
 62.67723;72.81793;-11.79055;,
 62.67723;94.58757;-6.04256;,
 -62.67723;94.58757;-6.04256;,
 -62.67723;72.81793;-6.04256;,
 62.67723;72.81793;-6.04256;,
 -62.67723;94.58757;-6.04256;,
 -62.67723;94.58757;-11.79055;,
 -62.67723;72.81793;-11.79055;,
 -62.67723;72.81793;-6.04256;,
 62.67723;94.58757;-11.79055;,
 -62.67723;94.58757;-11.79055;,
 -62.67723;72.81793;-11.79055;,
 62.67723;72.81793;-11.79055;,
 39.94467;95.79634;-20.97657;,
 32.95904;73.25840;-30.05238;,
 18.49798;74.55077;-22.82203;,
 -41.01998;74.55077;-15.26943;,
 -41.01998;140.41552;-13.30289;,
 41.01998;140.41552;-13.30289;,
 0.00000;140.56832;-13.92462;,
 0.72164;140.36527;-14.64625;,
 0.00000;140.36527;-14.94517;,
 0.00000;140.56832;-13.92462;,
 1.02055;140.36527;-13.92462;,
 0.00000;140.56832;-13.92462;,
 0.72164;140.36527;-13.20298;,
 0.00000;140.56832;-13.92462;,
 0.00000;140.36527;-12.90407;,
 0.00000;140.56832;-13.92462;,
 -0.72164;140.36527;-13.20298;,
 0.00000;140.56832;-13.92462;,
 -1.02055;140.36527;-13.92462;,
 0.00000;140.56832;-13.92462;,
 -0.72164;140.36527;-14.64625;,
 0.00000;140.56832;-13.92462;,
 0.00000;140.36527;-14.94517;,
 1.33341;139.78721;-15.25803;,
 0.00000;139.78721;-15.81034;,
 1.88573;139.78721;-13.92462;,
 1.33341;139.78721;-12.59121;,
 0.00000;139.78721;-12.03888;,
 -1.33341;139.78721;-12.59121;,
 -1.88573;139.78721;-13.92462;,
 -1.33341;139.78721;-15.25803;,
 0.00000;139.78721;-15.81034;,
 1.74218;138.92207;-15.66679;,
 0.00000;138.92207;-16.38845;,
 2.46382;138.92207;-13.92462;,
 1.74218;138.92207;-12.18243;,
 0.00000;138.92207;-11.46080;,
 -1.74218;138.92207;-12.18243;,
 -2.46382;138.92207;-13.92462;,
 -1.74218;138.92207;-15.66679;,
 0.00000;138.92207;-16.38845;,
 1.88573;137.90148;-15.81034;,
 0.00000;137.90148;-16.59144;,
 2.66682;137.90148;-13.92462;,
 1.88573;137.90148;-12.03888;,
 0.00000;137.90148;-11.25780;,
 -1.88573;137.90148;-12.03888;,
 -2.66682;137.90148;-13.92462;,
 -1.88573;137.90148;-15.81034;,
 0.00000;137.90148;-16.59144;,
 1.74218;136.88089;-15.66679;,
 0.00000;136.88089;-16.38845;,
 2.46382;136.88089;-13.92462;,
 1.74218;136.88089;-12.18243;,
 0.00000;136.88089;-11.46080;,
 -1.74218;136.88089;-12.18243;,
 -2.46382;136.88089;-13.92462;,
 -1.74218;136.88089;-15.66679;,
 0.00000;136.88089;-16.38845;,
 1.33341;136.01575;-15.25803;,
 0.00000;136.01575;-15.81034;,
 1.88573;136.01575;-13.92462;,
 1.33341;136.01575;-12.59121;,
 0.00000;136.01575;-12.03888;,
 -1.33341;136.01575;-12.59121;,
 -1.88573;136.01575;-13.92462;,
 -1.33341;136.01575;-15.25803;,
 0.00000;136.01575;-15.81034;,
 0.72164;135.43771;-14.64625;,
 0.00000;135.43771;-14.94517;,
 1.02055;135.43771;-13.92462;,
 0.72164;135.43771;-13.20298;,
 0.00000;135.43771;-12.90407;,
 -0.72164;135.43771;-13.20298;,
 -1.02055;135.43771;-13.92462;,
 -0.72164;135.43771;-14.64625;,
 0.00000;135.43771;-14.94517;,
 0.00000;135.23463;-13.92462;,
 0.00000;135.23463;-13.92462;,
 0.00000;135.23463;-13.92462;,
 0.00000;135.23463;-13.92462;,
 0.00000;135.23463;-13.92462;,
 0.00000;135.23463;-13.92462;,
 0.00000;135.23463;-13.92462;,
 0.00000;135.23463;-13.92462;;
 
 109;
 4;0,1,2,3;,
 4;1,4,5,2;,
 4;4,6,7,5;,
 4;6,8,9,7;,
 4;8,10,11,9;,
 4;10,12,13,11;,
 4;12,14,15,13;,
 4;14,16,17,15;,
 3;18,1,0;,
 3;19,4,1;,
 3;20,6,4;,
 3;21,8,6;,
 3;22,10,8;,
 3;23,12,10;,
 3;24,14,12;,
 3;25,16,14;,
 3;26,3,2;,
 3;27,2,5;,
 3;28,5,7;,
 3;29,7,9;,
 3;30,9,11;,
 3;31,11,13;,
 3;32,13,15;,
 3;33,15,17;,
 4;34,35,36,37;,
 4;38,39,40,41;,
 4;42,43,44,45;,
 4;46,47,48,49;,
 4;46,39,50,51;,
 4;52,53,40,49;,
 4;54,55,56,57;,
 4;58,59,60,61;,
 4;62,63,64,65;,
 4;66,67,68,69;,
 4;66,59,70,71;,
 4;72,73,60,69;,
 4;74,75,76,77;,
 4;78,79,80,81;,
 4;82,83,84,85;,
 4;86,87,88,89;,
 4;86,79,90,91;,
 4;92,93,80,89;,
 3;94,95,96;,
 4;94,96,97,98;,
 3;94,98,99;,
 3;100,101,102;,
 3;103,104,101;,
 3;105,106,104;,
 3;107,108,106;,
 3;109,110,108;,
 3;111,112,110;,
 3;113,114,112;,
 3;115,116,114;,
 4;102,101,117,118;,
 4;101,104,119,117;,
 4;104,106,120,119;,
 4;106,108,121,120;,
 4;108,110,122,121;,
 4;110,112,123,122;,
 4;112,114,124,123;,
 4;114,116,125,124;,
 4;118,117,126,127;,
 4;117,119,128,126;,
 4;119,120,129,128;,
 4;120,121,130,129;,
 4;121,122,131,130;,
 4;122,123,132,131;,
 4;123,124,133,132;,
 4;124,125,134,133;,
 4;127,126,135,136;,
 4;126,128,137,135;,
 4;128,129,138,137;,
 4;129,130,139,138;,
 4;130,131,140,139;,
 4;131,132,141,140;,
 4;132,133,142,141;,
 4;133,134,143,142;,
 4;136,135,144,145;,
 4;135,137,146,144;,
 4;137,138,147,146;,
 4;138,139,148,147;,
 4;139,140,149,148;,
 4;140,141,150,149;,
 4;141,142,151,150;,
 4;142,143,152,151;,
 4;145,144,153,154;,
 4;144,146,155,153;,
 4;146,147,156,155;,
 4;147,148,157,156;,
 4;148,149,158,157;,
 4;149,150,159,158;,
 4;150,151,160,159;,
 4;151,152,161,160;,
 4;154,153,162,163;,
 4;153,155,164,162;,
 4;155,156,165,164;,
 4;156,157,166,165;,
 4;157,158,167,166;,
 4;158,159,168,167;,
 4;159,160,169,168;,
 4;160,161,170,169;,
 3;163,162,171;,
 3;162,164,172;,
 3;164,165,173;,
 3;165,166,174;,
 3;166,167,175;,
 3;167,168,176;,
 3;168,169,177;,
 3;169,170,178;;
 
 MeshMaterialList {
  3;
  109;
  2,
  2,
  2,
  2,
  2,
  2,
  2,
  2,
  2,
  2,
  2,
  2,
  2,
  2,
  2,
  2,
  2,
  2,
  2,
  2,
  2,
  2,
  2,
  2,
  2,
  2,
  2,
  2,
  2,
  2,
  2,
  2,
  2,
  2,
  2,
  2,
  2,
  2,
  2,
  2,
  2,
  2,
  0,
  0,
  0,
  1,
  1,
  1,
  1,
  1,
  1,
  1,
  1,
  1,
  1,
  1,
  1,
  1,
  1,
  1,
  1,
  1,
  1,
  1,
  1,
  1,
  1,
  1,
  1,
  1,
  1,
  1,
  1,
  1,
  1,
  1,
  1,
  1,
  1,
  1,
  1,
  1,
  1,
  1,
  1,
  1,
  1,
  1,
  1,
  1,
  1,
  1,
  1,
  1,
  1,
  1,
  1,
  1,
  1,
  1,
  1,
  1,
  1,
  1,
  1,
  1,
  1,
  1,
  1;;
  Material {
   0.800000;0.800000;0.800000;1.000000;;
   5.000000;
   0.000000;0.000000;0.000000;;
   0.000000;0.000000;0.000000;;
   TextureFilename {
    "data\\TEXTURE\\sinboard.png";
   }
  }
  Material {
   0.800000;0.000000;0.031200;1.000000;;
   5.000000;
   0.000000;0.000000;0.000000;;
   0.000000;0.000000;0.000000;;
  }
  Material {
   0.483200;0.332800;0.194400;1.000000;;
   5.000000;
   0.000000;0.000000;0.000000;;
   0.000000;0.000000;0.000000;;
  }
 }
 MeshNormals {
  92;
  0.000000;1.000000;0.000000;,
  0.000000;0.000000;-1.000000;,
  0.707105;0.000000;-0.707108;,
  1.000000;0.000000;-0.000002;,
  0.707106;0.000000;0.707107;,
  0.000000;0.000000;1.000000;,
  -0.707106;0.000000;0.707107;,
  -1.000000;0.000000;-0.000002;,
  -0.707105;0.000000;-0.707108;,
  0.000000;-1.000000;-0.000000;,
  0.000000;0.000000;-1.000000;,
  1.000000;0.000000;0.000000;,
  0.000000;0.000000;1.000000;,
  -1.000000;0.000000;0.000000;,
  0.000000;1.000000;0.000000;,
  0.000000;-1.000000;-0.000000;,
  0.000000;0.000000;-1.000000;,
  1.000000;0.000000;0.000000;,
  0.000000;0.000000;1.000000;,
  -1.000000;0.000000;0.000000;,
  0.000000;1.000000;0.000000;,
  0.000000;-1.000000;-0.000000;,
  0.000000;0.000000;-1.000000;,
  1.000000;0.000000;0.000000;,
  0.000000;0.000000;1.000000;,
  -1.000000;0.000000;0.000000;,
  0.000000;1.000000;0.000000;,
  0.000000;-1.000000;-0.000000;,
  -0.039096;0.121570;-0.991813;,
  0.000000;0.169493;-0.985531;,
  -0.078040;0.073176;-0.994261;,
  -0.368852;0.443308;-0.816961;,
  -0.153354;0.235398;-0.959724;,
  -0.230867;0.266818;-0.935686;,
  -0.000000;1.000000;-0.000000;,
  0.000000;0.924730;-0.380624;,
  0.269142;0.924730;-0.269142;,
  0.380623;0.924730;-0.000001;,
  0.269141;0.924730;0.269141;,
  0.000000;0.924731;0.380623;,
  -0.269141;0.924730;0.269141;,
  -0.380623;0.924730;-0.000001;,
  -0.269142;0.924730;-0.269142;,
  0.000000;0.709246;-0.704961;,
  0.498484;0.709245;-0.498484;,
  0.704961;0.709246;-0.000001;,
  0.498484;0.709246;0.498482;,
  0.000000;0.709246;0.704961;,
  -0.498484;0.709246;0.498482;,
  -0.704961;0.709246;-0.000001;,
  -0.498484;0.709245;-0.498484;,
  0.000000;0.384558;-0.923101;,
  0.652732;0.384556;-0.652730;,
  0.923101;0.384558;-0.000002;,
  0.652730;0.384559;0.652731;,
  0.000000;0.384558;0.923101;,
  -0.652730;0.384559;0.652731;,
  -0.923101;0.384558;-0.000002;,
  -0.652732;0.384556;-0.652730;,
  0.000000;0.000000;-1.000000;,
  0.707109;0.000000;-0.707105;,
  1.000000;0.000000;-0.000002;,
  0.707106;-0.000000;0.707108;,
  0.000000;0.000000;1.000000;,
  -0.707106;-0.000000;0.707108;,
  -1.000000;0.000000;-0.000002;,
  -0.707109;0.000000;-0.707105;,
  0.000000;-0.384558;-0.923101;,
  0.652732;-0.384556;-0.652730;,
  0.923101;-0.384558;-0.000002;,
  0.652730;-0.384559;0.652731;,
  0.000000;-0.384558;0.923101;,
  -0.652730;-0.384559;0.652731;,
  -0.923101;-0.384558;-0.000002;,
  -0.652732;-0.384556;-0.652730;,
  0.000000;-0.709253;-0.704954;,
  0.498479;-0.709252;-0.498479;,
  0.704954;-0.709253;-0.000001;,
  0.498479;-0.709253;0.498477;,
  0.000000;-0.709254;0.704953;,
  -0.498479;-0.709253;0.498477;,
  -0.704954;-0.709253;-0.000001;,
  -0.498479;-0.709252;-0.498479;,
  0.000000;-0.924729;-0.380626;,
  0.269144;-0.924729;-0.269143;,
  0.380625;-0.924729;-0.000001;,
  0.269143;-0.924730;0.269142;,
  0.000000;-0.924730;0.380624;,
  -0.269143;-0.924730;0.269142;,
  -0.380625;-0.924729;-0.000001;,
  -0.269144;-0.924729;-0.269143;,
  0.000000;-1.000000;-0.000000;;
  109;
  4;1,2,2,1;,
  4;2,3,3,2;,
  4;3,4,4,3;,
  4;4,5,5,4;,
  4;5,6,6,5;,
  4;6,7,7,6;,
  4;7,8,8,7;,
  4;8,1,1,8;,
  3;0,0,0;,
  3;0,0,0;,
  3;0,0,0;,
  3;0,0,0;,
  3;0,0,0;,
  3;0,0,0;,
  3;0,0,0;,
  3;0,0,0;,
  3;9,9,9;,
  3;9,9,9;,
  3;9,9,9;,
  3;9,9,9;,
  3;9,9,9;,
  3;9,9,9;,
  3;9,9,9;,
  3;9,9,9;,
  4;10,10,10,10;,
  4;11,11,11,11;,
  4;12,12,12,12;,
  4;13,13,13,13;,
  4;14,14,14,14;,
  4;15,15,15,15;,
  4;16,16,16,16;,
  4;17,17,17,17;,
  4;18,18,18,18;,
  4;19,19,19,19;,
  4;20,20,20,20;,
  4;21,21,21,21;,
  4;22,22,22,22;,
  4;23,23,23,23;,
  4;24,24,24,24;,
  4;25,25,25,25;,
  4;26,26,26,26;,
  4;27,27,27,27;,
  3;32,31,33;,
  4;32,33,30,28;,
  3;32,28,29;,
  3;34,36,35;,
  3;34,37,36;,
  3;34,38,37;,
  3;34,39,38;,
  3;34,40,39;,
  3;34,41,40;,
  3;34,42,41;,
  3;34,35,42;,
  4;35,36,44,43;,
  4;36,37,45,44;,
  4;37,38,46,45;,
  4;38,39,47,46;,
  4;39,40,48,47;,
  4;40,41,49,48;,
  4;41,42,50,49;,
  4;42,35,43,50;,
  4;43,44,52,51;,
  4;44,45,53,52;,
  4;45,46,54,53;,
  4;46,47,55,54;,
  4;47,48,56,55;,
  4;48,49,57,56;,
  4;49,50,58,57;,
  4;50,43,51,58;,
  4;51,52,60,59;,
  4;52,53,61,60;,
  4;53,54,62,61;,
  4;54,55,63,62;,
  4;55,56,64,63;,
  4;56,57,65,64;,
  4;57,58,66,65;,
  4;58,51,59,66;,
  4;59,60,68,67;,
  4;60,61,69,68;,
  4;61,62,70,69;,
  4;62,63,71,70;,
  4;63,64,72,71;,
  4;64,65,73,72;,
  4;65,66,74,73;,
  4;66,59,67,74;,
  4;67,68,76,75;,
  4;68,69,77,76;,
  4;69,70,78,77;,
  4;70,71,79,78;,
  4;71,72,80,79;,
  4;72,73,81,80;,
  4;73,74,82,81;,
  4;74,67,75,82;,
  4;75,76,84,83;,
  4;76,77,85,84;,
  4;77,78,86,85;,
  4;78,79,87,86;,
  4;79,80,88,87;,
  4;80,81,89,88;,
  4;81,82,90,89;,
  4;82,75,83,90;,
  3;83,84,91;,
  3;84,85,91;,
  3;85,86,91;,
  3;86,87,91;,
  3;87,88,91;,
  3;88,89,91;,
  3;89,90,91;,
  3;90,83,91;;
 }
 MeshTextureCoords {
  179;
  0.000000;0.000000;,
  0.125000;0.000000;,
  0.125000;1.000000;,
  0.000000;1.000000;,
  0.250000;0.000000;,
  0.250000;1.000000;,
  0.375000;0.000000;,
  0.375000;1.000000;,
  0.500000;0.000000;,
  0.500000;1.000000;,
  0.625000;0.000000;,
  0.625000;1.000000;,
  0.750000;0.000000;,
  0.750000;1.000000;,
  0.875000;0.000000;,
  0.875000;1.000000;,
  1.000000;0.000000;,
  1.000000;1.000000;,
  0.062500;0.000000;,
  0.187500;0.000000;,
  0.312500;0.000000;,
  0.437500;0.000000;,
  0.562500;0.000000;,
  0.687500;0.000000;,
  0.812500;0.000000;,
  0.937500;0.000000;,
  0.062500;1.000000;,
  0.187500;1.000000;,
  0.312500;1.000000;,
  0.437500;1.000000;,
  0.562500;1.000000;,
  0.687500;1.000000;,
  0.812500;1.000000;,
  0.937500;1.000000;,
  0.000000;0.000000;,
  1.000000;0.000000;,
  1.000000;1.000000;,
  0.000000;1.000000;,
  0.000000;0.000000;,
  1.000000;0.000000;,
  1.000000;1.000000;,
  0.000000;1.000000;,
  0.000000;0.000000;,
  1.000000;0.000000;,
  1.000000;1.000000;,
  0.000000;1.000000;,
  0.000000;0.000000;,
  1.000000;0.000000;,
  1.000000;1.000000;,
  0.000000;1.000000;,
  1.000000;1.000000;,
  0.000000;1.000000;,
  0.000000;0.000000;,
  1.000000;0.000000;,
  0.000000;0.000000;,
  1.000000;0.000000;,
  1.000000;1.000000;,
  0.000000;1.000000;,
  0.000000;0.000000;,
  1.000000;0.000000;,
  1.000000;1.000000;,
  0.000000;1.000000;,
  0.000000;0.000000;,
  1.000000;0.000000;,
  1.000000;1.000000;,
  0.000000;1.000000;,
  0.000000;0.000000;,
  1.000000;0.000000;,
  1.000000;1.000000;,
  0.000000;1.000000;,
  1.000000;1.000000;,
  0.000000;1.000000;,
  0.000000;0.000000;,
  1.000000;0.000000;,
  0.000000;0.000000;,
  1.000000;0.000000;,
  1.000000;1.000000;,
  0.000000;1.000000;,
  0.000000;0.000000;,
  1.000000;0.000000;,
  1.000000;1.000000;,
  0.000000;1.000000;,
  0.000000;0.000000;,
  1.000000;0.000000;,
  1.000000;1.000000;,
  0.000000;1.000000;,
  0.000000;0.000000;,
  1.000000;0.000000;,
  1.000000;1.000000;,
  0.000000;1.000000;,
  1.000000;1.000000;,
  0.000000;1.000000;,
  0.000000;0.000000;,
  1.000000;0.000000;,
  1.000000;0.677440;,
  1.000000;1.000000;,
  0.739790;1.000000;,
  0.000000;1.000000;,
  0.000000;0.000000;,
  1.000000;0.000000;,
  0.062500;0.000000;,
  0.125000;0.125000;,
  0.000000;0.125000;,
  0.187500;0.000000;,
  0.250000;0.125000;,
  0.312500;0.000000;,
  0.375000;0.125000;,
  0.437500;0.000000;,
  0.500000;0.125000;,
  0.562500;0.000000;,
  0.625000;0.125000;,
  0.687500;0.000000;,
  0.750000;0.125000;,
  0.812500;0.000000;,
  0.875000;0.125000;,
  0.937500;0.000000;,
  1.000000;0.125000;,
  0.125000;0.250000;,
  0.000000;0.250000;,
  0.250000;0.250000;,
  0.375000;0.250000;,
  0.500000;0.250000;,
  0.625000;0.250000;,
  0.750000;0.250000;,
  0.875000;0.250000;,
  1.000000;0.250000;,
  0.125000;0.375000;,
  0.000000;0.375000;,
  0.250000;0.375000;,
  0.375000;0.375000;,
  0.500000;0.375000;,
  0.625000;0.375000;,
  0.750000;0.375000;,
  0.875000;0.375000;,
  1.000000;0.375000;,
  0.125000;0.500000;,
  0.000000;0.500000;,
  0.250000;0.500000;,
  0.375000;0.500000;,
  0.500000;0.500000;,
  0.625000;0.500000;,
  0.750000;0.500000;,
  0.875000;0.500000;,
  1.000000;0.500000;,
  0.125000;0.625000;,
  0.000000;0.625000;,
  0.250000;0.625000;,
  0.375000;0.625000;,
  0.500000;0.625000;,
  0.625000;0.625000;,
  0.750000;0.625000;,
  0.875000;0.625000;,
  1.000000;0.625000;,
  0.125000;0.750000;,
  0.000000;0.750000;,
  0.250000;0.750000;,
  0.375000;0.750000;,
  0.500000;0.750000;,
  0.625000;0.750000;,
  0.750000;0.750000;,
  0.875000;0.750000;,
  1.000000;0.750000;,
  0.125000;0.875000;,
  0.000000;0.875000;,
  0.250000;0.875000;,
  0.375000;0.875000;,
  0.500000;0.875000;,
  0.625000;0.875000;,
  0.750000;0.875000;,
  0.875000;0.875000;,
  1.000000;0.875000;,
  0.062500;1.000000;,
  0.187500;1.000000;,
  0.312500;1.000000;,
  0.437500;1.000000;,
  0.562500;1.000000;,
  0.687500;1.000000;,
  0.812500;1.000000;,
  0.937500;1.000000;;
 }
}
