xof 0302txt 0064
template Header {
 <3D82AB43-62DA-11cf-AB39-0020AF71E433>
 WORD major;
 WORD minor;
 DWORD flags;
}

template Vector {
 <3D82AB5E-62DA-11cf-AB39-0020AF71E433>
 FLOAT x;
 FLOAT y;
 FLOAT z;
}

template Coords2d {
 <F6F23F44-7686-11cf-8F52-0040333594A3>
 FLOAT u;
 FLOAT v;
}

template Matrix4x4 {
 <F6F23F45-7686-11cf-8F52-0040333594A3>
 array FLOAT matrix[16];
}

template ColorRGBA {
 <35FF44E0-6C7C-11cf-8F52-0040333594A3>
 FLOAT red;
 FLOAT green;
 FLOAT blue;
 FLOAT alpha;
}

template ColorRGB {
 <D3E16E81-7835-11cf-8F52-0040333594A3>
 FLOAT red;
 FLOAT green;
 FLOAT blue;
}

template IndexedColor {
 <1630B820-7842-11cf-8F52-0040333594A3>
 DWORD index;
 ColorRGBA indexColor;
}

template Boolean {
 <4885AE61-78E8-11cf-8F52-0040333594A3>
 WORD truefalse;
}

template Boolean2d {
 <4885AE63-78E8-11cf-8F52-0040333594A3>
 Boolean u;
 Boolean v;
}

template MaterialWrap {
 <4885AE60-78E8-11cf-8F52-0040333594A3>
 Boolean u;
 Boolean v;
}

template TextureFilename {
 <A42790E1-7810-11cf-8F52-0040333594A3>
 STRING filename;
}

template Material {
 <3D82AB4D-62DA-11cf-AB39-0020AF71E433>
 ColorRGBA faceColor;
 FLOAT power;
 ColorRGB specularColor;
 ColorRGB emissiveColor;
 [...]
}

template MeshFace {
 <3D82AB5F-62DA-11cf-AB39-0020AF71E433>
 DWORD nFaceVertexIndices;
 array DWORD faceVertexIndices[nFaceVertexIndices];
}

template MeshFaceWraps {
 <4885AE62-78E8-11cf-8F52-0040333594A3>
 DWORD nFaceWrapValues;
 Boolean2d faceWrapValues;
}

template MeshTextureCoords {
 <F6F23F40-7686-11cf-8F52-0040333594A3>
 DWORD nTextureCoords;
 array Coords2d textureCoords[nTextureCoords];
}

template MeshMaterialList {
 <F6F23F42-7686-11cf-8F52-0040333594A3>
 DWORD nMaterials;
 DWORD nFaceIndexes;
 array DWORD faceIndexes[nFaceIndexes];
 [Material]
}

template MeshNormals {
 <F6F23F43-7686-11cf-8F52-0040333594A3>
 DWORD nNormals;
 array Vector normals[nNormals];
 DWORD nFaceNormals;
 array MeshFace faceNormals[nFaceNormals];
}

template MeshVertexColors {
 <1630B821-7842-11cf-8F52-0040333594A3>
 DWORD nVertexColors;
 array IndexedColor vertexColors[nVertexColors];
}

template Mesh {
 <3D82AB44-62DA-11cf-AB39-0020AF71E433>
 DWORD nVertices;
 array Vector vertices[nVertices];
 DWORD nFaces;
 array MeshFace faces[nFaces];
 [...]
}

Header{
1;
0;
1;
}

Mesh {
 225;
 -16.52915;23.88791;-0.50071;,
 16.73432;23.88791;-0.50071;,
 16.73432;-17.74533;-0.50071;,
 -16.52915;-17.74533;-0.50071;,
 16.73432;23.88791;-0.50071;,
 16.73432;23.88791;0.41180;,
 16.73432;-17.74533;0.41180;,
 16.73432;-17.74533;-0.50071;,
 16.73432;23.88791;0.41180;,
 -16.52915;23.88791;0.41180;,
 -16.52915;-17.74533;0.41180;,
 16.73432;-17.74533;0.41180;,
 -16.52915;23.88791;0.41180;,
 -16.52915;23.88791;-0.50071;,
 -16.52915;-17.74533;-0.50071;,
 -16.52915;-17.74533;0.41180;,
 16.73432;23.88791;-0.50071;,
 -16.52915;23.88791;-0.50071;,
 -16.52915;-17.74533;-0.50071;,
 16.73432;-17.74533;-0.50071;,
 -16.52915;17.76920;-0.52920;,
 16.73432;17.76920;-0.52920;,
 16.73432;-15.49431;-0.52920;,
 -16.52915;-15.49431;-0.52920;,
 12.23389;10.05541;1.49633;,
 13.37336;9.58343;1.49633;,
 12.23389;9.58343;1.26879;,
 12.23389;10.05541;1.49633;,
 12.23389;9.58343;1.72387;,
 12.23389;10.05541;1.49633;,
 11.09441;9.58343;1.49633;,
 12.23389;10.05541;1.49633;,
 12.23389;9.58343;1.26879;,
 13.84536;8.44396;1.49633;,
 12.23389;8.44396;1.17453;,
 12.23389;8.44396;1.81813;,
 10.62242;8.44396;1.49633;,
 12.23389;8.44396;1.17453;,
 13.37336;7.30448;1.49633;,
 12.23389;7.30448;1.26879;,
 12.23389;7.30448;1.72387;,
 11.09441;7.30448;1.49633;,
 12.23389;7.30448;1.26879;,
 12.23389;6.83249;1.49633;,
 12.23389;6.83249;1.49633;,
 12.23389;6.83249;1.49633;,
 12.23389;6.83249;1.49633;,
 -12.12524;10.88587;1.37509;,
 -10.98577;10.41386;1.37509;,
 -12.12524;10.41386;1.14754;,
 -12.12524;10.88587;1.37509;,
 -12.12524;10.41386;1.60264;,
 -12.12524;10.88587;1.37509;,
 -13.26472;10.41386;1.37509;,
 -12.12524;10.88587;1.37509;,
 -12.12524;10.41386;1.14754;,
 -10.51379;9.27439;1.37509;,
 -12.12524;9.27439;1.05329;,
 -12.12524;9.27439;1.69689;,
 -13.73671;9.27439;1.37509;,
 -12.12524;9.27439;1.05329;,
 -10.98577;8.13491;1.37509;,
 -12.12524;8.13491;1.14754;,
 -12.12524;8.13491;1.60264;,
 -13.26472;8.13491;1.37509;,
 -12.12524;8.13491;1.14754;,
 -12.12524;7.66293;1.37509;,
 -12.12524;7.66293;1.37509;,
 -12.12524;7.66293;1.37509;,
 -12.12524;7.66293;1.37509;,
 -0.05278;-8.22113;0.42786;,
 -0.05278;-3.48807;0.64170;,
 14.72621;-3.48807;1.28322;,
 15.45726;-8.22113;1.28322;,
 -0.05278;-3.48807;1.92475;,
 -0.05278;-8.22113;2.13858;,
 -14.83176;-3.48807;1.28322;,
 -15.56281;-8.22113;1.28322;,
 -0.05278;-3.48807;0.64170;,
 -0.05278;-8.22113;0.42786;,
 -0.05278;-2.10613;0.85556;,
 2.95352;-2.10613;1.28322;,
 -0.05278;-2.10613;1.71089;,
 -3.05907;-2.10613;1.28322;,
 -0.05278;-2.10613;0.85556;,
 -0.05278;1.09705;1.06935;,
 1.60804;1.09705;1.28322;,
 -0.05278;1.09705;1.49710;,
 -1.71359;1.09705;1.28322;,
 -0.05278;1.09705;1.06935;,
 -0.05278;10.71113;1.28322;,
 -0.05278;10.71113;1.28322;,
 -0.05278;10.71113;1.28322;,
 -0.05278;10.71113;1.28322;,
 -0.05278;-8.22113;1.28322;,
 -0.05278;-8.22113;0.42786;,
 15.45726;-8.22113;1.28322;,
 -0.05278;-8.22113;2.13858;,
 -15.56281;-8.22113;1.28322;,
 12.14280;-3.37523;0.77975;,
 12.14280;4.89825;1.06669;,
 13.31402;4.89825;1.35365;,
 14.48526;-3.37523;1.35365;,
 12.14280;4.89825;1.64061;,
 12.14280;-3.37523;1.92757;,
 10.97153;4.89825;1.35365;,
 9.80031;-3.37523;1.35365;,
 12.14280;4.89825;1.06669;,
 12.14280;-3.37523;0.77975;,
 12.14280;8.15077;1.35365;,
 12.14280;8.15077;1.35365;,
 12.14280;8.15077;1.35365;,
 12.14280;8.15077;1.35365;,
 12.14280;-3.37523;1.35365;,
 12.14280;-3.37523;0.77975;,
 14.48526;-3.37523;1.35365;,
 12.14280;-3.37523;1.92757;,
 9.80031;-3.37523;1.35365;,
 -12.27738;-3.37523;0.77975;,
 -12.27738;4.89825;1.06669;,
 -11.10616;4.89825;1.35365;,
 -9.93491;-3.37523;1.35365;,
 -12.27738;4.89825;1.64061;,
 -12.27738;-3.37523;1.92757;,
 -13.44863;4.89825;1.35365;,
 -14.61987;-3.37523;1.35365;,
 -12.27738;4.89825;1.06669;,
 -12.27738;-3.37523;0.77975;,
 -12.27738;9.23874;1.35365;,
 -12.27738;9.23874;1.35365;,
 -12.27738;9.23874;1.35365;,
 -12.27738;9.23874;1.35365;,
 -12.27738;-3.37523;1.35365;,
 -12.27738;-3.37523;0.77975;,
 -9.93491;-3.37523;1.35365;,
 -12.27738;-3.37523;1.92757;,
 -14.61987;-3.37523;1.35365;,
 -0.05278;11.35276;1.12226;,
 1.08670;10.88078;1.12226;,
 -0.05278;10.88078;0.89472;,
 -0.05278;11.35276;1.12226;,
 -0.05278;10.88078;1.34981;,
 -0.05278;11.35276;1.12226;,
 -1.19225;10.88078;1.12226;,
 -0.05278;11.35276;1.12226;,
 -0.05278;10.88078;0.89472;,
 1.55869;9.74130;1.12226;,
 -0.05278;9.74130;0.80047;,
 -0.05278;9.74130;1.44406;,
 -1.66424;9.74130;1.12226;,
 -0.05278;9.74130;0.80047;,
 1.08670;8.60181;1.12226;,
 -0.05278;8.60181;0.89472;,
 -0.05278;8.60181;1.34981;,
 -1.19225;8.60181;1.12226;,
 -0.05278;8.60181;0.89472;,
 -0.05278;8.12983;1.12226;,
 -0.05278;8.12983;1.12226;,
 -0.05278;8.12983;1.12226;,
 -0.05278;8.12983;1.12226;,
 16.73177;17.76920;0.47441;,
 -16.52663;17.76920;1.05494;,
 -16.52663;-15.49431;1.05494;,
 16.73178;-15.49431;0.47442;,
 5.05202;12.12861;-1.16833;,
 6.68677;10.82957;-1.64891;,
 3.83987;7.05755;-1.46283;,
 2.24539;8.32460;-0.99409;,
 10.68452;7.80630;-1.81070;,
 7.73915;4.10875;-1.62063;,
 14.70341;4.82980;-1.55894;,
 11.65908;1.20555;-1.37507;,
 16.38926;3.64365;-1.04109;,
 13.30339;0.04860;-0.86998;,
 14.75448;4.94270;-0.56051;,
 11.70891;1.31565;-0.40123;,
 10.75678;7.96596;-0.39871;,
 7.80963;4.26446;-0.24342;,
 6.73786;10.94246;-0.65048;,
 3.88972;7.16766;-0.48899;,
 5.05202;12.12861;-1.16833;,
 2.24539;8.32460;-0.99409;,
 -0.17062;4.13460;-1.43373;,
 -2.19641;5.74436;-0.83819;,
 4.78337;0.38816;-1.63422;,
 9.76358;-3.30035;-1.32223;,
 11.85270;-4.77020;-0.68052;,
 9.82692;-3.16045;-0.08498;,
 4.87291;0.58599;0.11552;,
 -0.10731;4.27448;-0.19648;,
 -2.19641;5.74436;-0.83819;,
 -3.94345;-0.65285;-1.30355;,
 -14.99837;6.88968;-0.74379;,
 1.51850;-4.08228;-1.54407;,
 5.02260;-6.60646;-1.21875;,
 8.63411;-9.01918;-0.50717;,
 5.05078;-6.51626;0.12799;,
 1.82053;-4.13146;0.36314;,
 -3.91526;-0.56263;0.04318;,
 -14.99837;6.88968;-0.74379;,
 -5.33322;-2.15839;-1.16965;,
 -16.26163;5.29705;-0.60852;,
 0.32298;-5.33535;-1.43143;,
 3.55833;-8.56519;-1.05512;,
 6.84179;-10.96079;-0.33449;,
 3.58650;-8.47497;0.29161;,
 0.36285;-5.20777;0.47313;,
 -5.30505;-2.06817;0.17708;,
 -16.26163;5.29705;-0.60852;,
 10.72064;7.88615;-1.10471;,
 10.72064;7.88615;-1.10471;,
 10.72064;7.88615;-1.10471;,
 10.72064;7.88615;-1.10471;,
 10.72064;7.88615;-1.10471;,
 10.72064;7.88615;-1.10471;,
 10.72064;7.88615;-1.10471;,
 10.72064;7.88615;-1.10471;,
 0.91497;-5.92846;-0.45697;,
 0.91497;-5.92846;-0.45697;,
 0.91497;-5.92846;-0.45697;,
 0.91497;-5.92846;-0.45697;,
 0.91497;-5.92846;-0.45697;,
 0.91497;-5.92846;-0.45697;,
 0.91497;-5.92846;-0.45697;,
 0.91497;-5.92846;-0.45697;;
 
 148;
 4;0,1,2,3;,
 4;4,5,6,7;,
 4;8,9,10,11;,
 4;12,13,14,15;,
 4;12,5,16,17;,
 4;18,19,6,15;,
 4;20,21,22,23;,
 3;24,25,26;,
 3;27,28,25;,
 3;29,30,28;,
 3;31,32,30;,
 4;26,25,33,34;,
 4;25,28,35,33;,
 4;28,30,36,35;,
 4;30,32,37,36;,
 4;34,33,38,39;,
 4;33,35,40,38;,
 4;35,36,41,40;,
 4;36,37,42,41;,
 3;39,38,43;,
 3;38,40,44;,
 3;40,41,45;,
 3;41,42,46;,
 3;47,48,49;,
 3;50,51,48;,
 3;52,53,51;,
 3;54,55,53;,
 4;49,48,56,57;,
 4;48,51,58,56;,
 4;51,53,59,58;,
 4;53,55,60,59;,
 4;57,56,61,62;,
 4;56,58,63,61;,
 4;58,59,64,63;,
 4;59,60,65,64;,
 3;62,61,66;,
 3;61,63,67;,
 3;63,64,68;,
 3;64,65,69;,
 4;70,71,72,73;,
 4;73,72,74,75;,
 4;75,74,76,77;,
 4;77,76,78,79;,
 4;71,80,81,72;,
 4;72,81,82,74;,
 4;74,82,83,76;,
 4;76,83,84,78;,
 4;80,85,86,81;,
 4;81,86,87,82;,
 4;82,87,88,83;,
 4;83,88,89,84;,
 3;85,90,86;,
 3;86,91,87;,
 3;87,92,88;,
 3;88,93,89;,
 3;94,95,96;,
 3;94,96,97;,
 3;94,97,98;,
 3;94,98,95;,
 4;99,100,101,102;,
 4;102,101,103,104;,
 4;104,103,105,106;,
 4;106,105,107,108;,
 3;100,109,101;,
 3;101,110,103;,
 3;103,111,105;,
 3;105,112,107;,
 3;113,114,115;,
 3;113,115,116;,
 3;113,116,117;,
 3;113,117,114;,
 4;118,119,120,121;,
 4;121,120,122,123;,
 4;123,122,124,125;,
 4;125,124,126,127;,
 3;119,128,120;,
 3;120,129,122;,
 3;122,130,124;,
 3;124,131,126;,
 3;132,133,134;,
 3;132,134,135;,
 3;132,135,136;,
 3;132,136,133;,
 3;137,138,139;,
 3;140,141,138;,
 3;142,143,141;,
 3;144,145,143;,
 4;139,138,146,147;,
 4;138,141,148,146;,
 4;141,143,149,148;,
 4;143,145,150,149;,
 4;147,146,151,152;,
 4;146,148,153,151;,
 4;148,149,154,153;,
 4;149,150,155,154;,
 3;152,151,156;,
 3;151,153,157;,
 3;153,154,158;,
 3;154,155,159;,
 4;160,161,162,163;,
 4;164,165,166,167;,
 4;165,168,169,166;,
 4;168,170,171,169;,
 4;170,172,173,171;,
 4;172,174,175,173;,
 4;174,176,177,175;,
 4;176,178,179,177;,
 4;178,180,181,179;,
 4;167,166,182,183;,
 4;166,169,184,182;,
 4;169,171,185,184;,
 4;171,173,186,185;,
 4;173,175,187,186;,
 4;175,177,188,187;,
 4;177,179,189,188;,
 4;179,181,190,189;,
 4;183,182,191,192;,
 4;182,184,193,191;,
 4;184,185,194,193;,
 4;185,186,195,194;,
 4;186,187,196,195;,
 4;187,188,197,196;,
 4;188,189,198,197;,
 4;189,190,199,198;,
 4;192,191,200,201;,
 4;191,193,202,200;,
 4;193,194,203,202;,
 4;194,195,204,203;,
 4;195,196,205,204;,
 4;196,197,206,205;,
 4;197,198,207,206;,
 4;198,199,208,207;,
 3;209,165,164;,
 3;210,168,165;,
 3;211,170,168;,
 3;212,172,170;,
 3;213,174,172;,
 3;214,176,174;,
 3;215,178,176;,
 3;216,180,178;,
 3;217,201,200;,
 3;218,200,202;,
 3;219,202,203;,
 3;220,203,204;,
 3;221,204,205;,
 3;222,205,206;,
 3;223,206,207;,
 3;224,207,208;;
 
 MeshMaterialList {
  9;
  148;
  2,
  2,
  2,
  2,
  2,
  2,
  3,
  5,
  5,
  5,
  5,
  5,
  5,
  5,
  5,
  5,
  5,
  5,
  5,
  5,
  5,
  5,
  5,
  5,
  5,
  5,
  5,
  5,
  5,
  5,
  5,
  5,
  5,
  5,
  5,
  5,
  5,
  5,
  5,
  5,
  5,
  5,
  5,
  5,
  5,
  5,
  5,
  5,
  5,
  5,
  5,
  5,
  5,
  5,
  5,
  5,
  5,
  5,
  5,
  5,
  5,
  5,
  5,
  5,
  5,
  5,
  5,
  5,
  5,
  5,
  5,
  5,
  5,
  5,
  5,
  5,
  5,
  5,
  5,
  5,
  5,
  5,
  5,
  5,
  5,
  5,
  5,
  5,
  5,
  5,
  5,
  5,
  5,
  5,
  5,
  5,
  5,
  5,
  5,
  3,
  7,
  7,
  7,
  7,
  7,
  7,
  7,
  7,
  7,
  7,
  7,
  7,
  7,
  7,
  7,
  7,
  7,
  7,
  7,
  7,
  7,
  7,
  7,
  7,
  8,
  8,
  8,
  8,
  8,
  8,
  8,
  8,
  7,
  7,
  7,
  7,
  7,
  7,
  7,
  7,
  8,
  8,
  8,
  8,
  8,
  8,
  8,
  8;;
  Material {
   0.674400;0.652800;0.661600;1.000000;;
   5.000000;
   0.000000;0.000000;0.000000;;
   0.000000;0.000000;0.000000;;
  }
  Material {
   0.800000;0.000000;0.031200;1.000000;;
   5.000000;
   0.000000;0.000000;0.000000;;
   0.000000;0.000000;0.000000;;
  }
  Material {
   0.800000;0.473600;0.116000;1.000000;;
   5.000000;
   0.000000;0.000000;0.000000;;
   0.000000;0.000000;0.000000;;
  }
  Material {
   0.800000;0.800000;0.800000;1.000000;;
   5.000000;
   0.000000;0.000000;0.000000;;
   0.000000;0.000000;0.000000;;
  }
  Material {
   0.800000;0.652800;0.486400;1.000000;;
   5.000000;
   0.000000;0.000000;0.000000;;
   0.000000;0.000000;0.000000;;
  }
  Material {
   0.800000;0.627200;0.047200;1.000000;;
   5.000000;
   0.540000;0.540000;0.540000;;
   0.000000;0.000000;0.000000;;
  }
  Material {
   0.800000;0.800000;0.800000;1.000000;;
   5.000000;
   0.000000;0.000000;0.000000;;
   0.000000;0.000000;0.000000;;
  }
  Material {
   0.000000;0.025098;0.489412;1.000000;;
   5.000000;
   0.000000;0.000000;0.000000;;
   0.000000;0.000000;0.000000;;
  }
  Material {
   0.489412;0.354510;0.222745;1.000000;;
   5.000000;
   0.000000;0.000000;0.000000;;
   0.000000;0.000000;0.000000;;
  }
 }
 MeshNormals {
  197;
  0.000000;0.000000;-1.000000;,
  1.000000;0.000000;0.000000;,
  0.000000;0.000000;1.000000;,
  -1.000000;0.000000;0.000000;,
  0.000000;1.000000;0.000000;,
  0.000000;-1.000000;-0.000000;,
  0.000000;0.000000;-1.000000;,
  0.000001;0.434265;-0.900785;,
  0.000001;0.263069;-0.964777;,
  0.189178;0.258319;-0.947356;,
  0.000001;0.263069;0.964777;,
  -0.189177;0.258319;0.947356;,
  0.000000;0.000000;-1.000000;,
  0.195825;0.000000;-0.980639;,
  0.000000;0.000000;1.000000;,
  -0.195824;0.000000;0.980639;,
  0.000001;-0.263065;-0.964778;,
  0.189178;-0.258315;-0.947357;,
  0.000001;-0.263065;0.964778;,
  -0.189177;-0.258314;0.947357;,
  0.000001;-0.434258;-0.900789;,
  0.000001;0.434259;-0.900788;,
  0.000001;0.263063;-0.964779;,
  0.189185;0.258312;-0.947356;,
  0.000001;0.263063;0.964779;,
  -0.189183;0.258313;0.947356;,
  0.000001;0.000000;-1.000000;,
  0.195830;0.000001;-0.980638;,
  0.000001;0.000001;1.000000;,
  -0.195828;0.000001;0.980638;,
  0.000001;-0.263075;-0.964775;,
  0.189184;-0.258324;-0.947353;,
  0.000001;-0.263075;0.964775;,
  -0.189182;-0.258324;0.947353;,
  0.000001;-0.434281;-0.900777;,
  -0.000000;0.026836;-0.999640;,
  0.049202;0.026803;-0.998429;,
  -0.000000;0.026835;0.999640;,
  -0.049202;0.026802;0.998429;,
  -0.000000;0.139950;-0.990159;,
  0.070322;0.139604;-0.987707;,
  -0.000000;0.139951;0.990158;,
  -0.070323;0.139605;0.987707;,
  -0.000000;0.158309;-0.987390;,
  0.112799;0.157299;-0.981088;,
  -0.000000;0.158311;0.987389;,
  -0.112802;0.157300;0.981087;,
  -0.000000;0.042683;-0.999089;,
  0.130881;0.042315;-0.990495;,
  -0.000000;0.042683;0.999089;,
  -0.130887;0.042316;0.990494;,
  -0.000000;0.022240;-0.999753;,
  0.000000;-1.000000;-0.000000;,
  0.000003;0.034662;-0.999399;,
  0.237831;0.033668;-0.970723;,
  0.000003;0.034663;0.999399;,
  -0.237829;0.033668;0.970723;,
  0.000004;0.061298;-0.998119;,
  0.237546;0.059544;-0.969549;,
  0.000004;0.061299;0.998119;,
  -0.237540;0.059544;0.969551;,
  0.000005;0.087886;-0.996131;,
  0.000002;0.034662;-0.999399;,
  0.237831;0.033667;-0.970723;,
  0.000002;0.034664;0.999399;,
  -0.237831;0.033669;0.970723;,
  0.000002;0.050322;-0.998733;,
  0.237684;0.048880;-0.970112;,
  0.000002;0.050323;0.998733;,
  -0.237681;0.048881;0.970113;,
  0.000003;0.065968;-0.997822;,
  -0.000001;0.434265;-0.900785;,
  -0.000001;0.263066;-0.964778;,
  0.189175;0.258316;-0.947357;,
  -0.000001;0.263075;0.964775;,
  -0.189184;0.258324;0.947353;,
  -0.000001;0.000000;-1.000000;,
  0.195821;0.000000;-0.980640;,
  -0.000001;0.000000;1.000000;,
  -0.195830;0.000000;0.980638;,
  -0.000001;-0.263066;-0.964778;,
  0.189175;-0.258315;-0.947357;,
  -0.000001;-0.263075;0.964776;,
  -0.189184;-0.258324;0.947353;,
  -0.000001;-0.434266;-0.900785;,
  0.000001;0.434265;0.900785;,
  0.189178;0.258319;0.947356;,
  -0.189177;0.258318;-0.947356;,
  0.195825;0.000000;0.980639;,
  -0.195824;0.000000;-0.980639;,
  0.189178;-0.258315;0.947357;,
  -0.189177;-0.258314;-0.947357;,
  0.000001;-0.434258;0.900788;,
  0.000001;0.434258;0.900788;,
  0.189185;0.258312;0.947356;,
  -0.189183;0.258313;-0.947356;,
  0.195830;0.000001;0.980638;,
  -0.195829;0.000000;-0.980638;,
  0.189184;-0.258324;0.947353;,
  -0.189182;-0.258325;-0.947353;,
  0.000001;-0.434281;0.900777;,
  0.049202;0.026802;0.998429;,
  0.070323;0.139605;0.987707;,
  -0.049202;0.026803;-0.998429;,
  -0.070322;0.139604;-0.987707;,
  0.112802;0.157300;0.981087;,
  -0.112799;0.157299;-0.981088;,
  0.130886;0.042316;0.990494;,
  -0.130882;0.042315;-0.990494;,
  -0.000000;0.022241;0.999753;,
  0.237835;0.033669;0.970722;,
  0.237548;0.059544;0.969549;,
  -0.237825;0.033667;-0.970724;,
  -0.237538;0.059543;-0.969551;,
  0.000005;0.087886;0.996131;,
  0.237834;0.033669;0.970722;,
  0.237686;0.048881;0.970111;,
  -0.237827;0.033668;-0.970724;,
  -0.237679;0.048880;-0.970113;,
  0.000003;0.065968;0.997822;,
  -0.000001;0.434281;0.900778;,
  0.189182;0.258324;0.947354;,
  -0.189177;0.258316;-0.947357;,
  0.195828;0.000000;0.980638;,
  -0.195823;0.000000;-0.980639;,
  0.189182;-0.258324;0.947354;,
  -0.189177;-0.258316;-0.947357;,
  -0.000001;-0.434281;0.900777;,
  0.017452;0.000000;0.999848;,
  0.595702;0.794148;-0.120279;,
  -0.202765;0.105007;-0.973581;,
  -0.126709;0.046753;-0.990838;,
  -0.017029;-0.037795;-0.999140;,
  0.090755;-0.126348;-0.987826;,
  0.165205;-0.187890;-0.968197;,
  0.119154;-0.056521;0.991266;,
  0.012608;0.031891;0.999412;,
  -0.098080;0.116287;0.988361;,
  -0.171859;0.144243;-0.974504;,
  -0.104650;0.075049;-0.991673;,
  -0.004125;-0.020564;-0.999780;,
  0.111930;-0.097004;-0.988970;,
  0.194601;-0.146823;-0.969832;,
  0.141247;-0.027732;0.989586;,
  0.025584;0.049214;0.998461;,
  -0.076461;0.145732;0.986365;,
  -0.118111;0.140787;-0.982969;,
  -0.074732;0.077562;-0.994183;,
  0.003585;-0.014808;-0.999884;,
  0.108505;-0.089863;-0.990026;,
  0.178210;-0.135611;-0.974603;,
  0.135100;-0.024314;0.990534;,
  0.029931;0.049764;0.998312;,
  -0.050420;0.142822;0.988463;,
  -0.082585;0.035525;-0.995951;,
  -0.066639;0.011599;-0.997710;,
  -0.012230;-0.045886;-0.998872;,
  0.069412;-0.121535;-0.990157;,
  0.112324;-0.163261;-0.980168;,
  0.110823;-0.031457;0.993342;,
  0.030157;0.043537;0.998597;,
  -0.024790;0.101999;0.994476;,
  -0.069414;-0.027213;-0.997217;,
  -0.066184;-0.028664;-0.997396;,
  -0.022844;-0.065459;-0.997594;,
  0.054838;-0.130973;-0.989868;,
  0.092217;-0.161021;-0.982633;,
  0.114688;-0.013297;0.993313;,
  0.039010;0.054077;0.997775;,
  -0.003527;0.093346;0.995628;,
  -0.603228;-0.794842;0.065905;,
  0.192161;-0.118574;0.974174;,
  0.223196;-0.078570;0.971602;,
  -0.175389;0.173791;0.969038;,
  -0.145331;0.215064;0.965726;,
  0.204368;-0.070427;0.976357;,
  -0.095397;0.207285;0.973618;,
  0.153421;-0.071835;0.985546;,
  -0.041950;0.125981;0.991145;,
  0.152346;-0.041361;0.987461;,
  -0.008184;0.093492;0.995586;,
  0.595700;0.794148;-0.120297;,
  0.595701;0.794151;-0.120269;,
  0.595701;0.794146;-0.120303;,
  0.595702;0.794145;-0.120301;,
  0.595704;0.794148;-0.120276;,
  0.595706;0.794149;-0.120262;,
  0.595703;0.794150;-0.120269;,
  0.595701;0.794153;-0.120258;,
  -0.546241;-0.834915;0.067363;,
  -0.521578;-0.849589;0.078449;,
  -0.604727;-0.788445;-0.112516;,
  -0.665881;-0.715498;0.211341;,
  -0.646662;-0.760034;0.064631;,
  -0.674674;-0.733086;-0.086023;,
  -0.594057;-0.767210;0.241838;,
  -0.522238;-0.850876;0.057253;;
  148;
  4;0,0,0,0;,
  4;1,1,1,1;,
  4;2,2,2,2;,
  4;3,3,3,3;,
  4;4,4,4,4;,
  4;5,5,5,5;,
  4;6,6,6,6;,
  3;7,9,8;,
  3;85,10,86;,
  3;85,11,10;,
  3;7,8,87;,
  4;8,9,13,12;,
  4;86,10,14,88;,
  4;10,11,15,14;,
  4;87,8,12,89;,
  4;12,13,17,16;,
  4;88,14,18,90;,
  4;14,15,19,18;,
  4;89,12,16,91;,
  3;16,17,20;,
  3;90,18,92;,
  3;18,19,92;,
  3;91,16,20;,
  3;21,23,22;,
  3;93,24,94;,
  3;93,25,24;,
  3;21,22,95;,
  4;22,23,27,26;,
  4;94,24,28,96;,
  4;24,25,29,28;,
  4;95,22,26,97;,
  4;26,27,31,30;,
  4;96,28,32,98;,
  4;28,29,33,32;,
  4;97,26,30,99;,
  3;30,31,34;,
  3;98,32,100;,
  3;32,33,100;,
  3;99,30,34;,
  4;35,39,40,36;,
  4;101,102,41,37;,
  4;37,41,42,38;,
  4;103,104,39,35;,
  4;39,43,44,40;,
  4;102,105,45,41;,
  4;41,45,46,42;,
  4;104,106,43,39;,
  4;43,47,48,44;,
  4;105,107,49,45;,
  4;45,49,50,46;,
  4;106,108,47,43;,
  3;47,51,48;,
  3;107,109,49;,
  3;49,109,50;,
  3;108,51,47;,
  3;52,52,52;,
  3;52,52,52;,
  3;52,52,52;,
  3;52,52,52;,
  4;53,57,58,54;,
  4;110,111,59,55;,
  4;55,59,60,56;,
  4;112,113,57,53;,
  3;57,61,58;,
  3;111,114,59;,
  3;59,114,60;,
  3;113,61,57;,
  3;52,52,52;,
  3;52,52,52;,
  3;52,52,52;,
  3;52,52,52;,
  4;62,66,67,63;,
  4;115,116,68,64;,
  4;64,68,69,65;,
  4;117,118,66,62;,
  3;66,70,67;,
  3;116,119,68;,
  3;68,119,69;,
  3;118,70,66;,
  3;52,52,52;,
  3;52,52,52;,
  3;52,52,52;,
  3;52,52,52;,
  3;71,73,72;,
  3;120,74,121;,
  3;120,75,74;,
  3;71,72,122;,
  4;72,73,77,76;,
  4;121,74,78,123;,
  4;74,75,79,78;,
  4;122,72,76,124;,
  4;76,77,81,80;,
  4;123,78,82,125;,
  4;78,79,83,82;,
  4;124,76,80,126;,
  3;80,81,84;,
  3;125,82,127;,
  3;82,83,127;,
  3;126,80,84;,
  4;128,128,128,128;,
  4;130,131,139,138;,
  4;131,132,140,139;,
  4;132,133,141,140;,
  4;133,134,142,141;,
  4;171,135,143,172;,
  4;135,136,144,143;,
  4;136,137,145,144;,
  4;137,173,174,145;,
  4;138,139,147,146;,
  4;139,140,148,147;,
  4;140,141,149,148;,
  4;141,142,150,149;,
  4;172,143,151,175;,
  4;143,144,152,151;,
  4;144,145,153,152;,
  4;145,174,176,153;,
  4;146,147,155,154;,
  4;147,148,156,155;,
  4;148,149,157,156;,
  4;149,150,158,157;,
  4;175,151,159,177;,
  4;151,152,160,159;,
  4;152,153,161,160;,
  4;153,176,178,161;,
  4;154,155,163,162;,
  4;155,156,164,163;,
  4;156,157,165,164;,
  4;157,158,166,165;,
  4;177,159,167,179;,
  4;159,160,168,167;,
  4;160,161,169,168;,
  4;161,178,180,169;,
  3;129,181,182;,
  3;129,183,181;,
  3;129,184,183;,
  3;129,185,184;,
  3;129,186,185;,
  3;129,187,186;,
  3;129,188,187;,
  3;129,182,188;,
  3;170,189,190;,
  3;170,190,191;,
  3;170,191,192;,
  3;170,192,193;,
  3;170,193,194;,
  3;170,194,195;,
  3;170,195,196;,
  3;170,196,189;;
 }
 MeshTextureCoords {
  225;
  0.000000;0.000000;,
  1.000000;0.000000;,
  1.000000;1.000000;,
  0.000000;1.000000;,
  0.000000;0.000000;,
  1.000000;0.000000;,
  1.000000;1.000000;,
  0.000000;1.000000;,
  0.000000;0.000000;,
  1.000000;0.000000;,
  1.000000;1.000000;,
  0.000000;1.000000;,
  0.000000;0.000000;,
  1.000000;0.000000;,
  1.000000;1.000000;,
  0.000000;1.000000;,
  1.000000;1.000000;,
  0.000000;1.000000;,
  0.000000;0.000000;,
  1.000000;0.000000;,
  0.000000;0.000000;,
  1.000000;0.000000;,
  1.000000;1.000000;,
  0.000000;1.000000;,
  0.125000;0.000000;,
  0.250000;0.250000;,
  0.000000;0.250000;,
  0.375000;0.000000;,
  0.500000;0.250000;,
  0.625000;0.000000;,
  0.750000;0.250000;,
  0.875000;0.000000;,
  1.000000;0.250000;,
  0.250000;0.500000;,
  0.000000;0.500000;,
  0.500000;0.500000;,
  0.750000;0.500000;,
  1.000000;0.500000;,
  0.250000;0.750000;,
  0.000000;0.750000;,
  0.500000;0.750000;,
  0.750000;0.750000;,
  1.000000;0.750000;,
  0.125000;1.000000;,
  0.375000;1.000000;,
  0.625000;1.000000;,
  0.875000;1.000000;,
  0.125000;0.000000;,
  0.250000;0.250000;,
  0.000000;0.250000;,
  0.375000;0.000000;,
  0.500000;0.250000;,
  0.625000;0.000000;,
  0.750000;0.250000;,
  0.875000;0.000000;,
  1.000000;0.250000;,
  0.250000;0.500000;,
  0.000000;0.500000;,
  0.500000;0.500000;,
  0.750000;0.500000;,
  1.000000;0.500000;,
  0.250000;0.750000;,
  0.000000;0.750000;,
  0.500000;0.750000;,
  0.750000;0.750000;,
  1.000000;0.750000;,
  0.125000;1.000000;,
  0.375000;1.000000;,
  0.625000;1.000000;,
  0.875000;1.000000;,
  0.000000;1.000000;,
  0.000000;0.750000;,
  0.250000;0.750000;,
  0.250000;1.000000;,
  0.500000;0.750000;,
  0.500000;1.000000;,
  0.750000;0.750000;,
  0.750000;1.000000;,
  1.000000;0.750000;,
  1.000000;1.000000;,
  0.000000;0.500000;,
  0.250000;0.500000;,
  0.500000;0.500000;,
  0.750000;0.500000;,
  1.000000;0.500000;,
  0.000000;0.250000;,
  0.250000;0.250000;,
  0.500000;0.250000;,
  0.750000;0.250000;,
  1.000000;0.250000;,
  0.125000;0.000000;,
  0.250000;0.000000;,
  0.375000;0.000000;,
  0.500000;0.000000;,
  0.000000;0.000000;,
  0.000000;0.000000;,
  0.000000;0.000000;,
  0.000000;0.000000;,
  0.000000;0.000000;,
  0.000000;1.000000;,
  0.000000;0.500000;,
  0.250000;0.500000;,
  0.250000;1.000000;,
  0.500000;0.500000;,
  0.500000;1.000000;,
  0.750000;0.500000;,
  0.750000;1.000000;,
  1.000000;0.500000;,
  1.000000;1.000000;,
  0.125000;0.000000;,
  0.250000;0.000000;,
  0.375000;0.000000;,
  0.500000;0.000000;,
  0.000000;0.000000;,
  0.000000;0.000000;,
  0.000000;0.000000;,
  0.000000;0.000000;,
  0.000000;0.000000;,
  0.000000;1.000000;,
  0.000000;0.500000;,
  0.250000;0.500000;,
  0.250000;1.000000;,
  0.500000;0.500000;,
  0.500000;1.000000;,
  0.750000;0.500000;,
  0.750000;1.000000;,
  1.000000;0.500000;,
  1.000000;1.000000;,
  0.125000;0.000000;,
  0.250000;0.000000;,
  0.375000;0.000000;,
  0.500000;0.000000;,
  0.000000;0.000000;,
  0.000000;0.000000;,
  0.000000;0.000000;,
  0.000000;0.000000;,
  0.000000;0.000000;,
  0.125000;0.000000;,
  0.250000;0.250000;,
  0.000000;0.250000;,
  0.375000;0.000000;,
  0.500000;0.250000;,
  0.625000;0.000000;,
  0.750000;0.250000;,
  0.875000;0.000000;,
  1.000000;0.250000;,
  0.250000;0.500000;,
  0.000000;0.500000;,
  0.500000;0.500000;,
  0.750000;0.500000;,
  1.000000;0.500000;,
  0.250000;0.750000;,
  0.000000;0.750000;,
  0.500000;0.750000;,
  0.750000;0.750000;,
  1.000000;0.750000;,
  0.125000;1.000000;,
  0.375000;1.000000;,
  0.625000;1.000000;,
  0.875000;1.000000;,
  0.000000;0.000000;,
  1.000000;0.000000;,
  1.000000;1.000000;,
  0.000000;1.000000;,
  0.000000;0.000000;,
  0.125000;0.000000;,
  0.125000;0.250000;,
  0.000000;0.250000;,
  0.250000;0.000000;,
  0.250000;0.250000;,
  0.375000;0.000000;,
  0.375000;0.250000;,
  0.500000;0.000000;,
  0.500000;0.250000;,
  0.625000;0.000000;,
  0.625000;0.250000;,
  0.750000;0.000000;,
  0.750000;0.250000;,
  0.875000;0.000000;,
  0.875000;0.250000;,
  1.000000;0.000000;,
  1.000000;0.250000;,
  0.125000;0.500000;,
  0.000000;0.500000;,
  0.250000;0.500000;,
  0.375000;0.500000;,
  0.500000;0.500000;,
  0.625000;0.500000;,
  0.750000;0.500000;,
  0.875000;0.500000;,
  1.000000;0.500000;,
  0.125000;0.750000;,
  0.000000;0.750000;,
  0.250000;0.750000;,
  0.375000;0.750000;,
  0.500000;0.750000;,
  0.625000;0.750000;,
  0.750000;0.750000;,
  0.875000;0.750000;,
  1.000000;0.750000;,
  0.125000;1.000000;,
  0.000000;1.000000;,
  0.250000;1.000000;,
  0.375000;1.000000;,
  0.500000;1.000000;,
  0.625000;1.000000;,
  0.750000;1.000000;,
  0.875000;1.000000;,
  1.000000;1.000000;,
  0.062500;0.000000;,
  0.187500;0.000000;,
  0.312500;0.000000;,
  0.437500;0.000000;,
  0.562500;0.000000;,
  0.687500;0.000000;,
  0.812500;0.000000;,
  0.937500;0.000000;,
  0.062500;1.000000;,
  0.187500;1.000000;,
  0.312500;1.000000;,
  0.437500;1.000000;,
  0.562500;1.000000;,
  0.687500;1.000000;,
  0.812500;1.000000;,
  0.937500;1.000000;;
 }
}
