xof 0302txt 0064
template Header {
 <3D82AB43-62DA-11cf-AB39-0020AF71E433>
 WORD major;
 WORD minor;
 DWORD flags;
}

template Vector {
 <3D82AB5E-62DA-11cf-AB39-0020AF71E433>
 FLOAT x;
 FLOAT y;
 FLOAT z;
}

template Coords2d {
 <F6F23F44-7686-11cf-8F52-0040333594A3>
 FLOAT u;
 FLOAT v;
}

template Matrix4x4 {
 <F6F23F45-7686-11cf-8F52-0040333594A3>
 array FLOAT matrix[16];
}

template ColorRGBA {
 <35FF44E0-6C7C-11cf-8F52-0040333594A3>
 FLOAT red;
 FLOAT green;
 FLOAT blue;
 FLOAT alpha;
}

template ColorRGB {
 <D3E16E81-7835-11cf-8F52-0040333594A3>
 FLOAT red;
 FLOAT green;
 FLOAT blue;
}

template IndexedColor {
 <1630B820-7842-11cf-8F52-0040333594A3>
 DWORD index;
 ColorRGBA indexColor;
}

template Boolean {
 <4885AE61-78E8-11cf-8F52-0040333594A3>
 WORD truefalse;
}

template Boolean2d {
 <4885AE63-78E8-11cf-8F52-0040333594A3>
 Boolean u;
 Boolean v;
}

template MaterialWrap {
 <4885AE60-78E8-11cf-8F52-0040333594A3>
 Boolean u;
 Boolean v;
}

template TextureFilename {
 <A42790E1-7810-11cf-8F52-0040333594A3>
 STRING filename;
}

template Material {
 <3D82AB4D-62DA-11cf-AB39-0020AF71E433>
 ColorRGBA faceColor;
 FLOAT power;
 ColorRGB specularColor;
 ColorRGB emissiveColor;
 [...]
}

template MeshFace {
 <3D82AB5F-62DA-11cf-AB39-0020AF71E433>
 DWORD nFaceVertexIndices;
 array DWORD faceVertexIndices[nFaceVertexIndices];
}

template MeshFaceWraps {
 <4885AE62-78E8-11cf-8F52-0040333594A3>
 DWORD nFaceWrapValues;
 Boolean2d faceWrapValues;
}

template MeshTextureCoords {
 <F6F23F40-7686-11cf-8F52-0040333594A3>
 DWORD nTextureCoords;
 array Coords2d textureCoords[nTextureCoords];
}

template MeshMaterialList {
 <F6F23F42-7686-11cf-8F52-0040333594A3>
 DWORD nMaterials;
 DWORD nFaceIndexes;
 array DWORD faceIndexes[nFaceIndexes];
 [Material]
}

template MeshNormals {
 <F6F23F43-7686-11cf-8F52-0040333594A3>
 DWORD nNormals;
 array Vector normals[nNormals];
 DWORD nFaceNormals;
 array MeshFace faceNormals[nFaceNormals];
}

template MeshVertexColors {
 <1630B821-7842-11cf-8F52-0040333594A3>
 DWORD nVertexColors;
 array IndexedColor vertexColors[nVertexColors];
}

template Mesh {
 <3D82AB44-62DA-11cf-AB39-0020AF71E433>
 DWORD nVertices;
 array Vector vertices[nVertices];
 DWORD nFaces;
 array MeshFace faces[nFaces];
 [...]
}

Header{
1;
0;
1;
}

Mesh {
 272;
 -17.48231;25.99395;-0.96709;,
 17.48231;25.99395;-0.96709;,
 17.48231;-17.76848;-0.96709;,
 -17.48231;-17.76848;-0.96709;,
 17.48231;25.99395;-0.96709;,
 17.48231;25.99395;0.04618;,
 17.48231;-17.76848;0.04618;,
 17.48231;-17.76848;-0.96709;,
 17.48231;25.99395;0.04618;,
 -17.48231;25.99395;0.04618;,
 -17.48231;-17.76848;0.04618;,
 17.48231;-17.76848;0.04618;,
 -17.48231;25.99395;0.04618;,
 -17.48231;25.99395;-0.96709;,
 -17.48231;-17.76848;-0.96709;,
 -17.48231;-17.76848;0.04618;,
 17.48231;25.99395;-0.96709;,
 -17.48231;25.99395;-0.96709;,
 -17.48231;-17.76848;-0.96709;,
 17.48231;-17.76848;-0.96709;,
 -17.48231;19.56229;-0.99872;,
 17.48231;19.56229;-0.99872;,
 17.48231;-15.40234;-0.99872;,
 -17.48231;-15.40234;-0.99872;,
 -10.18653;18.62797;-0.70438;,
 -6.49901;18.62797;-0.70438;,
 -6.49901;18.62797;-1.33527;,
 -10.18653;18.62797;-1.33527;,
 -14.63863;-14.80184;-1.33527;,
 -10.78178;-14.80184;-1.33527;,
 -10.78178;-14.80184;-0.70438;,
 -14.63863;-14.80184;-0.70438;,
 -12.32978;4.85454;-1.33527;,
 -16.62731;3.50916;-1.33527;,
 -10.18653;18.62797;-1.33527;,
 -6.49901;18.62797;-1.33527;,
 -12.32978;4.03140;-0.70438;,
 -12.32978;4.85454;-1.33527;,
 -6.49901;18.62797;-1.33527;,
 -16.62731;3.32041;-0.70438;,
 -12.32978;4.03140;-0.70438;,
 -6.49901;18.62797;-0.70438;,
 -10.18653;18.62797;-0.70438;,
 -16.62731;3.50916;-1.33527;,
 -16.62731;3.32041;-0.70438;,
 -10.18653;18.62797;-1.33527;,
 -6.02218;2.86867;-1.33527;,
 -10.78178;-14.80184;-1.33527;,
 -14.63863;-14.80184;-1.33527;,
 -9.72758;1.16680;-1.33527;,
 -6.02218;1.92691;-0.70438;,
 -10.78178;-14.80184;-1.33527;,
 -6.02218;2.86867;-1.33527;,
 -9.72758;1.52282;-0.70438;,
 -14.63863;-14.80184;-0.70438;,
 -10.78178;-14.80184;-0.70438;,
 -6.02218;1.92691;-0.70438;,
 -9.72758;1.16680;-1.33527;,
 -14.63863;-14.80184;-1.33527;,
 -9.72758;1.52282;-0.70438;,
 0.14383;18.62797;-0.70438;,
 3.83135;18.62797;-0.70438;,
 3.83135;18.62797;-1.33527;,
 0.14383;18.62797;-1.33527;,
 -4.30828;-14.80184;-1.33527;,
 -0.45144;-14.80184;-1.33527;,
 -0.45144;-14.80184;-0.70438;,
 -4.30828;-14.80184;-0.70438;,
 -1.99942;4.85454;-1.33527;,
 -6.29696;3.50916;-1.33527;,
 0.14383;18.62797;-1.33527;,
 3.83135;18.62797;-1.33527;,
 -1.99942;4.03140;-0.70438;,
 -1.99942;4.85454;-1.33527;,
 3.83135;18.62797;-1.33527;,
 -6.29696;3.32041;-0.70438;,
 -1.99942;4.03140;-0.70438;,
 3.83135;18.62797;-0.70438;,
 0.14383;18.62797;-0.70438;,
 -6.29696;3.50916;-1.33527;,
 -6.29696;3.32041;-0.70438;,
 0.14383;18.62797;-1.33527;,
 4.30816;2.86867;-1.33527;,
 -0.45144;-14.80184;-1.33527;,
 -4.30828;-14.80184;-1.33527;,
 0.60276;1.16680;-1.33527;,
 4.30816;1.92691;-0.70438;,
 -0.45144;-14.80184;-1.33527;,
 4.30816;2.86867;-1.33527;,
 0.60276;1.52282;-0.70438;,
 -4.30828;-14.80184;-0.70438;,
 -0.45144;-14.80184;-0.70438;,
 4.30816;1.92691;-0.70438;,
 0.60276;1.16680;-1.33527;,
 -4.30828;-14.80184;-1.33527;,
 0.60276;1.52282;-0.70438;,
 11.77302;18.62797;-0.70438;,
 15.46057;18.62797;-0.70438;,
 15.46057;18.62797;-1.33527;,
 11.77302;18.62797;-1.33527;,
 7.32094;-14.80184;-1.33527;,
 11.17777;-14.80184;-1.33527;,
 11.17777;-14.80184;-0.70438;,
 7.32094;-14.80184;-0.70438;,
 9.62978;4.85454;-1.33527;,
 5.33225;3.50916;-1.33527;,
 11.77302;18.62797;-1.33527;,
 15.46057;18.62797;-1.33527;,
 9.62978;4.03140;-0.70438;,
 9.62978;4.85454;-1.33527;,
 15.46057;18.62797;-1.33527;,
 5.33225;3.32041;-0.70438;,
 9.62978;4.03140;-0.70438;,
 15.46057;18.62797;-0.70438;,
 11.77302;18.62797;-0.70438;,
 5.33225;3.50916;-1.33527;,
 5.33225;3.32041;-0.70438;,
 11.77302;18.62797;-1.33527;,
 15.93738;2.86867;-1.33527;,
 11.17777;-14.80184;-1.33527;,
 7.32094;-14.80184;-1.33527;,
 12.23197;1.16680;-1.33527;,
 15.93738;1.92691;-0.70438;,
 11.17777;-14.80184;-1.33527;,
 15.93738;2.86867;-1.33527;,
 12.23197;1.52282;-0.70438;,
 7.32094;-14.80184;-0.70438;,
 11.17777;-14.80184;-0.70438;,
 15.93738;1.92691;-0.70438;,
 12.23197;1.16680;-1.33527;,
 7.32094;-14.80184;-1.33527;,
 12.23197;1.52282;-0.70438;,
 17.48164;19.56229;0.37512;,
 -17.48164;19.56229;0.07000;,
 -17.48164;-15.40234;0.07000;,
 17.48164;-15.40234;0.37512;,
 12.65991;10.00716;1.06065;,
 13.83400;9.52084;1.06065;,
 12.65991;9.52084;0.82620;,
 12.65991;10.00716;1.06065;,
 12.65991;9.52084;1.29510;,
 12.65991;10.00716;1.06065;,
 11.48581;9.52084;1.06065;,
 12.65991;10.00716;1.06065;,
 12.65991;9.52084;0.82620;,
 14.32032;8.34675;1.06065;,
 12.65991;8.34675;0.72908;,
 12.65991;8.34675;1.39222;,
 10.99949;8.34675;1.06065;,
 12.65991;8.34675;0.72908;,
 13.83400;7.17265;1.06065;,
 12.65991;7.17265;0.82620;,
 12.65991;7.17265;1.29510;,
 11.48581;7.17265;1.06065;,
 12.65991;7.17265;0.82620;,
 12.65991;6.68633;1.06065;,
 12.65991;6.68633;1.06065;,
 12.65991;6.68633;1.06065;,
 12.65991;6.68633;1.06065;,
 -12.43921;10.86283;0.93573;,
 -11.26512;10.37651;0.93573;,
 -12.43921;10.37651;0.70127;,
 -12.43921;10.86283;0.93573;,
 -12.43921;10.37651;1.17019;,
 -12.43921;10.86283;0.93573;,
 -13.61331;10.37651;0.93573;,
 -12.43921;10.86283;0.93573;,
 -12.43921;10.37651;0.70127;,
 -10.77880;9.20241;0.93573;,
 -12.43921;9.20241;0.60415;,
 -12.43921;9.20241;1.26731;,
 -14.09962;9.20241;0.93573;,
 -12.43921;9.20241;0.60415;,
 -11.26512;8.02832;0.93573;,
 -12.43921;8.02832;0.70127;,
 -12.43921;8.02832;1.17019;,
 -13.61331;8.02832;0.93573;,
 -12.43921;8.02832;0.70127;,
 -12.43921;7.54199;0.93573;,
 -12.43921;7.54199;0.93573;,
 -12.43921;7.54199;0.93573;,
 -12.43921;7.54199;0.93573;,
 0.00000;-8.82461;-0.04027;,
 0.00000;-3.94775;0.18006;,
 15.22794;-3.94775;0.84107;,
 15.98119;-8.82461;0.84107;,
 0.00000;-3.94775;1.50209;,
 0.00000;-8.82461;1.72241;,
 -15.22794;-3.94775;0.84107;,
 -15.98119;-8.82461;0.84107;,
 0.00000;-3.94775;0.18006;,
 0.00000;-8.82461;-0.04027;,
 0.00000;-2.52383;0.40041;,
 3.09762;-2.52383;0.84107;,
 0.00000;-2.52383;1.28173;,
 -3.09762;-2.52383;0.84107;,
 0.00000;-2.52383;0.40041;,
 0.00000;0.77666;0.62069;,
 1.71127;0.77666;0.84107;,
 0.00000;0.77666;1.06144;,
 -1.71127;0.77666;0.84107;,
 0.00000;0.77666;0.62069;,
 0.00000;10.68279;0.84107;,
 0.00000;10.68279;0.84107;,
 0.00000;10.68279;0.84107;,
 0.00000;10.68279;0.84107;,
 0.00000;-8.82461;0.84107;,
 0.00000;-8.82461;-0.04027;,
 15.98119;-8.82461;0.84107;,
 0.00000;-8.82461;1.72241;,
 -15.98119;-8.82461;0.84107;,
 12.56604;-3.83148;0.32230;,
 12.56604;4.69334;0.61796;,
 13.77285;4.69334;0.91364;,
 14.97967;-3.83148;0.91364;,
 12.56604;4.69334;1.20931;,
 12.56604;-3.83148;1.50498;,
 11.35922;4.69334;0.91364;,
 10.15240;-3.83148;0.91364;,
 12.56604;4.69334;0.61796;,
 12.56604;-3.83148;0.32230;,
 12.56604;8.04466;0.91364;,
 12.56604;8.04466;0.91364;,
 12.56604;8.04466;0.91364;,
 12.56604;8.04466;0.91364;,
 12.56604;-3.83148;0.91364;,
 12.56604;-3.83148;0.32230;,
 14.97967;-3.83148;0.91364;,
 12.56604;-3.83148;1.50498;,
 10.15240;-3.83148;0.91364;,
 -12.59596;-3.83148;0.32230;,
 -12.59596;4.69334;0.61796;,
 -11.38916;4.69334;0.91364;,
 -10.18233;-3.83148;0.91364;,
 -12.59596;4.69334;1.20931;,
 -12.59596;-3.83148;1.50498;,
 -13.80278;4.69334;0.91364;,
 -15.00961;-3.83148;0.91364;,
 -12.59596;4.69334;0.61796;,
 -12.59596;-3.83148;0.32230;,
 -12.59596;9.16567;0.91364;,
 -12.59596;9.16567;0.91364;,
 -12.59596;9.16567;0.91364;,
 -12.59596;9.16567;0.91364;,
 -12.59596;-3.83148;0.91364;,
 -12.59596;-3.83148;0.32230;,
 -10.18233;-3.83148;0.91364;,
 -12.59596;-3.83148;1.50498;,
 -15.00961;-3.83148;0.91364;,
 0.00000;11.34392;0.67522;,
 1.17409;10.85759;0.67522;,
 0.00000;10.85759;0.44077;,
 0.00000;11.34392;0.67522;,
 0.00000;10.85759;0.90968;,
 0.00000;11.34392;0.67522;,
 -1.17409;10.85759;0.67522;,
 0.00000;11.34392;0.67522;,
 0.00000;10.85759;0.44077;,
 1.66042;9.68349;0.67522;,
 0.00000;9.68349;0.34365;,
 0.00000;9.68349;1.00679;,
 -1.66042;9.68349;0.67522;,
 0.00000;9.68349;0.34365;,
 1.17409;8.50940;0.67522;,
 0.00000;8.50940;0.44077;,
 0.00000;8.50940;0.90968;,
 -1.17409;8.50940;0.67522;,
 0.00000;8.50940;0.44077;,
 0.00000;8.02308;0.67522;,
 0.00000;8.02308;0.67522;,
 0.00000;8.02308;0.67522;,
 0.00000;8.02308;0.67522;;
 
 142;
 4;0,1,2,3;,
 4;4,5,6,7;,
 4;8,9,10,11;,
 4;12,13,14,15;,
 4;12,5,16,17;,
 4;18,19,6,15;,
 4;20,21,22,23;,
 4;24,25,26,27;,
 4;28,29,30,31;,
 4;32,33,34,35;,
 4;36,37,38,25;,
 4;39,40,41,42;,
 4;43,44,24,45;,
 4;46,47,48,49;,
 4;46,49,33,32;,
 4;50,30,51,52;,
 4;50,52,37,36;,
 4;53,54,55,56;,
 4;53,56,40,39;,
 4;57,58,31,59;,
 4;57,59,44,43;,
 4;60,61,62,63;,
 4;64,65,66,67;,
 4;68,69,70,71;,
 4;72,73,74,61;,
 4;75,76,77,78;,
 4;79,80,60,81;,
 4;82,83,84,85;,
 4;82,85,69,68;,
 4;86,66,87,88;,
 4;86,88,73,72;,
 4;89,90,91,92;,
 4;89,92,76,75;,
 4;93,94,67,95;,
 4;93,95,80,79;,
 4;96,97,98,99;,
 4;100,101,102,103;,
 4;104,105,106,107;,
 4;108,109,110,97;,
 4;111,112,113,114;,
 4;115,116,96,117;,
 4;118,119,120,121;,
 4;118,121,105,104;,
 4;122,102,123,124;,
 4;122,124,109,108;,
 4;125,126,127,128;,
 4;125,128,112,111;,
 4;129,130,103,131;,
 4;129,131,116,115;,
 4;132,133,134,135;,
 3;136,137,138;,
 3;139,140,137;,
 3;141,142,140;,
 3;143,144,142;,
 4;138,137,145,146;,
 4;137,140,147,145;,
 4;140,142,148,147;,
 4;142,144,149,148;,
 4;146,145,150,151;,
 4;145,147,152,150;,
 4;147,148,153,152;,
 4;148,149,154,153;,
 3;151,150,155;,
 3;150,152,156;,
 3;152,153,157;,
 3;153,154,158;,
 3;159,160,161;,
 3;162,163,160;,
 3;164,165,163;,
 3;166,167,165;,
 4;161,160,168,169;,
 4;160,163,170,168;,
 4;163,165,171,170;,
 4;165,167,172,171;,
 4;169,168,173,174;,
 4;168,170,175,173;,
 4;170,171,176,175;,
 4;171,172,177,176;,
 3;174,173,178;,
 3;173,175,179;,
 3;175,176,180;,
 3;176,177,181;,
 4;182,183,184,185;,
 4;185,184,186,187;,
 4;187,186,188,189;,
 4;189,188,190,191;,
 4;183,192,193,184;,
 4;184,193,194,186;,
 4;186,194,195,188;,
 4;188,195,196,190;,
 4;192,197,198,193;,
 4;193,198,199,194;,
 4;194,199,200,195;,
 4;195,200,201,196;,
 3;197,202,198;,
 3;198,203,199;,
 3;199,204,200;,
 3;200,205,201;,
 3;206,207,208;,
 3;206,208,209;,
 3;206,209,210;,
 3;206,210,207;,
 4;211,212,213,214;,
 4;214,213,215,216;,
 4;216,215,217,218;,
 4;218,217,219,220;,
 3;212,221,213;,
 3;213,222,215;,
 3;215,223,217;,
 3;217,224,219;,
 3;225,226,227;,
 3;225,227,228;,
 3;225,228,229;,
 3;225,229,226;,
 4;230,231,232,233;,
 4;233,232,234,235;,
 4;235,234,236,237;,
 4;237,236,238,239;,
 3;231,240,232;,
 3;232,241,234;,
 3;234,242,236;,
 3;236,243,238;,
 3;244,245,246;,
 3;244,246,247;,
 3;244,247,248;,
 3;244,248,245;,
 3;249,250,251;,
 3;252,253,250;,
 3;254,255,253;,
 3;256,257,255;,
 4;251,250,258,259;,
 4;250,253,260,258;,
 4;253,255,261,260;,
 4;255,257,262,261;,
 4;259,258,263,264;,
 4;258,260,265,263;,
 4;260,261,266,265;,
 4;261,262,267,266;,
 3;264,263,268;,
 3;263,265,269;,
 3;265,266,270;,
 3;266,267,271;;
 
 MeshMaterialList {
  6;
  142;
  2,
  2,
  2,
  2,
  2,
  2,
  3,
  5,
  5,
  5,
  5,
  5,
  5,
  5,
  5,
  5,
  5,
  5,
  5,
  5,
  5,
  5,
  5,
  5,
  5,
  5,
  5,
  5,
  5,
  5,
  5,
  5,
  5,
  5,
  5,
  5,
  5,
  5,
  5,
  5,
  5,
  5,
  5,
  5,
  5,
  5,
  5,
  5,
  5,
  3,
  5,
  5,
  5,
  5,
  5,
  5,
  5,
  5,
  5,
  5,
  5,
  5,
  5,
  5,
  5,
  5,
  5,
  5,
  5,
  5,
  5,
  5,
  5,
  5,
  5,
  5,
  5,
  5,
  5,
  5,
  5,
  5,
  5,
  5,
  5,
  5,
  5,
  5,
  5,
  5,
  5,
  5,
  5,
  5,
  5,
  5,
  5,
  5,
  5,
  5,
  5,
  5,
  5,
  5,
  5,
  5,
  5,
  5,
  5,
  5,
  5,
  5,
  5,
  5,
  5,
  5,
  5,
  5,
  5,
  5,
  5,
  5,
  5,
  5,
  5,
  5,
  5,
  5,
  5,
  5,
  5,
  5,
  5,
  5,
  5,
  5,
  5,
  5,
  5,
  5,
  5,
  5;;
  Material {
   0.674400;0.652800;0.661600;1.000000;;
   5.000000;
   0.000000;0.000000;0.000000;;
   0.000000;0.000000;0.000000;;
  }
  Material {
   0.800000;0.000000;0.031200;1.000000;;
   5.000000;
   0.000000;0.000000;0.000000;;
   0.000000;0.000000;0.000000;;
  }
  Material {
   0.800000;0.473600;0.116000;1.000000;;
   5.000000;
   0.000000;0.000000;0.000000;;
   0.000000;0.000000;0.000000;;
  }
  Material {
   0.800000;0.800000;0.800000;1.000000;;
   5.000000;
   0.000000;0.000000;0.000000;;
   0.000000;0.000000;0.000000;;
  }
  Material {
   0.800000;0.652800;0.486400;1.000000;;
   5.000000;
   0.000000;0.000000;0.000000;;
   0.000000;0.000000;0.000000;;
  }
  Material {
   0.768800;0.800000;0.000000;1.000000;;
   5.000000;
   0.000000;0.000000;0.000000;;
   0.000000;0.000000;0.000000;;
  }
 }
 MeshNormals {
  162;
  0.000000;0.000000;-1.000000;,
  1.000000;0.000000;0.000000;,
  0.000000;0.000000;1.000000;,
  -1.000000;0.000000;0.000000;,
  0.000000;1.000000;0.000000;,
  0.000000;-1.000000;-0.000000;,
  0.000000;0.000000;-1.000000;,
  0.000000;1.000000;0.000000;,
  0.000000;-1.000000;-0.000000;,
  0.000000;0.000000;-1.000000;,
  0.901222;-0.371282;-0.223493;,
  0.000000;0.000000;1.000000;,
  0.947191;-0.262548;-0.184114;,
  0.064777;0.200034;0.977645;,
  -0.919328;0.389235;0.057726;,
  0.185428;0.572613;0.798581;,
  -0.953607;0.290095;-0.080493;,
  -0.283940;-0.953147;0.104348;,
  0.000000;1.000000;0.000000;,
  0.000000;-1.000000;-0.000000;,
  0.000000;0.000000;-1.000000;,
  0.901222;-0.371281;-0.223492;,
  0.000000;0.000000;1.000000;,
  0.947191;-0.262548;-0.184114;,
  0.064777;0.200034;0.977645;,
  -0.919328;0.389235;0.057726;,
  0.185429;0.572613;0.798581;,
  -0.953607;0.290095;-0.080493;,
  -0.283940;-0.953147;0.104348;,
  0.000000;1.000000;0.000000;,
  0.000000;-1.000000;-0.000000;,
  0.000000;0.000000;-1.000000;,
  0.901221;-0.371283;-0.223493;,
  0.000000;0.000000;1.000000;,
  0.947191;-0.262548;-0.184114;,
  0.064777;0.200034;0.977645;,
  -0.919328;0.389234;0.057726;,
  0.185428;0.572613;0.798581;,
  -0.953607;0.290094;-0.080492;,
  -0.283940;-0.953147;0.104348;,
  -0.008726;0.000000;0.999962;,
  0.000000;0.434260;-0.900787;,
  0.000000;0.263064;-0.964779;,
  0.189175;0.258314;-0.947358;,
  0.000000;0.263072;0.964776;,
  -0.189181;0.258322;0.947354;,
  0.000000;0.000000;-1.000000;,
  0.195821;0.000000;-0.980640;,
  0.000000;0.000000;1.000000;,
  -0.195828;0.000001;0.980638;,
  0.000000;-0.263063;-0.964779;,
  0.189175;-0.258313;-0.947358;,
  0.000000;-0.263071;0.964776;,
  -0.189181;-0.258321;0.947355;,
  0.000000;-0.434260;-0.900788;,
  0.000000;0.434269;-0.900783;,
  -0.000000;0.263069;-0.964777;,
  0.189181;0.258319;-0.947355;,
  -0.000000;0.263069;0.964777;,
  -0.189181;0.258318;0.947355;,
  -0.000000;-0.000000;-1.000000;,
  0.195828;-0.000000;-0.980638;,
  -0.000000;-0.000000;1.000000;,
  -0.195828;-0.000000;0.980638;,
  -0.000000;-0.263066;-0.964778;,
  0.189181;-0.258316;-0.947356;,
  -0.000000;-0.263067;0.964778;,
  -0.189181;-0.258316;0.947356;,
  0.000000;-0.434264;-0.900785;,
  0.000000;0.026836;-0.999640;,
  0.049202;0.026803;-0.998429;,
  0.000000;0.026835;0.999640;,
  -0.049202;0.026802;0.998429;,
  0.000000;0.139948;-0.990159;,
  0.070323;0.139602;-0.987707;,
  0.000000;0.139950;0.990158;,
  -0.070323;0.139604;0.987707;,
  0.000000;0.158308;-0.987390;,
  0.112802;0.157297;-0.981088;,
  0.000000;0.158310;0.987389;,
  -0.112802;0.157300;0.981087;,
  0.000000;0.042683;-0.999089;,
  0.130886;0.042316;-0.990494;,
  0.000000;0.042684;0.999089;,
  -0.130886;0.042316;0.990494;,
  0.000000;0.022241;-0.999753;,
  0.000000;-1.000000;-0.000000;,
  0.000001;0.034662;-0.999399;,
  0.237829;0.033668;-0.970723;,
  0.000001;0.034663;0.999399;,
  -0.237829;0.033668;0.970723;,
  0.000001;0.061298;-0.998119;,
  0.237542;0.059543;-0.969551;,
  0.000001;0.061298;0.998119;,
  -0.237542;0.059544;0.969551;,
  0.000001;0.087885;-0.996131;,
  0.000001;0.034663;-0.999399;,
  0.237829;0.033668;-0.970723;,
  0.000001;0.034663;0.999399;,
  -0.237829;0.033669;0.970723;,
  0.000001;0.050322;-0.998733;,
  0.237681;0.048880;-0.970113;,
  0.000001;0.050322;0.998733;,
  -0.237680;0.048880;0.970113;,
  0.000001;0.065968;-0.997822;,
  0.000000;0.434251;-0.900792;,
  0.000000;0.263059;-0.964780;,
  0.189175;0.258309;-0.947359;,
  0.000000;0.263067;0.964778;,
  -0.189181;0.258317;0.947356;,
  0.000000;-0.000000;-1.000000;,
  0.195821;-0.000000;-0.980640;,
  0.000000;-0.000000;1.000000;,
  -0.195828;-0.000000;0.980638;,
  0.000000;-0.263062;-0.964779;,
  0.189175;-0.258312;-0.947358;,
  0.000000;-0.263070;0.964777;,
  -0.189181;-0.258320;0.947355;,
  0.000000;-0.434256;-0.900789;,
  0.000000;0.434275;0.900781;,
  0.189181;0.258322;0.947354;,
  -0.189174;0.258313;-0.947358;,
  0.195828;0.000000;0.980638;,
  -0.195821;0.000000;-0.980640;,
  0.189181;-0.258321;0.947355;,
  -0.189174;-0.258313;-0.947358;,
  0.000000;-0.434274;0.900781;,
  0.000000;0.434269;0.900783;,
  0.189181;0.258319;0.947355;,
  -0.189181;0.258318;-0.947355;,
  0.195828;0.000000;0.980638;,
  -0.195828;-0.000000;-0.980638;,
  0.189181;-0.258316;0.947356;,
  -0.189181;-0.258316;-0.947356;,
  0.000000;-0.434264;0.900785;,
  0.049202;0.026802;0.998429;,
  0.070323;0.139604;0.987707;,
  -0.049202;0.026803;-0.998429;,
  -0.070323;0.139602;-0.987707;,
  0.112802;0.157300;0.981087;,
  -0.112802;0.157297;-0.981088;,
  0.130886;0.042316;0.990494;,
  -0.130886;0.042316;-0.990494;,
  0.000000;0.022241;0.999753;,
  0.237830;0.033669;0.970723;,
  0.237543;0.059544;0.969550;,
  -0.237827;0.033668;-0.970724;,
  -0.237541;0.059543;-0.969551;,
  0.000001;0.087885;0.996131;,
  0.237831;0.033669;0.970723;,
  0.237682;0.048880;0.970112;,
  -0.237827;0.033668;-0.970724;,
  -0.237679;0.048880;-0.970113;,
  0.000001;0.065968;0.997822;,
  0.000000;0.434265;0.900785;,
  0.189181;0.258317;0.947356;,
  -0.189175;0.258309;-0.947359;,
  0.195828;-0.000000;0.980638;,
  -0.195821;-0.000000;-0.980640;,
  0.189181;-0.258320;0.947355;,
  -0.189175;-0.258312;-0.947358;,
  0.000000;-0.434270;0.900783;;
  142;
  4;0,0,0,0;,
  4;1,1,1,1;,
  4;2,2,2,2;,
  4;3,3,3,3;,
  4;4,4,4,4;,
  4;5,5,5,5;,
  4;6,6,6,6;,
  4;7,7,7,7;,
  4;8,8,8,8;,
  4;9,9,9,9;,
  4;10,10,10,10;,
  4;11,13,11,11;,
  4;14,14,14,14;,
  4;9,9,9,9;,
  4;9,9,9,9;,
  4;12,12,12,12;,
  4;13,15,15,13;,
  4;11,11,11,13;,
  4;11,13,13,11;,
  4;16,16,16,16;,
  4;17,17,17,17;,
  4;18,18,18,18;,
  4;19,19,19,19;,
  4;20,20,20,20;,
  4;21,21,21,21;,
  4;22,24,22,22;,
  4;25,25,25,25;,
  4;20,20,20,20;,
  4;20,20,20,20;,
  4;23,23,23,23;,
  4;24,26,26,24;,
  4;22,22,22,24;,
  4;22,24,24,22;,
  4;27,27,27,27;,
  4;28,28,28,28;,
  4;29,29,29,29;,
  4;30,30,30,30;,
  4;31,31,31,31;,
  4;32,32,32,32;,
  4;33,35,33,33;,
  4;36,36,36,36;,
  4;31,31,31,31;,
  4;31,31,31,31;,
  4;34,34,34,34;,
  4;35,37,37,35;,
  4;33,33,33,35;,
  4;33,35,35,33;,
  4;38,38,38,38;,
  4;39,39,39,39;,
  4;40,40,40,40;,
  3;41,43,42;,
  3;119,44,120;,
  3;119,45,44;,
  3;41,42,121;,
  4;42,43,47,46;,
  4;120,44,48,122;,
  4;44,45,49,48;,
  4;121,42,46,123;,
  4;46,47,51,50;,
  4;122,48,52,124;,
  4;48,49,53,52;,
  4;123,46,50,125;,
  3;50,51,54;,
  3;124,52,126;,
  3;52,53,126;,
  3;125,50,54;,
  3;55,57,56;,
  3;127,58,128;,
  3;127,59,58;,
  3;55,56,129;,
  4;56,57,61,60;,
  4;128,58,62,130;,
  4;58,59,63,62;,
  4;129,56,60,131;,
  4;60,61,65,64;,
  4;130,62,66,132;,
  4;62,63,67,66;,
  4;131,60,64,133;,
  3;64,65,68;,
  3;132,66,134;,
  3;66,67,134;,
  3;133,64,68;,
  4;69,73,74,70;,
  4;135,136,75,71;,
  4;71,75,76,72;,
  4;137,138,73,69;,
  4;73,77,78,74;,
  4;136,139,79,75;,
  4;75,79,80,76;,
  4;138,140,77,73;,
  4;77,81,82,78;,
  4;139,141,83,79;,
  4;79,83,84,80;,
  4;140,142,81,77;,
  3;81,85,82;,
  3;141,143,83;,
  3;83,143,84;,
  3;142,85,81;,
  3;86,86,86;,
  3;86,86,86;,
  3;86,86,86;,
  3;86,86,86;,
  4;87,91,92,88;,
  4;144,145,93,89;,
  4;89,93,94,90;,
  4;146,147,91,87;,
  3;91,95,92;,
  3;145,148,93;,
  3;93,148,94;,
  3;147,95,91;,
  3;86,86,86;,
  3;86,86,86;,
  3;86,86,86;,
  3;86,86,86;,
  4;96,100,101,97;,
  4;149,150,102,98;,
  4;98,102,103,99;,
  4;151,152,100,96;,
  3;100,104,101;,
  3;150,153,102;,
  3;102,153,103;,
  3;152,104,100;,
  3;86,86,86;,
  3;86,86,86;,
  3;86,86,86;,
  3;86,86,86;,
  3;105,107,106;,
  3;154,108,155;,
  3;154,109,108;,
  3;105,106,156;,
  4;106,107,111,110;,
  4;155,108,112,157;,
  4;108,109,113,112;,
  4;156,106,110,158;,
  4;110,111,115,114;,
  4;157,112,116,159;,
  4;112,113,117,116;,
  4;158,110,114,160;,
  3;114,115,118;,
  3;159,116,161;,
  3;116,117,161;,
  3;160,114,118;;
 }
 MeshTextureCoords {
  272;
  0.000000;0.000000;,
  1.000000;0.000000;,
  1.000000;1.000000;,
  0.000000;1.000000;,
  0.000000;0.000000;,
  1.000000;0.000000;,
  1.000000;1.000000;,
  0.000000;1.000000;,
  0.000000;0.000000;,
  1.000000;0.000000;,
  1.000000;1.000000;,
  0.000000;1.000000;,
  0.000000;0.000000;,
  1.000000;0.000000;,
  1.000000;1.000000;,
  0.000000;1.000000;,
  1.000000;1.000000;,
  0.000000;1.000000;,
  0.000000;0.000000;,
  1.000000;0.000000;,
  0.000000;0.000000;,
  1.000000;0.000000;,
  1.000000;1.000000;,
  0.000000;1.000000;,
  0.000000;0.000000;,
  1.000000;0.000000;,
  1.000000;1.000000;,
  0.000000;1.000000;,
  0.000000;0.000000;,
  1.000000;0.000000;,
  1.000000;1.000000;,
  0.000000;1.000000;,
  1.000000;0.482790;,
  0.000000;0.447620;,
  0.000000;0.000000;,
  1.000000;0.000000;,
  1.000000;0.488440;,
  0.000000;0.482790;,
  0.000000;0.000000;,
  1.000000;0.453270;,
  0.000000;0.488440;,
  0.000000;0.000000;,
  1.000000;0.000000;,
  1.000000;0.447620;,
  0.000000;0.453270;,
  1.000000;0.000000;,
  1.000000;0.839960;,
  1.000000;1.000000;,
  0.000000;1.000000;,
  0.000000;0.768250;,
  1.000000;0.829310;,
  0.000000;1.000000;,
  0.000000;0.839960;,
  1.000000;0.757600;,
  1.000000;1.000000;,
  0.000000;1.000000;,
  0.000000;0.829310;,
  1.000000;0.768250;,
  1.000000;1.000000;,
  0.000000;0.757600;,
  0.000000;0.000000;,
  1.000000;0.000000;,
  1.000000;1.000000;,
  0.000000;1.000000;,
  0.000000;0.000000;,
  1.000000;0.000000;,
  1.000000;1.000000;,
  0.000000;1.000000;,
  1.000000;0.482790;,
  0.000000;0.447620;,
  0.000000;0.000000;,
  1.000000;0.000000;,
  1.000000;0.488440;,
  0.000000;0.482790;,
  0.000000;0.000000;,
  1.000000;0.453270;,
  0.000000;0.488440;,
  0.000000;0.000000;,
  1.000000;0.000000;,
  1.000000;0.447620;,
  0.000000;0.453270;,
  1.000000;0.000000;,
  1.000000;0.839960;,
  1.000000;1.000000;,
  0.000000;1.000000;,
  0.000000;0.768250;,
  1.000000;0.829310;,
  0.000000;1.000000;,
  0.000000;0.839960;,
  1.000000;0.757600;,
  1.000000;1.000000;,
  0.000000;1.000000;,
  0.000000;0.829310;,
  1.000000;0.768250;,
  1.000000;1.000000;,
  0.000000;0.757600;,
  0.000000;0.000000;,
  1.000000;0.000000;,
  1.000000;1.000000;,
  0.000000;1.000000;,
  0.000000;0.000000;,
  1.000000;0.000000;,
  1.000000;1.000000;,
  0.000000;1.000000;,
  1.000000;0.482790;,
  0.000000;0.447620;,
  0.000000;0.000000;,
  1.000000;0.000000;,
  1.000000;0.488440;,
  0.000000;0.482790;,
  0.000000;0.000000;,
  1.000000;0.453270;,
  0.000000;0.488440;,
  0.000000;0.000000;,
  1.000000;0.000000;,
  1.000000;0.447620;,
  0.000000;0.453270;,
  1.000000;0.000000;,
  1.000000;0.839960;,
  1.000000;1.000000;,
  0.000000;1.000000;,
  0.000000;0.768250;,
  1.000000;0.829310;,
  0.000000;1.000000;,
  0.000000;0.839960;,
  1.000000;0.757600;,
  1.000000;1.000000;,
  0.000000;1.000000;,
  0.000000;0.829310;,
  1.000000;0.768250;,
  1.000000;1.000000;,
  0.000000;0.757600;,
  0.000000;0.000000;,
  1.000000;0.000000;,
  1.000000;1.000000;,
  0.000000;1.000000;,
  0.125000;0.000000;,
  0.250000;0.250000;,
  0.000000;0.250000;,
  0.375000;0.000000;,
  0.500000;0.250000;,
  0.625000;0.000000;,
  0.750000;0.250000;,
  0.875000;0.000000;,
  1.000000;0.250000;,
  0.250000;0.500000;,
  0.000000;0.500000;,
  0.500000;0.500000;,
  0.750000;0.500000;,
  1.000000;0.500000;,
  0.250000;0.750000;,
  0.000000;0.750000;,
  0.500000;0.750000;,
  0.750000;0.750000;,
  1.000000;0.750000;,
  0.125000;1.000000;,
  0.375000;1.000000;,
  0.625000;1.000000;,
  0.875000;1.000000;,
  0.125000;0.000000;,
  0.250000;0.250000;,
  0.000000;0.250000;,
  0.375000;0.000000;,
  0.500000;0.250000;,
  0.625000;0.000000;,
  0.750000;0.250000;,
  0.875000;0.000000;,
  1.000000;0.250000;,
  0.250000;0.500000;,
  0.000000;0.500000;,
  0.500000;0.500000;,
  0.750000;0.500000;,
  1.000000;0.500000;,
  0.250000;0.750000;,
  0.000000;0.750000;,
  0.500000;0.750000;,
  0.750000;0.750000;,
  1.000000;0.750000;,
  0.125000;1.000000;,
  0.375000;1.000000;,
  0.625000;1.000000;,
  0.875000;1.000000;,
  0.000000;1.000000;,
  0.000000;0.750000;,
  0.250000;0.750000;,
  0.250000;1.000000;,
  0.500000;0.750000;,
  0.500000;1.000000;,
  0.750000;0.750000;,
  0.750000;1.000000;,
  1.000000;0.750000;,
  1.000000;1.000000;,
  0.000000;0.500000;,
  0.250000;0.500000;,
  0.500000;0.500000;,
  0.750000;0.500000;,
  1.000000;0.500000;,
  0.000000;0.250000;,
  0.250000;0.250000;,
  0.500000;0.250000;,
  0.750000;0.250000;,
  1.000000;0.250000;,
  0.125000;0.000000;,
  0.250000;0.000000;,
  0.375000;0.000000;,
  0.500000;0.000000;,
  0.000000;0.000000;,
  0.000000;0.000000;,
  0.000000;0.000000;,
  0.000000;0.000000;,
  0.000000;0.000000;,
  0.000000;1.000000;,
  0.000000;0.500000;,
  0.250000;0.500000;,
  0.250000;1.000000;,
  0.500000;0.500000;,
  0.500000;1.000000;,
  0.750000;0.500000;,
  0.750000;1.000000;,
  1.000000;0.500000;,
  1.000000;1.000000;,
  0.125000;0.000000;,
  0.250000;0.000000;,
  0.375000;0.000000;,
  0.500000;0.000000;,
  0.000000;0.000000;,
  0.000000;0.000000;,
  0.000000;0.000000;,
  0.000000;0.000000;,
  0.000000;0.000000;,
  0.000000;1.000000;,
  0.000000;0.500000;,
  0.250000;0.500000;,
  0.250000;1.000000;,
  0.500000;0.500000;,
  0.500000;1.000000;,
  0.750000;0.500000;,
  0.750000;1.000000;,
  1.000000;0.500000;,
  1.000000;1.000000;,
  0.125000;0.000000;,
  0.250000;0.000000;,
  0.375000;0.000000;,
  0.500000;0.000000;,
  0.000000;0.000000;,
  0.000000;0.000000;,
  0.000000;0.000000;,
  0.000000;0.000000;,
  0.000000;0.000000;,
  0.125000;0.000000;,
  0.250000;0.250000;,
  0.000000;0.250000;,
  0.375000;0.000000;,
  0.500000;0.250000;,
  0.625000;0.000000;,
  0.750000;0.250000;,
  0.875000;0.000000;,
  1.000000;0.250000;,
  0.250000;0.500000;,
  0.000000;0.500000;,
  0.500000;0.500000;,
  0.750000;0.500000;,
  1.000000;0.500000;,
  0.250000;0.750000;,
  0.000000;0.750000;,
  0.500000;0.750000;,
  0.750000;0.750000;,
  1.000000;0.750000;,
  0.125000;1.000000;,
  0.375000;1.000000;,
  0.625000;1.000000;,
  0.875000;1.000000;;
 }
}
