xof 0302txt 0064
template Header {
 <3D82AB43-62DA-11cf-AB39-0020AF71E433>
 WORD major;
 WORD minor;
 DWORD flags;
}

template Vector {
 <3D82AB5E-62DA-11cf-AB39-0020AF71E433>
 FLOAT x;
 FLOAT y;
 FLOAT z;
}

template Coords2d {
 <F6F23F44-7686-11cf-8F52-0040333594A3>
 FLOAT u;
 FLOAT v;
}

template Matrix4x4 {
 <F6F23F45-7686-11cf-8F52-0040333594A3>
 array FLOAT matrix[16];
}

template ColorRGBA {
 <35FF44E0-6C7C-11cf-8F52-0040333594A3>
 FLOAT red;
 FLOAT green;
 FLOAT blue;
 FLOAT alpha;
}

template ColorRGB {
 <D3E16E81-7835-11cf-8F52-0040333594A3>
 FLOAT red;
 FLOAT green;
 FLOAT blue;
}

template IndexedColor {
 <1630B820-7842-11cf-8F52-0040333594A3>
 DWORD index;
 ColorRGBA indexColor;
}

template Boolean {
 <4885AE61-78E8-11cf-8F52-0040333594A3>
 WORD truefalse;
}

template Boolean2d {
 <4885AE63-78E8-11cf-8F52-0040333594A3>
 Boolean u;
 Boolean v;
}

template MaterialWrap {
 <4885AE60-78E8-11cf-8F52-0040333594A3>
 Boolean u;
 Boolean v;
}

template TextureFilename {
 <A42790E1-7810-11cf-8F52-0040333594A3>
 STRING filename;
}

template Material {
 <3D82AB4D-62DA-11cf-AB39-0020AF71E433>
 ColorRGBA faceColor;
 FLOAT power;
 ColorRGB specularColor;
 ColorRGB emissiveColor;
 [...]
}

template MeshFace {
 <3D82AB5F-62DA-11cf-AB39-0020AF71E433>
 DWORD nFaceVertexIndices;
 array DWORD faceVertexIndices[nFaceVertexIndices];
}

template MeshFaceWraps {
 <4885AE62-78E8-11cf-8F52-0040333594A3>
 DWORD nFaceWrapValues;
 Boolean2d faceWrapValues;
}

template MeshTextureCoords {
 <F6F23F40-7686-11cf-8F52-0040333594A3>
 DWORD nTextureCoords;
 array Coords2d textureCoords[nTextureCoords];
}

template MeshMaterialList {
 <F6F23F42-7686-11cf-8F52-0040333594A3>
 DWORD nMaterials;
 DWORD nFaceIndexes;
 array DWORD faceIndexes[nFaceIndexes];
 [Material]
}

template MeshNormals {
 <F6F23F43-7686-11cf-8F52-0040333594A3>
 DWORD nNormals;
 array Vector normals[nNormals];
 DWORD nFaceNormals;
 array MeshFace faceNormals[nFaceNormals];
}

template MeshVertexColors {
 <1630B821-7842-11cf-8F52-0040333594A3>
 DWORD nVertexColors;
 array IndexedColor vertexColors[nVertexColors];
}

template Mesh {
 <3D82AB44-62DA-11cf-AB39-0020AF71E433>
 DWORD nVertices;
 array Vector vertices[nVertices];
 DWORD nFaces;
 array MeshFace faces[nFaces];
 [...]
}

Header{
1;
0;
1;
}

Mesh {
 393;
 50.56682;35.45413;-1.50700;,
 47.00643;40.83981;-7.40309;,
 46.90461;43.07065;-1.57089;,
 50.56682;35.45413;-1.50700;,
 47.01850;35.45413;-8.09530;,
 50.56682;35.45413;-1.50700;,
 47.00643;30.06845;-7.40309;,
 50.56682;35.45413;-1.50700;,
 46.90461;27.83762;-1.57089;,
 50.56682;35.45413;-1.50700;,
 46.80280;30.06845;4.26129;,
 50.56682;35.45413;-1.50700;,
 46.79071;35.45413;4.95351;,
 50.56682;35.45413;-1.50700;,
 46.80280;40.83981;4.26129;,
 50.56682;35.45413;-1.50700;,
 46.90461;43.07065;-1.57089;,
 36.66358;45.40558;-12.52945;,
 36.47544;49.52761;-1.75293;,
 36.68586;35.45413;-13.80849;,
 36.66358;25.50268;-12.52945;,
 36.47544;21.38065;-1.75293;,
 36.28736;25.50268;9.02352;,
 36.26504;35.45413;10.30261;,
 36.28736;45.40558;9.02352;,
 36.47544;49.52761;-1.75293;,
 21.11535;49.67761;-16.24668;,
 20.86712;55.56912;-2.02537;,
 21.14484;35.45413;-17.93460;,
 21.11534;21.23065;-16.24668;,
 20.86711;16.73907;-2.02536;,
 20.61886;21.23066;12.19594;,
 20.58943;35.45413;13.88387;,
 20.61888;49.67761;12.19594;,
 20.86712;55.56912;-2.02537;,
 -19.84515;49.81119;-17.09529;,
 -20.09570;55.75806;-2.74037;,
 -19.81541;35.45413;-18.79905;,
 -19.84516;21.09707;-17.09530;,
 -20.09571;16.55014;-2.74037;,
 -20.34629;21.09707;11.61453;,
 -20.37600;35.45413;13.31828;,
 -20.34627;49.81119;11.61454;,
 -20.09570;55.75806;-2.74037;,
 -30.95274;48.45633;-15.93409;,
 -31.17965;53.84198;-2.93385;,
 -30.92580;35.45413;-17.47708;,
 -30.95274;22.45193;-15.93409;,
 -31.17965;17.06625;-2.93385;,
 -31.40655;22.45194;10.06637;,
 -31.43349;35.45413;11.60936;,
 -31.40655;48.45633;10.06637;,
 -31.17965;53.84198;-2.93385;,
 -37.80911;46.55967;-13.93744;,
 -37.99909;51.15974;-3.05291;,
 -37.78659;35.45413;-15.22932;,
 -37.80911;24.34859;-13.93744;,
 -37.99909;19.74852;-3.05291;,
 -38.18906;24.34859;7.83161;,
 -38.21164;35.45413;9.12351;,
 -38.18906;46.55967;7.83161;,
 -37.99909;51.15974;-3.05291;,
 -48.32543;41.46441;-9.12561;,
 -48.42825;43.95395;-3.23496;,
 -48.31321;35.45413;-9.82477;,
 -48.32543;29.44386;-9.12561;,
 -48.42825;26.95432;-3.23496;,
 -48.53102;29.44386;2.65571;,
 -48.54327;35.45413;3.35487;,
 -48.53102;41.46440;2.65571;,
 -48.42825;43.95395;-3.23496;,
 -52.09049;35.45413;-3.29889;,
 -52.09049;35.45413;-3.29889;,
 -52.09049;35.45413;-3.29889;,
 -52.09049;35.45413;-3.29889;,
 -52.09049;35.45413;-3.29889;,
 -52.09049;35.45413;-3.29889;,
 -52.09049;35.45413;-3.29889;,
 -52.09049;35.45413;-3.29889;,
 -12.77741;18.20956;-2.61262;,
 -10.12392;18.20956;-7.21791;,
 -10.12392;11.46695;-7.21791;,
 -12.77741;11.46695;-2.61262;,
 -3.88016;18.20956;-9.03567;,
 -3.88016;11.46695;-9.03567;,
 2.29636;18.20956;-7.00111;,
 2.29636;11.46695;-7.00111;,
 4.78752;18.20956;-2.30603;,
 4.78752;11.46695;-2.30603;,
 2.13402;18.20956;2.29925;,
 2.13402;11.46695;2.29925;,
 -4.10974;18.20956;4.11702;,
 -4.10974;11.46695;4.11702;,
 -10.28625;18.20956;2.08246;,
 -10.28625;11.46695;2.08246;,
 -12.77741;18.20956;-2.61262;,
 -12.77741;11.46695;-2.61262;,
 -3.99495;18.20956;-2.45933;,
 -3.99495;18.20956;-2.45933;,
 -3.99495;18.20956;-2.45933;,
 -3.99495;18.20956;-2.45933;,
 -3.99495;18.20956;-2.45933;,
 -3.99495;18.20956;-2.45933;,
 -3.99495;18.20956;-2.45933;,
 -3.99495;18.20956;-2.45933;,
 -3.99495;11.46695;-2.45933;,
 -3.99495;11.46695;-2.45933;,
 -3.99495;11.46695;-2.45933;,
 -3.99495;11.46695;-2.45933;,
 -3.99495;11.46695;-2.45933;,
 -3.99495;11.46695;-2.45933;,
 -3.99495;11.46695;-2.45933;,
 -3.99495;11.46695;-2.45933;,
 31.70444;61.46031;-1.34443;,
 31.72164;61.46031;-2.32768;,
 28.75782;54.79365;-2.36490;,
 28.74119;54.79365;-1.41065;,
 25.50982;48.12698;-2.42159;,
 25.49316;48.12698;-1.46734;,
 21.69352;41.46031;-2.48821;,
 21.67687;41.46031;-1.53395;,
 31.72164;61.46031;-2.32768;,
 38.38797;61.17921;-2.24953;,
 35.43929;54.79365;-3.15184;,
 28.75782;54.79365;-2.36490;,
 45.05361;60.33390;-2.13318;,
 42.10496;54.79365;-3.03553;,
 51.71758;58.92190;-1.92104;,
 49.44679;54.79365;-1.96068;,
 32.19130;48.12698;-3.20855;,
 25.50982;48.12698;-2.42159;,
 38.85700;48.12698;-3.09219;,
 45.50611;48.12698;-2.02943;,
 28.37497;41.46031;-3.27515;,
 21.69352;41.46031;-2.48821;,
 35.04064;41.46031;-3.15881;,
 40.69514;41.46031;-2.11341;,
 51.71758;58.92190;-1.92104;,
 51.70242;58.92190;-1.05303;,
 49.43159;54.79365;-1.09268;,
 49.44679;54.79365;-1.96068;,
 45.49097;48.12698;-1.16145;,
 45.50611;48.12698;-2.02943;,
 40.67992;41.46031;-1.24542;,
 40.69514;41.46031;-2.11341;,
 51.70242;58.92190;-1.05303;,
 45.03511;60.33390;-1.07357;,
 42.05671;54.79365;-0.27469;,
 49.43159;54.79365;-1.09268;,
 38.36944;61.17921;-1.18991;,
 35.39107;54.79365;-0.39104;,
 31.70444;61.46031;-1.34443;,
 28.74119;54.79365;-1.41065;,
 38.80878;48.12698;-0.33137;,
 45.49097;48.12698;-1.16145;,
 32.14312;48.12698;-0.44773;,
 25.49316;48.12698;-1.46734;,
 34.99247;41.46031;-0.39799;,
 40.67992;41.46031;-1.24542;,
 28.32677;41.46031;-0.51433;,
 21.67687;41.46031;-1.53395;,
 45.05361;60.33390;-2.13318;,
 45.03511;60.33390;-1.07357;,
 38.38797;61.17921;-2.24953;,
 38.36944;61.17921;-1.18991;,
 31.72164;61.46031;-2.32768;,
 31.70444;61.46031;-1.34443;,
 34.99247;41.46031;-0.39799;,
 35.04064;41.46031;-3.15881;,
 28.32677;41.46031;-0.51433;,
 28.37497;41.46031;-3.27515;,
 21.67687;41.46031;-1.53395;,
 21.69352;41.46031;-2.48821;,
 41.69083;37.50151;-2.15369;,
 41.67367;37.50151;-1.17043;,
 44.63744;30.83484;-1.13320;,
 44.65412;30.83484;-2.08746;,
 47.88543;24.16818;-1.07650;,
 47.90207;24.16818;-2.03077;,
 51.70171;17.50151;-1.00989;,
 51.71838;17.50151;-1.96416;,
 41.67367;37.50151;-1.17043;,
 35.00729;37.22039;-1.24859;,
 37.95602;30.83484;-0.34626;,
 44.63744;30.83484;-1.13320;,
 28.34162;36.37508;-1.36492;,
 31.29035;30.83484;-0.46262;,
 21.67764;34.96307;-1.57709;,
 23.94846;30.83483;-1.53745;,
 41.20401;24.16817;-0.28958;,
 47.88543;24.16818;-1.07650;,
 34.53831;24.16817;-0.40592;,
 27.88913;24.16816;-1.46867;,
 45.02026;17.50151;-0.22297;,
 51.70171;17.50151;-1.00989;,
 38.35463;17.50150;-0.33931;,
 32.70015;17.50150;-1.38470;,
 21.67764;34.96307;-1.57709;,
 21.69279;34.96307;-2.44507;,
 23.96362;30.83483;-2.40544;,
 23.94846;30.83483;-1.53745;,
 27.90429;24.16816;-2.33666;,
 27.88913;24.16816;-1.46867;,
 32.71533;17.50150;-2.25269;,
 32.70015;17.50150;-1.38470;,
 21.69279;34.96307;-2.44507;,
 28.36011;36.37508;-2.42456;,
 31.33854;30.83484;-3.22342;,
 23.96362;30.83483;-2.40544;,
 35.02586;37.22039;-2.30822;,
 38.00422;30.83484;-3.10708;,
 41.69083;37.50151;-2.15369;,
 44.65412;30.83484;-2.08746;,
 34.58649;24.16817;-3.16672;,
 27.90429;24.16816;-2.33666;,
 41.25221;24.16817;-3.05039;,
 47.90207;24.16818;-2.03077;,
 38.40281;17.50150;-3.10013;,
 32.71533;17.50150;-2.25269;,
 45.06853;17.50151;-2.98379;,
 51.71838;17.50151;-1.96416;,
 28.34162;36.37508;-1.36492;,
 28.36011;36.37508;-2.42456;,
 35.00729;37.22039;-1.24859;,
 35.02586;37.22039;-2.30822;,
 41.67367;37.50151;-1.17043;,
 41.69083;37.50151;-2.15369;,
 38.40281;17.50150;-3.10013;,
 38.35463;17.50150;-0.33931;,
 45.06853;17.50151;-2.98379;,
 45.02026;17.50151;-0.22297;,
 51.71838;17.50151;-1.96416;,
 51.70171;17.50151;-1.00989;,
 41.69944;33.73864;-2.64911;,
 41.69944;34.72203;-2.64911;,
 44.54662;34.70753;4.06827;,
 44.54662;33.75313;4.06827;,
 47.67824;34.70753;10.79062;,
 47.67824;33.75313;10.79062;,
 51.37821;34.70754;17.52289;,
 51.37821;33.75313;17.52289;,
 41.69944;34.72203;-2.64911;,
 35.02889;34.76023;-2.48437;,
 37.88098;35.61095;3.95193;,
 44.54662;34.70753;4.06827;,
 28.34847;34.76023;-1.75553;,
 31.21530;35.61095;3.83560;,
 21.65811;34.66439;-0.46009;,
 23.85692;34.66439;3.70716;,
 41.01262;35.61095;10.67427;,
 47.67824;34.70753;10.79062;,
 34.34691;35.61095;10.55794;,
 27.68120;34.66439;10.44158;,
 44.71258;35.61095;17.40653;,
 51.37821;34.70754;17.52289;,
 38.04687;35.61095;17.29020;,
 32.37591;34.66439;17.19122;,
 21.65811;34.66439;-0.46009;,
 21.65811;33.79628;-0.46009;,
 23.85692;33.79628;3.70716;,
 23.85692;34.66439;3.70716;,
 27.68120;33.79628;10.44158;,
 27.68120;34.66439;10.44158;,
 32.37591;33.79628;17.19122;,
 32.37591;34.66439;17.19122;,
 21.65811;33.79628;-0.46009;,
 28.34847;33.70044;-1.75553;,
 31.21530;32.84972;3.83560;,
 23.85692;33.79628;3.70716;,
 35.02889;33.70044;-2.48437;,
 37.88098;32.84972;3.95193;,
 41.69944;33.73864;-2.64911;,
 44.54662;33.75313;4.06827;,
 34.34691;32.84972;10.55794;,
 27.68120;33.79628;10.44158;,
 41.01262;32.84972;10.67427;,
 47.67824;33.75313;10.79062;,
 38.04687;32.84972;17.29020;,
 32.37591;33.79628;17.19122;,
 44.71258;32.84972;17.40653;,
 51.37821;33.75313;17.52289;,
 28.34847;34.76023;-1.75553;,
 28.34847;33.70044;-1.75553;,
 35.02889;34.76023;-2.48437;,
 35.02889;33.70044;-2.48437;,
 41.69944;34.72203;-2.64911;,
 41.69944;33.73864;-2.64911;,
 38.04687;32.84972;17.29020;,
 38.04687;35.61095;17.29020;,
 44.71258;32.84972;17.40653;,
 44.71258;35.61095;17.40653;,
 51.37821;33.75313;17.52289;,
 51.37821;34.70754;17.52289;,
 41.65826;34.97751;-0.28781;,
 41.65826;33.99412;-0.28781;,
 44.73812;34.00861;-6.90172;,
 44.73812;34.96302;-6.90172;,
 48.10242;34.00861;-13.51069;,
 48.10242;34.96301;-13.51069;,
 52.03510;34.00861;-20.10974;,
 52.03510;34.96301;-20.10974;,
 41.65826;33.99412;-0.28781;,
 34.99748;33.95592;-0.68523;,
 38.07250;33.10520;-7.01811;,
 44.73812;34.00861;-6.90172;,
 28.34657;33.95592;-1.64674;,
 31.40681;33.10520;-7.13442;,
 21.70552;34.05176;-3.17487;,
 24.04843;34.05176;-7.26284;,
 41.43680;33.10519;-13.62705;,
 48.10242;34.00861;-13.51069;,
 34.77114;33.10519;-13.74340;,
 28.10546;34.05175;-13.85974;,
 45.36951;33.10519;-20.22613;,
 52.03510;34.00861;-20.10974;,
 38.70378;33.10519;-20.34247;,
 33.03283;34.05175;-20.44146;,
 21.70552;34.05176;-3.17487;,
 21.70552;34.91987;-3.17487;,
 24.04843;34.91987;-7.26284;,
 24.04843;34.05176;-7.26284;,
 28.10546;34.91987;-13.85974;,
 28.10546;34.05175;-13.85974;,
 33.03283;34.91987;-20.44146;,
 33.03283;34.05175;-20.44146;,
 21.70552;34.91987;-3.17487;,
 28.34657;35.01571;-1.64674;,
 31.40681;35.86643;-7.13442;,
 24.04843;34.91987;-7.26284;,
 34.99748;35.01571;-0.68523;,
 38.07250;35.86643;-7.01811;,
 41.65826;34.97751;-0.28781;,
 44.73812;34.96302;-6.90172;,
 34.77114;35.86643;-13.74340;,
 28.10546;34.91987;-13.85974;,
 41.43680;35.86643;-13.62705;,
 48.10242;34.96301;-13.51069;,
 38.70378;35.86643;-20.34247;,
 33.03283;34.91987;-20.44146;,
 45.36951;35.86643;-20.22613;,
 52.03510;34.96301;-20.10974;,
 28.34657;33.95592;-1.64674;,
 28.34657;35.01571;-1.64674;,
 34.99748;33.95592;-0.68523;,
 34.99748;35.01571;-0.68523;,
 41.65826;33.99412;-0.28781;,
 41.65826;34.97751;-0.28781;,
 38.70378;35.86643;-20.34247;,
 38.70378;33.10519;-20.34247;,
 45.36951;35.86643;-20.22613;,
 45.36951;33.10519;-20.22613;,
 52.03510;34.96301;-20.10974;,
 52.03510;34.00861;-20.10974;,
 -20.88758;50.45495;-18.49588;,
 -20.87588;50.45495;-19.16579;,
 -20.87588;20.50495;-19.16579;,
 -20.88758;20.50495;-18.49588;,
 -20.87588;50.45495;-19.16579;,
 22.01759;50.45495;-18.41705;,
 22.01759;20.50495;-18.41705;,
 -20.87588;20.50495;-19.16579;,
 22.01759;50.45495;-18.41705;,
 22.00590;50.45495;-17.74716;,
 22.00590;20.50495;-17.74716;,
 22.01759;20.50495;-18.41705;,
 22.00590;50.45495;-17.74716;,
 -20.88758;50.45495;-18.49588;,
 -20.88758;20.50495;-18.49588;,
 22.00590;20.50495;-17.74716;,
 -20.87588;50.45495;-19.16579;,
 -20.88758;50.45495;-18.49588;,
 -20.88758;20.50495;-18.49588;,
 -20.87588;20.50495;-19.16579;,
 -21.44612;50.45495;13.50443;,
 -21.43443;50.45495;12.83454;,
 -21.43443;20.50495;12.83454;,
 -21.44612;20.50495;13.50443;,
 -21.43443;50.45495;12.83454;,
 21.45904;50.45495;13.58325;,
 21.45904;20.50495;13.58325;,
 -21.43443;20.50495;12.83454;,
 21.45904;50.45495;13.58325;,
 21.44734;50.45495;14.25315;,
 21.44734;20.50495;14.25315;,
 21.45904;20.50495;13.58325;,
 21.44734;50.45495;14.25315;,
 -21.44612;50.45495;13.50443;,
 -21.44612;20.50495;13.50443;,
 21.44734;20.50495;14.25315;,
 -21.43443;50.45495;12.83454;,
 -21.44612;50.45495;13.50443;,
 -21.44612;20.50495;13.50443;,
 -21.43443;20.50495;12.83454;;
 
 220;
 3;0,1,2;,
 3;3,4,1;,
 3;5,6,4;,
 3;7,8,6;,
 3;9,10,8;,
 3;11,12,10;,
 3;13,14,12;,
 3;15,16,14;,
 4;2,1,17,18;,
 4;1,4,19,17;,
 4;4,6,20,19;,
 4;6,8,21,20;,
 4;8,10,22,21;,
 4;10,12,23,22;,
 4;12,14,24,23;,
 4;14,16,25,24;,
 4;18,17,26,27;,
 4;17,19,28,26;,
 4;19,20,29,28;,
 4;20,21,30,29;,
 4;21,22,31,30;,
 4;22,23,32,31;,
 4;23,24,33,32;,
 4;24,25,34,33;,
 4;27,26,35,36;,
 4;26,28,37,35;,
 4;28,29,38,37;,
 4;29,30,39,38;,
 4;30,31,40,39;,
 4;31,32,41,40;,
 4;32,33,42,41;,
 4;33,34,43,42;,
 4;36,35,44,45;,
 4;35,37,46,44;,
 4;37,38,47,46;,
 4;38,39,48,47;,
 4;39,40,49,48;,
 4;40,41,50,49;,
 4;41,42,51,50;,
 4;42,43,52,51;,
 4;45,44,53,54;,
 4;44,46,55,53;,
 4;46,47,56,55;,
 4;47,48,57,56;,
 4;48,49,58,57;,
 4;49,50,59,58;,
 4;50,51,60,59;,
 4;51,52,61,60;,
 4;54,53,62,63;,
 4;53,55,64,62;,
 4;55,56,65,64;,
 4;56,57,66,65;,
 4;57,58,67,66;,
 4;58,59,68,67;,
 4;59,60,69,68;,
 4;60,61,70,69;,
 3;63,62,71;,
 3;62,64,72;,
 3;64,65,73;,
 3;65,66,74;,
 3;66,67,75;,
 3;67,68,76;,
 3;68,69,77;,
 3;69,70,78;,
 4;79,80,81,82;,
 4;80,83,84,81;,
 4;83,85,86,84;,
 4;85,87,88,86;,
 4;87,89,90,88;,
 4;89,91,92,90;,
 4;91,93,94,92;,
 4;93,95,96,94;,
 3;97,80,79;,
 3;98,83,80;,
 3;99,85,83;,
 3;100,87,85;,
 3;101,89,87;,
 3;102,91,89;,
 3;103,93,91;,
 3;104,95,93;,
 3;105,82,81;,
 3;106,81,84;,
 3;107,84,86;,
 3;108,86,88;,
 3;109,88,90;,
 3;110,90,92;,
 3;111,92,94;,
 3;112,94,96;,
 4;113,114,115,116;,
 4;116,115,117,118;,
 4;118,117,119,120;,
 4;121,122,123,124;,
 4;122,125,126,123;,
 4;125,127,128,126;,
 4;124,123,129,130;,
 4;123,126,131,129;,
 4;126,128,132,131;,
 4;130,129,133,134;,
 4;129,131,135,133;,
 4;131,132,136,135;,
 4;137,138,139,140;,
 4;140,139,141,142;,
 4;142,141,143,144;,
 4;145,146,147,148;,
 4;146,149,150,147;,
 4;149,151,152,150;,
 4;148,147,153,154;,
 4;147,150,155,153;,
 4;150,152,156,155;,
 4;154,153,157,158;,
 4;153,155,159,157;,
 4;155,156,160,159;,
 4;145,127,161,162;,
 4;162,161,163,164;,
 4;164,163,165,166;,
 4;167,168,136,158;,
 4;169,170,168,167;,
 4;171,172,170,169;,
 4;173,174,175,176;,
 4;176,175,177,178;,
 4;178,177,179,180;,
 4;181,182,183,184;,
 4;182,185,186,183;,
 4;185,187,188,186;,
 4;184,183,189,190;,
 4;183,186,191,189;,
 4;186,188,192,191;,
 4;190,189,193,194;,
 4;189,191,195,193;,
 4;191,192,196,195;,
 4;197,198,199,200;,
 4;200,199,201,202;,
 4;202,201,203,204;,
 4;205,206,207,208;,
 4;206,209,210,207;,
 4;209,211,212,210;,
 4;208,207,213,214;,
 4;207,210,215,213;,
 4;210,212,216,215;,
 4;214,213,217,218;,
 4;213,215,219,217;,
 4;215,216,220,219;,
 4;205,187,221,222;,
 4;222,221,223,224;,
 4;224,223,225,226;,
 4;227,228,196,218;,
 4;229,230,228,227;,
 4;231,232,230,229;,
 4;233,234,235,236;,
 4;236,235,237,238;,
 4;238,237,239,240;,
 4;241,242,243,244;,
 4;242,245,246,243;,
 4;245,247,248,246;,
 4;244,243,249,250;,
 4;243,246,251,249;,
 4;246,248,252,251;,
 4;250,249,253,254;,
 4;249,251,255,253;,
 4;251,252,256,255;,
 4;257,258,259,260;,
 4;260,259,261,262;,
 4;262,261,263,264;,
 4;265,266,267,268;,
 4;266,269,270,267;,
 4;269,271,272,270;,
 4;268,267,273,274;,
 4;267,270,275,273;,
 4;270,272,276,275;,
 4;274,273,277,278;,
 4;273,275,279,277;,
 4;275,276,280,279;,
 4;265,247,281,282;,
 4;282,281,283,284;,
 4;284,283,285,286;,
 4;287,288,256,278;,
 4;289,290,288,287;,
 4;291,292,290,289;,
 4;293,294,295,296;,
 4;296,295,297,298;,
 4;298,297,299,300;,
 4;301,302,303,304;,
 4;302,305,306,303;,
 4;305,307,308,306;,
 4;304,303,309,310;,
 4;303,306,311,309;,
 4;306,308,312,311;,
 4;310,309,313,314;,
 4;309,311,315,313;,
 4;311,312,316,315;,
 4;317,318,319,320;,
 4;320,319,321,322;,
 4;322,321,323,324;,
 4;325,326,327,328;,
 4;326,329,330,327;,
 4;329,331,332,330;,
 4;328,327,333,334;,
 4;327,330,335,333;,
 4;330,332,336,335;,
 4;334,333,337,338;,
 4;333,335,339,337;,
 4;335,336,340,339;,
 4;325,307,341,342;,
 4;342,341,343,344;,
 4;344,343,345,346;,
 4;347,348,316,338;,
 4;349,350,348,347;,
 4;351,352,350,349;,
 4;353,354,355,356;,
 4;357,358,359,360;,
 4;361,362,363,364;,
 4;365,366,367,368;,
 4;365,358,369,370;,
 4;371,372,359,368;,
 4;373,374,375,376;,
 4;377,378,379,380;,
 4;381,382,383,384;,
 4;385,386,387,388;,
 4;385,378,389,390;,
 4;391,392,379,388;;
 
 MeshMaterialList {
  6;
  220;
  0,
  5,
  5,
  0,
  0,
  5,
  5,
  0,
  0,
  5,
  5,
  0,
  0,
  5,
  5,
  0,
  0,
  5,
  5,
  0,
  0,
  5,
  5,
  0,
  0,
  5,
  5,
  0,
  0,
  5,
  5,
  0,
  0,
  5,
  5,
  0,
  0,
  5,
  5,
  0,
  0,
  5,
  5,
  0,
  0,
  5,
  5,
  0,
  0,
  5,
  5,
  0,
  0,
  5,
  5,
  0,
  0,
  5,
  5,
  0,
  0,
  5,
  5,
  0,
  1,
  1,
  1,
  1,
  1,
  1,
  1,
  1,
  1,
  1,
  1,
  1,
  1,
  1,
  1,
  1,
  1,
  1,
  1,
  1,
  1,
  1,
  1,
  1,
  1,
  1,
  1,
  1,
  1,
  1,
  1,
  1,
  1,
  1,
  1,
  1,
  1,
  1,
  1,
  1,
  1,
  1,
  1,
  1,
  1,
  1,
  1,
  1,
  1,
  1,
  1,
  1,
  1,
  1,
  1,
  1,
  1,
  1,
  1,
  1,
  1,
  1,
  1,
  1,
  1,
  1,
  1,
  1,
  1,
  1,
  1,
  1,
  1,
  1,
  1,
  1,
  1,
  1,
  1,
  1,
  1,
  1,
  1,
  1,
  1,
  1,
  1,
  1,
  1,
  1,
  1,
  1,
  1,
  1,
  1,
  1,
  1,
  1,
  1,
  1,
  1,
  1,
  1,
  1,
  1,
  1,
  1,
  1,
  1,
  1,
  1,
  1,
  1,
  1,
  1,
  1,
  1,
  1,
  1,
  1,
  1,
  1,
  1,
  1,
  1,
  1,
  1,
  1,
  1,
  1,
  1,
  1,
  1,
  1,
  1,
  1,
  1,
  1,
  1,
  1,
  1,
  1,
  1,
  1,
  3,
  2,
  3,
  3,
  3,
  3,
  3,
  3,
  3,
  2,
  3,
  3;;
  Material {
   0.285600;0.627200;0.800000;1.000000;;
   5.000000;
   0.000000;0.000000;0.000000;;
   0.000000;0.000000;0.000000;;
  }
  Material {
   0.690400;0.147200;0.222400;1.000000;;
   5.000000;
   0.000000;0.000000;0.000000;;
   0.000000;0.000000;0.000000;;
  }
  Material {
   0.800000;0.800000;0.800000;1.000000;;
   5.000000;
   0.000000;0.000000;0.000000;;
   0.000000;0.000000;0.000000;;
   TextureFilename {
    "data\\TEXTURE\\TV.jpg";
   }
  }
  Material {
   0.132000;0.132000;0.132000;1.000000;;
   5.000000;
   0.000000;0.000000;0.000000;;
   0.000000;0.000000;0.000000;;
  }
  Material {
   0.800000;0.800000;0.800000;1.000000;;
   5.000000;
   0.000000;0.000000;0.000000;;
   0.000000;0.000000;0.000000;;
   TextureFilename {
    "C:\\Users\\student\\Desktop\\tentative.png";
   }
  }
  Material {
   1.000000;1.000000;1.000000;1.000000;;
   0.000000;
   0.000000;0.000000;0.000000;;
   0.000000;0.000000;0.000000;;
  }
 }
 MeshNormals {
  273;
  0.999848;-0.000000;0.017453;,
  0.747048;0.664643;0.013041;,
  0.770542;0.394552;-0.500593;,
  0.711462;-0.000000;-0.702724;,
  0.770542;-0.394552;-0.500593;,
  0.747048;-0.664643;0.013041;,
  0.752601;-0.394553;0.527181;,
  0.686505;-0.000000;0.727126;,
  0.752601;0.394552;0.527181;,
  0.440416;0.897761;0.007688;,
  0.450054;0.547408;-0.705546;,
  0.374468;-0.000000;-0.927240;,
  0.442539;-0.558945;-0.701242;,
  0.418917;-0.907995;0.007313;,
  0.417796;-0.558945;0.716259;,
  0.341881;-0.000000;0.939743;,
  0.425157;0.547408;0.720823;,
  0.180770;0.983520;0.003156;,
  0.181872;0.595632;-0.782397;,
  0.141302;0.000000;-0.989967;,
  0.140293;-0.119323;-0.982894;,
  0.156239;-0.987716;0.002728;,
  0.143012;-0.938491;0.314295;,
  0.106668;-0.000000;0.994295;,
  0.154458;0.595632;0.788267;,
  -0.083255;0.996527;-0.001453;,
  -0.070297;0.921140;-0.382831;,
  -0.048649;0.000000;-0.998816;,
  -0.048311;-0.117608;-0.991884;,
  -0.049338;-0.998782;-0.000861;,
  -0.052330;-0.945635;0.320992;,
  -0.083478;-0.000000;0.996510;,
  -0.082899;0.117607;0.989594;,
  -0.272613;0.962112;-0.004758;,
  -0.300325;0.710046;-0.636898;,
  -0.215008;0.000000;-0.976612;,
  -0.287764;-0.411066;-0.864995;,
  -0.239234;-0.970953;-0.004175;,
  -0.229875;-0.907843;0.350683;,
  -0.248963;-0.000000;0.968513;,
  -0.317778;0.411066;0.854425;,
  -0.473405;0.880806;-0.008262;,
  -0.461177;0.523893;-0.716137;,
  -0.384483;-0.000000;-0.923132;,
  -0.461177;-0.523892;-0.716137;,
  -0.473406;-0.880806;-0.008262;,
  -0.485890;-0.523892;0.699606;,
  -0.416467;-0.000000;0.909151;,
  -0.485890;0.523892;0.699606;,
  -0.777231;0.629069;-0.013564;,
  -0.764623;0.368359;-0.528833;,
  -0.689462;-0.000000;-0.724322;,
  -0.764623;-0.368359;-0.528833;,
  -0.777231;-0.629070;-0.013564;,
  -0.782612;-0.368360;0.501826;,
  -0.714321;-0.000000;0.699818;,
  -0.782612;0.368360;0.501827;,
  -0.999848;-0.000000;-0.017451;,
  0.153893;-0.938492;-0.309112;,
  0.105906;-0.119324;0.987191;,
  -0.048311;0.117608;-0.991884;,
  -0.041096;-0.945635;-0.322623;,
  -0.082899;-0.117608;0.989594;,
  -0.083616;0.921140;0.380145;,
  -0.117343;0.116790;-0.986200;,
  -0.091572;-0.934916;-0.342851;,
  -0.247336;-0.114143;0.962183;,
  -0.164261;0.912321;0.375084;,
  0.000000;1.000000;0.000000;,
  -0.999848;0.000000;-0.017451;,
  -0.617599;0.000000;-0.786493;,
  0.017453;0.000000;-0.999848;,
  0.644671;0.000000;-0.764460;,
  0.999848;0.000000;0.017453;,
  0.617599;0.000000;0.786493;,
  -0.017452;0.000000;0.999848;,
  -0.644671;0.000000;0.764460;,
  0.000000;-1.000000;-0.000000;,
  -0.913620;0.406256;-0.015953;,
  -0.906359;0.422213;-0.015819;,
  -0.883748;0.467709;-0.015424;,
  -0.867699;0.496860;-0.015150;,
  -0.011829;0.116238;-0.993151;,
  0.057033;0.087969;-0.994489;,
  -0.030817;0.074606;-0.996737;,
  0.070876;0.026078;-0.997144;,
  -0.049756;0.035591;-0.998127;,
  0.089036;-0.042442;-0.995124;,
  -0.049737;0.038443;-0.998022;,
  0.093623;-0.048898;-0.994406;,
  0.087568;0.038445;-0.995416;,
  0.119506;-0.016700;-0.992693;,
  0.160012;-0.084595;-0.983484;,
  0.169024;-0.097392;-0.980788;,
  0.876026;-0.482020;0.015321;,
  0.022294;0.087966;0.995874;,
  -0.046479;0.116238;0.992133;,
  0.868462;-0.495523;0.015182;,
  0.036035;0.026078;0.999010;,
  -0.065581;0.074606;0.995054;,
  0.836583;-0.547646;0.014623;,
  0.054255;-0.042441;0.997625;,
  -0.084557;0.035591;0.995783;,
  0.455318;-0.890293;0.007963;,
  0.058864;-0.048898;0.997068;,
  -0.084535;0.038444;0.995679;,
  -0.049940;0.095059;-0.994218;,
  -0.083387;0.080231;-0.993282;,
  -0.116677;0.070977;-0.990630;,
  -0.116628;0.076656;-0.990213;,
  0.052777;0.038439;0.997866;,
  0.084791;-0.016700;0.996259;,
  -0.084605;0.095061;0.991870;,
  -0.117998;0.080231;0.989767;,
  0.125594;-0.084594;0.988469;,
  -0.151174;0.070976;0.985956;,
  0.134696;-0.097396;0.986089;,
  -0.151110;0.076656;0.985540;,
  0.207172;0.978298;0.003619;,
  0.166613;0.986018;0.002911;,
  0.084020;0.996463;0.001469;,
  0.042121;0.999112;0.000737;,
  0.000000;-1.000000;-0.000000;,
  0.913620;0.406255;0.015958;,
  0.906360;0.422210;0.015829;,
  0.883749;0.467707;0.015430;,
  0.867698;0.496860;0.015148;,
  0.011828;0.116237;0.993151;,
  -0.057034;0.087964;0.994489;,
  0.030816;0.074605;0.996737;,
  -0.070876;0.026077;0.997144;,
  0.049755;0.035590;0.998127;,
  -0.089035;-0.042441;0.995124;,
  0.049736;0.038443;0.998022;,
  -0.093622;-0.048897;0.994406;,
  -0.087569;0.038438;0.995417;,
  -0.119505;-0.016700;0.992693;,
  -0.160009;-0.084592;0.983484;,
  -0.169023;-0.097393;0.980788;,
  -0.876025;-0.482024;-0.015297;,
  -0.022295;0.087964;-0.995874;,
  0.046479;0.116236;-0.992133;,
  -0.868461;-0.495525;-0.015166;,
  -0.036036;0.026077;-0.999010;,
  0.065581;0.074604;-0.995055;,
  -0.836581;-0.547648;-0.014612;,
  -0.054255;-0.042441;-0.997625;,
  0.084557;0.035591;-0.995783;,
  -0.455317;-0.890294;-0.007955;,
  -0.058864;-0.048896;-0.997068;,
  0.084535;0.038445;-0.995679;,
  0.049941;0.095061;0.994218;,
  0.083387;0.080231;0.993282;,
  0.116675;0.070975;0.990631;,
  0.116625;0.076655;0.990213;,
  -0.052779;0.038439;-0.997866;,
  -0.084791;-0.016701;-0.996259;,
  0.084606;0.095060;-0.991870;,
  0.117999;0.080230;-0.989767;,
  -0.125591;-0.084592;-0.988469;,
  0.151177;0.070977;-0.985955;,
  -0.134693;-0.097391;-0.986090;,
  0.151114;0.076658;-0.985539;,
  -0.207173;0.978298;-0.003616;,
  -0.166613;0.986018;-0.002910;,
  -0.084021;0.996463;-0.001469;,
  -0.042124;0.999112;-0.000737;,
  0.000001;-1.000000;0.000000;,
  0.000000;-1.000000;0.000000;,
  0.920711;0.000000;-0.390246;,
  0.913729;0.000000;-0.406324;,
  0.891911;0.000000;-0.452211;,
  0.876368;0.000000;-0.481642;,
  0.031183;0.992793;-0.115710;,
  -0.038130;0.995333;-0.088644;,
  0.049501;0.996047;-0.073752;,
  -0.053001;0.998229;-0.027007;,
  0.067778;0.997107;-0.034414;,
  -0.072386;0.996526;0.041184;,
  0.067807;0.997002;-0.037266;,
  -0.077096;0.995889;0.047560;,
  -0.069503;0.996793;-0.039659;,
  -0.102440;0.994627;0.014914;,
  -0.144278;0.986126;0.082088;,
  -0.153559;0.983588;0.094729;,
  -0.884435;0.000000;0.466663;,
  -0.038130;-0.995333;-0.088644;,
  0.031182;-0.992793;-0.115711;,
  -0.877109;0.000000;0.480292;,
  -0.053001;-0.998229;-0.027007;,
  0.049501;-0.996047;-0.073752;,
  -0.846140;0.000000;0.532961;,
  -0.072386;-0.996526;0.041184;,
  0.067778;-0.997107;-0.034413;,
  -0.470853;0.000000;0.882211;,
  -0.077096;-0.995889;0.047560;,
  0.067807;-0.997002;-0.037266;,
  0.068933;0.993195;-0.093872;,
  0.102094;0.991676;-0.078461;,
  0.135165;0.988443;-0.068629;,
  0.135208;0.988027;-0.074309;,
  -0.069503;-0.996793;-0.039659;,
  -0.102440;-0.994627;0.014914;,
  0.068933;-0.993195;-0.093872;,
  0.102094;-0.991676;-0.078461;,
  -0.144278;-0.986126;0.082088;,
  0.135165;-0.988444;-0.068628;,
  -0.153559;-0.983588;0.094729;,
  0.135207;-0.988027;-0.074308;,
  -0.190098;0.000000;-0.981765;,
  -0.149405;0.000000;-0.988776;,
  -0.066632;0.000000;-0.997778;,
  -0.024689;0.000000;-0.999695;,
  -0.017450;0.000000;0.999848;,
  -0.017451;0.000000;0.999848;,
  -0.017454;0.000000;0.999848;,
  0.906531;0.000000;0.422140;,
  0.898992;0.000000;0.437964;,
  0.875587;0.000000;0.483061;,
  0.859025;0.000000;0.511933;,
  0.027125;-0.992793;0.116728;,
  -0.041200;-0.995333;0.087259;,
  0.046897;-0.996047;0.075435;,
  -0.053911;-0.998229;0.025141;,
  0.066536;-0.997107;0.036758;,
  -0.070905;-0.996526;-0.043685;,
  0.066465;-0.997002;0.039610;,
  -0.075390;-0.995889;-0.050221;,
  -0.070845;-0.996793;0.037209;,
  -0.101857;-0.994627;-0.018480;,
  -0.141326;-0.986127;-0.087072;,
  -0.150160;-0.983588;-0.100029;,
  -0.867610;0.000000;-0.497246;,
  -0.041200;0.995333;0.087259;,
  0.027126;0.992793;0.116728;,
  -0.859812;0.000000;-0.510611;,
  -0.053911;0.998229;0.025140;,
  0.046897;0.996047;0.075435;,
  -0.827025;0.000000;-0.562165;,
  -0.070905;0.996526;-0.043686;,
  0.066536;0.997107;0.036758;,
  -0.439781;0.000000;-0.898105;,
  -0.075390;0.995889;-0.050221;,
  0.066466;0.997002;0.039610;,
  -0.999848;0.000000;-0.017454;,
  0.017453;0.000000;-0.999848;,
  0.999848;0.000000;0.017445;,
  -0.999848;0.000000;-0.017446;,
  0.017452;0.000000;-0.999848;,
  0.999847;0.000000;0.017472;,
  0.065614;-0.993195;0.096220;,
  0.099293;-0.991676;0.081976;,
  0.132688;-0.988444;0.073304;,
  0.132532;-0.988027;0.078982;,
  -0.070845;0.996793;0.037209;,
  -0.101858;0.994627;-0.018481;,
  0.065615;0.993195;0.096221;,
  0.099293;0.991676;0.081976;,
  -0.141326;0.986126;-0.087073;,
  0.132688;0.988444;0.073303;,
  -0.150160;0.983588;-0.100029;,
  0.132533;0.988027;0.078983;,
  -0.224244;0.000000;0.974533;,
  -0.183819;0.000000;0.982960;,
  -0.101410;0.000000;0.994845;,
  -0.059560;0.000000;0.998225;,
  0.017452;0.000000;-0.999848;,
  0.017455;0.000000;-0.999848;,
  0.017458;0.000000;-0.999848;,
  -0.017453;0.000000;0.999848;,
  0.000000;1.000000;0.000000;,
  0.000000;-1.000000;-0.000000;,
  -0.017453;0.000000;0.999848;;
  220;
  3;0,2,1;,
  3;0,3,2;,
  3;0,4,3;,
  3;0,5,4;,
  3;0,6,5;,
  3;0,7,6;,
  3;0,8,7;,
  3;0,1,8;,
  4;1,2,10,9;,
  4;2,3,11,10;,
  4;3,4,12,11;,
  4;4,5,13,12;,
  4;5,6,14,13;,
  4;6,7,15,14;,
  4;7,8,16,15;,
  4;8,1,9,16;,
  4;9,10,18,17;,
  4;10,11,19,18;,
  4;11,12,20,19;,
  4;12,13,21,58;,
  4;13,14,22,21;,
  4;14,15,23,59;,
  4;15,16,24,23;,
  4;16,9,17,24;,
  4;17,18,26,25;,
  4;18,19,27,60;,
  4;19,20,28,27;,
  4;58,21,29,61;,
  4;21,22,30,29;,
  4;59,23,31,62;,
  4;23,24,32,31;,
  4;24,17,25,63;,
  4;25,26,34,33;,
  4;60,27,35,64;,
  4;27,28,36,35;,
  4;61,29,37,65;,
  4;29,30,38,37;,
  4;62,31,39,66;,
  4;31,32,40,39;,
  4;63,25,33,67;,
  4;33,34,42,41;,
  4;34,35,43,42;,
  4;35,36,44,43;,
  4;36,37,45,44;,
  4;37,38,46,45;,
  4;66,39,47,46;,
  4;39,40,48,47;,
  4;40,33,41,48;,
  4;41,42,50,49;,
  4;42,43,51,50;,
  4;43,44,52,51;,
  4;44,45,53,52;,
  4;45,46,54,53;,
  4;46,47,55,54;,
  4;47,48,56,55;,
  4;48,41,49,56;,
  3;49,50,57;,
  3;50,51,57;,
  3;51,52,57;,
  3;52,53,57;,
  3;53,54,57;,
  3;54,55,57;,
  3;55,56,57;,
  3;56,49,57;,
  4;69,70,70,69;,
  4;70,71,71,70;,
  4;71,72,72,71;,
  4;72,73,73,72;,
  4;73,74,74,73;,
  4;74,75,75,74;,
  4;75,76,76,75;,
  4;76,69,69,76;,
  3;68,68,68;,
  3;68,68,68;,
  3;68,68,68;,
  3;68,68,68;,
  3;68,68,68;,
  3;68,68,68;,
  3;68,68,68;,
  3;68,68,68;,
  3;77,77,77;,
  3;77,77,77;,
  3;77,77,77;,
  3;77,77,77;,
  3;77,77,77;,
  3;77,77,77;,
  3;77,77,77;,
  3;77,77,77;,
  4;78,78,79,79;,
  4;79,79,80,80;,
  4;80,80,81,81;,
  4;106,82,84,107;,
  4;82,83,85,84;,
  4;83,90,91,85;,
  4;107,84,86,108;,
  4;84,85,87,86;,
  4;85,91,92,87;,
  4;108,86,88,109;,
  4;86,87,89,88;,
  4;87,92,93,89;,
  4;94,94,97,97;,
  4;97,97,100,100;,
  4;100,100,103,103;,
  4;110,95,98,111;,
  4;95,96,99,98;,
  4;96,112,113,99;,
  4;111,98,101,114;,
  4;98,99,102,101;,
  4;99,113,115,102;,
  4;114,101,104,116;,
  4;101,102,105,104;,
  4;102,115,117,105;,
  4;118,118,119,119;,
  4;119,119,120,120;,
  4;120,120,121,121;,
  4;122,122,103,103;,
  4;122,122,122,122;,
  4;122,122,122,122;,
  4;123,123,124,124;,
  4;124,124,125,125;,
  4;125,125,126,126;,
  4;151,127,129,152;,
  4;127,128,130,129;,
  4;128,135,136,130;,
  4;152,129,131,153;,
  4;129,130,132,131;,
  4;130,136,137,132;,
  4;153,131,133,154;,
  4;131,132,134,133;,
  4;132,137,138,134;,
  4;139,139,142,142;,
  4;142,142,145,145;,
  4;145,145,148,148;,
  4;155,140,143,156;,
  4;140,141,144,143;,
  4;141,157,158,144;,
  4;156,143,146,159;,
  4;143,144,147,146;,
  4;144,158,160,147;,
  4;159,146,149,161;,
  4;146,147,150,149;,
  4;147,160,162,150;,
  4;163,163,164,164;,
  4;164,164,165,165;,
  4;165,165,166,166;,
  4;167,167,148,148;,
  4;167,167,167,167;,
  4;168,168,167,167;,
  4;169,169,170,170;,
  4;170,170,171,171;,
  4;171,171,172,172;,
  4;197,173,175,198;,
  4;173,174,176,175;,
  4;174,181,182,176;,
  4;198,175,177,199;,
  4;175,176,178,177;,
  4;176,182,183,178;,
  4;199,177,179,200;,
  4;177,178,180,179;,
  4;178,183,184,180;,
  4;185,185,188,188;,
  4;188,188,191,191;,
  4;191,191,194,194;,
  4;201,186,189,202;,
  4;186,187,190,189;,
  4;187,203,204,190;,
  4;202,189,192,205;,
  4;189,190,193,192;,
  4;190,204,206,193;,
  4;205,192,195,207;,
  4;192,193,196,195;,
  4;193,206,208,196;,
  4;209,209,210,210;,
  4;210,210,211,211;,
  4;211,211,212,212;,
  4;213,213,194,194;,
  4;214,214,213,213;,
  4;215,215,214,214;,
  4;216,216,217,217;,
  4;217,217,218,218;,
  4;218,218,219,219;,
  4;250,220,222,251;,
  4;220,221,223,222;,
  4;221,228,229,223;,
  4;251,222,224,252;,
  4;222,223,225,224;,
  4;223,229,230,225;,
  4;252,224,226,253;,
  4;224,225,227,226;,
  4;225,230,231,227;,
  4;232,232,235,235;,
  4;235,235,238,238;,
  4;238,238,241,241;,
  4;254,233,236,255;,
  4;233,234,237,236;,
  4;234,256,257,237;,
  4;255,236,239,258;,
  4;236,237,240,239;,
  4;237,257,259,240;,
  4;258,239,242,260;,
  4;239,240,243,242;,
  4;240,259,261,243;,
  4;262,262,263,263;,
  4;263,263,264,264;,
  4;264,264,265,265;,
  4;266,266,241,241;,
  4;267,267,266,266;,
  4;268,268,267,267;,
  4;244,244,244,244;,
  4;245,245,245,245;,
  4;246,246,246,246;,
  4;269,269,269,269;,
  4;270,270,270,270;,
  4;271,271,271,271;,
  4;247,247,247,247;,
  4;248,248,248,248;,
  4;249,249,249,249;,
  4;272,272,272,272;,
  4;270,270,270,270;,
  4;271,271,271,271;;
 }
 MeshTextureCoords {
  393;
  0.062500;0.000000;,
  0.125000;0.125000;,
  0.000000;0.125000;,
  0.187500;0.000000;,
  0.250000;0.125000;,
  0.312500;0.000000;,
  0.375000;0.125000;,
  0.437500;0.000000;,
  0.500000;0.125000;,
  0.562500;0.000000;,
  0.625000;0.125000;,
  0.687500;0.000000;,
  0.750000;0.125000;,
  0.812500;0.000000;,
  0.875000;0.125000;,
  0.937500;0.000000;,
  1.000000;0.125000;,
  0.125000;0.250000;,
  0.000000;0.250000;,
  0.250000;0.250000;,
  0.375000;0.250000;,
  0.500000;0.250000;,
  0.625000;0.250000;,
  0.750000;0.250000;,
  0.875000;0.250000;,
  1.000000;0.250000;,
  0.125000;0.375000;,
  0.000000;0.375000;,
  0.250000;0.375000;,
  0.375000;0.375000;,
  0.500000;0.375000;,
  0.625000;0.375000;,
  0.750000;0.375000;,
  0.875000;0.375000;,
  1.000000;0.375000;,
  0.125000;0.500000;,
  0.000000;0.500000;,
  0.250000;0.500000;,
  0.375000;0.500000;,
  0.500000;0.500000;,
  0.625000;0.500000;,
  0.750000;0.500000;,
  0.875000;0.500000;,
  1.000000;0.500000;,
  0.125000;0.625000;,
  0.000000;0.625000;,
  0.250000;0.625000;,
  0.375000;0.625000;,
  0.500000;0.625000;,
  0.625000;0.625000;,
  0.750000;0.625000;,
  0.875000;0.625000;,
  1.000000;0.625000;,
  0.125000;0.750000;,
  0.000000;0.750000;,
  0.250000;0.750000;,
  0.375000;0.750000;,
  0.500000;0.750000;,
  0.625000;0.750000;,
  0.750000;0.750000;,
  0.875000;0.750000;,
  1.000000;0.750000;,
  0.125000;0.875000;,
  0.000000;0.875000;,
  0.250000;0.875000;,
  0.375000;0.875000;,
  0.500000;0.875000;,
  0.625000;0.875000;,
  0.750000;0.875000;,
  0.875000;0.875000;,
  1.000000;0.875000;,
  0.062500;1.000000;,
  0.187500;1.000000;,
  0.312500;1.000000;,
  0.437500;1.000000;,
  0.562500;1.000000;,
  0.687500;1.000000;,
  0.812500;1.000000;,
  0.937500;1.000000;,
  0.000000;0.000000;,
  0.125000;0.000000;,
  0.125000;1.000000;,
  0.000000;1.000000;,
  0.250000;0.000000;,
  0.250000;1.000000;,
  0.375000;0.000000;,
  0.375000;1.000000;,
  0.500000;0.000000;,
  0.500000;1.000000;,
  0.625000;0.000000;,
  0.625000;1.000000;,
  0.750000;0.000000;,
  0.750000;1.000000;,
  0.875000;0.000000;,
  0.875000;1.000000;,
  1.000000;0.000000;,
  1.000000;1.000000;,
  0.062500;0.000000;,
  0.187500;0.000000;,
  0.312500;0.000000;,
  0.437500;0.000000;,
  0.562500;0.000000;,
  0.687500;0.000000;,
  0.812500;0.000000;,
  0.937500;0.000000;,
  0.062500;1.000000;,
  0.187500;1.000000;,
  0.312500;1.000000;,
  0.437500;1.000000;,
  0.562500;1.000000;,
  0.687500;1.000000;,
  0.812500;1.000000;,
  0.937500;1.000000;,
  0.000000;0.000000;,
  1.000000;0.000000;,
  1.000000;0.333330;,
  0.000000;0.333330;,
  1.000000;0.666670;,
  0.000000;0.666670;,
  1.000000;1.000000;,
  0.000000;1.000000;,
  0.000000;0.000000;,
  0.333330;0.000000;,
  0.333330;0.333330;,
  0.000000;0.333330;,
  0.666670;0.000000;,
  0.666670;0.333330;,
  1.000000;0.000000;,
  1.000000;0.333330;,
  0.333330;0.666670;,
  0.000000;0.666670;,
  0.666670;0.666670;,
  1.000000;0.666670;,
  0.333330;1.000000;,
  0.000000;1.000000;,
  0.666670;1.000000;,
  1.000000;1.000000;,
  0.000000;0.000000;,
  1.000000;0.000000;,
  1.000000;0.333330;,
  0.000000;0.333330;,
  1.000000;0.666670;,
  0.000000;0.666670;,
  1.000000;1.000000;,
  0.000000;1.000000;,
  0.000000;0.000000;,
  0.333330;0.000000;,
  0.333330;0.333330;,
  0.000000;0.333330;,
  0.666670;0.000000;,
  0.666670;0.333330;,
  1.000000;0.000000;,
  1.000000;0.333330;,
  0.333330;0.666670;,
  0.000000;0.666670;,
  0.666670;0.666670;,
  1.000000;0.666670;,
  0.333330;1.000000;,
  0.000000;1.000000;,
  0.666670;1.000000;,
  1.000000;1.000000;,
  1.000000;0.333330;,
  0.000000;0.333330;,
  1.000000;0.666670;,
  0.000000;0.666670;,
  1.000000;1.000000;,
  0.000000;1.000000;,
  0.000000;0.666670;,
  1.000000;0.666670;,
  0.000000;0.333330;,
  1.000000;0.333330;,
  0.000000;0.000000;,
  1.000000;0.000000;,
  0.000000;0.000000;,
  1.000000;0.000000;,
  1.000000;0.333330;,
  0.000000;0.333330;,
  1.000000;0.666670;,
  0.000000;0.666670;,
  1.000000;1.000000;,
  0.000000;1.000000;,
  0.000000;0.000000;,
  0.333330;0.000000;,
  0.333330;0.333330;,
  0.000000;0.333330;,
  0.666670;0.000000;,
  0.666670;0.333330;,
  1.000000;0.000000;,
  1.000000;0.333330;,
  0.333330;0.666670;,
  0.000000;0.666670;,
  0.666670;0.666670;,
  1.000000;0.666670;,
  0.333330;1.000000;,
  0.000000;1.000000;,
  0.666670;1.000000;,
  1.000000;1.000000;,
  0.000000;0.000000;,
  1.000000;0.000000;,
  1.000000;0.333330;,
  0.000000;0.333330;,
  1.000000;0.666670;,
  0.000000;0.666670;,
  1.000000;1.000000;,
  0.000000;1.000000;,
  0.000000;0.000000;,
  0.333330;0.000000;,
  0.333330;0.333330;,
  0.000000;0.333330;,
  0.666670;0.000000;,
  0.666670;0.333330;,
  1.000000;0.000000;,
  1.000000;0.333330;,
  0.333330;0.666670;,
  0.000000;0.666670;,
  0.666670;0.666670;,
  1.000000;0.666670;,
  0.333330;1.000000;,
  0.000000;1.000000;,
  0.666670;1.000000;,
  1.000000;1.000000;,
  1.000000;0.333330;,
  0.000000;0.333330;,
  1.000000;0.666670;,
  0.000000;0.666670;,
  1.000000;1.000000;,
  0.000000;1.000000;,
  0.000000;0.666670;,
  1.000000;0.666670;,
  0.000000;0.333330;,
  1.000000;0.333330;,
  0.000000;0.000000;,
  1.000000;0.000000;,
  0.000000;0.000000;,
  1.000000;0.000000;,
  1.000000;0.333330;,
  0.000000;0.333330;,
  1.000000;0.666670;,
  0.000000;0.666670;,
  1.000000;1.000000;,
  0.000000;1.000000;,
  0.000000;0.000000;,
  0.333330;0.000000;,
  0.333330;0.333330;,
  0.000000;0.333330;,
  0.666670;0.000000;,
  0.666670;0.333330;,
  1.000000;0.000000;,
  1.000000;0.333330;,
  0.333330;0.666670;,
  0.000000;0.666670;,
  0.666670;0.666670;,
  1.000000;0.666670;,
  0.333330;1.000000;,
  0.000000;1.000000;,
  0.666670;1.000000;,
  1.000000;1.000000;,
  0.000000;0.000000;,
  1.000000;0.000000;,
  1.000000;0.333330;,
  0.000000;0.333330;,
  1.000000;0.666670;,
  0.000000;0.666670;,
  1.000000;1.000000;,
  0.000000;1.000000;,
  0.000000;0.000000;,
  0.333330;0.000000;,
  0.333330;0.333330;,
  0.000000;0.333330;,
  0.666670;0.000000;,
  0.666670;0.333330;,
  1.000000;0.000000;,
  1.000000;0.333330;,
  0.333330;0.666670;,
  0.000000;0.666670;,
  0.666670;0.666670;,
  1.000000;0.666670;,
  0.333330;1.000000;,
  0.000000;1.000000;,
  0.666670;1.000000;,
  1.000000;1.000000;,
  1.000000;0.333330;,
  0.000000;0.333330;,
  1.000000;0.666670;,
  0.000000;0.666670;,
  1.000000;1.000000;,
  0.000000;1.000000;,
  0.000000;0.666670;,
  1.000000;0.666670;,
  0.000000;0.333330;,
  1.000000;0.333330;,
  0.000000;0.000000;,
  1.000000;0.000000;,
  0.000000;0.000000;,
  1.000000;0.000000;,
  1.000000;0.333330;,
  0.000000;0.333330;,
  1.000000;0.666670;,
  0.000000;0.666670;,
  1.000000;1.000000;,
  0.000000;1.000000;,
  0.000000;0.000000;,
  0.333330;0.000000;,
  0.333330;0.333330;,
  0.000000;0.333330;,
  0.666670;0.000000;,
  0.666670;0.333330;,
  1.000000;0.000000;,
  1.000000;0.333330;,
  0.333330;0.666670;,
  0.000000;0.666670;,
  0.666670;0.666670;,
  1.000000;0.666670;,
  0.333330;1.000000;,
  0.000000;1.000000;,
  0.666670;1.000000;,
  1.000000;1.000000;,
  0.000000;0.000000;,
  1.000000;0.000000;,
  1.000000;0.333330;,
  0.000000;0.333330;,
  1.000000;0.666670;,
  0.000000;0.666670;,
  1.000000;1.000000;,
  0.000000;1.000000;,
  0.000000;0.000000;,
  0.333330;0.000000;,
  0.333330;0.333330;,
  0.000000;0.333330;,
  0.666670;0.000000;,
  0.666670;0.333330;,
  1.000000;0.000000;,
  1.000000;0.333330;,
  0.333330;0.666670;,
  0.000000;0.666670;,
  0.666670;0.666670;,
  1.000000;0.666670;,
  0.333330;1.000000;,
  0.000000;1.000000;,
  0.666670;1.000000;,
  1.000000;1.000000;,
  1.000000;0.333330;,
  0.000000;0.333330;,
  1.000000;0.666670;,
  0.000000;0.666670;,
  1.000000;1.000000;,
  0.000000;1.000000;,
  0.000000;0.666670;,
  1.000000;0.666670;,
  0.000000;0.333330;,
  1.000000;0.333330;,
  0.000000;0.000000;,
  1.000000;0.000000;,
  0.000000;0.000000;,
  1.000000;0.000000;,
  1.000000;1.000000;,
  0.000000;1.000000;,
  0.000000;0.000000;,
  1.000000;0.000000;,
  1.000000;1.000000;,
  0.000000;1.000000;,
  0.000000;0.000000;,
  1.000000;0.000000;,
  1.000000;1.000000;,
  0.000000;1.000000;,
  0.000000;0.000000;,
  1.000000;0.000000;,
  1.000000;1.000000;,
  0.000000;1.000000;,
  1.000000;1.000000;,
  0.000000;1.000000;,
  0.000000;0.000000;,
  1.000000;0.000000;,
  0.000000;0.000000;,
  1.000000;0.000000;,
  1.000000;1.000000;,
  0.000000;1.000000;,
  0.000000;0.000000;,
  1.000000;0.000000;,
  1.000000;1.000000;,
  0.000000;1.000000;,
  0.000000;0.000000;,
  1.000000;0.000000;,
  1.000000;1.000000;,
  0.000000;1.000000;,
  0.000000;0.000000;,
  1.000000;0.000000;,
  1.000000;1.000000;,
  0.000000;1.000000;,
  1.000000;1.000000;,
  0.000000;1.000000;,
  0.000000;0.000000;,
  1.000000;0.000000;;
 }
}
