xof 0302txt 0064
template Header {
 <3D82AB43-62DA-11cf-AB39-0020AF71E433>
 WORD major;
 WORD minor;
 DWORD flags;
}

template Vector {
 <3D82AB5E-62DA-11cf-AB39-0020AF71E433>
 FLOAT x;
 FLOAT y;
 FLOAT z;
}

template Coords2d {
 <F6F23F44-7686-11cf-8F52-0040333594A3>
 FLOAT u;
 FLOAT v;
}

template Matrix4x4 {
 <F6F23F45-7686-11cf-8F52-0040333594A3>
 array FLOAT matrix[16];
}

template ColorRGBA {
 <35FF44E0-6C7C-11cf-8F52-0040333594A3>
 FLOAT red;
 FLOAT green;
 FLOAT blue;
 FLOAT alpha;
}

template ColorRGB {
 <D3E16E81-7835-11cf-8F52-0040333594A3>
 FLOAT red;
 FLOAT green;
 FLOAT blue;
}

template IndexedColor {
 <1630B820-7842-11cf-8F52-0040333594A3>
 DWORD index;
 ColorRGBA indexColor;
}

template Boolean {
 <4885AE61-78E8-11cf-8F52-0040333594A3>
 WORD truefalse;
}

template Boolean2d {
 <4885AE63-78E8-11cf-8F52-0040333594A3>
 Boolean u;
 Boolean v;
}

template MaterialWrap {
 <4885AE60-78E8-11cf-8F52-0040333594A3>
 Boolean u;
 Boolean v;
}

template TextureFilename {
 <A42790E1-7810-11cf-8F52-0040333594A3>
 STRING filename;
}

template Material {
 <3D82AB4D-62DA-11cf-AB39-0020AF71E433>
 ColorRGBA faceColor;
 FLOAT power;
 ColorRGB specularColor;
 ColorRGB emissiveColor;
 [...]
}

template MeshFace {
 <3D82AB5F-62DA-11cf-AB39-0020AF71E433>
 DWORD nFaceVertexIndices;
 array DWORD faceVertexIndices[nFaceVertexIndices];
}

template MeshFaceWraps {
 <4885AE62-78E8-11cf-8F52-0040333594A3>
 DWORD nFaceWrapValues;
 Boolean2d faceWrapValues;
}

template MeshTextureCoords {
 <F6F23F40-7686-11cf-8F52-0040333594A3>
 DWORD nTextureCoords;
 array Coords2d textureCoords[nTextureCoords];
}

template MeshMaterialList {
 <F6F23F42-7686-11cf-8F52-0040333594A3>
 DWORD nMaterials;
 DWORD nFaceIndexes;
 array DWORD faceIndexes[nFaceIndexes];
 [Material]
}

template MeshNormals {
 <F6F23F43-7686-11cf-8F52-0040333594A3>
 DWORD nNormals;
 array Vector normals[nNormals];
 DWORD nFaceNormals;
 array MeshFace faceNormals[nFaceNormals];
}

template MeshVertexColors {
 <1630B821-7842-11cf-8F52-0040333594A3>
 DWORD nVertexColors;
 array IndexedColor vertexColors[nVertexColors];
}

template Mesh {
 <3D82AB44-62DA-11cf-AB39-0020AF71E433>
 DWORD nVertices;
 array Vector vertices[nVertices];
 DWORD nFaces;
 array MeshFace faces[nFaces];
 [...]
}

Header{
1;
0;
1;
}

Mesh {
 792;
 -36.01251;7.75842;-17.19304;,
 -36.01248;6.25662;-13.32351;,
 -26.65411;6.25662;-11.57695;,
 -26.65411;7.75842;-17.19305;,
 -36.01251;3.73342;-10.49507;,
 -26.65411;3.73342;-8.51521;,
 -36.01249;-0.23139;-14.26814;,
 -26.65413;-0.23139;-11.17480;,
 -36.01251;-0.79467;-17.19304;,
 -26.65411;-0.74488;-17.19305;,
 -36.01251;-0.23139;-20.92211;,
 -26.65413;-0.23139;-23.21129;,
 -36.01249;3.73342;-24.42539;,
 -26.47430;3.78982;-25.86990;,
 -36.01250;6.25662;-21.59696;,
 -26.47431;6.31302;-22.80815;,
 -36.01251;7.75842;-17.19304;,
 -26.65411;7.75842;-17.19305;,
 -13.57118;6.25662;-10.36458;,
 -13.57118;7.75842;-17.19304;,
 -13.57118;3.73342;-7.53615;,
 -13.57118;-0.23139;-10.36458;,
 -13.57118;-1.87366;-17.19304;,
 -13.57119;-0.23139;-24.02150;,
 -13.39136;3.78982;-26.84896;,
 -13.39137;6.31302;-24.02051;,
 -13.57118;7.75842;-17.19304;,
 -7.93735;6.25662;-10.36457;,
 -7.93736;7.75842;-17.19303;,
 -7.93734;3.73342;-7.53613;,
 -7.93735;-0.23139;-10.36457;,
 -7.93735;-1.87366;-17.19304;,
 -7.93735;-0.23138;-24.02150;,
 -7.93735;3.73342;-26.84993;,
 -7.93735;6.25662;-24.02150;,
 -7.93736;7.75842;-17.19303;,
 -44.41823;3.73342;-17.19305;,
 -44.41823;3.73342;-17.19305;,
 -44.41823;3.73342;-17.19305;,
 -44.41823;3.73342;-17.19305;,
 -44.41823;3.73342;-17.19305;,
 -44.41823;3.73342;-17.19305;,
 -44.41823;3.73342;-17.19305;,
 -44.41823;3.73342;-17.19305;,
 -1.05259;3.73342;-17.19304;,
 -1.05259;3.73342;-17.19304;,
 -1.05259;3.73342;-17.19304;,
 -1.05259;3.73342;-17.19304;,
 -1.05259;3.73342;-17.19304;,
 -1.05259;3.73342;-17.19304;,
 -1.05259;3.73342;-17.19304;,
 -1.05259;3.73342;-17.19304;,
 -56.84586;5.77880;-5.65809;,
 -55.69811;5.44364;-5.44253;,
 -53.28029;5.44364;-8.15724;,
 -53.58032;5.77880;-8.90002;,
 -56.42152;4.63452;-4.60767;,
 -53.15598;4.63452;-7.84958;,
 -55.69811;3.82539;-5.44253;,
 -53.28029;3.82540;-8.15724;,
 -55.99824;3.49024;-6.18527;,
 -53.58032;3.49024;-8.90002;,
 -56.29833;3.82539;-6.92805;,
 -53.88046;3.82540;-9.64276;,
 -57.27027;4.63452;-6.70849;,
 -54.00476;4.63452;-9.95043;,
 -56.29833;5.44364;-6.92805;,
 -53.88046;5.44364;-9.64276;,
 -56.84586;5.77880;-5.65809;,
 -53.58032;5.77880;-8.90002;,
 -45.62050;5.68846;-6.88782;,
 -46.01143;6.12502;-7.85529;,
 -45.45862;4.63452;-6.48705;,
 -45.62050;3.58058;-6.88782;,
 -46.01143;3.14402;-7.85529;,
 -46.40234;3.58058;-8.82282;,
 -46.56422;4.63452;-9.22352;,
 -46.40234;5.68846;-8.82282;,
 -46.01143;6.12502;-7.85529;,
 -36.17085;6.49553;-12.20880;,
 -36.86107;7.26638;-13.91716;,
 -35.88498;4.63452;-11.50117;,
 -36.17085;2.77352;-12.20880;,
 -36.86107;2.00266;-13.91716;,
 -37.55131;2.77352;-15.62556;,
 -37.83720;4.63452;-16.33315;,
 -37.55131;6.49553;-15.62556;,
 -36.86107;7.26638;-13.91716;,
 -55.99824;4.63452;-6.18527;,
 -55.99824;4.63452;-6.18527;,
 -55.99824;4.63452;-6.18527;,
 -55.99824;4.63452;-6.18527;,
 -55.99824;4.63452;-6.18527;,
 -55.99824;4.63452;-6.18527;,
 -55.99824;4.63452;-6.18527;,
 -55.99824;4.63452;-6.18527;,
 -36.86107;4.63452;-13.91716;,
 -36.86107;4.63452;-13.91716;,
 -36.86107;4.63452;-13.91716;,
 -36.86107;4.63452;-13.91716;,
 -36.86107;4.63452;-13.91716;,
 -36.86107;4.63452;-13.91716;,
 -36.86107;4.63452;-13.91716;,
 -36.86107;4.63452;-13.91716;,
 -5.34918;6.37775;-22.13626;,
 -4.36361;6.48008;-20.72870;,
 -6.00015;5.79493;-27.59028;,
 -6.59271;6.22287;-28.43657;,
 -3.95540;4.76181;-20.14570;,
 -5.75468;4.76181;-27.23975;,
 -4.36361;3.04354;-20.72870;,
 -6.00015;3.72868;-27.59028;,
 -5.34918;1.51775;-22.13626;,
 -6.59271;3.30075;-28.43657;,
 -7.70135;2.22948;-23.76023;,
 -7.18530;3.72868;-29.28288;,
 -8.10958;3.94775;-24.34324;,
 -7.43075;4.76181;-29.63340;,
 -7.70135;5.66602;-23.76023;,
 -7.18530;5.79493;-29.28288;,
 -5.34918;6.37775;-22.13626;,
 -6.59271;6.22287;-28.43657;,
 6.45721;5.62513;-39.09017;,
 5.96206;5.98273;-39.79737;,
 6.66233;4.76181;-38.79723;,
 6.45721;3.89848;-39.09017;,
 5.96206;3.54088;-39.79737;,
 5.46687;3.89848;-40.50458;,
 5.26175;4.76181;-40.79751;,
 5.46687;5.62513;-40.50458;,
 5.96206;5.98273;-39.79737;,
 10.58756;5.62513;-44.84759;,
 10.09241;5.98273;-45.55480;,
 10.79269;4.76181;-44.55468;,
 10.58756;3.89848;-44.84759;,
 10.09241;3.54088;-45.55480;,
 9.59722;3.89848;-46.26200;,
 9.39211;4.76181;-46.55490;,
 9.59722;5.62513;-46.26200;,
 10.09241;5.98273;-45.55480;,
 -5.34918;3.94775;-22.13626;,
 -5.34918;3.94775;-22.13626;,
 -5.34918;3.94775;-22.13626;,
 -5.34918;3.94775;-22.13626;,
 -5.34918;3.94775;-22.13626;,
 -5.34918;3.94775;-22.13626;,
 -5.34918;3.94775;-22.13626;,
 -5.34918;3.94775;-22.13626;,
 10.09239;4.76181;-45.55479;,
 10.09239;4.76181;-45.55479;,
 10.09239;4.76181;-45.55479;,
 10.09239;4.76181;-45.55479;,
 10.09239;4.76181;-45.55479;,
 10.09239;4.76181;-45.55479;,
 10.09239;4.76181;-45.55479;,
 10.09239;4.76181;-45.55479;,
 -56.85629;5.67758;-30.53202;,
 -56.53472;5.35499;-29.30136;,
 -53.80833;5.39542;-26.58186;,
 -53.42078;5.71801;-27.28881;,
 -57.40420;4.55118;-29.52015;,
 -53.96870;4.59161;-26.27691;,
 -56.53428;3.73701;-29.27222;,
 -53.80784;3.77744;-26.55270;,
 -56.14652;3.38940;-29.96713;,
 -53.42013;3.42983;-27.24759;,
 -55.75896;3.71198;-30.67412;,
 -53.03251;3.75241;-27.95457;,
 -56.30766;4.51579;-31.50265;,
 -52.87215;4.55622;-28.25943;,
 -55.75941;5.32997;-30.70327;,
 -53.03302;5.37040;-27.98372;,
 -56.85629;5.67758;-30.53202;,
 -53.42078;5.71801;-27.28881;,
 -45.97656;5.70014;-25.47742;,
 -45.47179;6.12032;-26.39832;,
 -46.18546;4.65311;-25.08031;,
 -45.97595;3.59259;-25.43947;,
 -45.47093;3.13981;-26.34463;,
 -44.96602;3.55999;-27.26551;,
 -44.75716;4.60702;-27.66266;,
 -44.96668;5.66754;-27.30349;,
 -45.47179;6.12032;-26.39832;,
 -37.89433;6.60803;-19.07691;,
 -37.00290;7.34998;-20.70293;,
 -38.26315;4.75925;-18.37562;,
 -37.89327;2.88663;-19.00987;,
 -37.00139;2.08712;-20.60813;,
 -36.10993;2.82907;-22.23420;,
 -35.74116;4.67785;-22.93546;,
 -36.11103;6.55048;-22.30122;,
 -37.00290;7.34998;-20.70293;,
 -56.14681;4.53349;-29.98774;,
 -56.14681;4.53349;-29.98774;,
 -56.14681;4.53349;-29.98774;,
 -56.14681;4.53349;-29.98774;,
 -56.14681;4.53349;-29.98774;,
 -56.14681;4.53349;-29.98774;,
 -56.14681;4.53349;-29.98774;,
 -56.14681;4.53349;-29.98774;,
 -37.00214;4.71855;-20.65553;,
 -37.00214;4.71855;-20.65553;,
 -37.00214;4.71855;-20.65553;,
 -37.00214;4.71855;-20.65553;,
 -37.00214;4.71855;-20.65553;,
 -37.00214;4.71855;-20.65553;,
 -37.00214;4.71855;-20.65553;,
 -37.00214;4.71855;-20.65553;,
 -5.04369;1.62008;-12.22940;,
 -4.05812;1.51775;-13.63697;,
 -5.69464;2.20290;-6.77537;,
 -6.28721;1.77496;-5.92910;,
 -3.64991;3.23602;-14.21996;,
 -5.44917;3.23602;-7.12591;,
 -4.05812;4.95429;-13.63697;,
 -5.69464;4.26915;-6.77537;,
 -5.04369;6.48008;-12.22940;,
 -6.28721;4.69708;-5.92910;,
 -7.39586;5.76835;-10.60543;,
 -6.87980;4.26915;-5.08280;,
 -7.80409;4.05008;-10.02244;,
 -7.12524;3.23602;-4.73228;,
 -7.39586;2.33181;-10.60543;,
 -6.87980;2.20290;-5.08280;,
 -5.04369;1.62008;-12.22940;,
 -6.28721;1.77496;-5.92910;,
 6.76272;2.37270;4.72452;,
 6.26756;2.01510;5.43169;,
 6.96782;3.23602;4.43157;,
 6.76272;4.09935;4.72452;,
 6.26756;4.45695;5.43169;,
 5.77237;4.09935;6.13889;,
 5.56723;3.23602;6.43186;,
 5.77237;2.37270;6.13889;,
 6.26756;2.01510;5.43169;,
 10.89308;2.37270;10.48193;,
 10.39791;2.01510;11.18913;,
 11.09818;3.23602;10.18903;,
 10.89308;4.09935;10.48193;,
 10.39791;4.45695;11.18913;,
 9.90272;4.09935;11.89635;,
 9.69761;3.23602;12.18924;,
 9.90272;2.37270;11.89635;,
 10.39791;2.01510;11.18913;,
 -5.04369;4.05008;-12.22940;,
 -5.04369;4.05008;-12.22940;,
 -5.04369;4.05008;-12.22940;,
 -5.04369;4.05008;-12.22940;,
 -5.04369;4.05008;-12.22940;,
 -5.04369;4.05008;-12.22940;,
 -5.04369;4.05008;-12.22940;,
 -5.04369;4.05008;-12.22940;,
 10.39787;3.23602;11.18913;,
 10.39787;3.23602;11.18913;,
 10.39787;3.23602;11.18913;,
 10.39787;3.23602;11.18913;,
 10.39787;3.23602;11.18913;,
 10.39787;3.23602;11.18913;,
 10.39787;3.23602;11.18913;,
 10.39787;3.23602;11.18913;,
 -5.43663;6.14053;-17.32084;,
 -5.43664;5.55168;-15.89923;,
 22.31222;7.23740;-15.89921;,
 22.31223;7.82625;-17.32083;,
 -5.43663;4.13007;-15.31037;,
 22.31223;5.81579;-15.31038;,
 -5.43664;2.70846;-15.89923;,
 22.31222;4.39418;-15.89921;,
 -5.43663;2.11961;-17.32084;,
 22.31223;3.80533;-17.32083;,
 -5.43664;2.70846;-18.74245;,
 22.31222;4.39418;-18.74244;,
 -5.43663;4.13007;-19.33130;,
 22.31223;5.81579;-19.33131;,
 -5.43664;5.55168;-18.74245;,
 22.31222;7.23740;-18.74244;,
 -5.43663;6.14053;-17.32084;,
 22.31223;7.82625;-17.32083;,
 28.51609;7.74292;-14.79807;,
 28.51608;8.54116;-17.32084;,
 28.51611;5.81579;-13.75309;,
 28.51609;3.88867;-14.79807;,
 28.51608;3.09042;-17.32084;,
 28.51611;3.88867;-19.84362;,
 28.51608;5.81579;-20.88857;,
 28.51611;7.74292;-19.84362;,
 28.51608;8.54116;-17.32084;,
 38.61736;6.05720;-14.79805;,
 38.61191;6.65474;-17.25544;,
 38.61737;4.44122;-13.86947;,
 39.88670;3.96964;-15.27790;,
 41.05007;3.69580;-17.32079;,
 39.88674;3.89867;-19.18945;,
 38.61188;4.38709;-20.70537;,
 38.61191;5.85649;-19.77824;,
 38.61191;6.65474;-17.25544;,
 -5.43663;4.13007;-17.32084;,
 -5.43663;4.13007;-17.32084;,
 -5.43663;4.13007;-17.32084;,
 -5.43663;4.13007;-17.32084;,
 -5.43663;4.13007;-17.32084;,
 -5.43663;4.13007;-17.32084;,
 -5.43663;4.13007;-17.32084;,
 -5.43663;4.13007;-17.32084;,
 38.61737;4.13007;-17.32082;,
 38.61737;4.13007;-17.32082;,
 38.61737;4.13007;-17.32082;,
 38.61737;4.13007;-17.32082;,
 38.61737;4.13007;-17.32082;,
 38.61737;4.13007;-17.32082;,
 38.61737;4.13007;-17.32082;,
 38.61737;4.13007;-17.32082;,
 38.59641;6.61179;-17.28992;,
 57.38699;4.60098;-17.27070;,
 38.56737;5.90548;-19.87510;,
 57.38699;4.60098;-17.27070;,
 38.54527;4.62851;-20.69505;,
 57.38699;4.60098;-17.27070;,
 38.88605;3.95460;-19.69770;,
 57.38699;4.60098;-17.27070;,
 38.88605;3.45848;-17.28994;,
 57.38699;4.60098;-17.27070;,
 38.88606;3.95460;-14.88215;,
 57.38699;4.60098;-17.27070;,
 38.64596;4.42634;-13.88294;,
 57.38699;4.60098;-17.27070;,
 38.67198;6.06512;-14.88215;,
 57.38699;4.60098;-17.27070;,
 38.59641;6.61179;-17.28992;,
 38.88605;4.62851;-17.28994;,
 38.59641;6.61179;-17.28992;,
 38.56737;5.90548;-19.87510;,
 38.54527;4.62851;-20.69505;,
 38.88605;3.95460;-19.69770;,
 38.88605;3.45848;-17.28994;,
 38.88606;3.95460;-14.88215;,
 38.64596;4.42634;-13.88294;,
 38.67198;6.06512;-14.88215;,
 38.73130;6.68075;-14.46421;,
 38.98765;6.60864;-14.20789;,
 39.09381;6.60864;-14.46423;,
 38.73130;6.68075;-14.46421;,
 38.73131;6.60864;-14.10171;,
 38.73130;6.68075;-14.46421;,
 38.47493;6.60864;-14.20789;,
 38.73130;6.68075;-14.46421;,
 38.36878;6.60864;-14.46421;,
 38.73130;6.68075;-14.46421;,
 38.47495;6.60864;-14.72054;,
 38.73130;6.68075;-14.46421;,
 38.73129;6.60864;-14.82672;,
 38.73130;6.68075;-14.46421;,
 38.98761;6.60864;-14.72054;,
 38.73130;6.68075;-14.46421;,
 39.09381;6.60864;-14.46423;,
 39.20493;6.40330;-13.99058;,
 39.40111;6.40330;-14.46423;,
 38.73129;6.40330;-13.79440;,
 38.25765;6.40330;-13.99056;,
 38.06154;6.40330;-14.46422;,
 38.25768;6.40330;-14.93783;,
 38.73131;6.40330;-15.13402;,
 39.20494;6.40330;-14.93784;,
 39.40111;6.40330;-14.46423;,
 39.35011;6.09599;-13.84538;,
 39.60643;6.09599;-14.46422;,
 38.73131;6.09599;-13.58906;,
 38.11248;6.09599;-13.84539;,
 37.85612;6.09599;-14.46422;,
 38.11247;6.09599;-15.08305;,
 38.73130;6.09599;-15.33936;,
 39.35013;6.09599;-15.08303;,
 39.60643;6.09599;-14.46422;,
 39.40109;5.73349;-13.79441;,
 39.67856;5.73349;-14.46421;,
 38.73130;5.73349;-13.51693;,
 38.06151;5.73349;-13.79442;,
 37.78404;5.73349;-14.46422;,
 38.06151;5.73349;-15.13403;,
 38.73132;5.73349;-15.41148;,
 39.40109;5.73349;-15.13403;,
 39.67856;5.73349;-14.46421;,
 39.35011;5.37100;-13.84538;,
 39.60643;5.37100;-14.46422;,
 38.73131;5.37100;-13.58906;,
 38.11248;5.37100;-13.84539;,
 37.85612;5.37100;-14.46422;,
 38.11247;5.37100;-15.08305;,
 38.73130;5.37100;-15.33936;,
 39.35013;5.37100;-15.08303;,
 39.60643;5.37100;-14.46422;,
 39.20493;5.06368;-13.99058;,
 39.40111;5.06368;-14.46423;,
 38.73129;5.06368;-13.79440;,
 38.25765;5.06368;-13.99056;,
 38.06154;5.06368;-14.46422;,
 38.25768;5.06368;-14.93783;,
 38.73131;5.06368;-15.13402;,
 39.20494;5.06368;-14.93784;,
 39.40111;5.06368;-14.46423;,
 38.98765;4.85834;-14.20789;,
 39.09381;4.85834;-14.46423;,
 38.73131;4.85834;-14.10171;,
 38.47493;4.85834;-14.20789;,
 38.36878;4.85834;-14.46421;,
 38.47495;4.85834;-14.72054;,
 38.73129;4.85834;-14.82672;,
 38.98761;4.85834;-14.72054;,
 39.09381;4.85834;-14.46423;,
 38.73130;4.78624;-14.46421;,
 38.73130;4.78624;-14.46421;,
 38.73130;4.78624;-14.46421;,
 38.73130;4.78624;-14.46421;,
 38.73130;4.78624;-14.46421;,
 38.73130;4.78624;-14.46421;,
 38.73130;4.78624;-14.46421;,
 38.73130;4.78624;-14.46421;,
 38.73127;6.68075;-19.94539;,
 38.98762;6.60864;-19.68908;,
 39.09380;6.60864;-19.94540;,
 38.73127;6.68075;-19.94539;,
 38.73129;6.60864;-19.58291;,
 38.73127;6.68075;-19.94539;,
 38.47497;6.60864;-19.68911;,
 38.73127;6.68075;-19.94539;,
 38.36879;6.60864;-19.94542;,
 38.73127;6.68075;-19.94539;,
 38.47497;6.60864;-20.20175;,
 38.73127;6.68075;-19.94539;,
 38.73133;6.60864;-20.30792;,
 38.73127;6.68075;-19.94539;,
 38.98763;6.60864;-20.20172;,
 38.73127;6.68075;-19.94539;,
 39.09380;6.60864;-19.94540;,
 39.20494;6.40330;-19.47178;,
 39.40107;6.40330;-19.94540;,
 38.73128;6.40330;-19.27563;,
 38.25767;6.40330;-19.47180;,
 38.06151;6.40330;-19.94541;,
 38.25767;6.40330;-20.41903;,
 38.73129;6.40330;-20.61523;,
 39.20490;6.40330;-20.41902;,
 39.40107;6.40330;-19.94540;,
 39.35010;6.09599;-19.32658;,
 39.60642;6.09599;-19.94540;,
 38.73129;6.09599;-19.07026;,
 38.11246;6.09599;-19.32660;,
 37.85613;6.09599;-19.94541;,
 38.11245;6.09599;-20.56423;,
 38.73127;6.09599;-20.82056;,
 39.35011;6.09599;-20.56426;,
 39.60642;6.09599;-19.94540;,
 39.40111;5.73349;-19.27561;,
 39.67854;5.73349;-19.94543;,
 38.73129;5.73349;-18.99815;,
 38.06151;5.73349;-19.27559;,
 37.78403;5.73349;-19.94542;,
 38.06150;5.73349;-20.61524;,
 38.73128;5.73349;-20.89266;,
 39.40108;5.73349;-20.61523;,
 39.67854;5.73349;-19.94543;,
 39.35010;5.37100;-19.32658;,
 39.60642;5.37100;-19.94540;,
 38.73129;5.37100;-19.07026;,
 38.11246;5.37100;-19.32660;,
 37.85613;5.37100;-19.94541;,
 38.11245;5.37100;-20.56423;,
 38.73127;5.37100;-20.82056;,
 39.35011;5.37100;-20.56426;,
 39.60642;5.37100;-19.94540;,
 39.20494;5.06368;-19.47178;,
 39.40107;5.06368;-19.94540;,
 38.73128;5.06368;-19.27563;,
 38.25767;5.06368;-19.47180;,
 38.06151;5.06368;-19.94541;,
 38.25767;5.06368;-20.41903;,
 38.73129;5.06368;-20.61523;,
 39.20490;5.06368;-20.41902;,
 39.40107;5.06368;-19.94540;,
 38.98762;4.85834;-19.68908;,
 39.09380;4.85834;-19.94540;,
 38.73129;4.85834;-19.58291;,
 38.47497;4.85834;-19.68911;,
 38.36879;4.85834;-19.94542;,
 38.47497;4.85834;-20.20175;,
 38.73133;4.85834;-20.30792;,
 38.98763;4.85834;-20.20172;,
 39.09380;4.85834;-19.94540;,
 38.73127;4.78624;-19.94539;,
 38.73127;4.78624;-19.94539;,
 38.73127;4.78624;-19.94539;,
 38.73127;4.78624;-19.94539;,
 38.73127;4.78624;-19.94539;,
 38.73127;4.78624;-19.94539;,
 38.73127;4.78624;-19.94539;,
 38.73127;4.78624;-19.94539;,
 -8.45959;7.87370;-17.30902;,
 -2.00575;5.08045;-2.96157;,
 -2.00575;4.60045;-2.96157;,
 -8.45959;5.89886;-9.62017;,
 9.04784;5.08045;6.49140;,
 9.04784;4.60045;6.49140;,
 11.22413;5.08045;12.86117;,
 11.22413;4.60045;12.86117;,
 8.67310;6.37886;22.28800;,
 8.67310;5.89886;22.28800;,
 6.26037;6.37886;25.62133;,
 6.26037;5.89886;25.62133;,
 0.85956;6.28244;33.02007;,
 0.85956;5.80244;33.02007;,
 0.85956;6.28244;33.02007;,
 -6.17922;6.28244;41.27156;,
 -6.17922;5.80244;41.27156;,
 0.85956;5.80244;33.02007;,
 -15.95882;6.28244;48.11259;,
 -15.95882;5.80244;48.11259;,
 -22.71147;6.28244;54.97684;,
 -22.71147;5.80244;54.97684;,
 -27.12076;6.28244;52.26920;,
 -27.05226;5.89886;52.38911;,
 -25.38753;6.31620;44.08424;,
 -25.32313;5.89886;44.19532;,
 -18.22414;6.29690;31.19549;,
 -18.24785;5.89886;31.16054;,
 -18.22414;6.29690;31.19549;,
 -15.08824;6.37886;26.16112;,
 -15.08824;5.89886;26.16112;,
 -18.24785;5.89886;31.16054;,
 -17.02451;6.37886;21.34527;,
 -17.02451;5.89886;21.34527;,
 -19.96743;6.37886;13.90593;,
 -19.96743;5.89886;13.90593;,
 -25.63253;6.37886;3.79065;,
 -25.63253;5.89886;3.79065;,
 -56.94607;6.37886;-6.93754;,
 -56.94607;5.89886;-6.93754;,
 -46.44464;7.78430;-17.30900;,
 -33.71895;5.89886;-9.62017;,
 -46.44464;7.78430;-17.30900;,
 -30.38564;7.87370;-17.30901;,
 -30.38562;5.89886;-9.62016;,
 -33.71895;5.89886;-9.62017;,
 -27.05228;7.87370;-17.30901;,
 -27.05228;5.89886;-9.62017;,
 -23.71896;7.87370;-17.30902;,
 -23.71896;5.89886;-9.62017;,
 -20.38562;7.87370;-17.30902;,
 -20.38562;5.89886;-9.62017;,
 -17.05228;7.87370;-17.30901;,
 -17.05228;5.89886;-9.62017;,
 -8.45959;7.87370;-17.30902;,
 -8.45959;5.89886;-9.62017;,
 -56.94607;6.37886;-6.93754;,
 -19.21897;6.37886;-2.96156;,
 -30.38564;7.87370;-17.30901;,
 -25.63253;6.37886;3.79065;,
 -13.63797;6.37886;6.49143;,
 -13.63798;6.37886;12.86115;,
 -17.02451;6.37886;21.34527;,
 -13.63795;6.37886;22.28798;,
 -15.08824;6.37886;26.16112;,
 -13.63794;6.37886;25.62123;,
 -25.38753;6.31620;44.08424;,
 -15.88564;6.37886;-2.96156;,
 -27.05228;7.87370;-17.30901;,
 -10.30464;6.37886;6.49140;,
 -10.30462;6.37886;12.86115;,
 -10.30462;6.37886;22.28795;,
 -10.30461;6.37886;25.62122;,
 -27.12076;6.28244;52.26920;,
 -12.55230;6.37886;-2.96155;,
 -23.71896;7.87370;-17.30902;,
 -6.97131;6.37886;6.49142;,
 -6.97129;6.37886;12.86113;,
 -6.97129;6.37886;22.28800;,
 -6.97128;6.37886;25.62129;,
 -22.71147;6.28244;54.97684;,
 -9.21897;6.37886;-2.96156;,
 -20.38562;7.87370;-17.30902;,
 -3.63797;6.37886;6.49142;,
 -3.63797;6.37886;12.86115;,
 -3.63795;6.37886;22.28797;,
 -3.63795;6.37886;25.62130;,
 -15.95882;6.28244;48.11259;,
 -5.88564;6.37886;-2.96157;,
 -17.05228;7.87370;-17.30901;,
 -0.30463;6.37886;6.49141;,
 -0.30461;6.37886;12.86117;,
 -0.30461;6.37886;22.28795;,
 -0.30461;6.37886;25.62136;,
 -6.17922;6.28244;41.27156;,
 -2.00575;5.08045;-2.96157;,
 -8.45959;7.87370;-17.30902;,
 9.04784;5.08045;6.49140;,
 11.22413;5.08045;12.86117;,
 8.67310;6.37886;22.28800;,
 6.26037;6.37886;25.62133;,
 0.85956;6.28244;33.02007;,
 -30.38562;5.89886;-9.62016;,
 -19.21897;5.89886;-2.96156;,
 -56.94607;5.89886;-6.93754;,
 -13.63797;5.89886;6.49143;,
 -25.63253;5.89886;3.79065;,
 -13.63798;5.89886;12.86115;,
 -13.63795;5.89886;22.28798;,
 -17.02451;5.89886;21.34527;,
 -13.63794;5.89886;25.62123;,
 -15.08824;5.89886;26.16112;,
 -25.32313;5.89886;44.19532;,
 -27.05228;5.89886;-9.62017;,
 -15.88564;5.89886;-2.96156;,
 -10.30464;5.89886;6.49140;,
 -10.30462;5.89886;12.86115;,
 -10.30462;5.89886;22.28795;,
 -10.30461;5.89886;25.62122;,
 -27.05226;5.89886;52.38911;,
 -23.71896;5.89886;-9.62017;,
 -12.55230;5.89886;-2.96155;,
 -6.97131;5.89886;6.49142;,
 -6.97129;5.89886;12.86113;,
 -6.97129;5.89886;22.28800;,
 -6.97128;5.89886;25.62129;,
 -22.71147;5.80244;54.97684;,
 -20.38562;5.89886;-9.62017;,
 -9.21897;5.89886;-2.96156;,
 -3.63797;5.89886;6.49142;,
 -3.63797;5.89886;12.86115;,
 -3.63795;5.89886;22.28797;,
 -3.63795;5.89886;25.62130;,
 -15.95882;5.80244;48.11259;,
 -17.05228;5.89886;-9.62017;,
 -5.88564;5.89886;-2.96157;,
 -0.30463;5.89886;6.49141;,
 -0.30461;5.89886;12.86117;,
 -0.30461;5.89886;22.28795;,
 -0.30461;5.89886;25.62136;,
 -6.17922;5.80244;41.27156;,
 -8.45959;5.89886;-9.62017;,
 -2.00575;4.60045;-2.96157;,
 9.04784;4.60045;6.49140;,
 11.22413;4.60045;12.86117;,
 8.67310;5.89886;22.28800;,
 6.26037;5.89886;25.62133;,
 0.85956;5.80244;33.02007;,
 -8.45959;5.87601;-24.84010;,
 -2.00574;5.80244;-31.44181;,
 -2.00574;6.28244;-31.44181;,
 -8.45959;7.88119;-17.35922;,
 9.04784;5.80244;-40.89479;,
 9.04784;6.28244;-40.89479;,
 11.22411;5.80244;-47.26456;,
 11.22411;6.28244;-47.26456;,
 8.67308;5.80244;-56.69134;,
 8.67308;6.28244;-56.69134;,
 6.26035;5.80244;-60.02474;,
 6.26035;6.28244;-60.02474;,
 0.85955;5.89886;-67.42343;,
 0.85955;6.37886;-67.42343;,
 0.85955;5.89886;-67.42343;,
 -6.17924;5.89886;-75.67492;,
 -6.17924;6.37886;-75.67492;,
 0.85955;6.37886;-67.42343;,
 -15.95883;5.89886;-82.51596;,
 -15.95883;6.37886;-82.51596;,
 -22.71144;5.89886;-89.38022;,
 -22.71144;6.37886;-89.38022;,
 -27.12077;5.89886;-86.67261;,
 -27.05226;6.28244;-86.79247;,
 -25.38753;5.86511;-78.48757;,
 -25.32315;6.28244;-78.59874;,
 -19.84033;5.88441;-67.57825;,
 -19.86406;6.28244;-67.54334;,
 -19.84033;5.88441;-67.57825;,
 -15.36997;5.80244;-60.56450;,
 -15.36997;6.28244;-60.56450;,
 -19.86406;6.28244;-67.54334;,
 -17.30626;5.80244;-55.74860;,
 -17.30626;6.28244;-55.74860;,
 -20.24915;5.80244;-48.30931;,
 -20.24915;6.28244;-48.30931;,
 -24.14095;5.80244;-39.79198;,
 -24.14095;6.28244;-39.79198;,
 -56.94605;5.80244;-27.46585;,
 -56.94605;6.28244;-27.46585;,
 -34.63763;5.49504;-24.84010;,
 -46.77719;7.88119;-17.35922;,
 -34.63763;5.49504;-24.84010;,
 -30.38564;5.87601;-24.84011;,
 -30.38562;7.88119;-17.35922;,
 -46.77719;7.88119;-17.35922;,
 -27.05227;5.87601;-24.84009;,
 -27.05228;7.88119;-17.35921;,
 -23.71895;5.87601;-24.84010;,
 -23.71895;7.88119;-17.35922;,
 -20.38562;5.87601;-24.84010;,
 -20.38563;7.88119;-17.35922;,
 -17.05229;5.87601;-24.84009;,
 -17.05228;7.88119;-17.35922;,
 -8.45959;5.87601;-24.84010;,
 -8.45959;7.88119;-17.35922;,
 -56.94605;5.80244;-27.46585;,
 -19.21897;5.80244;-31.44181;,
 -30.38564;5.87601;-24.84011;,
 -24.14095;5.80244;-39.79198;,
 -12.84379;5.80244;-40.89478;,
 -12.84379;5.80244;-47.26454;,
 -17.30626;5.80244;-55.74860;,
 -12.84379;5.80244;-56.69135;,
 -15.36997;5.80244;-60.56450;,
 -12.84375;5.80244;-60.02467;,
 -25.38753;5.86511;-78.48757;,
 -15.88564;5.80244;-31.44181;,
 -27.05227;5.87601;-24.84009;,
 -9.51046;5.80244;-40.89479;,
 -9.51046;5.80244;-47.26455;,
 -9.51044;5.80244;-56.69133;,
 -9.51041;5.80244;-60.02465;,
 -27.12077;5.89886;-86.67261;,
 -12.55230;5.80244;-31.44182;,
 -23.71895;5.87601;-24.84010;,
 -6.17714;5.80244;-40.89477;,
 -6.17711;5.80244;-47.26454;,
 -6.17710;5.80244;-56.69136;,
 -6.17710;5.80244;-60.02467;,
 -22.71144;5.89886;-89.38022;,
 -9.21897;5.80244;-31.44181;,
 -20.38562;5.87601;-24.84010;,
 -2.84379;5.80244;-40.89479;,
 -2.84378;5.80244;-47.26453;,
 -2.84376;5.80244;-56.69134;,
 -2.84379;5.80244;-60.02469;,
 -15.95883;5.89886;-82.51596;,
 -5.88562;5.80244;-31.44183;,
 -17.05229;5.87601;-24.84009;,
 0.48955;5.80244;-40.89479;,
 0.48956;5.80244;-47.26456;,
 0.48957;5.80244;-56.69136;,
 0.48956;5.80244;-60.02468;,
 -6.17924;5.89886;-75.67492;,
 -2.00574;5.80244;-31.44181;,
 -8.45959;5.87601;-24.84010;,
 9.04784;5.80244;-40.89479;,
 11.22411;5.80244;-47.26456;,
 8.67308;5.80244;-56.69134;,
 6.26035;5.80244;-60.02474;,
 0.85955;5.89886;-67.42343;,
 -30.38562;7.88119;-17.35922;,
 -19.21897;6.28244;-31.44181;,
 -56.94605;6.28244;-27.46585;,
 -12.84379;6.28244;-40.89478;,
 -24.14095;6.28244;-39.79198;,
 -12.84379;6.28244;-47.26454;,
 -12.84379;6.28244;-56.69135;,
 -17.30626;6.28244;-55.74860;,
 -12.84375;6.28244;-60.02467;,
 -15.36997;6.28244;-60.56450;,
 -25.32315;6.28244;-78.59874;,
 -27.05228;7.88119;-17.35921;,
 -15.88564;6.28244;-31.44181;,
 -9.51046;6.28244;-40.89479;,
 -9.51046;6.28244;-47.26455;,
 -9.51044;6.28244;-56.69133;,
 -9.51041;6.28244;-60.02465;,
 -27.05226;6.28244;-86.79247;,
 -23.71895;7.88119;-17.35922;,
 -12.55230;6.28244;-31.44182;,
 -6.17714;6.28244;-40.89477;,
 -6.17711;6.28244;-47.26454;,
 -6.17710;6.28244;-56.69136;,
 -6.17710;6.28244;-60.02467;,
 -22.71144;6.37886;-89.38022;,
 -20.38563;7.88119;-17.35922;,
 -9.21897;6.28244;-31.44181;,
 -2.84379;6.28244;-40.89479;,
 -2.84378;6.28244;-47.26453;,
 -2.84376;6.28244;-56.69134;,
 -2.84379;6.28244;-60.02469;,
 -15.95883;6.37886;-82.51596;,
 -17.05228;7.88119;-17.35922;,
 -5.88562;6.28244;-31.44183;,
 0.48955;6.28244;-40.89479;,
 0.48956;6.28244;-47.26456;,
 0.48957;6.28244;-56.69136;,
 0.48956;6.28244;-60.02468;,
 -6.17924;6.37886;-75.67492;,
 -8.45959;7.88119;-17.35922;,
 -2.00574;6.28244;-31.44181;,
 9.04784;6.28244;-40.89479;,
 11.22411;6.28244;-47.26456;,
 8.67308;6.28244;-56.69134;,
 6.26035;6.28244;-60.02474;,
 0.85955;6.37886;-67.42343;;
 
 576;
 4;0,1,2,3;,
 4;1,4,5,2;,
 4;4,6,7,5;,
 4;6,8,9,7;,
 4;8,10,11,9;,
 4;10,12,13,11;,
 4;12,14,15,13;,
 4;14,16,17,15;,
 4;3,2,18,19;,
 4;2,5,20,18;,
 4;5,7,21,20;,
 4;7,9,22,21;,
 4;9,11,23,22;,
 4;11,13,24,23;,
 4;13,15,25,24;,
 4;15,17,26,25;,
 4;19,18,27,28;,
 4;18,20,29,27;,
 4;20,21,30,29;,
 4;21,22,31,30;,
 4;22,23,32,31;,
 4;23,24,33,32;,
 4;24,25,34,33;,
 4;25,26,35,34;,
 3;36,1,0;,
 3;37,4,1;,
 3;38,6,4;,
 3;39,8,6;,
 3;40,10,8;,
 3;41,12,10;,
 3;42,14,12;,
 3;43,16,14;,
 3;44,28,27;,
 3;45,27,29;,
 3;46,29,30;,
 3;47,30,31;,
 3;48,31,32;,
 3;49,32,33;,
 3;50,33,34;,
 3;51,34,35;,
 4;52,53,54,55;,
 4;53,56,57,54;,
 4;56,58,59,57;,
 4;58,60,61,59;,
 4;60,62,63,61;,
 4;62,64,65,63;,
 4;64,66,67,65;,
 4;66,68,69,67;,
 4;55,54,70,71;,
 4;54,57,72,70;,
 4;57,59,73,72;,
 4;59,61,74,73;,
 4;61,63,75,74;,
 4;63,65,76,75;,
 4;65,67,77,76;,
 4;67,69,78,77;,
 4;71,70,79,80;,
 4;70,72,81,79;,
 4;72,73,82,81;,
 4;73,74,83,82;,
 4;74,75,84,83;,
 4;75,76,85,84;,
 4;76,77,86,85;,
 4;77,78,87,86;,
 3;88,53,52;,
 3;89,56,53;,
 3;90,58,56;,
 3;91,60,58;,
 3;92,62,60;,
 3;93,64,62;,
 3;94,66,64;,
 3;95,68,66;,
 3;96,80,79;,
 3;97,79,81;,
 3;98,81,82;,
 3;99,82,83;,
 3;100,83,84;,
 3;101,84,85;,
 3;102,85,86;,
 3;103,86,87;,
 4;104,105,106,107;,
 4;105,108,109,106;,
 4;108,110,111,109;,
 4;110,112,113,111;,
 4;112,114,115,113;,
 4;114,116,117,115;,
 4;116,118,119,117;,
 4;118,120,121,119;,
 4;107,106,122,123;,
 4;106,109,124,122;,
 4;109,111,125,124;,
 4;111,113,126,125;,
 4;113,115,127,126;,
 4;115,117,128,127;,
 4;117,119,129,128;,
 4;119,121,130,129;,
 4;123,122,131,132;,
 4;122,124,133,131;,
 4;124,125,134,133;,
 4;125,126,135,134;,
 4;126,127,136,135;,
 4;127,128,137,136;,
 4;128,129,138,137;,
 4;129,130,139,138;,
 3;140,105,104;,
 3;141,108,105;,
 3;142,110,108;,
 3;143,112,110;,
 3;144,114,112;,
 3;145,116,114;,
 3;146,118,116;,
 3;147,120,118;,
 3;148,132,131;,
 3;149,131,133;,
 3;150,133,134;,
 3;151,134,135;,
 3;152,135,136;,
 3;153,136,137;,
 3;154,137,138;,
 3;155,138,139;,
 4;156,157,158,159;,
 4;157,160,161,158;,
 4;160,162,163,161;,
 4;162,164,165,163;,
 4;164,166,167,165;,
 4;166,168,169,167;,
 4;168,170,171,169;,
 4;170,172,173,171;,
 4;159,158,174,175;,
 4;158,161,176,174;,
 4;161,163,177,176;,
 4;163,165,178,177;,
 4;165,167,179,178;,
 4;167,169,180,179;,
 4;169,171,181,180;,
 4;171,173,182,181;,
 4;175,174,183,184;,
 4;174,176,185,183;,
 4;176,177,186,185;,
 4;177,178,187,186;,
 4;178,179,188,187;,
 4;179,180,189,188;,
 4;180,181,190,189;,
 4;181,182,191,190;,
 3;192,157,156;,
 3;193,160,157;,
 3;194,162,160;,
 3;195,164,162;,
 3;196,166,164;,
 3;197,168,166;,
 3;198,170,168;,
 3;199,172,170;,
 3;200,184,183;,
 3;201,183,185;,
 3;202,185,186;,
 3;203,186,187;,
 3;204,187,188;,
 3;205,188,189;,
 3;206,189,190;,
 3;207,190,191;,
 4;208,209,210,211;,
 4;209,212,213,210;,
 4;212,214,215,213;,
 4;214,216,217,215;,
 4;216,218,219,217;,
 4;218,220,221,219;,
 4;220,222,223,221;,
 4;222,224,225,223;,
 4;211,210,226,227;,
 4;210,213,228,226;,
 4;213,215,229,228;,
 4;215,217,230,229;,
 4;217,219,231,230;,
 4;219,221,232,231;,
 4;221,223,233,232;,
 4;223,225,234,233;,
 4;227,226,235,236;,
 4;226,228,237,235;,
 4;228,229,238,237;,
 4;229,230,239,238;,
 4;230,231,240,239;,
 4;231,232,241,240;,
 4;232,233,242,241;,
 4;233,234,243,242;,
 3;244,209,208;,
 3;245,212,209;,
 3;246,214,212;,
 3;247,216,214;,
 3;248,218,216;,
 3;249,220,218;,
 3;250,222,220;,
 3;251,224,222;,
 3;252,236,235;,
 3;253,235,237;,
 3;254,237,238;,
 3;255,238,239;,
 3;256,239,240;,
 3;257,240,241;,
 3;258,241,242;,
 3;259,242,243;,
 4;260,261,262,263;,
 4;261,264,265,262;,
 4;264,266,267,265;,
 4;266,268,269,267;,
 4;268,270,271,269;,
 4;270,272,273,271;,
 4;272,274,275,273;,
 4;274,276,277,275;,
 4;263,262,278,279;,
 4;262,265,280,278;,
 4;265,267,281,280;,
 4;267,269,282,281;,
 4;269,271,283,282;,
 4;271,273,284,283;,
 4;273,275,285,284;,
 4;275,277,286,285;,
 4;279,278,287,288;,
 4;278,280,289,287;,
 4;280,281,290,289;,
 4;281,282,291,290;,
 4;282,283,292,291;,
 4;283,284,293,292;,
 4;284,285,294,293;,
 4;285,286,295,294;,
 3;296,261,260;,
 3;297,264,261;,
 3;298,266,264;,
 3;299,268,266;,
 3;300,270,268;,
 3;301,272,270;,
 3;302,274,272;,
 3;303,276,274;,
 3;304,288,287;,
 3;305,287,289;,
 3;306,289,290;,
 3;307,290,291;,
 3;308,291,292;,
 3;309,292,293;,
 3;310,293,294;,
 3;311,294,295;,
 3;312,313,314;,
 3;314,315,316;,
 3;316,317,318;,
 3;318,319,320;,
 3;320,321,322;,
 3;322,323,324;,
 3;324,325,326;,
 3;326,327,328;,
 3;329,330,331;,
 3;329,331,332;,
 3;329,332,333;,
 3;329,333,334;,
 3;329,334,335;,
 3;329,335,336;,
 3;329,336,337;,
 3;329,337,330;,
 3;338,339,340;,
 3;341,342,339;,
 3;343,344,342;,
 3;345,346,344;,
 3;347,348,346;,
 3;349,350,348;,
 3;351,352,350;,
 3;353,354,352;,
 4;340,339,355,356;,
 4;339,342,357,355;,
 4;342,344,358,357;,
 4;344,346,359,358;,
 4;346,348,360,359;,
 4;348,350,361,360;,
 4;350,352,362,361;,
 4;352,354,363,362;,
 4;356,355,364,365;,
 4;355,357,366,364;,
 4;357,358,367,366;,
 4;358,359,368,367;,
 4;359,360,369,368;,
 4;360,361,370,369;,
 4;361,362,371,370;,
 4;362,363,372,371;,
 4;365,364,373,374;,
 4;364,366,375,373;,
 4;366,367,376,375;,
 4;367,368,377,376;,
 4;368,369,378,377;,
 4;369,370,379,378;,
 4;370,371,380,379;,
 4;371,372,381,380;,
 4;374,373,382,383;,
 4;373,375,384,382;,
 4;375,376,385,384;,
 4;376,377,386,385;,
 4;377,378,387,386;,
 4;378,379,388,387;,
 4;379,380,389,388;,
 4;380,381,390,389;,
 4;383,382,391,392;,
 4;382,384,393,391;,
 4;384,385,394,393;,
 4;385,386,395,394;,
 4;386,387,396,395;,
 4;387,388,397,396;,
 4;388,389,398,397;,
 4;389,390,399,398;,
 4;392,391,400,401;,
 4;391,393,402,400;,
 4;393,394,403,402;,
 4;394,395,404,403;,
 4;395,396,405,404;,
 4;396,397,406,405;,
 4;397,398,407,406;,
 4;398,399,408,407;,
 3;401,400,409;,
 3;400,402,410;,
 3;402,403,411;,
 3;403,404,412;,
 3;404,405,413;,
 3;405,406,414;,
 3;406,407,415;,
 3;407,408,416;,
 3;417,418,419;,
 3;420,421,418;,
 3;422,423,421;,
 3;424,425,423;,
 3;426,427,425;,
 3;428,429,427;,
 3;430,431,429;,
 3;432,433,431;,
 4;419,418,434,435;,
 4;418,421,436,434;,
 4;421,423,437,436;,
 4;423,425,438,437;,
 4;425,427,439,438;,
 4;427,429,440,439;,
 4;429,431,441,440;,
 4;431,433,442,441;,
 4;435,434,443,444;,
 4;434,436,445,443;,
 4;436,437,446,445;,
 4;437,438,447,446;,
 4;438,439,448,447;,
 4;439,440,449,448;,
 4;440,441,450,449;,
 4;441,442,451,450;,
 4;444,443,452,453;,
 4;443,445,454,452;,
 4;445,446,455,454;,
 4;446,447,456,455;,
 4;447,448,457,456;,
 4;448,449,458,457;,
 4;449,450,459,458;,
 4;450,451,460,459;,
 4;453,452,461,462;,
 4;452,454,463,461;,
 4;454,455,464,463;,
 4;455,456,465,464;,
 4;456,457,466,465;,
 4;457,458,467,466;,
 4;458,459,468,467;,
 4;459,460,469,468;,
 4;462,461,470,471;,
 4;461,463,472,470;,
 4;463,464,473,472;,
 4;464,465,474,473;,
 4;465,466,475,474;,
 4;466,467,476,475;,
 4;467,468,477,476;,
 4;468,469,478,477;,
 4;471,470,479,480;,
 4;470,472,481,479;,
 4;472,473,482,481;,
 4;473,474,483,482;,
 4;474,475,484,483;,
 4;475,476,485,484;,
 4;476,477,486,485;,
 4;477,478,487,486;,
 3;480,479,488;,
 3;479,481,489;,
 3;481,482,490;,
 3;482,483,491;,
 3;483,484,492;,
 3;484,485,493;,
 3;485,486,494;,
 3;486,487,495;,
 4;496,497,498,499;,
 4;497,500,501,498;,
 4;500,502,503,501;,
 4;502,504,505,503;,
 4;504,506,507,505;,
 4;506,508,509,507;,
 4;510,511,512,513;,
 4;511,514,515,512;,
 4;514,516,517,515;,
 4;516,518,519,517;,
 4;518,520,521,519;,
 4;520,522,523,521;,
 4;524,525,526,527;,
 4;525,528,529,526;,
 4;528,530,531,529;,
 4;530,532,533,531;,
 4;532,534,535,533;,
 4;534,536,537,535;,
 4;538,539,540,541;,
 4;539,542,543,540;,
 4;542,544,545,543;,
 4;544,546,547,545;,
 4;546,548,549,547;,
 4;548,550,551,549;,
 4;538,552,553,554;,
 4;552,555,556,553;,
 4;555,530,557,556;,
 4;530,558,559,557;,
 4;558,560,561,559;,
 4;560,522,562,561;,
 4;554,553,563,564;,
 4;553,556,565,563;,
 4;556,557,566,565;,
 4;557,559,567,566;,
 4;559,561,568,567;,
 4;561,562,569,568;,
 4;564,563,570,571;,
 4;563,565,572,570;,
 4;565,566,573,572;,
 4;566,567,574,573;,
 4;567,568,575,574;,
 4;568,569,576,575;,
 4;571,570,577,578;,
 4;570,572,579,577;,
 4;572,573,580,579;,
 4;573,574,581,580;,
 4;574,575,582,581;,
 4;575,576,583,582;,
 4;578,577,584,585;,
 4;577,579,586,584;,
 4;579,580,587,586;,
 4;580,581,588,587;,
 4;581,582,589,588;,
 4;582,583,590,589;,
 4;585,584,591,592;,
 4;584,586,593,591;,
 4;586,587,594,593;,
 4;587,588,595,594;,
 4;588,589,596,595;,
 4;589,590,597,596;,
 4;598,599,600,541;,
 4;599,601,602,600;,
 4;601,603,531,602;,
 4;603,604,605,531;,
 4;604,606,607,605;,
 4;606,608,523,607;,
 4;609,610,599,598;,
 4;610,611,601,599;,
 4;611,612,603,601;,
 4;612,613,604,603;,
 4;613,614,606,604;,
 4;614,615,608,606;,
 4;616,617,610,609;,
 4;617,618,611,610;,
 4;618,619,612,611;,
 4;619,620,613,612;,
 4;620,621,614,613;,
 4;621,622,615,614;,
 4;623,624,617,616;,
 4;624,625,618,617;,
 4;625,626,619,618;,
 4;626,627,620,619;,
 4;627,628,621,620;,
 4;628,629,622,621;,
 4;630,631,624,623;,
 4;631,632,625,624;,
 4;632,633,626,625;,
 4;633,634,627,626;,
 4;634,635,628,627;,
 4;635,636,629,628;,
 4;637,638,631,630;,
 4;638,639,632,631;,
 4;639,640,633,632;,
 4;640,641,634,633;,
 4;641,642,635,634;,
 4;642,643,636,635;,
 4;644,645,646,647;,
 4;645,648,649,646;,
 4;648,650,651,649;,
 4;650,652,653,651;,
 4;652,654,655,653;,
 4;654,656,657,655;,
 4;658,659,660,661;,
 4;659,662,663,660;,
 4;662,664,665,663;,
 4;664,666,667,665;,
 4;666,668,669,667;,
 4;668,670,671,669;,
 4;672,673,674,675;,
 4;673,676,677,674;,
 4;676,678,679,677;,
 4;678,680,681,679;,
 4;680,682,683,681;,
 4;682,684,685,683;,
 4;686,687,688,689;,
 4;687,690,691,688;,
 4;690,692,693,691;,
 4;692,694,695,693;,
 4;694,696,697,695;,
 4;696,698,699,697;,
 4;686,700,701,702;,
 4;700,703,704,701;,
 4;703,678,705,704;,
 4;678,706,707,705;,
 4;706,708,709,707;,
 4;708,670,710,709;,
 4;702,701,711,712;,
 4;701,704,713,711;,
 4;704,705,714,713;,
 4;705,707,715,714;,
 4;707,709,716,715;,
 4;709,710,717,716;,
 4;712,711,718,719;,
 4;711,713,720,718;,
 4;713,714,721,720;,
 4;714,715,722,721;,
 4;715,716,723,722;,
 4;716,717,724,723;,
 4;719,718,725,726;,
 4;718,720,727,725;,
 4;720,721,728,727;,
 4;721,722,729,728;,
 4;722,723,730,729;,
 4;723,724,731,730;,
 4;726,725,732,733;,
 4;725,727,734,732;,
 4;727,728,735,734;,
 4;728,729,736,735;,
 4;729,730,737,736;,
 4;730,731,738,737;,
 4;733,732,739,740;,
 4;732,734,741,739;,
 4;734,735,742,741;,
 4;735,736,743,742;,
 4;736,737,744,743;,
 4;737,738,745,744;,
 4;746,747,748,689;,
 4;747,749,750,748;,
 4;749,751,679,750;,
 4;751,752,753,679;,
 4;752,754,755,753;,
 4;754,756,671,755;,
 4;757,758,747,746;,
 4;758,759,749,747;,
 4;759,760,751,749;,
 4;760,761,752,751;,
 4;761,762,754,752;,
 4;762,763,756,754;,
 4;764,765,758,757;,
 4;765,766,759,758;,
 4;766,767,760,759;,
 4;767,768,761,760;,
 4;768,769,762,761;,
 4;769,770,763,762;,
 4;771,772,765,764;,
 4;772,773,766,765;,
 4;773,774,767,766;,
 4;774,775,768,767;,
 4;775,776,769,768;,
 4;776,777,770,769;,
 4;778,779,772,771;,
 4;779,780,773,772;,
 4;780,781,774,773;,
 4;781,782,775,774;,
 4;782,783,776,775;,
 4;783,784,777,776;,
 4;785,786,779,778;,
 4;786,787,780,779;,
 4;787,788,781,780;,
 4;788,789,782,781;,
 4;789,790,783,782;,
 4;790,791,784,783;;
 
 MeshMaterialList {
  4;
  576;
  2,
  2,
  2,
  2,
  2,
  2,
  2,
  2,
  2,
  2,
  2,
  2,
  2,
  2,
  2,
  2,
  2,
  2,
  2,
  2,
  2,
  2,
  2,
  2,
  2,
  2,
  2,
  2,
  2,
  2,
  2,
  2,
  2,
  2,
  2,
  2,
  2,
  2,
  2,
  2,
  2,
  2,
  2,
  2,
  2,
  2,
  2,
  2,
  2,
  2,
  2,
  2,
  2,
  2,
  2,
  2,
  2,
  2,
  2,
  2,
  2,
  2,
  2,
  2,
  2,
  2,
  2,
  2,
  2,
  2,
  2,
  2,
  2,
  2,
  2,
  2,
  2,
  2,
  2,
  2,
  2,
  2,
  2,
  2,
  2,
  2,
  2,
  2,
  2,
  2,
  2,
  2,
  2,
  2,
  2,
  2,
  2,
  2,
  2,
  2,
  2,
  2,
  2,
  2,
  2,
  2,
  2,
  2,
  2,
  2,
  2,
  2,
  2,
  2,
  2,
  2,
  2,
  2,
  2,
  2,
  2,
  2,
  2,
  2,
  2,
  2,
  2,
  2,
  2,
  2,
  2,
  2,
  2,
  2,
  2,
  2,
  2,
  2,
  2,
  2,
  2,
  2,
  2,
  2,
  2,
  2,
  2,
  2,
  2,
  2,
  2,
  2,
  2,
  2,
  2,
  2,
  2,
  2,
  2,
  2,
  2,
  2,
  2,
  2,
  2,
  2,
  2,
  2,
  2,
  2,
  2,
  2,
  2,
  2,
  2,
  2,
  2,
  2,
  2,
  2,
  2,
  2,
  2,
  2,
  2,
  2,
  2,
  2,
  2,
  2,
  2,
  2,
  2,
  2,
  2,
  2,
  2,
  2,
  2,
  2,
  2,
  2,
  2,
  2,
  2,
  2,
  2,
  2,
  2,
  2,
  2,
  2,
  2,
  2,
  2,
  2,
  2,
  2,
  2,
  2,
  2,
  2,
  2,
  2,
  2,
  2,
  2,
  2,
  2,
  2,
  2,
  2,
  2,
  2,
  2,
  2,
  2,
  2,
  2,
  2,
  0,
  0,
  0,
  0,
  0,
  0,
  0,
  0,
  0,
  0,
  0,
  0,
  0,
  0,
  0,
  0,
  1,
  1,
  1,
  1,
  1,
  1,
  1,
  1,
  1,
  1,
  1,
  1,
  1,
  1,
  1,
  1,
  1,
  1,
  1,
  1,
  1,
  1,
  1,
  1,
  1,
  1,
  1,
  1,
  1,
  1,
  1,
  1,
  1,
  1,
  1,
  1,
  1,
  1,
  1,
  1,
  1,
  1,
  1,
  1,
  1,
  1,
  1,
  1,
  1,
  1,
  1,
  1,
  1,
  1,
  1,
  1,
  1,
  1,
  1,
  1,
  1,
  1,
  1,
  1,
  1,
  1,
  1,
  1,
  1,
  1,
  1,
  1,
  1,
  1,
  1,
  1,
  1,
  1,
  1,
  1,
  1,
  1,
  1,
  1,
  1,
  1,
  1,
  1,
  1,
  1,
  1,
  1,
  1,
  1,
  1,
  1,
  1,
  1,
  1,
  1,
  1,
  1,
  1,
  1,
  1,
  1,
  1,
  1,
  1,
  1,
  1,
  1,
  1,
  1,
  1,
  1,
  1,
  1,
  1,
  1,
  1,
  1,
  1,
  1,
  1,
  1,
  1,
  1,
  3,
  3,
  3,
  3,
  3,
  3,
  3,
  3,
  3,
  3,
  3,
  3,
  3,
  3,
  3,
  3,
  3,
  3,
  3,
  3,
  3,
  3,
  3,
  3,
  3,
  3,
  3,
  3,
  3,
  3,
  3,
  3,
  3,
  3,
  3,
  3,
  3,
  3,
  3,
  3,
  3,
  3,
  3,
  3,
  3,
  3,
  3,
  3,
  3,
  3,
  3,
  3,
  3,
  3,
  3,
  3,
  3,
  3,
  3,
  3,
  3,
  3,
  3,
  3,
  3,
  3,
  3,
  3,
  3,
  3,
  3,
  3,
  3,
  3,
  3,
  3,
  3,
  3,
  3,
  3,
  3,
  3,
  3,
  3,
  3,
  3,
  3,
  3,
  3,
  3,
  3,
  3,
  3,
  3,
  3,
  3,
  3,
  3,
  3,
  3,
  3,
  3,
  3,
  3,
  3,
  3,
  3,
  3,
  3,
  3,
  3,
  3,
  3,
  3,
  3,
  3,
  3,
  3,
  3,
  3,
  3,
  3,
  3,
  3,
  3,
  3,
  3,
  3,
  3,
  3,
  3,
  3,
  3,
  3,
  3,
  3,
  3,
  3,
  3,
  3,
  3,
  3,
  3,
  3,
  3,
  3,
  3,
  3,
  3,
  3,
  3,
  3,
  3,
  3,
  3,
  3,
  3,
  3,
  3,
  3,
  3,
  3,
  3,
  3,
  3,
  3,
  3,
  3,
  3,
  3,
  3,
  3,
  3,
  3,
  3,
  3,
  3,
  3,
  3,
  3,
  3,
  3,
  3,
  3,
  3,
  3,
  3,
  3,
  3,
  3,
  3,
  3;;
  Material {
   0.800000;0.636800;0.081600;1.000000;;
   5.000000;
   0.000000;0.000000;0.000000;;
   0.000000;0.000000;0.000000;;
  }
  Material {
   0.000000;0.000000;0.000000;1.000000;;
   5.000000;
   0.000000;0.000000;0.000000;;
   0.000000;0.000000;0.000000;;
  }
  Material {
   0.392000;0.420000;0.006400;1.000000;;
   5.000000;
   0.000000;0.000000;0.000000;;
   0.000000;0.000000;0.000000;;
  }
  Material {
   0.661600;0.674400;0.460800;1.000000;;
   5.000000;
   0.000000;0.000000;0.000000;;
   0.000000;0.000000;0.000000;;
  }
 }
 MeshNormals {
  607;
  -0.465116;0.856091;0.225333;,
  -0.231860;0.972615;0.016149;,
  -0.266504;0.832548;0.485633;,
  -0.303360;0.717586;0.626931;,
  -0.319715;-0.829208;0.458471;,
  -0.248834;-0.968439;0.014392;,
  -0.321587;-0.829306;-0.456983;,
  -0.354886;-0.591171;-0.724274;,
  -0.266853;0.840701;-0.471180;,
  -0.016207;0.999834;0.008264;,
  -0.055542;0.879718;0.472241;,
  -0.091388;0.755931;0.648241;,
  -0.087159;-0.855600;0.510248;,
  -0.030249;-0.999530;0.005055;,
  -0.072502;-0.854536;-0.514307;,
  -0.104312;-0.580869;-0.807286;,
  -0.045467;0.883990;-0.465290;,
  -0.003730;0.999988;0.003071;,
  -0.016566;0.890047;0.455567;,
  -0.027164;0.752421;0.658122;,
  -0.028644;-0.836958;0.546517;,
  -0.025648;-0.999671;-0.000000;,
  -0.029600;-0.835260;-0.549057;,
  -0.029766;-0.569605;-0.821379;,
  -0.013235;0.891490;-0.452847;,
  0.263399;0.964686;0.001016;,
  0.320527;0.847740;0.422609;,
  0.366804;0.694212;0.619293;,
  0.391697;-0.769624;0.504234;,
  0.336969;-0.941516;-0.000000;,
  0.391082;-0.769345;-0.505136;,
  0.411620;-0.527745;-0.743003;,
  0.323688;0.847240;-0.421201;,
  0.645670;0.763617;-0.000000;,
  -0.356624;-0.612719;0.705262;,
  -0.130362;-0.592007;0.795320;,
  -0.302593;0.717835;-0.627016;,
  -0.074418;0.757004;-0.649159;,
  -0.028059;-0.574654;0.817915;,
  -0.023366;0.752494;-0.658185;,
  0.413020;-0.528905;0.741400;,
  0.370335;0.693167;-0.618362;,
  -0.564513;-0.825371;0.009386;,
  -0.497015;0.647530;-0.577652;,
  0.768048;-0.640392;-0.000001;,
  -0.672163;-0.139401;0.727162;,
  -0.042450;0.998184;-0.042749;,
  0.552633;0.648859;0.523048;,
  0.725375;0.000000;0.688354;,
  0.568788;-0.629361;0.529514;,
  0.000009;-1.000000;0.000005;,
  -0.511050;-0.717377;-0.473495;,
  -0.727196;0.000001;-0.686430;,
  -0.523540;0.692629;-0.496157;,
  -0.045099;0.998884;-0.014049;,
  0.211330;0.701299;0.680823;,
  0.320755;0.000000;0.947162;,
  0.222914;-0.693049;0.685560;,
  -0.023791;-0.999690;0.007334;,
  -0.242024;-0.734884;-0.633538;,
  -0.339154;0.000001;-0.940731;,
  -0.250495;0.721915;-0.645051;,
  -0.072181;0.996981;0.028622;,
  0.080444;0.699372;0.710216;,
  0.149659;-0.000000;0.988738;,
  0.080444;-0.699372;0.710216;,
  -0.072181;-0.996981;0.028621;,
  -0.221330;-0.712150;-0.666225;,
  -0.287095;-0.000000;-0.957902;,
  -0.221331;0.712150;-0.666225;,
  -0.096073;0.994478;0.042225;,
  0.301494;0.704657;0.642309;,
  0.463960;-0.000001;0.885856;,
  0.301495;-0.704656;0.642309;,
  -0.096072;-0.994478;0.042225;,
  -0.481144;-0.687034;-0.544504;,
  -0.631603;-0.000001;-0.775292;,
  -0.481144;0.687035;-0.544503;,
  0.927184;0.000000;-0.374605;,
  -0.310482;-0.577755;0.754851;,
  -0.829613;0.512051;-0.222590;,
  -0.829628;-0.512033;-0.222578;,
  -0.956754;-0.278863;0.082810;,
  -0.829615;-0.512047;-0.222591;,
  -0.927179;0.000000;0.374620;,
  -0.698318;-0.325996;0.637242;,
  -0.310483;-0.577783;0.754829;,
  -0.310481;0.577788;0.754826;,
  -0.829640;-0.512019;-0.222564;,
  0.927184;0.000000;-0.374608;,
  0.927186;-0.000005;-0.374601;,
  0.927188;0.000000;-0.374596;,
  0.927186;0.000005;-0.374601;,
  0.927183;0.000000;-0.374608;,
  0.927183;0.000000;-0.374609;,
  0.927183;0.000000;-0.374610;,
  0.927183;-0.000000;-0.374609;,
  -0.717294;0.000000;0.696771;,
  -0.012274;0.996796;-0.079040;,
  0.777298;0.589495;-0.219782;,
  0.969308;0.000000;-0.245850;,
  0.918908;-0.293206;-0.263891;,
  0.856830;-0.434083;-0.278234;,
  -0.196298;-0.944633;-0.262937;,
  -0.923981;-0.006831;0.382378;,
  -0.770538;0.635843;-0.044451;,
  -0.000228;0.999061;-0.043324;,
  0.686076;0.707196;0.170804;,
  0.815017;-0.564630;0.130156;,
  0.356895;-0.926486;-0.119375;,
  -0.379318;-0.808616;-0.449731;,
  -0.886079;-0.006590;-0.463487;,
  -0.644281;0.701477;-0.304684;,
  0.005793;0.999974;-0.004209;,
  0.537750;0.700073;0.469812;,
  0.750858;0.000002;0.660463;,
  0.537751;-0.700072;0.469812;,
  0.005793;-0.999974;-0.004209;,
  -0.527329;-0.701591;-0.479264;,
  -0.741541;0.000002;-0.670907;,
  -0.527328;0.701592;-0.479264;,
  0.000005;1.000000;0.000004;,
  0.586233;0.692430;0.420561;,
  0.812537;0.000002;0.582910;,
  0.586234;-0.692429;0.420562;,
  0.000005;-1.000000;0.000004;,
  -0.586233;-0.692429;-0.420562;,
  -0.812536;0.000002;-0.582912;,
  -0.586232;0.692431;-0.420561;,
  0.819157;-0.000000;-0.573569;,
  -0.945656;-0.280484;-0.164507;,
  0.681318;0.000002;0.731987;,
  -0.819156;-0.000002;0.573570;,
  -0.704772;0.000000;0.709434;,
  -0.819156;0.000001;0.573571;,
  -0.819157;0.000002;0.573569;,
  -0.595576;0.058066;0.801198;,
  -0.595576;-0.058066;0.801198;,
  0.819162;-0.000023;-0.573562;,
  0.819159;-0.000002;-0.573567;,
  0.819147;0.000000;-0.573584;,
  0.819159;0.000002;-0.573567;,
  0.819162;0.000023;-0.573562;,
  0.819155;0.000020;-0.573572;,
  0.819157;-0.000000;-0.573569;,
  0.819155;-0.000020;-0.573572;,
  -0.981392;-0.113311;-0.155018;,
  -0.014982;0.999885;0.002255;,
  -0.492843;0.713391;0.498176;,
  -0.696680;0.014413;0.717237;,
  -0.491371;-0.704514;0.512068;,
  -0.001849;-0.999859;0.016719;,
  0.515786;-0.682796;-0.517449;,
  0.696249;-0.011884;-0.717701;,
  0.511189;0.671864;-0.535990;,
  -0.030503;0.999360;-0.018701;,
  -0.318113;0.725010;0.610872;,
  -0.441654;0.017027;0.897024;,
  -0.313704;-0.707779;0.632960;,
  -0.019132;-0.999780;0.008644;,
  0.288412;-0.710403;-0.641986;,
  0.411682;-0.015982;-0.911187;,
  0.282283;0.690640;-0.665832;,
  -0.071014;0.995896;-0.056104;,
  -0.313525;0.719471;0.619729;,
  -0.413876;0.016415;0.910185;,
  -0.311061;-0.696786;0.646321;,
  -0.067420;-0.997546;-0.018899;,
  0.174022;-0.709143;-0.683252;,
  0.273384;-0.017375;-0.961748;,
  0.171633;0.683857;-0.709142;,
  -0.095583;0.992798;-0.072221;,
  -0.487500;0.704596;0.515644;,
  -0.646055;0.013604;0.763169;,
  -0.488942;-0.685571;0.539377;,
  -0.097840;-0.994475;-0.038040;,
  0.299909;-0.714812;-0.631742;,
  0.464395;-0.015806;-0.885487;,
  0.301566;0.691901;-0.655996;,
  0.875106;0.008968;0.483849;,
  -0.865939;-0.490518;0.097686;,
  -0.289075;0.529729;-0.797385;,
  -0.297000;-0.554129;-0.777645;,
  -0.646962;-0.310796;-0.696308;,
  -0.296986;-0.554127;-0.777652;,
  -0.875119;-0.008939;-0.483826;,
  -0.940117;-0.269649;-0.208492;,
  -0.994408;0.003827;0.105541;,
  -0.863429;0.497108;0.085870;,
  -0.297014;-0.554132;-0.777638;,
  0.875107;0.008967;0.483846;,
  0.875103;0.008966;0.483854;,
  0.875102;0.008966;0.483855;,
  0.875103;0.008967;0.483854;,
  0.875105;0.008966;0.483851;,
  0.875108;0.008968;0.483845;,
  0.875109;0.008972;0.483843;,
  0.875110;0.008970;0.483841;,
  -0.717293;0.000000;-0.696772;,
  -0.012275;-0.996796;0.079040;,
  0.777297;-0.589497;0.219780;,
  0.969308;-0.000001;0.245848;,
  0.918907;0.293208;0.263891;,
  0.856827;0.434089;0.278234;,
  -0.196297;0.944633;0.262937;,
  -0.923980;0.006831;-0.382379;,
  -0.770538;-0.635842;0.044453;,
  -0.000228;-0.999061;0.043323;,
  0.686075;-0.707196;-0.170806;,
  0.815016;0.564631;-0.130157;,
  0.356894;0.926486;0.119374;,
  -0.379315;0.808619;0.449728;,
  -0.886080;0.006589;0.463486;,
  -0.644279;-0.701479;0.304683;,
  0.005793;-0.999974;0.004208;,
  0.537753;-0.700070;-0.469814;,
  0.750858;-0.000002;-0.660463;,
  0.537753;0.700069;-0.469814;,
  0.005793;0.999974;0.004208;,
  -0.527324;0.701598;0.479259;,
  -0.741542;-0.000002;0.670907;,
  -0.527323;-0.701599;0.479259;,
  0.000005;-1.000000;-0.000004;,
  0.586237;-0.692425;-0.420564;,
  0.812537;-0.000002;-0.582910;,
  0.586238;0.692424;-0.420565;,
  0.000005;1.000000;-0.000004;,
  -0.586227;0.692437;0.420558;,
  -0.812535;-0.000002;0.582912;,
  -0.586226;-0.692438;0.420557;,
  0.819156;0.000000;0.573571;,
  -0.945658;0.280478;0.164508;,
  0.681318;-0.000002;-0.731987;,
  -0.819158;-0.000000;-0.573568;,
  -0.704771;0.000000;-0.709434;,
  -0.819158;0.000000;-0.573568;,
  -0.819158;0.000000;-0.573568;,
  -0.595573;-0.058065;-0.801200;,
  -0.595573;0.058065;-0.801200;,
  0.819160;0.000027;0.573565;,
  0.819146;0.000014;0.573585;,
  0.819139;0.000000;0.573595;,
  0.819146;-0.000014;0.573585;,
  0.819160;-0.000027;0.573565;,
  0.819165;-0.000030;0.573558;,
  0.819163;0.000000;0.573561;,
  0.819165;0.000030;0.573558;,
  -1.000000;-0.000000;0.000001;,
  -0.060637;0.998160;-0.000001;,
  -0.042905;0.706265;0.706647;,
  -0.000000;-0.000000;1.000000;,
  0.042905;-0.706264;0.706647;,
  0.060637;-0.998160;-0.000001;,
  0.042905;-0.706267;-0.706645;,
  0.000000;-0.000000;-1.000000;,
  -0.042905;0.706267;-0.706644;,
  -0.093451;0.995624;-0.000001;,
  -0.108664;0.720219;0.685183;,
  -0.112044;-0.000000;0.993703;,
  -0.065965;-0.722931;0.687764;,
  -0.033437;-0.999441;-0.000001;,
  -0.065965;-0.722933;-0.687762;,
  -0.112045;-0.000000;-0.993703;,
  -0.108664;0.720221;-0.685181;,
  0.028739;0.999551;-0.008453;,
  -0.020954;0.763344;0.645652;,
  -0.121795;0.179823;0.976130;,
  -0.081738;-0.823433;0.561495;,
  -0.044393;-0.999010;0.002855;,
  -0.081723;-0.826019;-0.557687;,
  -0.100774;-0.079210;-0.991751;,
  -0.014215;0.761354;-0.648180;,
  0.179305;0.983655;-0.016539;,
  0.132837;0.777350;0.614883;,
  0.078431;0.485988;0.870439;,
  0.007990;-0.891404;0.453140;,
  0.034271;-0.999397;0.005594;,
  0.008161;-0.895452;-0.445082;,
  -0.017258;-0.764519;-0.644370;,
  0.144428;0.771945;-0.619065;,
  0.999999;0.001335;-0.000981;,
  -0.018137;-0.760085;0.649571;,
  0.092462;0.503254;-0.859178;,
  -1.000000;-0.000003;0.000000;,
  -1.000000;0.000000;0.000000;,
  -1.000000;-0.000000;0.000003;,
  -1.000000;0.000003;0.000000;,
  -1.000000;0.000000;0.000000;,
  -1.000000;0.000001;0.000002;,
  -1.000000;0.000000;0.000001;,
  -1.000000;-0.000001;0.000002;,
  0.999997;0.002190;-0.001186;,
  0.999999;0.001103;-0.000842;,
  1.000000;0.000004;-0.000002;,
  0.223941;0.974526;-0.012248;,
  0.261017;0.961435;-0.086677;,
  0.218627;0.974002;-0.059352;,
  0.175709;0.984292;-0.017199;,
  0.228756;0.972857;0.034923;,
  0.280782;0.957050;0.072223;,
  0.999998;0.000958;-0.001548;,
  0.999998;0.001567;-0.001119;,
  0.106398;0.994040;-0.023750;,
  0.136518;0.798238;-0.586667;,
  0.152145;0.532156;-0.832864;,
  0.084370;-0.912577;-0.400106;,
  0.061636;-0.998099;0.000002;,
  0.074859;-0.942856;0.324683;,
  0.088311;-0.892395;0.442529;,
  0.136621;0.805402;0.576770;,
  0.135941;0.933038;-0.333108;,
  -0.991905;-0.126524;0.010767;,
  0.104424;-0.807133;-0.581061;,
  0.085397;-0.995632;-0.037738;,
  0.148046;0.513138;0.845441;,
  -0.989210;-0.144462;0.024398;,
  -0.992578;-0.095637;0.075115;,
  -0.976315;-0.193034;0.097708;,
  -0.984241;-0.170286;0.047660;,
  -1.000000;0.000000;0.000001;,
  -0.987197;-0.153604;-0.042988;,
  -0.982723;-0.167292;-0.079179;,
  -0.995571;-0.086463;-0.036923;,
  0.000004;1.000000;-0.000004;,
  0.380619;0.924732;-0.000020;,
  0.269147;0.924732;0.269130;,
  0.000009;0.924733;0.380616;,
  -0.269147;0.924733;0.269127;,
  -0.380651;0.924719;-0.000012;,
  -0.269160;0.924725;-0.269141;,
  -0.000000;0.924732;-0.380618;,
  0.269134;0.924731;-0.269144;,
  0.704989;0.709218;-0.000012;,
  0.498509;0.709224;0.498488;,
  0.000006;0.709224;0.704983;,
  -0.498504;0.709231;0.498482;,
  -0.704981;0.709226;-0.000014;,
  -0.498498;0.709234;-0.498484;,
  0.000002;0.709229;-0.704978;,
  0.498496;0.709226;-0.498498;,
  0.923108;0.384542;0.000001;,
  0.652740;0.384552;0.652726;,
  -0.000001;0.384549;0.923105;,
  -0.652735;0.384544;0.652736;,
  -0.923100;0.384561;-0.000002;,
  -0.652720;0.384564;-0.652738;,
  0.000009;0.384562;-0.923099;,
  0.652738;0.384550;-0.652728;,
  1.000000;-0.000002;0.000005;,
  0.707113;-0.000003;0.707101;,
  -0.000002;-0.000003;1.000000;,
  -0.707106;-0.000003;0.707107;,
  -1.000000;-0.000003;0.000006;,
  -0.707093;-0.000003;-0.707121;,
  0.000011;-0.000003;-1.000000;,
  0.707111;-0.000002;-0.707102;,
  0.923110;-0.384536;0.000001;,
  0.652741;-0.384547;0.652727;,
  -0.000001;-0.384544;0.923107;,
  -0.652736;-0.384539;0.652737;,
  -0.923102;-0.384556;-0.000002;,
  -0.652721;-0.384560;-0.652739;,
  0.000009;-0.384556;-0.923102;,
  0.652740;-0.384543;-0.652730;,
  0.704994;-0.709213;-0.000012;,
  0.498513;-0.709219;0.498492;,
  0.000006;-0.709219;0.704989;,
  -0.498508;-0.709226;0.498486;,
  -0.704986;-0.709221;-0.000014;,
  -0.498501;-0.709228;-0.498489;,
  0.000001;-0.709223;-0.704984;,
  0.498500;-0.709221;-0.498502;,
  0.380605;-0.924738;-0.000020;,
  0.269138;-0.924737;0.269121;,
  0.000009;-0.924738;0.380604;,
  -0.269137;-0.924738;0.269119;,
  -0.380638;-0.924724;-0.000012;,
  -0.269151;-0.924730;-0.269133;,
  -0.000001;-0.924737;-0.380606;,
  0.269125;-0.924737;-0.269135;,
  0.000004;-1.000000;-0.000004;,
  -0.000006;1.000000;0.000009;,
  0.380626;0.924729;-0.000001;,
  0.269137;0.924730;0.269145;,
  -0.000018;0.924726;0.380633;,
  -0.269164;0.924722;0.269149;,
  -0.380636;0.924725;0.000008;,
  -0.269141;0.924732;-0.269135;,
  0.000026;0.924736;-0.380609;,
  0.269165;0.924727;-0.269129;,
  0.704989;0.709218;-0.000002;,
  0.498496;0.709228;0.498495;,
  -0.000017;0.709233;0.704974;,
  -0.498496;0.709238;0.498482;,
  -0.704969;0.709238;0.000008;,
  -0.498496;0.709239;-0.498479;,
  0.000015;0.709240;-0.704967;,
  0.498513;0.709231;-0.498473;,
  0.923099;0.384562;0.000002;,
  0.652736;0.384560;0.652725;,
  -0.000006;0.384569;0.923096;,
  -0.652729;0.384568;0.652727;,
  -0.923098;0.384565;0.000006;,
  -0.652734;0.384558;-0.652728;,
  -0.000009;0.384552;-0.923103;,
  0.652731;0.384566;-0.652726;,
  1.000000;-0.000003;-0.000001;,
  0.707112;-0.000003;0.707101;,
  0.000001;-0.000003;1.000000;,
  -0.707105;-0.000002;0.707109;,
  -1.000000;-0.000002;0.000005;,
  -0.707103;-0.000002;-0.707111;,
  -0.000011;-0.000003;-1.000000;,
  0.707099;-0.000003;-0.707115;,
  0.923101;-0.384557;0.000002;,
  0.652738;-0.384551;0.652728;,
  -0.000005;-0.384560;0.923100;,
  -0.652731;-0.384563;0.652728;,
  -0.923100;-0.384560;0.000006;,
  -0.652735;-0.384553;-0.652730;,
  -0.000009;-0.384548;-0.923105;,
  0.652732;-0.384562;-0.652727;,
  0.704997;-0.709210;-0.000000;,
  0.498503;-0.709220;0.498500;,
  -0.000018;-0.709228;0.704979;,
  -0.498496;-0.709235;0.498484;,
  -0.704972;-0.709235;0.000006;,
  -0.498500;-0.709233;-0.498483;,
  0.000015;-0.709236;-0.704971;,
  0.498516;-0.709227;-0.498477;,
  0.380617;-0.924733;0.000001;,
  0.269130;-0.924735;0.269135;,
  -0.000019;-0.924733;0.380616;,
  -0.269151;-0.924728;0.269138;,
  -0.380621;-0.924731;0.000007;,
  -0.269133;-0.924737;-0.269127;,
  0.000026;-0.924741;-0.380596;,
  0.269156;-0.924732;-0.269119;,
  -0.000006;-1.000000;0.000009;,
  0.287201;-0.844579;-0.451887;,
  0.624681;-0.318096;-0.713154;,
  0.827442;0.000000;-0.561552;,
  0.999473;0.000000;-0.032466;,
  0.902434;0.000000;0.430828;,
  0.808884;0.000000;0.587968;,
  0.138784;-0.947319;-0.288662;,
  0.784813;0.000000;0.619733;,
  0.672421;0.000000;0.740169;,
  0.645745;0.000000;0.763553;,
  0.712878;0.000000;0.701288;,
  -0.515747;0.085514;0.852463;,
  -0.926135;-0.151184;-0.345568;,
  -0.862141;-0.016437;-0.506402;,
  -0.995729;0.027101;-0.088259;,
  -0.928854;0.000000;0.370447;,
  -0.903207;0.000000;0.429206;,
  -0.640516;0.000000;0.767945;,
  -0.324111;0.000000;0.946019;,
  -0.051740;-0.846316;-0.530163;,
  0.001349;-0.968702;-0.248221;,
  -0.000000;-0.968563;-0.248770;,
  0.000000;-0.968563;-0.248770;,
  0.000000;-0.968563;-0.248770;,
  0.000000;-0.968563;-0.248770;,
  -0.035154;-0.932207;-0.360215;,
  0.000680;-0.992145;-0.125093;,
  -0.000000;-0.992110;-0.125374;,
  0.000000;-0.992110;-0.125374;,
  0.000000;-0.992109;-0.125374;,
  -0.040474;-0.993071;-0.110323;,
  -0.002296;0.998502;0.054667;,
  0.000000;1.000000;0.000000;,
  -0.006437;0.999979;-0.000774;,
  -0.000000;0.998653;0.051884;,
  -0.000049;0.999999;0.001708;,
  0.000000;0.998653;0.051884;,
  0.000717;0.999997;0.002175;,
  0.000000;0.998653;0.051884;,
  0.001525;0.999994;0.003077;,
  0.097426;0.995242;0.001304;,
  0.088011;0.994954;-0.048172;,
  0.045199;0.998814;-0.018093;,
  0.013960;0.999814;-0.013295;,
  0.002220;0.999987;0.004643;,
  0.000000;-1.000000;-0.000000;,
  -0.002022;-0.999997;-0.001676;,
  -0.002939;-0.999991;-0.003114;,
  -0.001525;-0.999994;-0.003077;,
  -0.096894;-0.993548;0.058939;,
  -0.088011;-0.994954;0.048172;,
  -0.045199;-0.998814;0.018093;,
  -0.013960;-0.999814;0.013295;,
  -0.002220;-0.999987;-0.004643;,
  -0.954895;-0.217392;-0.202277;,
  -0.101118;-0.641042;-0.760816;,
  -0.036766;-0.960273;-0.276630;,
  -0.009171;0.993357;0.114710;,
  -0.004593;0.998338;0.057450;,
  -0.004586;0.994012;0.109172;,
  -0.013176;0.999907;-0.003491;,
  -0.026350;0.999628;-0.006982;,
  -0.012875;0.999916;-0.001548;,
  -0.000000;0.994616;0.103628;,
  -0.000098;0.999994;0.003417;,
  0.000000;0.994616;0.103628;,
  0.001434;0.999990;0.004350;,
  0.000000;0.994616;0.103628;,
  0.003050;0.999976;0.006154;,
  0.080617;0.992766;0.088972;,
  0.004440;0.999947;0.009286;,
  0.194336;0.979678;-0.049640;,
  0.160693;0.984248;0.073719;,
  0.175511;0.979779;-0.096064;,
  0.090325;0.995256;-0.036157;,
  0.027925;0.999256;-0.026595;,
  0.003224;0.999977;0.006008;,
  0.006448;0.999907;0.012016;,
  -0.004044;-0.999986;-0.003351;,
  -0.005879;-0.999963;-0.006228;,
  -0.003050;-0.999976;-0.006154;,
  -0.004440;-0.999947;-0.009286;,
  -0.192741;-0.974220;0.117242;,
  -0.175511;-0.979779;0.096064;,
  -0.090325;-0.995256;0.036157;,
  -0.027925;-0.999256;0.026595;,
  -0.003224;-0.999977;-0.006008;,
  -0.006448;-0.999907;-0.012016;,
  0.225547;-0.924504;0.307279;,
  0.660710;-0.287623;0.693350;,
  0.827443;0.000000;0.561550;,
  0.999473;0.000000;0.032463;,
  0.902436;0.000000;-0.430823;,
  0.808887;0.000000;-0.587964;,
  0.335065;-0.827570;0.450399;,
  0.784812;0.000000;-0.619734;,
  0.672421;0.000000;-0.740169;,
  0.645747;0.000000;-0.763551;,
  0.712880;0.000000;-0.701286;,
  -0.515746;-0.085459;-0.852469;,
  -0.932751;0.149789;0.327931;,
  -0.869178;0.015316;0.494263;,
  -0.995288;-0.027294;0.093039;,
  -0.928854;0.000000;-0.370447;,
  -0.920026;0.000000;-0.391856;,
  -0.682229;0.000000;-0.731138;,
  -0.351729;0.000000;-0.936102;,
  -0.010245;-0.919390;0.393215;,
  0.021229;-0.988249;0.151373;,
  -0.000000;-0.990696;0.136091;,
  0.000000;-0.990696;0.136091;,
  -0.000000;-0.990696;0.136091;,
  -0.000000;-0.990696;0.136091;,
  -0.036706;-0.831729;0.553967;,
  0.021587;-0.962574;0.270156;,
  -0.000000;-0.965904;0.258901;,
  0.000000;-0.965904;0.258901;,
  -0.000000;-0.965904;0.258901;,
  -0.000000;-0.965904;0.258901;,
  0.010278;-0.999832;0.015171;,
  0.000000;-1.000000;-0.000000;,
  -0.003273;-0.999995;-0.000520;,
  -0.000000;-0.999985;0.005572;,
  -0.000057;-0.999999;-0.001702;,
  0.000000;-0.999985;0.005572;,
  0.000779;-0.999997;-0.002229;,
  0.000000;-0.999985;0.005572;,
  0.001609;-0.999994;-0.003171;,
  -0.000000;-0.999985;0.005572;,
  0.002437;-0.999985;-0.004843;,
  -0.001869;0.998190;-0.060111;,
  0.000000;1.000000;0.000000;,
  -0.000000;0.998403;-0.056491;,
  -0.001996;0.999997;0.001719;,
  -0.000000;0.998403;-0.056491;,
  -0.002973;0.999990;0.003215;,
  -0.000000;0.998403;-0.056491;,
  -0.001609;0.999994;0.003171;,
  -0.000000;0.998403;-0.056491;,
  -0.002437;0.999985;0.004843;,
  -0.954891;0.217414;0.202274;,
  -0.026162;-0.953830;0.299207;,
  -0.113019;-0.624227;0.773025;,
  -0.006827;-0.999976;0.000898;,
  -0.013654;-0.999905;0.001796;,
  -0.006546;-0.999978;-0.001041;,
  -0.000114;-0.999994;-0.003404;,
  0.001558;-0.999989;-0.004457;,
  0.003219;-0.999975;-0.006343;,
  0.004873;-0.999941;-0.009685;,
  -0.000000;-0.999985;0.005572;,
  0.003607;-0.999973;-0.006335;,
  0.007214;-0.999894;-0.012670;,
  -0.003730;0.992766;-0.120006;,
  -0.003738;0.997960;-0.063731;,
  -0.007461;0.991849;-0.127201;,
  -0.000000;0.993617;-0.112802;,
  -0.003993;0.999986;0.003438;,
  -0.000000;0.993617;-0.112802;,
  -0.005945;0.999962;0.006430;,
  -0.000000;0.993617;-0.112802;,
  -0.003219;0.999975;0.006343;,
  -0.000000;0.993618;-0.112802;,
  -0.004873;0.999941;0.009685;,
  0.000000;0.993618;-0.112802;,
  0.000000;0.998403;-0.056491;,
  -0.003607;0.999973;0.006335;,
  -0.007214;0.999894;0.012670;;
  576;
  4;1,2,10,9;,
  4;2,3,11,10;,
  4;34,4,12,35;,
  4;4,5,13,12;,
  4;5,6,14,13;,
  4;6,7,15,14;,
  4;36,8,16,37;,
  4;8,1,9,16;,
  4;9,10,18,17;,
  4;10,11,19,18;,
  4;35,12,20,38;,
  4;12,13,21,20;,
  4;13,14,22,21;,
  4;14,15,23,22;,
  4;37,16,24,39;,
  4;16,9,17,24;,
  4;17,18,26,25;,
  4;18,19,27,26;,
  4;38,20,28,40;,
  4;20,21,29,28;,
  4;21,22,30,29;,
  4;22,23,31,30;,
  4;39,24,32,41;,
  4;24,17,25,32;,
  3;0,2,1;,
  3;0,3,2;,
  3;42,4,34;,
  3;42,5,4;,
  3;42,6,5;,
  3;42,7,6;,
  3;43,8,36;,
  3;0,1,8;,
  3;33,25,26;,
  3;33,26,27;,
  3;44,40,28;,
  3;44,28,29;,
  3;44,29,30;,
  3;44,30,31;,
  3;33,41,32;,
  3;33,32,25;,
  4;46,47,55,54;,
  4;47,48,56,55;,
  4;48,49,57,56;,
  4;49,50,58,57;,
  4;50,51,59,58;,
  4;51,52,60,59;,
  4;52,53,61,60;,
  4;53,46,54,61;,
  4;54,55,63,62;,
  4;55,56,64,63;,
  4;56,57,65,64;,
  4;57,58,66,65;,
  4;58,59,67,66;,
  4;59,60,68,67;,
  4;60,61,69,68;,
  4;61,54,62,69;,
  4;62,63,71,70;,
  4;63,64,72,71;,
  4;64,65,73,72;,
  4;65,66,74,73;,
  4;66,67,75,74;,
  4;67,68,76,75;,
  4;68,69,77,76;,
  4;69,62,70,77;,
  3;45,79,79;,
  3;80,80,80;,
  3;81,82,83;,
  3;45,84,82;,
  3;45,85,84;,
  3;45,86,85;,
  3;45,87,87;,
  3;81,88,88;,
  3;78,89,90;,
  3;78,90,91;,
  3;78,91,92;,
  3;78,92,93;,
  3;78,93,94;,
  3;78,94,95;,
  3;78,95,96;,
  3;78,96,89;,
  4;98,99,107,106;,
  4;99,100,100,107;,
  4;100,101,108,100;,
  4;101,102,109,108;,
  4;103,103,110,103;,
  4;130,104,111,130;,
  4;104,105,112,111;,
  4;105,98,106,112;,
  4;106,107,114,113;,
  4;107,131,115,114;,
  4;131,108,116,115;,
  4;108,109,117,116;,
  4;109,110,118,117;,
  4;110,111,119,118;,
  4;111,112,120,119;,
  4;112,106,113,120;,
  4;113,114,122,121;,
  4;114,115,123,122;,
  4;115,116,124,123;,
  4;116,117,125,124;,
  4;117,118,126,125;,
  4;118,119,127,126;,
  4;119,120,128,127;,
  4;120,113,121,128;,
  3;97,132,133;,
  3;97,134,132;,
  3;97,135,134;,
  3;97,133,135;,
  3;97,136,133;,
  3;97,104,136;,
  3;97,137,104;,
  3;97,133,137;,
  3;129,138,139;,
  3;129,139,140;,
  3;129,140,141;,
  3;129,141,142;,
  3;129,142,143;,
  3;129,143,144;,
  3;129,144,145;,
  3;129,145,138;,
  4;147,148,156,155;,
  4;148,149,157,156;,
  4;149,150,158,157;,
  4;150,151,159,158;,
  4;151,152,160,159;,
  4;152,153,161,160;,
  4;153,154,162,161;,
  4;154,147,155,162;,
  4;155,156,164,163;,
  4;156,157,165,164;,
  4;157,158,166,165;,
  4;158,159,167,166;,
  4;159,160,168,167;,
  4;160,161,169,168;,
  4;161,162,170,169;,
  4;162,155,163,170;,
  4;163,164,172,171;,
  4;164,165,173,172;,
  4;165,166,174,173;,
  4;166,167,175,174;,
  4;167,168,176,175;,
  4;168,169,177,176;,
  4;169,170,178,177;,
  4;170,163,171,178;,
  3;146,180,180;,
  3;181,181,181;,
  3;182,183,184;,
  3;146,185,183;,
  3;146,186,185;,
  3;146,187,186;,
  3;146,188,187;,
  3;182,189,189;,
  3;179,190,191;,
  3;179,191,192;,
  3;179,192,193;,
  3;179,193,194;,
  3;179,194,195;,
  3;179,195,196;,
  3;179,196,197;,
  3;179,197,190;,
  4;199,200,208,207;,
  4;200,201,201,208;,
  4;201,202,209,201;,
  4;202,203,210,209;,
  4;204,204,211,204;,
  4;231,205,212,231;,
  4;205,206,213,212;,
  4;206,199,207,213;,
  4;207,208,215,214;,
  4;208,232,216,215;,
  4;232,209,217,216;,
  4;209,210,218,217;,
  4;210,211,219,218;,
  4;211,212,220,219;,
  4;212,213,221,220;,
  4;213,207,214,221;,
  4;214,215,223,222;,
  4;215,216,224,223;,
  4;216,217,225,224;,
  4;217,218,226,225;,
  4;218,219,227,226;,
  4;219,220,228,227;,
  4;220,221,229,228;,
  4;221,214,222,229;,
  3;198,233,234;,
  3;198,235,233;,
  3;198,236,235;,
  3;198,234,236;,
  3;198,237,234;,
  3;198,205,237;,
  3;198,238,205;,
  3;198,234,238;,
  3;230,239,240;,
  3;230,240,241;,
  3;230,241,242;,
  3;230,242,243;,
  3;230,243,244;,
  3;230,244,245;,
  3;230,245,246;,
  3;230,246,239;,
  4;248,249,257,256;,
  4;249,250,258,257;,
  4;250,251,259,258;,
  4;251,252,260,259;,
  4;252,253,261,260;,
  4;253,254,262,261;,
  4;254,255,263,262;,
  4;255,248,256,263;,
  4;256,257,265,264;,
  4;257,258,266,265;,
  4;258,259,267,266;,
  4;259,260,268,267;,
  4;260,261,269,268;,
  4;261,262,270,269;,
  4;262,263,271,270;,
  4;263,256,264,271;,
  4;264,265,273,272;,
  4;265,266,274,273;,
  4;281,267,275,281;,
  4;267,268,276,275;,
  4;268,269,277,276;,
  4;269,270,278,277;,
  4;270,271,279,282;,
  4;271,264,272,279;,
  3;247,283,284;,
  3;247,285,283;,
  3;247,286,285;,
  3;247,287,286;,
  3;247,288,287;,
  3;247,289,288;,
  3;247,290,289;,
  3;247,284,290;,
  3;280,291,292;,
  3;280,292,293;,
  3;294,295,296;,
  3;294,296,297;,
  3;294,297,298;,
  3;294,298,299;,
  3;280,300,301;,
  3;280,301,291;,
  3;302,310,303;,
  3;303,310,304;,
  3;312,313,305;,
  3;305,313,306;,
  3;306,313,307;,
  3;307,313,308;,
  3;314,314,309;,
  3;309,310,302;,
  3;311,315,316;,
  3;311,316,317;,
  3;311,317,318;,
  3;311,318,319;,
  3;311,319,320;,
  3;311,320,321;,
  3;311,321,322;,
  3;311,322,315;,
  3;323,325,324;,
  3;323,326,325;,
  3;323,327,326;,
  3;323,328,327;,
  3;323,329,328;,
  3;323,330,329;,
  3;323,331,330;,
  3;323,324,331;,
  4;324,325,333,332;,
  4;325,326,334,333;,
  4;326,327,335,334;,
  4;327,328,336,335;,
  4;328,329,337,336;,
  4;329,330,338,337;,
  4;330,331,339,338;,
  4;331,324,332,339;,
  4;332,333,341,340;,
  4;333,334,342,341;,
  4;334,335,343,342;,
  4;335,336,344,343;,
  4;336,337,345,344;,
  4;337,338,346,345;,
  4;338,339,347,346;,
  4;339,332,340,347;,
  4;340,341,349,348;,
  4;341,342,350,349;,
  4;342,343,351,350;,
  4;343,344,352,351;,
  4;344,345,353,352;,
  4;345,346,354,353;,
  4;346,347,355,354;,
  4;347,340,348,355;,
  4;348,349,357,356;,
  4;349,350,358,357;,
  4;350,351,359,358;,
  4;351,352,360,359;,
  4;352,353,361,360;,
  4;353,354,362,361;,
  4;354,355,363,362;,
  4;355,348,356,363;,
  4;356,357,365,364;,
  4;357,358,366,365;,
  4;358,359,367,366;,
  4;359,360,368,367;,
  4;360,361,369,368;,
  4;361,362,370,369;,
  4;362,363,371,370;,
  4;363,356,364,371;,
  4;364,365,373,372;,
  4;365,366,374,373;,
  4;366,367,375,374;,
  4;367,368,376,375;,
  4;368,369,377,376;,
  4;369,370,378,377;,
  4;370,371,379,378;,
  4;371,364,372,379;,
  3;372,373,380;,
  3;373,374,380;,
  3;374,375,380;,
  3;375,376,380;,
  3;376,377,380;,
  3;377,378,380;,
  3;378,379,380;,
  3;379,372,380;,
  3;381,383,382;,
  3;381,384,383;,
  3;381,385,384;,
  3;381,386,385;,
  3;381,387,386;,
  3;381,388,387;,
  3;381,389,388;,
  3;381,382,389;,
  4;382,383,391,390;,
  4;383,384,392,391;,
  4;384,385,393,392;,
  4;385,386,394,393;,
  4;386,387,395,394;,
  4;387,388,396,395;,
  4;388,389,397,396;,
  4;389,382,390,397;,
  4;390,391,399,398;,
  4;391,392,400,399;,
  4;392,393,401,400;,
  4;393,394,402,401;,
  4;394,395,403,402;,
  4;395,396,404,403;,
  4;396,397,405,404;,
  4;397,390,398,405;,
  4;398,399,407,406;,
  4;399,400,408,407;,
  4;400,401,409,408;,
  4;401,402,410,409;,
  4;402,403,411,410;,
  4;403,404,412,411;,
  4;404,405,413,412;,
  4;405,398,406,413;,
  4;406,407,415,414;,
  4;407,408,416,415;,
  4;408,409,417,416;,
  4;409,410,418,417;,
  4;410,411,419,418;,
  4;411,412,420,419;,
  4;412,413,421,420;,
  4;413,406,414,421;,
  4;414,415,423,422;,
  4;415,416,424,423;,
  4;416,417,425,424;,
  4;417,418,426,425;,
  4;418,419,427,426;,
  4;419,420,428,427;,
  4;420,421,429,428;,
  4;421,414,422,429;,
  4;422,423,431,430;,
  4;423,424,432,431;,
  4;424,425,433,432;,
  4;425,426,434,433;,
  4;426,427,435,434;,
  4;427,428,436,435;,
  4;428,429,437,436;,
  4;429,422,430,437;,
  3;430,431,438;,
  3;431,432,438;,
  3;432,433,438;,
  3;433,434,438;,
  3;434,435,438;,
  3;435,436,438;,
  3;436,437,438;,
  3;437,430,438;,
  4;439,440,440,445;,
  4;440,441,441,440;,
  4;441,442,442,441;,
  4;442,443,443,442;,
  4;443,444,444,443;,
  4;444,446,446,444;,
  4;446,447,447,446;,
  4;447,448,448,447;,
  4;448,449,449,448;,
  4;450,450,450,450;,
  4;493,451,451,493;,
  4;451,452,452,451;,
  4;452,453,453,452;,
  4;453,454,454,453;,
  4;454,455,455,454;,
  4;455,456,456,455;,
  4;456,457,457,456;,
  4;494,458,464,495;,
  4;458,459,465,464;,
  4;459,460,466,465;,
  4;460,461,467,466;,
  4;461,462,468,467;,
  4;462,463,469,468;,
  4;463,439,445,469;,
  4;496,497,470,498;,
  4;497,471,471,470;,
  4;471,471,471,471;,
  4;471,471,471,471;,
  4;471,499,472,471;,
  4;499,500,501,472;,
  4;498,470,473,502;,
  4;470,471,471,473;,
  4;471,471,471,471;,
  4;471,471,471,471;,
  4;471,472,474,471;,
  4;472,501,503,474;,
  4;502,473,475,504;,
  4;473,471,471,475;,
  4;471,471,471,471;,
  4;471,471,471,471;,
  4;471,474,476,471;,
  4;474,503,505,476;,
  4;504,475,477,506;,
  4;475,471,471,477;,
  4;471,471,471,471;,
  4;471,471,471,471;,
  4;471,476,478,471;,
  4;476,505,507,478;,
  4;506,477,479,508;,
  4;477,471,480,479;,
  4;471,471,481,480;,
  4;471,471,482,481;,
  4;471,478,483,482;,
  4;478,507,509,483;,
  4;508,479,510,511;,
  4;479,480,512,510;,
  4;480,481,513,512;,
  4;481,482,514,513;,
  4;482,483,515,514;,
  4;483,509,516,515;,
  4;465,484,495,464;,
  4;484,484,484,495;,
  4;484,484,484,484;,
  4;484,484,484,484;,
  4;484,484,484,484;,
  4;484,484,484,484;,
  4;466,484,484,465;,
  4;484,484,484,484;,
  4;484,484,484,484;,
  4;484,484,484,484;,
  4;484,485,484,484;,
  4;485,517,484,484;,
  4;467,484,484,466;,
  4;484,484,484,484;,
  4;484,484,484,484;,
  4;484,484,484,484;,
  4;484,486,485,484;,
  4;486,518,517,485;,
  4;468,484,484,467;,
  4;484,484,484,484;,
  4;484,484,484,484;,
  4;484,484,484,484;,
  4;484,487,486,484;,
  4;487,519,518,486;,
  4;469,488,484,468;,
  4;488,489,484,484;,
  4;489,490,484,484;,
  4;490,491,484,484;,
  4;491,492,487,484;,
  4;492,520,519,487;,
  4;445,521,488,469;,
  4;521,522,489,488;,
  4;522,523,490,489;,
  4;523,524,491,490;,
  4;524,525,492,491;,
  4;525,526,520,492;,
  4;527,528,528,533;,
  4;528,529,529,528;,
  4;529,530,530,529;,
  4;530,531,531,530;,
  4;531,532,532,531;,
  4;532,534,534,532;,
  4;534,535,535,534;,
  4;535,536,536,535;,
  4;536,537,537,536;,
  4;538,538,538,538;,
  4;579,539,539,579;,
  4;539,540,540,539;,
  4;540,541,541,540;,
  4;541,542,542,541;,
  4;542,543,543,542;,
  4;543,544,544,543;,
  4;544,545,545,544;,
  4;580,546,552,581;,
  4;546,547,553,552;,
  4;547,548,554,553;,
  4;548,549,555,554;,
  4;549,550,556,555;,
  4;550,551,557,556;,
  4;551,527,533,557;,
  4;546,580,558,547;,
  4;580,559,559,558;,
  4;559,559,559,559;,
  4;559,559,559,559;,
  4;559,582,560,559;,
  4;582,583,584,560;,
  4;547,558,561,548;,
  4;558,559,559,561;,
  4;559,559,559,559;,
  4;559,559,559,559;,
  4;559,560,562,559;,
  4;560,584,585,562;,
  4;548,561,563,549;,
  4;561,559,559,563;,
  4;559,559,559,559;,
  4;559,559,559,559;,
  4;559,562,564,559;,
  4;562,585,586,564;,
  4;549,563,565,550;,
  4;563,559,559,565;,
  4;559,559,559,559;,
  4;559,559,559,559;,
  4;559,564,566,559;,
  4;564,586,587,566;,
  4;550,565,567,551;,
  4;565,559,559,567;,
  4;559,559,559,559;,
  4;559,559,559,559;,
  4;559,566,568,559;,
  4;566,587,588,568;,
  4;551,567,589,527;,
  4;567,559,559,589;,
  4;559,559,559,559;,
  4;559,559,559,559;,
  4;559,568,590,559;,
  4;568,588,591,590;,
  4;592,569,593,594;,
  4;569,570,570,593;,
  4;570,570,570,570;,
  4;570,570,570,570;,
  4;570,570,570,570;,
  4;570,570,570,570;,
  4;595,571,569,592;,
  4;571,570,570,569;,
  4;570,570,570,570;,
  4;570,570,570,570;,
  4;570,572,570,570;,
  4;572,596,570,570;,
  4;597,573,571,595;,
  4;573,570,570,571;,
  4;570,570,570,570;,
  4;570,570,570,570;,
  4;570,574,572,570;,
  4;574,598,596,572;,
  4;599,575,573,597;,
  4;575,570,570,573;,
  4;570,570,570,570;,
  4;570,570,570,570;,
  4;570,576,574,570;,
  4;576,600,598,574;,
  4;601,577,575,599;,
  4;577,570,570,575;,
  4;570,570,570,570;,
  4;570,570,570,570;,
  4;570,578,576,570;,
  4;578,602,600,576;,
  4;603,604,577,601;,
  4;604,570,570,577;,
  4;570,570,570,570;,
  4;570,570,570,570;,
  4;570,605,578,570;,
  4;605,606,602,578;;
 }
 MeshTextureCoords {
  792;
  0.000000;0.000000;,
  0.125000;0.000000;,
  0.125000;0.333330;,
  0.000000;0.333330;,
  0.250000;0.000000;,
  0.250000;0.333330;,
  0.375000;0.000000;,
  0.375000;0.333330;,
  0.500000;0.000000;,
  0.500000;0.333330;,
  0.625000;0.000000;,
  0.625000;0.333330;,
  0.750000;0.000000;,
  0.750000;0.333330;,
  0.875000;0.000000;,
  0.875000;0.333330;,
  1.000000;0.000000;,
  1.000000;0.333330;,
  0.125000;0.666670;,
  0.000000;0.666670;,
  0.250000;0.666670;,
  0.375000;0.666670;,
  0.500000;0.666670;,
  0.625000;0.666670;,
  0.750000;0.666670;,
  0.875000;0.666670;,
  1.000000;0.666670;,
  0.125000;1.000000;,
  0.000000;1.000000;,
  0.250000;1.000000;,
  0.375000;1.000000;,
  0.500000;1.000000;,
  0.625000;1.000000;,
  0.750000;1.000000;,
  0.875000;1.000000;,
  1.000000;1.000000;,
  0.062500;0.000000;,
  0.187500;0.000000;,
  0.312500;0.000000;,
  0.437500;0.000000;,
  0.562500;0.000000;,
  0.687500;0.000000;,
  0.812500;0.000000;,
  0.937500;0.000000;,
  0.062500;1.000000;,
  0.187500;1.000000;,
  0.312500;1.000000;,
  0.437500;1.000000;,
  0.562500;1.000000;,
  0.687500;1.000000;,
  0.812500;1.000000;,
  0.937500;1.000000;,
  0.000000;0.000000;,
  0.125000;0.000000;,
  0.125000;0.333330;,
  0.000000;0.333330;,
  0.250000;0.000000;,
  0.250000;0.333330;,
  0.375000;0.000000;,
  0.375000;0.333330;,
  0.500000;0.000000;,
  0.500000;0.333330;,
  0.625000;0.000000;,
  0.625000;0.333330;,
  0.750000;0.000000;,
  0.750000;0.333330;,
  0.875000;0.000000;,
  0.875000;0.333330;,
  1.000000;0.000000;,
  1.000000;0.333330;,
  0.125000;0.666670;,
  0.000000;0.666670;,
  0.250000;0.666670;,
  0.375000;0.666670;,
  0.500000;0.666670;,
  0.625000;0.666670;,
  0.750000;0.666670;,
  0.875000;0.666670;,
  1.000000;0.666670;,
  0.125000;1.000000;,
  0.000000;1.000000;,
  0.250000;1.000000;,
  0.375000;1.000000;,
  0.500000;1.000000;,
  0.625000;1.000000;,
  0.750000;1.000000;,
  0.875000;1.000000;,
  1.000000;1.000000;,
  0.062500;0.000000;,
  0.187500;0.000000;,
  0.312500;0.000000;,
  0.437500;0.000000;,
  0.562500;0.000000;,
  0.687500;0.000000;,
  0.812500;0.000000;,
  0.937500;0.000000;,
  0.062500;1.000000;,
  0.187500;1.000000;,
  0.312500;1.000000;,
  0.437500;1.000000;,
  0.562500;1.000000;,
  0.687500;1.000000;,
  0.812500;1.000000;,
  0.937500;1.000000;,
  0.000000;0.000000;,
  0.125000;0.000000;,
  0.125000;0.333330;,
  0.000000;0.333330;,
  0.250000;0.000000;,
  0.250000;0.333330;,
  0.375000;0.000000;,
  0.375000;0.333330;,
  0.500000;0.000000;,
  0.500000;0.333330;,
  0.625000;0.000000;,
  0.625000;0.333330;,
  0.750000;0.000000;,
  0.750000;0.333330;,
  0.875000;0.000000;,
  0.875000;0.333330;,
  1.000000;0.000000;,
  1.000000;0.333330;,
  0.125000;0.666670;,
  0.000000;0.666670;,
  0.250000;0.666670;,
  0.375000;0.666670;,
  0.500000;0.666670;,
  0.625000;0.666670;,
  0.750000;0.666670;,
  0.875000;0.666670;,
  1.000000;0.666670;,
  0.125000;1.000000;,
  0.000000;1.000000;,
  0.250000;1.000000;,
  0.375000;1.000000;,
  0.500000;1.000000;,
  0.625000;1.000000;,
  0.750000;1.000000;,
  0.875000;1.000000;,
  1.000000;1.000000;,
  0.062500;0.000000;,
  0.187500;0.000000;,
  0.312500;0.000000;,
  0.437500;0.000000;,
  0.562500;0.000000;,
  0.687500;0.000000;,
  0.812500;0.000000;,
  0.937500;0.000000;,
  0.062500;1.000000;,
  0.187500;1.000000;,
  0.312500;1.000000;,
  0.437500;1.000000;,
  0.562500;1.000000;,
  0.687500;1.000000;,
  0.812500;1.000000;,
  0.937500;1.000000;,
  0.000000;0.000000;,
  0.125000;0.000000;,
  0.125000;0.333330;,
  0.000000;0.333330;,
  0.250000;0.000000;,
  0.250000;0.333330;,
  0.375000;0.000000;,
  0.375000;0.333330;,
  0.500000;0.000000;,
  0.500000;0.333330;,
  0.625000;0.000000;,
  0.625000;0.333330;,
  0.750000;0.000000;,
  0.750000;0.333330;,
  0.875000;0.000000;,
  0.875000;0.333330;,
  1.000000;0.000000;,
  1.000000;0.333330;,
  0.125000;0.666670;,
  0.000000;0.666670;,
  0.250000;0.666670;,
  0.375000;0.666670;,
  0.500000;0.666670;,
  0.625000;0.666670;,
  0.750000;0.666670;,
  0.875000;0.666670;,
  1.000000;0.666670;,
  0.125000;1.000000;,
  0.000000;1.000000;,
  0.250000;1.000000;,
  0.375000;1.000000;,
  0.500000;1.000000;,
  0.625000;1.000000;,
  0.750000;1.000000;,
  0.875000;1.000000;,
  1.000000;1.000000;,
  0.062500;0.000000;,
  0.187500;0.000000;,
  0.312500;0.000000;,
  0.437500;0.000000;,
  0.562500;0.000000;,
  0.687500;0.000000;,
  0.812500;0.000000;,
  0.937500;0.000000;,
  0.062500;1.000000;,
  0.187500;1.000000;,
  0.312500;1.000000;,
  0.437500;1.000000;,
  0.562500;1.000000;,
  0.687500;1.000000;,
  0.812500;1.000000;,
  0.937500;1.000000;,
  0.000000;0.000000;,
  0.125000;0.000000;,
  0.125000;0.333330;,
  0.000000;0.333330;,
  0.250000;0.000000;,
  0.250000;0.333330;,
  0.375000;0.000000;,
  0.375000;0.333330;,
  0.500000;0.000000;,
  0.500000;0.333330;,
  0.625000;0.000000;,
  0.625000;0.333330;,
  0.750000;0.000000;,
  0.750000;0.333330;,
  0.875000;0.000000;,
  0.875000;0.333330;,
  1.000000;0.000000;,
  1.000000;0.333330;,
  0.125000;0.666670;,
  0.000000;0.666670;,
  0.250000;0.666670;,
  0.375000;0.666670;,
  0.500000;0.666670;,
  0.625000;0.666670;,
  0.750000;0.666670;,
  0.875000;0.666670;,
  1.000000;0.666670;,
  0.125000;1.000000;,
  0.000000;1.000000;,
  0.250000;1.000000;,
  0.375000;1.000000;,
  0.500000;1.000000;,
  0.625000;1.000000;,
  0.750000;1.000000;,
  0.875000;1.000000;,
  1.000000;1.000000;,
  0.062500;0.000000;,
  0.187500;0.000000;,
  0.312500;0.000000;,
  0.437500;0.000000;,
  0.562500;0.000000;,
  0.687500;0.000000;,
  0.812500;0.000000;,
  0.937500;0.000000;,
  0.062500;1.000000;,
  0.187500;1.000000;,
  0.312500;1.000000;,
  0.437500;1.000000;,
  0.562500;1.000000;,
  0.687500;1.000000;,
  0.812500;1.000000;,
  0.937500;1.000000;,
  0.000000;0.000000;,
  0.125000;0.000000;,
  0.125000;0.333330;,
  0.000000;0.333330;,
  0.250000;0.000000;,
  0.250000;0.333330;,
  0.375000;0.000000;,
  0.375000;0.333330;,
  0.500000;0.000000;,
  0.500000;0.333330;,
  0.625000;0.000000;,
  0.625000;0.333330;,
  0.750000;0.000000;,
  0.750000;0.333330;,
  0.875000;0.000000;,
  0.875000;0.333330;,
  1.000000;0.000000;,
  1.000000;0.333330;,
  0.125000;0.666670;,
  0.000000;0.666670;,
  0.250000;0.666670;,
  0.375000;0.666670;,
  0.500000;0.666670;,
  0.625000;0.666670;,
  0.750000;0.666670;,
  0.875000;0.666670;,
  1.000000;0.666670;,
  0.125000;1.000000;,
  0.000000;1.000000;,
  0.250000;1.000000;,
  0.375000;1.000000;,
  0.500000;1.000000;,
  0.625000;1.000000;,
  0.750000;1.000000;,
  0.875000;1.000000;,
  1.000000;1.000000;,
  0.062500;0.000000;,
  0.187500;0.000000;,
  0.312500;0.000000;,
  0.437500;0.000000;,
  0.562500;0.000000;,
  0.687500;0.000000;,
  0.812500;0.000000;,
  0.937500;0.000000;,
  0.062500;1.000000;,
  0.187500;1.000000;,
  0.312500;1.000000;,
  0.437500;1.000000;,
  0.562500;1.000000;,
  0.687500;1.000000;,
  0.812500;1.000000;,
  0.937500;1.000000;,
  0.000000;1.000000;,
  0.062500;0.000000;,
  0.125000;1.000000;,
  0.125000;0.000000;,
  0.250000;1.000000;,
  0.187500;0.000000;,
  0.375000;1.000000;,
  0.250000;0.000000;,
  0.500000;1.000000;,
  0.312500;0.000000;,
  0.625000;1.000000;,
  0.375000;0.000000;,
  0.750000;1.000000;,
  0.437500;0.000000;,
  0.875000;1.000000;,
  0.500000;0.000000;,
  1.000000;1.000000;,
  0.000000;0.000000;,
  0.000000;0.000000;,
  0.000000;0.000000;,
  0.000000;0.000000;,
  0.000000;0.000000;,
  0.000000;0.000000;,
  0.000000;0.000000;,
  0.000000;0.000000;,
  0.000000;0.000000;,
  0.062500;0.000000;,
  0.125000;0.125000;,
  0.000000;0.125000;,
  0.187500;0.000000;,
  0.250000;0.125000;,
  0.312500;0.000000;,
  0.375000;0.125000;,
  0.437500;0.000000;,
  0.500000;0.125000;,
  0.562500;0.000000;,
  0.625000;0.125000;,
  0.687500;0.000000;,
  0.750000;0.125000;,
  0.812500;0.000000;,
  0.875000;0.125000;,
  0.937500;0.000000;,
  1.000000;0.125000;,
  0.125000;0.250000;,
  0.000000;0.250000;,
  0.250000;0.250000;,
  0.375000;0.250000;,
  0.500000;0.250000;,
  0.625000;0.250000;,
  0.750000;0.250000;,
  0.875000;0.250000;,
  1.000000;0.250000;,
  0.125000;0.375000;,
  0.000000;0.375000;,
  0.250000;0.375000;,
  0.375000;0.375000;,
  0.500000;0.375000;,
  0.625000;0.375000;,
  0.750000;0.375000;,
  0.875000;0.375000;,
  1.000000;0.375000;,
  0.125000;0.500000;,
  0.000000;0.500000;,
  0.250000;0.500000;,
  0.375000;0.500000;,
  0.500000;0.500000;,
  0.625000;0.500000;,
  0.750000;0.500000;,
  0.875000;0.500000;,
  1.000000;0.500000;,
  0.125000;0.625000;,
  0.000000;0.625000;,
  0.250000;0.625000;,
  0.375000;0.625000;,
  0.500000;0.625000;,
  0.625000;0.625000;,
  0.750000;0.625000;,
  0.875000;0.625000;,
  1.000000;0.625000;,
  0.125000;0.750000;,
  0.000000;0.750000;,
  0.250000;0.750000;,
  0.375000;0.750000;,
  0.500000;0.750000;,
  0.625000;0.750000;,
  0.750000;0.750000;,
  0.875000;0.750000;,
  1.000000;0.750000;,
  0.125000;0.875000;,
  0.000000;0.875000;,
  0.250000;0.875000;,
  0.375000;0.875000;,
  0.500000;0.875000;,
  0.625000;0.875000;,
  0.750000;0.875000;,
  0.875000;0.875000;,
  1.000000;0.875000;,
  0.062500;1.000000;,
  0.187500;1.000000;,
  0.312500;1.000000;,
  0.437500;1.000000;,
  0.562500;1.000000;,
  0.687500;1.000000;,
  0.812500;1.000000;,
  0.937500;1.000000;,
  0.062500;0.000000;,
  0.125000;0.125000;,
  0.000000;0.125000;,
  0.187500;0.000000;,
  0.250000;0.125000;,
  0.312500;0.000000;,
  0.375000;0.125000;,
  0.437500;0.000000;,
  0.500000;0.125000;,
  0.562500;0.000000;,
  0.625000;0.125000;,
  0.687500;0.000000;,
  0.750000;0.125000;,
  0.812500;0.000000;,
  0.875000;0.125000;,
  0.937500;0.000000;,
  1.000000;0.125000;,
  0.125000;0.250000;,
  0.000000;0.250000;,
  0.250000;0.250000;,
  0.375000;0.250000;,
  0.500000;0.250000;,
  0.625000;0.250000;,
  0.750000;0.250000;,
  0.875000;0.250000;,
  1.000000;0.250000;,
  0.125000;0.375000;,
  0.000000;0.375000;,
  0.250000;0.375000;,
  0.375000;0.375000;,
  0.500000;0.375000;,
  0.625000;0.375000;,
  0.750000;0.375000;,
  0.875000;0.375000;,
  1.000000;0.375000;,
  0.125000;0.500000;,
  0.000000;0.500000;,
  0.250000;0.500000;,
  0.375000;0.500000;,
  0.500000;0.500000;,
  0.625000;0.500000;,
  0.750000;0.500000;,
  0.875000;0.500000;,
  1.000000;0.500000;,
  0.125000;0.625000;,
  0.000000;0.625000;,
  0.250000;0.625000;,
  0.375000;0.625000;,
  0.500000;0.625000;,
  0.625000;0.625000;,
  0.750000;0.625000;,
  0.875000;0.625000;,
  1.000000;0.625000;,
  0.125000;0.750000;,
  0.000000;0.750000;,
  0.250000;0.750000;,
  0.375000;0.750000;,
  0.500000;0.750000;,
  0.625000;0.750000;,
  0.750000;0.750000;,
  0.875000;0.750000;,
  1.000000;0.750000;,
  0.125000;0.875000;,
  0.000000;0.875000;,
  0.250000;0.875000;,
  0.375000;0.875000;,
  0.500000;0.875000;,
  0.625000;0.875000;,
  0.750000;0.875000;,
  0.875000;0.875000;,
  1.000000;0.875000;,
  0.062500;1.000000;,
  0.187500;1.000000;,
  0.312500;1.000000;,
  0.437500;1.000000;,
  0.562500;1.000000;,
  0.687500;1.000000;,
  0.812500;1.000000;,
  0.937500;1.000000;,
  0.000000;0.000000;,
  0.166670;0.000000;,
  0.166670;1.000000;,
  0.000000;1.000000;,
  0.333330;0.000000;,
  0.333330;1.000000;,
  0.500000;0.000000;,
  0.500000;1.000000;,
  0.666670;0.000000;,
  0.666670;1.000000;,
  0.833330;0.000000;,
  0.833330;1.000000;,
  1.000000;0.000000;,
  1.000000;1.000000;,
  0.000000;0.000000;,
  0.166670;0.000000;,
  0.166670;1.000000;,
  0.000000;1.000000;,
  0.333330;0.000000;,
  0.333330;1.000000;,
  0.500000;0.000000;,
  0.500000;1.000000;,
  0.666670;0.000000;,
  0.666670;1.000000;,
  0.833330;0.000000;,
  0.833330;1.000000;,
  1.000000;0.000000;,
  1.000000;1.000000;,
  0.000000;0.000000;,
  0.166670;0.000000;,
  0.166670;1.000000;,
  0.000000;1.000000;,
  0.333330;0.000000;,
  0.333330;1.000000;,
  0.500000;0.000000;,
  0.500000;1.000000;,
  0.666670;0.000000;,
  0.666670;1.000000;,
  0.833330;0.000000;,
  0.833330;1.000000;,
  1.000000;0.000000;,
  1.000000;1.000000;,
  0.000000;0.000000;,
  0.166670;0.000000;,
  0.166670;1.000000;,
  0.000000;1.000000;,
  0.333330;0.000000;,
  0.333330;1.000000;,
  0.500000;0.000000;,
  0.500000;1.000000;,
  0.666670;0.000000;,
  0.666670;1.000000;,
  0.833330;0.000000;,
  0.833330;1.000000;,
  1.000000;0.000000;,
  1.000000;1.000000;,
  0.166670;0.000000;,
  0.166670;0.166670;,
  0.000000;0.166670;,
  0.333330;0.000000;,
  0.333330;0.166670;,
  0.500000;0.166670;,
  0.666670;0.000000;,
  0.666670;0.166670;,
  0.833330;0.000000;,
  0.833330;0.166670;,
  1.000000;0.166670;,
  0.166670;0.333330;,
  0.000000;0.333330;,
  0.333330;0.333330;,
  0.500000;0.333330;,
  0.666670;0.333330;,
  0.833330;0.333330;,
  1.000000;0.333330;,
  0.166670;0.500000;,
  0.000000;0.500000;,
  0.333330;0.500000;,
  0.500000;0.500000;,
  0.666670;0.500000;,
  0.833330;0.500000;,
  1.000000;0.500000;,
  0.166670;0.666670;,
  0.000000;0.666670;,
  0.333330;0.666670;,
  0.500000;0.666670;,
  0.666670;0.666670;,
  0.833330;0.666670;,
  1.000000;0.666670;,
  0.166670;0.833330;,
  0.000000;0.833330;,
  0.333330;0.833330;,
  0.500000;0.833330;,
  0.666670;0.833330;,
  0.833330;0.833330;,
  1.000000;0.833330;,
  0.166670;1.000000;,
  0.000000;1.000000;,
  0.333330;1.000000;,
  0.500000;1.000000;,
  0.666670;1.000000;,
  0.833330;1.000000;,
  1.000000;1.000000;,
  0.000000;0.833330;,
  0.166670;0.833330;,
  0.166670;1.000000;,
  0.333330;0.833330;,
  0.333330;1.000000;,
  0.500000;0.833330;,
  0.666670;0.833330;,
  0.666670;1.000000;,
  0.833330;0.833330;,
  0.833330;1.000000;,
  1.000000;0.833330;,
  0.000000;0.666670;,
  0.166670;0.666670;,
  0.333330;0.666670;,
  0.500000;0.666670;,
  0.666670;0.666670;,
  0.833330;0.666670;,
  1.000000;0.666670;,
  0.000000;0.500000;,
  0.166670;0.500000;,
  0.333330;0.500000;,
  0.500000;0.500000;,
  0.666670;0.500000;,
  0.833330;0.500000;,
  1.000000;0.500000;,
  0.000000;0.333330;,
  0.166670;0.333330;,
  0.333330;0.333330;,
  0.500000;0.333330;,
  0.666670;0.333330;,
  0.833330;0.333330;,
  1.000000;0.333330;,
  0.000000;0.166670;,
  0.166670;0.166670;,
  0.333330;0.166670;,
  0.500000;0.166670;,
  0.666670;0.166670;,
  0.833330;0.166670;,
  1.000000;0.166670;,
  0.000000;0.000000;,
  0.166670;0.000000;,
  0.333330;0.000000;,
  0.500000;0.000000;,
  0.666670;0.000000;,
  0.833330;0.000000;,
  1.000000;0.000000;,
  0.000000;0.000000;,
  0.166670;0.000000;,
  0.166670;1.000000;,
  0.000000;1.000000;,
  0.333330;0.000000;,
  0.333330;1.000000;,
  0.500000;0.000000;,
  0.500000;1.000000;,
  0.666670;0.000000;,
  0.666670;1.000000;,
  0.833330;0.000000;,
  0.833330;1.000000;,
  1.000000;0.000000;,
  1.000000;1.000000;,
  0.000000;0.000000;,
  0.166670;0.000000;,
  0.166670;1.000000;,
  0.000000;1.000000;,
  0.333330;0.000000;,
  0.333330;1.000000;,
  0.500000;0.000000;,
  0.500000;1.000000;,
  0.666670;0.000000;,
  0.666670;1.000000;,
  0.833330;0.000000;,
  0.833330;1.000000;,
  1.000000;0.000000;,
  1.000000;1.000000;,
  0.000000;0.000000;,
  0.166670;0.000000;,
  0.166670;1.000000;,
  0.000000;1.000000;,
  0.333330;0.000000;,
  0.333330;1.000000;,
  0.500000;0.000000;,
  0.500000;1.000000;,
  0.666670;0.000000;,
  0.666670;1.000000;,
  0.833330;0.000000;,
  0.833330;1.000000;,
  1.000000;0.000000;,
  1.000000;1.000000;,
  0.000000;0.000000;,
  0.166670;0.000000;,
  0.166670;1.000000;,
  0.000000;1.000000;,
  0.333330;0.000000;,
  0.333330;1.000000;,
  0.500000;0.000000;,
  0.500000;1.000000;,
  0.666670;0.000000;,
  0.666670;1.000000;,
  0.833330;0.000000;,
  0.833330;1.000000;,
  1.000000;0.000000;,
  1.000000;1.000000;,
  0.166670;0.000000;,
  0.166670;0.166670;,
  0.000000;0.166670;,
  0.333330;0.000000;,
  0.333330;0.166670;,
  0.500000;0.166670;,
  0.666670;0.000000;,
  0.666670;0.166670;,
  0.833330;0.000000;,
  0.833330;0.166670;,
  1.000000;0.166670;,
  0.166670;0.333330;,
  0.000000;0.333330;,
  0.333330;0.333330;,
  0.500000;0.333330;,
  0.666670;0.333330;,
  0.833330;0.333330;,
  1.000000;0.333330;,
  0.166670;0.500000;,
  0.000000;0.500000;,
  0.333330;0.500000;,
  0.500000;0.500000;,
  0.666670;0.500000;,
  0.833330;0.500000;,
  1.000000;0.500000;,
  0.166670;0.666670;,
  0.000000;0.666670;,
  0.333330;0.666670;,
  0.500000;0.666670;,
  0.666670;0.666670;,
  0.833330;0.666670;,
  1.000000;0.666670;,
  0.166670;0.833330;,
  0.000000;0.833330;,
  0.333330;0.833330;,
  0.500000;0.833330;,
  0.666670;0.833330;,
  0.833330;0.833330;,
  1.000000;0.833330;,
  0.166670;1.000000;,
  0.000000;1.000000;,
  0.333330;1.000000;,
  0.500000;1.000000;,
  0.666670;1.000000;,
  0.833330;1.000000;,
  1.000000;1.000000;,
  0.000000;0.833330;,
  0.166670;0.833330;,
  0.166670;1.000000;,
  0.333330;0.833330;,
  0.333330;1.000000;,
  0.500000;0.833330;,
  0.666670;0.833330;,
  0.666670;1.000000;,
  0.833330;0.833330;,
  0.833330;1.000000;,
  1.000000;0.833330;,
  0.000000;0.666670;,
  0.166670;0.666670;,
  0.333330;0.666670;,
  0.500000;0.666670;,
  0.666670;0.666670;,
  0.833330;0.666670;,
  1.000000;0.666670;,
  0.000000;0.500000;,
  0.166670;0.500000;,
  0.333330;0.500000;,
  0.500000;0.500000;,
  0.666670;0.500000;,
  0.833330;0.500000;,
  1.000000;0.500000;,
  0.000000;0.333330;,
  0.166670;0.333330;,
  0.333330;0.333330;,
  0.500000;0.333330;,
  0.666670;0.333330;,
  0.833330;0.333330;,
  1.000000;0.333330;,
  0.000000;0.166670;,
  0.166670;0.166670;,
  0.333330;0.166670;,
  0.500000;0.166670;,
  0.666670;0.166670;,
  0.833330;0.166670;,
  1.000000;0.166670;,
  0.000000;0.000000;,
  0.166670;0.000000;,
  0.333330;0.000000;,
  0.500000;0.000000;,
  0.666670;0.000000;,
  0.833330;0.000000;,
  1.000000;0.000000;;
 }
}
