xof 0302txt 0064
template Header {
 <3D82AB43-62DA-11cf-AB39-0020AF71E433>
 WORD major;
 WORD minor;
 DWORD flags;
}

template Vector {
 <3D82AB5E-62DA-11cf-AB39-0020AF71E433>
 FLOAT x;
 FLOAT y;
 FLOAT z;
}

template Coords2d {
 <F6F23F44-7686-11cf-8F52-0040333594A3>
 FLOAT u;
 FLOAT v;
}

template Matrix4x4 {
 <F6F23F45-7686-11cf-8F52-0040333594A3>
 array FLOAT matrix[16];
}

template ColorRGBA {
 <35FF44E0-6C7C-11cf-8F52-0040333594A3>
 FLOAT red;
 FLOAT green;
 FLOAT blue;
 FLOAT alpha;
}

template ColorRGB {
 <D3E16E81-7835-11cf-8F52-0040333594A3>
 FLOAT red;
 FLOAT green;
 FLOAT blue;
}

template IndexedColor {
 <1630B820-7842-11cf-8F52-0040333594A3>
 DWORD index;
 ColorRGBA indexColor;
}

template Boolean {
 <4885AE61-78E8-11cf-8F52-0040333594A3>
 WORD truefalse;
}

template Boolean2d {
 <4885AE63-78E8-11cf-8F52-0040333594A3>
 Boolean u;
 Boolean v;
}

template MaterialWrap {
 <4885AE60-78E8-11cf-8F52-0040333594A3>
 Boolean u;
 Boolean v;
}

template TextureFilename {
 <A42790E1-7810-11cf-8F52-0040333594A3>
 STRING filename;
}

template Material {
 <3D82AB4D-62DA-11cf-AB39-0020AF71E433>
 ColorRGBA faceColor;
 FLOAT power;
 ColorRGB specularColor;
 ColorRGB emissiveColor;
 [...]
}

template MeshFace {
 <3D82AB5F-62DA-11cf-AB39-0020AF71E433>
 DWORD nFaceVertexIndices;
 array DWORD faceVertexIndices[nFaceVertexIndices];
}

template MeshFaceWraps {
 <4885AE62-78E8-11cf-8F52-0040333594A3>
 DWORD nFaceWrapValues;
 Boolean2d faceWrapValues;
}

template MeshTextureCoords {
 <F6F23F40-7686-11cf-8F52-0040333594A3>
 DWORD nTextureCoords;
 array Coords2d textureCoords[nTextureCoords];
}

template MeshMaterialList {
 <F6F23F42-7686-11cf-8F52-0040333594A3>
 DWORD nMaterials;
 DWORD nFaceIndexes;
 array DWORD faceIndexes[nFaceIndexes];
 [Material]
}

template MeshNormals {
 <F6F23F43-7686-11cf-8F52-0040333594A3>
 DWORD nNormals;
 array Vector normals[nNormals];
 DWORD nFaceNormals;
 array MeshFace faceNormals[nFaceNormals];
}

template MeshVertexColors {
 <1630B821-7842-11cf-8F52-0040333594A3>
 DWORD nVertexColors;
 array IndexedColor vertexColors[nVertexColors];
}

template Mesh {
 <3D82AB44-62DA-11cf-AB39-0020AF71E433>
 DWORD nVertices;
 array Vector vertices[nVertices];
 DWORD nFaces;
 array MeshFace faces[nFaces];
 [...]
}

Header{
1;
0;
1;
}

Mesh {
 784;
 0.00000;137.89260;0.00000;,
 12.49885;134.32361;-12.49885;,
 0.00000;134.32361;-17.67605;,
 0.00000;137.89260;0.00000;,
 17.67605;134.32361;0.00000;,
 0.00000;137.89260;0.00000;,
 12.49885;134.32361;12.49885;,
 0.00000;137.89260;0.00000;,
 0.00000;134.32361;17.67605;,
 0.00000;137.89260;0.00000;,
 -12.49885;134.32361;12.49885;,
 0.00000;137.89260;0.00000;,
 -17.67605;134.32361;0.00000;,
 0.00000;137.89260;0.00000;,
 -12.49885;134.32361;-12.49885;,
 0.00000;137.89260;0.00000;,
 0.00000;134.32361;-17.67605;,
 23.09485;124.16010;-23.09485;,
 0.00000;124.16010;-32.66108;,
 32.66108;124.16010;0.00000;,
 23.09485;124.16010;23.09485;,
 0.00000;124.16010;32.66108;,
 -23.09486;124.16010;23.09485;,
 -32.66108;124.16010;0.00000;,
 -23.09486;124.16010;-23.09485;,
 0.00000;124.16010;-32.66108;,
 30.17489;108.94915;-30.17489;,
 0.00000;108.94915;-42.67372;,
 42.67372;108.94915;0.00000;,
 30.17489;108.94915;30.17489;,
 0.00000;108.94915;42.67372;,
 -30.17490;108.94915;30.17488;,
 -42.67372;108.94915;0.00000;,
 -30.17490;108.94915;-30.17488;,
 0.00000;108.94915;-42.67372;,
 32.66108;91.00664;-32.66108;,
 0.00000;91.00664;-46.18971;,
 46.18971;91.00664;0.00000;,
 32.66108;91.00664;32.66108;,
 0.00000;91.00664;46.18971;,
 -32.66108;91.00664;32.66107;,
 -46.18971;91.00664;0.00000;,
 -32.66108;91.00664;-32.66107;,
 0.00000;91.00664;-46.18971;,
 30.17489;73.06424;-30.17489;,
 0.00000;73.06424;-42.67372;,
 42.67372;73.06424;0.00000;,
 30.17489;73.06424;30.17489;,
 0.00000;73.06424;42.67372;,
 -30.17490;73.06424;30.17488;,
 -42.67372;73.06424;0.00000;,
 -30.17490;73.06424;-30.17488;,
 0.00000;73.06424;-42.67372;,
 15.73000;44.53960;-15.73000;,
 0.00000;44.53960;-22.24558;,
 22.24558;44.53960;0.00000;,
 15.73000;44.53960;15.73000;,
 0.00000;44.53960;22.24558;,
 -15.73000;44.53960;15.73000;,
 -22.24558;44.53960;0.00000;,
 -15.73000;44.53960;-15.73000;,
 0.00000;44.53960;-22.24558;,
 4.13051;29.50728;-4.13051;,
 0.00000;29.50728;-5.84142;,
 5.84142;29.50728;0.00000;,
 4.13051;29.50728;4.13051;,
 0.00000;29.50728;5.84142;,
 -4.13051;29.50728;4.13051;,
 -5.84142;29.50728;0.00000;,
 -4.13051;29.50728;-4.13051;,
 0.00000;29.50728;-5.84142;,
 0.00000;105.06840;0.00000;,
 0.00000;105.06840;0.00000;,
 0.00000;105.06840;0.00000;,
 0.00000;105.06840;0.00000;,
 0.00000;105.06840;0.00000;,
 0.00000;105.06840;0.00000;,
 0.00000;105.06840;0.00000;,
 0.00000;105.06840;0.00000;,
 0.00000;21.70804;0.00000;,
 0.41985;20.90616;-0.41985;,
 0.00000;20.90616;-0.59375;,
 0.00000;21.70804;0.00000;,
 0.59375;20.90616;0.00000;,
 0.00000;21.70804;0.00000;,
 0.41985;20.90616;0.41985;,
 0.00000;21.70804;0.00000;,
 0.00000;20.90616;0.59375;,
 0.00000;21.70804;0.00000;,
 -0.41985;20.90616;0.41985;,
 0.00000;21.70804;0.00000;,
 -0.59375;20.90616;0.00000;,
 0.00000;21.70804;0.00000;,
 -0.41985;20.90616;-0.41985;,
 0.00000;21.70804;0.00000;,
 0.00000;20.90616;-0.59375;,
 0.78747;19.46870;-0.78747;,
 0.00000;19.46870;-1.11365;,
 1.11365;19.46870;0.00000;,
 0.78747;19.46870;0.78747;,
 0.00000;19.46870;1.11365;,
 -0.78747;19.46870;0.78747;,
 -1.11365;19.46870;0.00000;,
 -0.78747;19.46870;-0.78747;,
 0.00000;19.46870;-1.11365;,
 1.98740;20.32771;-1.98740;,
 0.00000;20.32771;-2.81061;,
 2.81061;20.32771;0.00000;,
 1.98740;20.32771;1.98740;,
 0.00000;20.32771;2.81061;,
 -1.98740;20.32771;1.98740;,
 -2.81061;20.32771;0.00000;,
 -1.98740;20.32771;-1.98740;,
 0.00000;20.32771;-2.81061;,
 2.15115;20.18346;-2.15115;,
 0.00000;20.18346;-3.04218;,
 3.04218;20.18346;0.00000;,
 2.15115;20.18346;2.15115;,
 0.00000;20.18346;3.04218;,
 -2.15115;20.18346;2.15115;,
 -3.04218;20.18346;0.00000;,
 -2.15115;20.18346;-2.15115;,
 0.00000;20.18346;-3.04218;,
 1.98740;18.76233;-1.98740;,
 0.00000;18.76233;-2.81061;,
 2.81061;18.76233;0.00000;,
 1.98740;18.76233;1.98740;,
 0.00000;18.76233;2.81061;,
 -1.98740;18.76233;1.98740;,
 -2.81061;18.76233;0.00000;,
 -1.98740;18.76233;-1.98740;,
 0.00000;18.76233;-2.81061;,
 1.52109;18.47759;-1.52109;,
 0.00000;18.47759;-2.15115;,
 2.15115;18.47759;0.00000;,
 1.52109;18.47759;1.52109;,
 0.00000;18.47759;2.15115;,
 -1.52109;18.47759;1.52109;,
 -2.15115;18.47759;0.00000;,
 -1.52109;18.47759;-1.52109;,
 0.00000;18.47759;-2.15115;,
 0.82321;17.81812;-0.82321;,
 0.00000;17.81812;-1.16419;,
 1.16419;17.81812;0.00000;,
 0.82321;17.81812;0.82321;,
 0.00000;17.81812;1.16419;,
 -0.82321;17.81812;0.82321;,
 -1.16419;17.81812;0.00000;,
 -0.82321;17.81812;-0.82321;,
 0.00000;17.81812;-1.16419;,
 0.00000;17.58655;0.00000;,
 0.00000;17.58655;0.00000;,
 0.00000;17.58655;0.00000;,
 0.00000;17.58655;0.00000;,
 0.00000;17.58655;0.00000;,
 0.00000;17.58655;0.00000;,
 0.00000;17.58655;0.00000;,
 0.00000;17.58655;0.00000;,
 5.91298;29.70194;0.04653;,
 5.86346;29.70194;0.02602;,
 2.69285;20.18116;0.08539;,
 2.79290;20.18116;0.12683;,
 5.84295;29.70194;-0.02350;,
 2.65141;20.18116;-0.01466;,
 5.86346;29.70194;-0.07302;,
 2.69285;20.18116;-0.11471;,
 5.91298;29.70194;-0.09353;,
 2.79290;20.18116;-0.15615;,
 5.96250;29.70194;-0.07302;,
 2.89294;20.18116;-0.11471;,
 5.98301;29.70194;-0.02350;,
 2.93438;20.18116;-0.01466;,
 5.96250;29.70194;0.02602;,
 2.89294;20.18116;0.08539;,
 5.91298;29.70194;0.04653;,
 2.79290;20.18116;0.12683;,
 5.91298;29.70194;-0.02350;,
 5.91298;29.70194;-0.02350;,
 5.91298;29.70194;-0.02350;,
 5.91298;29.70194;-0.02350;,
 5.91298;29.70194;-0.02350;,
 5.91298;29.70194;-0.02350;,
 5.91298;29.70194;-0.02350;,
 5.91298;29.70194;-0.02350;,
 2.79290;20.18116;-0.01466;,
 2.79290;20.18116;-0.01466;,
 2.79290;20.18116;-0.01466;,
 2.79290;20.18116;-0.01466;,
 2.79290;20.18116;-0.01466;,
 2.79290;20.18116;-0.01466;,
 2.79290;20.18116;-0.01466;,
 2.79290;20.18116;-0.01466;,
 -0.10346;29.70194;5.92777;,
 -0.08295;29.70194;5.87825;,
 -0.14965;20.18116;2.73760;,
 -0.19109;20.18116;2.83765;,
 -0.03343;29.70194;5.85774;,
 -0.04960;20.18116;2.69616;,
 0.01609;29.70194;5.87825;,
 0.05045;20.18116;2.73760;,
 0.03660;29.70194;5.92777;,
 0.09189;20.18116;2.83765;,
 0.01609;29.70194;5.97729;,
 0.05045;20.18116;2.93769;,
 -0.03343;29.70194;5.99780;,
 -0.04960;20.18116;2.97913;,
 -0.08295;29.70194;5.97729;,
 -0.14965;20.18116;2.93769;,
 -0.10346;29.70194;5.92777;,
 -0.19109;20.18116;2.83765;,
 -0.03343;29.70194;5.92777;,
 -0.03343;29.70194;5.92777;,
 -0.03343;29.70194;5.92777;,
 -0.03343;29.70194;5.92777;,
 -0.03343;29.70194;5.92777;,
 -0.03343;29.70194;5.92777;,
 -0.03343;29.70194;5.92777;,
 -0.03343;29.70194;5.92777;,
 -0.04960;20.18116;2.83765;,
 -0.04960;20.18116;2.83765;,
 -0.04960;20.18116;2.83765;,
 -0.04960;20.18116;2.83765;,
 -0.04960;20.18116;2.83765;,
 -0.04960;20.18116;2.83765;,
 -0.04960;20.18116;2.83765;,
 -0.04960;20.18116;2.83765;,
 0.03660;29.70194;-5.99209;,
 0.01609;29.70194;-5.94257;,
 0.05045;20.18116;-2.80193;,
 0.09189;20.18116;-2.90197;,
 -0.03343;29.70194;-5.92206;,
 -0.04960;20.18116;-2.76049;,
 -0.08295;29.70194;-5.94257;,
 -0.14965;20.18116;-2.80193;,
 -0.10346;29.70194;-5.99209;,
 -0.19109;20.18116;-2.90197;,
 -0.08295;29.70194;-6.04161;,
 -0.14965;20.18116;-3.00202;,
 -0.03343;29.70194;-6.06213;,
 -0.04960;20.18116;-3.04346;,
 0.01609;29.70194;-6.04161;,
 0.05045;20.18116;-3.00202;,
 0.03660;29.70194;-5.99209;,
 0.09189;20.18116;-2.90197;,
 -0.03343;29.70194;-5.99209;,
 -0.03343;29.70194;-5.99209;,
 -0.03343;29.70194;-5.99209;,
 -0.03343;29.70194;-5.99209;,
 -0.03343;29.70194;-5.99209;,
 -0.03343;29.70194;-5.99209;,
 -0.03343;29.70194;-5.99209;,
 -0.03343;29.70194;-5.99209;,
 -0.04960;20.18116;-2.90197;,
 -0.04960;20.18116;-2.90197;,
 -0.04960;20.18116;-2.90197;,
 -0.04960;20.18116;-2.90197;,
 -0.04960;20.18116;-2.90197;,
 -0.04960;20.18116;-2.90197;,
 -0.04960;20.18116;-2.90197;,
 -0.04960;20.18116;-2.90197;,
 -5.94814;29.70194;-0.09353;,
 -5.89862;29.70194;-0.07302;,
 -2.72800;20.18116;-0.11471;,
 -2.82805;20.18116;-0.15615;,
 -5.87810;29.70194;-0.02350;,
 -2.68657;20.18116;-0.01466;,
 -5.89862;29.70194;0.02602;,
 -2.72800;20.18116;0.08538;,
 -5.94814;29.70194;0.04653;,
 -2.82805;20.18116;0.12683;,
 -5.99766;29.70194;0.02602;,
 -2.92810;20.18116;0.08538;,
 -6.01817;29.70194;-0.02350;,
 -2.96954;20.18116;-0.01466;,
 -5.99766;29.70194;-0.07302;,
 -2.92810;20.18116;-0.11471;,
 -5.94814;29.70194;-0.09353;,
 -2.82805;20.18116;-0.15615;,
 -5.94814;29.70194;-0.02350;,
 -5.94814;29.70194;-0.02350;,
 -5.94814;29.70194;-0.02350;,
 -5.94814;29.70194;-0.02350;,
 -5.94814;29.70194;-0.02350;,
 -5.94814;29.70194;-0.02350;,
 -5.94814;29.70194;-0.02350;,
 -5.94814;29.70194;-0.02350;,
 -2.82805;20.18116;-0.01466;,
 -2.82805;20.18116;-0.01466;,
 -2.82805;20.18116;-0.01466;,
 -2.82805;20.18116;-0.01466;,
 -2.82805;20.18116;-0.01466;,
 -2.82805;20.18116;-0.01466;,
 -2.82805;20.18116;-0.01466;,
 -2.82805;20.18116;-0.01466;,
 -4.25957;29.70194;4.11807;,
 -4.21005;29.70194;4.09756;,
 -2.00273;20.18116;1.82620;,
 -2.10278;20.18116;1.86764;,
 -4.16053;29.70194;4.11807;,
 -1.90269;20.18116;1.86764;,
 -4.14002;29.70194;4.16759;,
 -1.86125;20.18116;1.96768;,
 -4.16053;29.70194;4.21711;,
 -1.90269;20.18116;2.06773;,
 -4.21005;29.70194;4.23762;,
 -2.00273;20.18116;2.10917;,
 -4.25957;29.70194;4.21711;,
 -2.10278;20.18116;2.06773;,
 -4.28008;29.70194;4.16759;,
 -2.14422;20.18116;1.96768;,
 -4.25957;29.70194;4.11807;,
 -2.10278;20.18116;1.86764;,
 -4.21005;29.70194;4.16759;,
 -4.21005;29.70194;4.16759;,
 -4.21005;29.70194;4.16759;,
 -4.21005;29.70194;4.16759;,
 -4.21005;29.70194;4.16759;,
 -4.21005;29.70194;4.16759;,
 -4.21005;29.70194;4.16759;,
 -4.21005;29.70194;4.16759;,
 -2.00273;20.18116;1.96768;,
 -2.00273;20.18116;1.96768;,
 -2.00273;20.18116;1.96768;,
 -2.00273;20.18116;1.96768;,
 -2.00273;20.18116;1.96768;,
 -2.00273;20.18116;1.96768;,
 -2.00273;20.18116;1.96768;,
 -2.00273;20.18116;1.96768;,
 4.14006;29.70194;4.21711;,
 4.11955;29.70194;4.16759;,
 1.85576;20.18116;1.96769;,
 1.89720;20.18116;2.06774;,
 4.14006;29.70194;4.11806;,
 1.89720;20.18116;1.86764;,
 4.18958;29.70194;4.09755;,
 1.99724;20.18116;1.82620;,
 4.23910;29.70194;4.11806;,
 2.09729;20.18116;1.86764;,
 4.25962;29.70194;4.16759;,
 2.13873;20.18116;1.96769;,
 4.23910;29.70194;4.21711;,
 2.09729;20.18116;2.06774;,
 4.18958;29.70194;4.23762;,
 1.99724;20.18116;2.10918;,
 4.14006;29.70194;4.21711;,
 1.89720;20.18116;2.06774;,
 4.18958;29.70194;4.16759;,
 4.18958;29.70194;4.16759;,
 4.18958;29.70194;4.16759;,
 4.18958;29.70194;4.16759;,
 4.18958;29.70194;4.16759;,
 4.18958;29.70194;4.16759;,
 4.18958;29.70194;4.16759;,
 4.18958;29.70194;4.16759;,
 1.99725;20.18116;1.96769;,
 1.99725;20.18116;1.96769;,
 1.99725;20.18116;1.96769;,
 1.99725;20.18116;1.96769;,
 1.99725;20.18116;1.96769;,
 1.99725;20.18116;1.96769;,
 1.99725;20.18116;1.96769;,
 1.99725;20.18116;1.96769;,
 -4.18740;29.70194;-4.25695;,
 -4.16688;29.70194;-4.20743;,
 -1.91552;20.18116;-1.98257;,
 -1.95696;20.18116;-2.08262;,
 -4.18740;29.70194;-4.15791;,
 -1.95696;20.18116;-1.88252;,
 -4.23692;29.70194;-4.13740;,
 -2.05700;20.18116;-1.84108;,
 -4.28644;29.70194;-4.15791;,
 -2.15705;20.18116;-1.88252;,
 -4.30695;29.70194;-4.20743;,
 -2.19849;20.18116;-1.98257;,
 -4.28644;29.70194;-4.25695;,
 -2.15705;20.18116;-2.08262;,
 -4.23692;29.70194;-4.27747;,
 -2.05700;20.18116;-2.12405;,
 -4.18740;29.70194;-4.25695;,
 -1.95696;20.18116;-2.08262;,
 -4.23692;29.70194;-4.20743;,
 -4.23692;29.70194;-4.20743;,
 -4.23692;29.70194;-4.20743;,
 -4.23692;29.70194;-4.20743;,
 -4.23692;29.70194;-4.20743;,
 -4.23692;29.70194;-4.20743;,
 -4.23692;29.70194;-4.20743;,
 -4.23692;29.70194;-4.20743;,
 -2.05700;20.18116;-1.98257;,
 -2.05700;20.18116;-1.98257;,
 -2.05700;20.18116;-1.98257;,
 -2.05700;20.18116;-1.98257;,
 -2.05700;20.18116;-1.98257;,
 -2.05700;20.18116;-1.98257;,
 -2.05700;20.18116;-1.98257;,
 -2.05700;20.18116;-1.98257;,
 4.19157;29.70194;-4.15960;,
 4.14205;29.70194;-4.13909;,
 1.90122;20.18116;-1.84449;,
 2.00126;20.18116;-1.88593;,
 4.09253;29.70194;-4.15960;,
 1.80117;20.18116;-1.88593;,
 4.07202;29.70194;-4.20912;,
 1.75973;20.18116;-1.98598;,
 4.09253;29.70194;-4.25864;,
 1.80117;20.18116;-2.08602;,
 4.14205;29.70194;-4.27915;,
 1.90122;20.18116;-2.12746;,
 4.19157;29.70194;-4.25864;,
 2.00126;20.18116;-2.08602;,
 4.21208;29.70194;-4.20912;,
 2.04270;20.18116;-1.98598;,
 4.19157;29.70194;-4.15960;,
 2.00126;20.18116;-1.88593;,
 4.14205;29.70194;-4.20912;,
 4.14205;29.70194;-4.20912;,
 4.14205;29.70194;-4.20912;,
 4.14205;29.70194;-4.20912;,
 4.14205;29.70194;-4.20912;,
 4.14205;29.70194;-4.20912;,
 4.14205;29.70194;-4.20912;,
 4.14205;29.70194;-4.20912;,
 1.90122;20.18116;-1.98598;,
 1.90122;20.18116;-1.98598;,
 1.90122;20.18116;-1.98598;,
 1.90122;20.18116;-1.98598;,
 1.90122;20.18116;-1.98598;,
 1.90122;20.18116;-1.98598;,
 1.90122;20.18116;-1.98598;,
 1.90122;20.18116;-1.98598;,
 0.00000;5.11251;0.00000;,
 8.53478;5.11251;-8.53478;,
 0.00000;5.11251;-12.07000;,
 12.07000;5.11251;0.00000;,
 8.53478;5.11251;8.53478;,
 0.00000;5.11251;12.07000;,
 -8.53478;5.11251;8.53478;,
 -12.07000;5.11251;0.00000;,
 -8.53478;5.11251;-8.53478;,
 9.07598;4.96027;-9.07598;,
 0.00000;4.96027;-12.83537;,
 12.83537;4.96027;0.00000;,
 9.07598;4.96027;9.07598;,
 0.00000;4.96027;12.83537;,
 -9.07598;4.96027;9.07597;,
 -12.83537;4.96027;0.00000;,
 -9.07598;4.96027;-9.07597;,
 9.53478;4.52672;-9.53478;,
 0.00000;4.52672;-13.48421;,
 13.48421;4.52672;0.00000;,
 9.53478;4.52672;9.53478;,
 0.00000;4.52672;13.48421;,
 -9.53478;4.52672;9.53478;,
 -13.48421;4.52672;0.00000;,
 -9.53478;4.52672;-9.53478;,
 9.31596;16.37772;-9.31595;,
 0.00000;16.37772;-13.17475;,
 13.17475;16.37772;0.00000;,
 9.31596;16.37772;9.31596;,
 0.00000;16.37772;13.17475;,
 -9.31596;16.37772;9.31595;,
 -13.17475;16.37772;0.00000;,
 -9.31596;16.37772;-9.31595;,
 9.94899;16.31393;-9.94899;,
 0.00000;16.31393;-14.07000;,
 14.07000;16.31393;0.00000;,
 9.94899;16.31393;9.94899;,
 0.00000;16.31393;14.07000;,
 -9.94899;16.31393;9.94899;,
 -14.07000;16.31393;0.00000;,
 -9.94899;16.31393;-9.94899;,
 9.94899;2.67393;-9.94899;,
 0.00000;2.67393;-14.07000;,
 14.07000;2.67393;0.00000;,
 9.94899;2.67393;9.94899;,
 0.00000;2.67393;14.07000;,
 -9.94899;2.67393;9.94899;,
 -14.07000;2.67393;0.00000;,
 -9.94899;2.67393;-9.94899;,
 9.84134;1.90856;-9.84134;,
 0.00000;1.90856;-13.91776;,
 13.91776;1.90856;0.00000;,
 9.84134;1.90856;9.84134;,
 0.00000;1.90856;13.91776;,
 -9.84134;1.90856;9.84134;,
 -13.91776;1.90856;0.00000;,
 -9.84134;1.90856;-9.84134;,
 9.53478;1.25971;-9.53478;,
 0.00000;1.25971;-13.48421;,
 13.48421;1.25971;0.00000;,
 9.53478;1.25971;9.53478;,
 0.00000;1.25971;13.48421;,
 -9.53478;1.25971;9.53478;,
 -13.48421;1.25971;0.00000;,
 -9.53478;1.25971;-9.53478;,
 9.07598;0.82617;-9.07598;,
 0.00000;0.82617;-12.83537;,
 12.83537;0.82617;0.00000;,
 9.07598;0.82617;9.07598;,
 0.00000;0.82617;12.83537;,
 -9.07598;0.82617;9.07597;,
 -12.83537;0.82617;0.00000;,
 -9.07598;0.82617;-9.07597;,
 8.53478;0.67393;-8.53478;,
 0.00000;0.67393;-12.07000;,
 12.07000;0.67393;0.00000;,
 8.53478;0.67393;8.53478;,
 0.00000;0.67393;12.07000;,
 -8.53478;0.67393;8.53478;,
 -12.07000;0.67393;0.00000;,
 -8.53478;0.67393;-8.53478;,
 0.00000;0.67393;0.00000;,
 42.08976;72.91977;0.41877;,
 41.81443;72.91977;0.30471;,
 13.00567;16.29995;0.15113;,
 13.10723;16.29995;0.19319;,
 41.70033;72.91977;0.02934;,
 12.96361;16.29995;0.04957;,
 41.81443;72.91977;-0.24602;,
 13.00567;16.29995;-0.05198;,
 42.08976;72.91977;-0.36008;,
 13.10723;16.29995;-0.09405;,
 42.36513;72.91977;-0.24602;,
 13.20878;16.29995;-0.05198;,
 42.47921;72.91977;0.02934;,
 13.25085;16.29995;0.04957;,
 42.36513;72.91977;0.30471;,
 13.20878;16.29995;0.15113;,
 42.08976;72.91977;0.41877;,
 13.10723;16.29995;0.19319;,
 42.08976;72.91977;0.02934;,
 42.08976;72.91977;0.02934;,
 42.08976;72.91977;0.02934;,
 42.08976;72.91977;0.02934;,
 42.08976;72.91977;0.02934;,
 42.08976;72.91977;0.02934;,
 42.08976;72.91977;0.02934;,
 42.08976;72.91977;0.02934;,
 13.10723;16.29995;0.04957;,
 13.10723;16.29995;0.04957;,
 13.10723;16.29995;0.04957;,
 13.10723;16.29995;0.04957;,
 13.10723;16.29995;0.04957;,
 13.10723;16.29995;0.04957;,
 13.10723;16.29995;0.04957;,
 13.10723;16.29995;0.04957;,
 -0.41739;72.91977;42.28374;,
 -0.33325;72.91977;42.08061;,
 -0.23325;16.29995;13.30362;,
 -0.26065;16.29995;13.36975;,
 -0.13011;72.91977;41.99647;,
 -0.16712;16.29995;13.27623;,
 0.07302;72.91977;42.08061;,
 -0.10099;16.29995;13.30362;,
 0.15716;72.91977;42.28374;,
 -0.07359;16.29995;13.36975;,
 0.07302;72.91977;42.48687;,
 -0.10099;16.29995;13.43588;,
 -0.13011;72.91977;42.57101;,
 -0.16712;16.29995;13.46328;,
 -0.33325;72.91977;42.48687;,
 -0.23325;16.29995;13.43588;,
 -0.41739;72.91977;42.28374;,
 -0.26065;16.29995;13.36975;,
 -0.13011;72.91977;42.28374;,
 -0.13011;72.91977;42.28374;,
 -0.13011;72.91977;42.28374;,
 -0.13011;72.91977;42.28374;,
 -0.13011;72.91977;42.28374;,
 -0.13011;72.91977;42.28374;,
 -0.13011;72.91977;42.28374;,
 -0.13011;72.91977;42.28374;,
 -0.16712;16.29995;13.36975;,
 -0.16712;16.29995;13.36975;,
 -0.16712;16.29995;13.36975;,
 -0.16712;16.29995;13.36975;,
 -0.16712;16.29995;13.36975;,
 -0.16712;16.29995;13.36975;,
 -0.16712;16.29995;13.36975;,
 -0.16712;16.29995;13.36975;,
 0.05603;72.91977;-42.34806;,
 0.00151;72.91977;-42.21644;,
 -0.02597;16.29995;-13.29293;,
 0.03249;16.29995;-13.43408;,
 -0.13012;72.91977;-42.16192;,
 -0.16712;16.29995;-13.23447;,
 -0.26174;72.91977;-42.21644;,
 -0.30826;16.29995;-13.29293;,
 -0.31626;72.91977;-42.34806;,
 -0.36672;16.29995;-13.43408;,
 -0.26174;72.91977;-42.47968;,
 -0.30826;16.29995;-13.57522;,
 -0.13012;72.91977;-42.53420;,
 -0.16712;16.29995;-13.63368;,
 0.00151;72.91977;-42.47968;,
 -0.02597;16.29995;-13.57522;,
 0.05603;72.91977;-42.34806;,
 0.03249;16.29995;-13.43408;,
 -0.13012;72.91977;-42.34806;,
 -0.13012;72.91977;-42.34806;,
 -0.13012;72.91977;-42.34806;,
 -0.13012;72.91977;-42.34806;,
 -0.13012;72.91977;-42.34806;,
 -0.13012;72.91977;-42.34806;,
 -0.13012;72.91977;-42.34806;,
 -0.13012;72.91977;-42.34806;,
 -0.16712;16.29995;-13.43408;,
 -0.16712;16.29995;-13.43408;,
 -0.16712;16.29995;-13.43408;,
 -0.16712;16.29995;-13.43408;,
 -0.16712;16.29995;-13.43408;,
 -0.16712;16.29995;-13.43408;,
 -0.16712;16.29995;-13.43408;,
 -0.16712;16.29995;-13.43408;,
 -42.12492;72.91977;-0.12237;,
 -42.01765;72.91977;-0.07793;,
 -13.02735;16.29995;-0.06547;,
 -13.14238;16.29995;-0.11312;,
 -41.97321;72.91977;0.02935;,
 -12.97969;16.29995;0.04957;,
 -42.01765;72.91977;0.13663;,
 -13.02735;16.29995;0.16461;,
 -42.12492;72.91977;0.18107;,
 -13.14238;16.29995;0.21226;,
 -42.23221;72.91977;0.13663;,
 -13.25743;16.29995;0.16461;,
 -42.27664;72.91977;0.02935;,
 -13.30508;16.29995;0.04957;,
 -42.23221;72.91977;-0.07793;,
 -13.25743;16.29995;-0.06547;,
 -42.12492;72.91977;-0.12237;,
 -13.14238;16.29995;-0.11312;,
 -42.12492;72.91977;0.02935;,
 -42.12492;72.91977;0.02935;,
 -42.12492;72.91977;0.02935;,
 -42.12492;72.91977;0.02935;,
 -42.12492;72.91977;0.02935;,
 -42.12492;72.91977;0.02935;,
 -42.12492;72.91977;0.02935;,
 -42.12492;72.91977;0.02935;,
 -13.14238;16.29995;0.04957;,
 -13.14238;16.29995;0.04957;,
 -13.14238;16.29995;0.04957;,
 -13.14238;16.29995;0.04957;,
 -13.14238;16.29995;0.04957;,
 -13.14238;16.29995;0.04957;,
 -13.14238;16.29995;0.04957;,
 -13.14238;16.29995;0.04957;,
 -29.89495;72.91977;29.67578;,
 -29.78440;72.91977;29.63000;,
 -9.28817;16.29995;9.18338;,
 -9.37561;16.29995;9.21960;,
 -29.67386;72.91977;29.67578;,
 -9.20072;16.29995;9.21960;,
 -29.62808;72.91977;29.78632;,
 -9.16451;16.29995;9.30704;,
 -29.67386;72.91977;29.89687;,
 -9.20072;16.29995;9.39449;,
 -29.78440;72.91977;29.94265;,
 -9.28817;16.29995;9.43070;,
 -29.89495;72.91977;29.89687;,
 -9.37561;16.29995;9.39449;,
 -29.94072;72.91977;29.78632;,
 -9.41183;16.29995;9.30704;,
 -29.89495;72.91977;29.67578;,
 -9.37561;16.29995;9.21960;,
 -29.78440;72.91977;29.78632;,
 -29.78440;72.91977;29.78632;,
 -29.78440;72.91977;29.78632;,
 -29.78440;72.91977;29.78632;,
 -29.78440;72.91977;29.78632;,
 -29.78440;72.91977;29.78632;,
 -29.78440;72.91977;29.78632;,
 -29.78440;72.91977;29.78632;,
 -9.28817;16.29995;9.30705;,
 -9.28817;16.29995;9.30705;,
 -9.28817;16.29995;9.30705;,
 -9.28817;16.29995;9.30705;,
 -9.28817;16.29995;9.30705;,
 -9.28817;16.29995;9.30705;,
 -9.28817;16.29995;9.30705;,
 -9.28817;16.29995;9.30705;,
 29.59677;72.91977;30.04310;,
 29.49040;72.91977;29.78630;,
 9.24579;16.29995;9.30707;,
 9.28849;16.29995;9.41015;,
 29.59676;72.91977;29.52950;,
 9.28848;16.29995;9.20398;,
 29.85352;72.91977;29.42315;,
 9.39157;16.29995;9.16128;,
 30.11034;72.91977;29.52950;,
 9.49466;16.29995;9.20398;,
 30.21672;72.91977;29.78630;,
 9.53735;16.29995;9.30707;,
 30.11034;72.91977;30.04310;,
 9.49466;16.29995;9.41015;,
 29.85352;72.91977;30.14947;,
 9.39157;16.29995;9.45285;,
 29.59677;72.91977;30.04310;,
 9.28849;16.29995;9.41015;,
 29.85353;72.91977;29.78630;,
 29.85353;72.91977;29.78630;,
 29.85353;72.91977;29.78630;,
 29.85353;72.91977;29.78630;,
 29.85353;72.91977;29.78630;,
 29.85353;72.91977;29.78630;,
 29.85353;72.91977;29.78630;,
 29.85353;72.91977;29.78630;,
 9.39158;16.29995;9.30708;,
 9.39158;16.29995;9.30708;,
 9.39158;16.29995;9.30708;,
 9.39158;16.29995;9.30708;,
 9.39158;16.29995;9.30708;,
 9.39158;16.29995;9.30708;,
 9.39158;16.29995;9.30708;,
 9.39158;16.29995;9.30708;,
 -29.82606;72.91977;-29.82596;,
 -29.76429;72.91977;-29.67688;,
 -9.31998;16.29995;-9.14048;,
 -9.38490;16.29995;-9.29721;,
 -29.82605;72.91977;-29.52777;,
 -9.38490;16.29995;-8.98376;,
 -29.97515;72.91977;-29.46601;,
 -9.54163;16.29995;-8.91884;,
 -30.12427;72.91977;-29.52777;,
 -9.69836;16.29995;-8.98376;,
 -30.18603;72.91977;-29.67688;,
 -9.76327;16.29995;-9.14049;,
 -30.12427;72.91977;-29.82596;,
 -9.69835;16.29995;-9.29721;,
 -29.97515;72.91977;-29.88775;,
 -9.54163;16.29995;-9.36213;,
 -29.82606;72.91977;-29.82596;,
 -9.38490;16.29995;-9.29721;,
 -29.97516;72.91977;-29.67688;,
 -29.97516;72.91977;-29.67688;,
 -29.97516;72.91977;-29.67688;,
 -29.97516;72.91977;-29.67688;,
 -29.97516;72.91977;-29.67688;,
 -29.97516;72.91977;-29.67688;,
 -29.97516;72.91977;-29.67688;,
 -29.97516;72.91977;-29.67688;,
 -9.54163;16.29995;-9.14049;,
 -9.54163;16.29995;-9.14049;,
 -9.54163;16.29995;-9.14049;,
 -9.54163;16.29995;-9.14049;,
 -9.54163;16.29995;-9.14049;,
 -9.54163;16.29995;-9.14049;,
 -9.54163;16.29995;-9.14049;,
 -9.54163;16.29995;-9.14049;,
 29.70835;72.91977;-29.49657;,
 29.51607;72.91977;-29.41694;,
 9.54514;16.29995;-9.26663;,
 9.72181;16.29995;-9.33981;,
 29.32377;72.91977;-29.49657;,
 9.36849;16.29995;-9.33981;,
 29.24413;72.91977;-29.68888;,
 9.29532;16.29995;-9.51647;,
 29.32377;72.91977;-29.88115;,
 9.36849;16.29995;-9.69312;,
 29.51607;72.91977;-29.96080;,
 9.54514;16.29995;-9.76629;,
 29.70835;72.91977;-29.88115;,
 9.72181;16.29995;-9.69312;,
 29.78801;72.91977;-29.68888;,
 9.79498;16.29995;-9.51647;,
 29.70835;72.91977;-29.49657;,
 9.72181;16.29995;-9.33981;,
 29.51607;72.91977;-29.68888;,
 29.51607;72.91977;-29.68888;,
 29.51607;72.91977;-29.68888;,
 29.51607;72.91977;-29.68888;,
 29.51607;72.91977;-29.68888;,
 29.51607;72.91977;-29.68888;,
 29.51607;72.91977;-29.68888;,
 29.51607;72.91977;-29.68888;,
 9.54514;16.29995;-9.51647;,
 9.54514;16.29995;-9.51647;,
 9.54514;16.29995;-9.51647;,
 9.54514;16.29995;-9.51647;,
 9.54514;16.29995;-9.51647;,
 9.54514;16.29995;-9.51647;,
 9.54514;16.29995;-9.51647;,
 9.54514;16.29995;-9.51647;;
 
 600;
 3;0,1,2;,
 3;3,4,1;,
 3;5,6,4;,
 3;7,8,6;,
 3;9,10,8;,
 3;11,12,10;,
 3;13,14,12;,
 3;15,16,14;,
 4;2,1,17,18;,
 4;1,4,19,17;,
 4;4,6,20,19;,
 4;6,8,21,20;,
 4;8,10,22,21;,
 4;10,12,23,22;,
 4;12,14,24,23;,
 4;14,16,25,24;,
 4;18,17,26,27;,
 4;17,19,28,26;,
 4;19,20,29,28;,
 4;20,21,30,29;,
 4;21,22,31,30;,
 4;22,23,32,31;,
 4;23,24,33,32;,
 4;24,25,34,33;,
 4;27,26,35,36;,
 4;26,28,37,35;,
 4;28,29,38,37;,
 4;29,30,39,38;,
 4;30,31,40,39;,
 4;31,32,41,40;,
 4;32,33,42,41;,
 4;33,34,43,42;,
 4;36,35,44,45;,
 4;35,37,46,44;,
 4;37,38,47,46;,
 4;38,39,48,47;,
 4;39,40,49,48;,
 4;40,41,50,49;,
 4;41,42,51,50;,
 4;42,43,52,51;,
 4;45,44,53,54;,
 4;44,46,55,53;,
 4;46,47,56,55;,
 4;47,48,57,56;,
 4;48,49,58,57;,
 4;49,50,59,58;,
 4;50,51,60,59;,
 4;51,52,61,60;,
 4;54,53,62,63;,
 4;53,55,64,62;,
 4;55,56,65,64;,
 4;56,57,66,65;,
 4;57,58,67,66;,
 4;58,59,68,67;,
 4;59,60,69,68;,
 4;60,61,70,69;,
 3;63,62,71;,
 3;62,64,72;,
 3;64,65,73;,
 3;65,66,74;,
 3;66,67,75;,
 3;67,68,76;,
 3;68,69,77;,
 3;69,70,78;,
 3;79,80,81;,
 3;82,83,80;,
 3;84,85,83;,
 3;86,87,85;,
 3;88,89,87;,
 3;90,91,89;,
 3;92,93,91;,
 3;94,95,93;,
 4;81,80,96,97;,
 4;80,83,98,96;,
 4;83,85,99,98;,
 4;85,87,100,99;,
 4;87,89,101,100;,
 4;89,91,102,101;,
 4;91,93,103,102;,
 4;93,95,104,103;,
 4;97,96,105,106;,
 4;96,98,107,105;,
 4;98,99,108,107;,
 4;99,100,109,108;,
 4;100,101,110,109;,
 4;101,102,111,110;,
 4;102,103,112,111;,
 4;103,104,113,112;,
 4;106,105,114,115;,
 4;105,107,116,114;,
 4;107,108,117,116;,
 4;108,109,118,117;,
 4;109,110,119,118;,
 4;110,111,120,119;,
 4;111,112,121,120;,
 4;112,113,122,121;,
 4;115,114,123,124;,
 4;114,116,125,123;,
 4;116,117,126,125;,
 4;117,118,127,126;,
 4;118,119,128,127;,
 4;119,120,129,128;,
 4;120,121,130,129;,
 4;121,122,131,130;,
 4;124,123,132,133;,
 4;123,125,134,132;,
 4;125,126,135,134;,
 4;126,127,136,135;,
 4;127,128,137,136;,
 4;128,129,138,137;,
 4;129,130,139,138;,
 4;130,131,140,139;,
 4;133,132,141,142;,
 4;132,134,143,141;,
 4;134,135,144,143;,
 4;135,136,145,144;,
 4;136,137,146,145;,
 4;137,138,147,146;,
 4;138,139,148,147;,
 4;139,140,149,148;,
 3;142,141,150;,
 3;141,143,151;,
 3;143,144,152;,
 3;144,145,153;,
 3;145,146,154;,
 3;146,147,155;,
 3;147,148,156;,
 3;148,149,157;,
 4;158,159,160,161;,
 4;159,162,163,160;,
 4;162,164,165,163;,
 4;164,166,167,165;,
 4;166,168,169,167;,
 4;168,170,171,169;,
 4;170,172,173,171;,
 4;172,174,175,173;,
 3;176,159,158;,
 3;177,162,159;,
 3;178,164,162;,
 3;179,166,164;,
 3;180,168,166;,
 3;181,170,168;,
 3;182,172,170;,
 3;183,174,172;,
 3;184,161,160;,
 3;185,160,163;,
 3;186,163,165;,
 3;187,165,167;,
 3;188,167,169;,
 3;189,169,171;,
 3;190,171,173;,
 3;191,173,175;,
 4;192,193,194,195;,
 4;193,196,197,194;,
 4;196,198,199,197;,
 4;198,200,201,199;,
 4;200,202,203,201;,
 4;202,204,205,203;,
 4;204,206,207,205;,
 4;206,208,209,207;,
 3;210,193,192;,
 3;211,196,193;,
 3;212,198,196;,
 3;213,200,198;,
 3;214,202,200;,
 3;215,204,202;,
 3;216,206,204;,
 3;217,208,206;,
 3;218,195,194;,
 3;219,194,197;,
 3;220,197,199;,
 3;221,199,201;,
 3;222,201,203;,
 3;223,203,205;,
 3;224,205,207;,
 3;225,207,209;,
 4;226,227,228,229;,
 4;227,230,231,228;,
 4;230,232,233,231;,
 4;232,234,235,233;,
 4;234,236,237,235;,
 4;236,238,239,237;,
 4;238,240,241,239;,
 4;240,242,243,241;,
 3;244,227,226;,
 3;245,230,227;,
 3;246,232,230;,
 3;247,234,232;,
 3;248,236,234;,
 3;249,238,236;,
 3;250,240,238;,
 3;251,242,240;,
 3;252,229,228;,
 3;253,228,231;,
 3;254,231,233;,
 3;255,233,235;,
 3;256,235,237;,
 3;257,237,239;,
 3;258,239,241;,
 3;259,241,243;,
 4;260,261,262,263;,
 4;261,264,265,262;,
 4;264,266,267,265;,
 4;266,268,269,267;,
 4;268,270,271,269;,
 4;270,272,273,271;,
 4;272,274,275,273;,
 4;274,276,277,275;,
 3;278,261,260;,
 3;279,264,261;,
 3;280,266,264;,
 3;281,268,266;,
 3;282,270,268;,
 3;283,272,270;,
 3;284,274,272;,
 3;285,276,274;,
 3;286,263,262;,
 3;287,262,265;,
 3;288,265,267;,
 3;289,267,269;,
 3;290,269,271;,
 3;291,271,273;,
 3;292,273,275;,
 3;293,275,277;,
 4;294,295,296,297;,
 4;295,298,299,296;,
 4;298,300,301,299;,
 4;300,302,303,301;,
 4;302,304,305,303;,
 4;304,306,307,305;,
 4;306,308,309,307;,
 4;308,310,311,309;,
 3;312,295,294;,
 3;313,298,295;,
 3;314,300,298;,
 3;315,302,300;,
 3;316,304,302;,
 3;317,306,304;,
 3;318,308,306;,
 3;319,310,308;,
 3;320,297,296;,
 3;321,296,299;,
 3;322,299,301;,
 3;323,301,303;,
 3;324,303,305;,
 3;325,305,307;,
 3;326,307,309;,
 3;327,309,311;,
 4;328,329,330,331;,
 4;329,332,333,330;,
 4;332,334,335,333;,
 4;334,336,337,335;,
 4;336,338,339,337;,
 4;338,340,341,339;,
 4;340,342,343,341;,
 4;342,344,345,343;,
 3;346,329,328;,
 3;347,332,329;,
 3;348,334,332;,
 3;349,336,334;,
 3;350,338,336;,
 3;351,340,338;,
 3;352,342,340;,
 3;353,344,342;,
 3;354,331,330;,
 3;355,330,333;,
 3;356,333,335;,
 3;357,335,337;,
 3;358,337,339;,
 3;359,339,341;,
 3;360,341,343;,
 3;361,343,345;,
 4;362,363,364,365;,
 4;363,366,367,364;,
 4;366,368,369,367;,
 4;368,370,371,369;,
 4;370,372,373,371;,
 4;372,374,375,373;,
 4;374,376,377,375;,
 4;376,378,379,377;,
 3;380,363,362;,
 3;381,366,363;,
 3;382,368,366;,
 3;383,370,368;,
 3;384,372,370;,
 3;385,374,372;,
 3;386,376,374;,
 3;387,378,376;,
 3;388,365,364;,
 3;389,364,367;,
 3;390,367,369;,
 3;391,369,371;,
 3;392,371,373;,
 3;393,373,375;,
 3;394,375,377;,
 3;395,377,379;,
 4;396,397,398,399;,
 4;397,400,401,398;,
 4;400,402,403,401;,
 4;402,404,405,403;,
 4;404,406,407,405;,
 4;406,408,409,407;,
 4;408,410,411,409;,
 4;410,412,413,411;,
 3;414,397,396;,
 3;415,400,397;,
 3;416,402,400;,
 3;417,404,402;,
 3;418,406,404;,
 3;419,408,406;,
 3;420,410,408;,
 3;421,412,410;,
 3;422,399,398;,
 3;423,398,401;,
 3;424,401,403;,
 3;425,403,405;,
 3;426,405,407;,
 3;427,407,409;,
 3;428,409,411;,
 3;429,411,413;,
 3;430,431,432;,
 3;430,433,431;,
 3;430,434,433;,
 3;430,435,434;,
 3;430,436,435;,
 3;430,437,436;,
 3;430,438,437;,
 3;430,432,438;,
 4;432,431,439,440;,
 4;431,433,441,439;,
 4;433,434,442,441;,
 4;434,435,443,442;,
 4;435,436,444,443;,
 4;436,437,445,444;,
 4;437,438,446,445;,
 4;438,432,440,446;,
 4;440,439,447,448;,
 4;439,441,449,447;,
 4;441,442,450,449;,
 4;442,443,451,450;,
 4;443,444,452,451;,
 4;444,445,453,452;,
 4;445,446,454,453;,
 4;446,440,448,454;,
 4;448,447,455,456;,
 4;447,449,457,455;,
 4;449,450,458,457;,
 4;450,451,459,458;,
 4;451,452,460,459;,
 4;452,453,461,460;,
 4;453,454,462,461;,
 4;454,448,456,462;,
 4;456,455,463,464;,
 4;455,457,465,463;,
 4;457,458,466,465;,
 4;458,459,467,466;,
 4;459,460,468,467;,
 4;460,461,469,468;,
 4;461,462,470,469;,
 4;462,456,464,470;,
 4;464,463,471,472;,
 4;463,465,473,471;,
 4;465,466,474,473;,
 4;466,467,475,474;,
 4;467,468,476,475;,
 4;468,469,477,476;,
 4;469,470,478,477;,
 4;470,464,472,478;,
 4;472,471,479,480;,
 4;471,473,481,479;,
 4;473,474,482,481;,
 4;474,475,483,482;,
 4;475,476,484,483;,
 4;476,477,485,484;,
 4;477,478,486,485;,
 4;478,472,480,486;,
 4;480,479,487,488;,
 4;479,481,489,487;,
 4;481,482,490,489;,
 4;482,483,491,490;,
 4;483,484,492,491;,
 4;484,485,493,492;,
 4;485,486,494,493;,
 4;486,480,488,494;,
 4;488,487,495,496;,
 4;487,489,497,495;,
 4;489,490,498,497;,
 4;490,491,499,498;,
 4;491,492,500,499;,
 4;492,493,501,500;,
 4;493,494,502,501;,
 4;494,488,496,502;,
 4;496,495,503,504;,
 4;495,497,505,503;,
 4;497,498,506,505;,
 4;498,499,507,506;,
 4;499,500,508,507;,
 4;500,501,509,508;,
 4;501,502,510,509;,
 4;502,496,504,510;,
 3;504,503,511;,
 3;503,505,511;,
 3;505,506,511;,
 3;506,507,511;,
 3;507,508,511;,
 3;508,509,511;,
 3;509,510,511;,
 3;510,504,511;,
 4;512,513,514,515;,
 4;513,516,517,514;,
 4;516,518,519,517;,
 4;518,520,521,519;,
 4;520,522,523,521;,
 4;522,524,525,523;,
 4;524,526,527,525;,
 4;526,528,529,527;,
 3;530,513,512;,
 3;531,516,513;,
 3;532,518,516;,
 3;533,520,518;,
 3;534,522,520;,
 3;535,524,522;,
 3;536,526,524;,
 3;537,528,526;,
 3;538,515,514;,
 3;539,514,517;,
 3;540,517,519;,
 3;541,519,521;,
 3;542,521,523;,
 3;543,523,525;,
 3;544,525,527;,
 3;545,527,529;,
 4;546,547,548,549;,
 4;547,550,551,548;,
 4;550,552,553,551;,
 4;552,554,555,553;,
 4;554,556,557,555;,
 4;556,558,559,557;,
 4;558,560,561,559;,
 4;560,562,563,561;,
 3;564,547,546;,
 3;565,550,547;,
 3;566,552,550;,
 3;567,554,552;,
 3;568,556,554;,
 3;569,558,556;,
 3;570,560,558;,
 3;571,562,560;,
 3;572,549,548;,
 3;573,548,551;,
 3;574,551,553;,
 3;575,553,555;,
 3;576,555,557;,
 3;577,557,559;,
 3;578,559,561;,
 3;579,561,563;,
 4;580,581,582,583;,
 4;581,584,585,582;,
 4;584,586,587,585;,
 4;586,588,589,587;,
 4;588,590,591,589;,
 4;590,592,593,591;,
 4;592,594,595,593;,
 4;594,596,597,595;,
 3;598,581,580;,
 3;599,584,581;,
 3;600,586,584;,
 3;601,588,586;,
 3;602,590,588;,
 3;603,592,590;,
 3;604,594,592;,
 3;605,596,594;,
 3;606,583,582;,
 3;607,582,585;,
 3;608,585,587;,
 3;609,587,589;,
 3;610,589,591;,
 3;611,591,593;,
 3;612,593,595;,
 3;613,595,597;,
 4;614,615,616,617;,
 4;615,618,619,616;,
 4;618,620,621,619;,
 4;620,622,623,621;,
 4;622,624,625,623;,
 4;624,626,627,625;,
 4;626,628,629,627;,
 4;628,630,631,629;,
 3;632,615,614;,
 3;633,618,615;,
 3;634,620,618;,
 3;635,622,620;,
 3;636,624,622;,
 3;637,626,624;,
 3;638,628,626;,
 3;639,630,628;,
 3;640,617,616;,
 3;641,616,619;,
 3;642,619,621;,
 3;643,621,623;,
 3;644,623,625;,
 3;645,625,627;,
 3;646,627,629;,
 3;647,629,631;,
 4;648,649,650,651;,
 4;649,652,653,650;,
 4;652,654,655,653;,
 4;654,656,657,655;,
 4;656,658,659,657;,
 4;658,660,661,659;,
 4;660,662,663,661;,
 4;662,664,665,663;,
 3;666,649,648;,
 3;667,652,649;,
 3;668,654,652;,
 3;669,656,654;,
 3;670,658,656;,
 3;671,660,658;,
 3;672,662,660;,
 3;673,664,662;,
 3;674,651,650;,
 3;675,650,653;,
 3;676,653,655;,
 3;677,655,657;,
 3;678,657,659;,
 3;679,659,661;,
 3;680,661,663;,
 3;681,663,665;,
 4;682,683,684,685;,
 4;683,686,687,684;,
 4;686,688,689,687;,
 4;688,690,691,689;,
 4;690,692,693,691;,
 4;692,694,695,693;,
 4;694,696,697,695;,
 4;696,698,699,697;,
 3;700,683,682;,
 3;701,686,683;,
 3;702,688,686;,
 3;703,690,688;,
 3;704,692,690;,
 3;705,694,692;,
 3;706,696,694;,
 3;707,698,696;,
 3;708,685,684;,
 3;709,684,687;,
 3;710,687,689;,
 3;711,689,691;,
 3;712,691,693;,
 3;713,693,695;,
 3;714,695,697;,
 3;715,697,699;,
 4;716,717,718,719;,
 4;717,720,721,718;,
 4;720,722,723,721;,
 4;722,724,725,723;,
 4;724,726,727,725;,
 4;726,728,729,727;,
 4;728,730,731,729;,
 4;730,732,733,731;,
 3;734,717,716;,
 3;735,720,717;,
 3;736,722,720;,
 3;737,724,722;,
 3;738,726,724;,
 3;739,728,726;,
 3;740,730,728;,
 3;741,732,730;,
 3;742,719,718;,
 3;743,718,721;,
 3;744,721,723;,
 3;745,723,725;,
 3;746,725,727;,
 3;747,727,729;,
 3;748,729,731;,
 3;749,731,733;,
 4;750,751,752,753;,
 4;751,754,755,752;,
 4;754,756,757,755;,
 4;756,758,759,757;,
 4;758,760,761,759;,
 4;760,762,763,761;,
 4;762,764,765,763;,
 4;764,766,767,765;,
 3;768,751,750;,
 3;769,754,751;,
 3;770,756,754;,
 3;771,758,756;,
 3;772,760,758;,
 3;773,762,760;,
 3;774,764,762;,
 3;775,766,764;,
 3;776,753,752;,
 3;777,752,755;,
 3;778,755,757;,
 3;779,757,759;,
 3;780,759,761;,
 3;781,761,763;,
 3;782,763,765;,
 3;783,765,767;;
 
 MeshMaterialList {
  7;
  600;
  4,
  3,
  4,
  3,
  4,
  3,
  4,
  3,
  4,
  3,
  4,
  3,
  4,
  3,
  4,
  3,
  4,
  3,
  4,
  3,
  4,
  3,
  4,
  3,
  4,
  3,
  4,
  3,
  4,
  3,
  4,
  3,
  4,
  3,
  4,
  3,
  4,
  3,
  4,
  3,
  4,
  3,
  4,
  3,
  4,
  3,
  4,
  3,
  6,
  3,
  4,
  3,
  6,
  3,
  4,
  3,
  6,
  3,
  4,
  3,
  6,
  3,
  4,
  3,
  1,
  1,
  1,
  1,
  1,
  1,
  1,
  1,
  0,
  0,
  0,
  0,
  0,
  0,
  0,
  0,
  2,
  2,
  2,
  2,
  2,
  2,
  2,
  2,
  2,
  2,
  2,
  2,
  2,
  2,
  2,
  2,
  2,
  2,
  2,
  2,
  2,
  2,
  2,
  2,
  2,
  2,
  2,
  2,
  2,
  2,
  2,
  2,
  2,
  2,
  2,
  2,
  2,
  2,
  2,
  2,
  2,
  2,
  2,
  2,
  2,
  2,
  2,
  2,
  5,
  5,
  5,
  5,
  5,
  5,
  5,
  5,
  5,
  5,
  5,
  5,
  5,
  5,
  5,
  5,
  5,
  5,
  5,
  5,
  5,
  5,
  5,
  5,
  5,
  5,
  5,
  5,
  5,
  5,
  5,
  5,
  5,
  5,
  5,
  5,
  5,
  5,
  5,
  5,
  5,
  5,
  5,
  5,
  5,
  5,
  5,
  5,
  5,
  5,
  5,
  5,
  5,
  5,
  5,
  5,
  5,
  5,
  5,
  5,
  5,
  5,
  5,
  5,
  5,
  5,
  5,
  5,
  5,
  5,
  5,
  5,
  5,
  5,
  5,
  5,
  5,
  5,
  5,
  5,
  5,
  5,
  5,
  5,
  5,
  5,
  5,
  5,
  5,
  5,
  5,
  5,
  5,
  5,
  5,
  5,
  5,
  5,
  5,
  5,
  5,
  5,
  5,
  5,
  5,
  5,
  5,
  5,
  5,
  5,
  5,
  5,
  5,
  5,
  5,
  5,
  5,
  5,
  5,
  5,
  5,
  5,
  5,
  5,
  5,
  5,
  5,
  5,
  5,
  5,
  5,
  5,
  5,
  5,
  5,
  5,
  5,
  5,
  5,
  5,
  5,
  5,
  5,
  5,
  5,
  5,
  5,
  5,
  5,
  5,
  5,
  5,
  5,
  5,
  5,
  5,
  5,
  5,
  5,
  5,
  5,
  5,
  5,
  5,
  5,
  5,
  5,
  5,
  5,
  5,
  5,
  5,
  5,
  5,
  5,
  5,
  5,
  5,
  5,
  5,
  5,
  5,
  5,
  5,
  5,
  5,
  5,
  5,
  5,
  5,
  5,
  5,
  5,
  5,
  5,
  5,
  5,
  5,
  5,
  5,
  5,
  5,
  5,
  5,
  5,
  5,
  5,
  5,
  5,
  5,
  5,
  5,
  5,
  5,
  5,
  5,
  5,
  5,
  5,
  5,
  5,
  5,
  5,
  5,
  5,
  5,
  5,
  5,
  5,
  5,
  5,
  5,
  5,
  5,
  5,
  5,
  5,
  5,
  5,
  5,
  5,
  5,
  5,
  5,
  5,
  5,
  5,
  5,
  5,
  5,
  5,
  5,
  5,
  5,
  5,
  5,
  5,
  5,
  5,
  5,
  5,
  5,
  5,
  5,
  5,
  5,
  5,
  5,
  5,
  5,
  5,
  5,
  5,
  5,
  5,
  5,
  5,
  5,
  5,
  5,
  5,
  5,
  5,
  5,
  5,
  5,
  5,
  5,
  5,
  5,
  5,
  5,
  5,
  5,
  5,
  5,
  5,
  5,
  5,
  5,
  5,
  5,
  5,
  5,
  5,
  5,
  5,
  5,
  5,
  5,
  5,
  5,
  5,
  5,
  5,
  5,
  5,
  5,
  5,
  5,
  5,
  5,
  5,
  5,
  5,
  5,
  5,
  5,
  5,
  5,
  5,
  5,
  5,
  5,
  5,
  5,
  5,
  5,
  5,
  5,
  5,
  5,
  5,
  5,
  5,
  5,
  5,
  5,
  5,
  5,
  5,
  5,
  5,
  5,
  5,
  5,
  5,
  5,
  5,
  5,
  5,
  5,
  5,
  5,
  5,
  5,
  5,
  5,
  5,
  5,
  5,
  5,
  5,
  5,
  5,
  5,
  5,
  5,
  5,
  5,
  5,
  5,
  5,
  5,
  5,
  5,
  5,
  5,
  5,
  5,
  5,
  5,
  5,
  5,
  5,
  5,
  5,
  5,
  5,
  5,
  5,
  5,
  5,
  5,
  5,
  5,
  5,
  5,
  5,
  5,
  5,
  5,
  5,
  5,
  5,
  5,
  5,
  5,
  5,
  5,
  5,
  5,
  5,
  5,
  5,
  5,
  5,
  5,
  5,
  5,
  5,
  5,
  5,
  5,
  5,
  5,
  5,
  5,
  5,
  5,
  5,
  5,
  5,
  5,
  5,
  5,
  5,
  5,
  5,
  5,
  5,
  5,
  5,
  5,
  5,
  5,
  5,
  5,
  5,
  5,
  5,
  5,
  5,
  5,
  5,
  5,
  5,
  5,
  5,
  5,
  5,
  5;;
  Material {
   0.800000;0.128800;0.000000;1.000000;;
   5.000000;
   0.000000;0.000000;0.000000;;
   0.000000;0.000000;0.000000;;
  }
  Material {
   0.800000;0.344800;0.031200;1.000000;;
   5.000000;
   0.000000;0.000000;0.000000;;
   0.000000;0.000000;0.000000;;
  }
  Material {
   0.599200;0.599200;0.599200;1.000000;;
   5.000000;
   0.000000;0.000000;0.000000;;
   0.000000;0.000000;0.000000;;
  }
  Material {
   0.800000;0.524000;0.040800;1.000000;;
   5.000000;
   0.000000;0.000000;0.000000;;
   0.000000;0.000000;0.000000;;
  }
  Material {
   0.163200;0.003200;0.564800;1.000000;;
   5.000000;
   0.000000;0.000000;0.000000;;
   0.000000;0.000000;0.000000;;
  }
  Material {
   0.310400;0.184800;0.000000;1.000000;;
   5.000000;
   0.000000;0.000000;0.000000;;
   0.000000;0.000000;0.000000;;
  }
  Material {
   1.000000;1.000000;1.000000;1.000000;;
   0.000000;
   0.000000;0.000000;0.000000;;
   0.000000;0.000000;0.000000;;
  }
 }
 MeshNormals {
  369;
  0.000000;1.000000;0.000000;,
  0.000000;0.922883;-0.385080;,
  0.272293;0.922883;-0.272293;,
  0.385080;0.922883;0.000000;,
  0.272293;0.922883;0.272293;,
  0.000000;0.922883;0.385080;,
  -0.272293;0.922883;0.272293;,
  -0.385080;0.922883;0.000000;,
  -0.272293;0.922883;-0.272293;,
  0.000000;0.704339;-0.709863;,
  0.501949;0.704339;-0.501949;,
  0.709863;0.704339;0.000000;,
  0.501949;0.704339;0.501949;,
  0.000000;0.704339;0.709863;,
  -0.501949;0.704339;0.501949;,
  -0.709863;0.704339;0.000000;,
  -0.501949;0.704339;-0.501949;,
  -0.000000;0.379996;-0.924988;,
  0.654065;0.379996;-0.654065;,
  0.924988;0.379996;0.000000;,
  0.654065;0.379996;0.654065;,
  -0.000000;0.379996;0.924988;,
  -0.654065;0.379996;0.654065;,
  -0.924988;0.379996;0.000000;,
  -0.654065;0.379996;-0.654065;,
  -0.000000;-0.000001;-1.000000;,
  0.707107;-0.000001;-0.707107;,
  1.000000;-0.000001;-0.000000;,
  0.707107;-0.000001;0.707107;,
  -0.000000;-0.000001;1.000000;,
  -0.707107;-0.000001;0.707107;,
  -1.000000;-0.000001;0.000000;,
  -0.707107;-0.000001;-0.707107;,
  -0.000000;-0.398581;-0.917133;,
  0.648511;-0.398581;-0.648511;,
  0.917133;-0.398581;-0.000000;,
  0.648511;-0.398581;0.648511;,
  -0.000000;-0.398581;0.917133;,
  -0.648511;-0.398581;0.648511;,
  -0.917133;-0.398581;0.000000;,
  -0.648511;-0.398581;-0.648511;,
  -0.000000;-0.663945;-0.747781;,
  0.528761;-0.663945;-0.528761;,
  0.747781;-0.663945;-0.000000;,
  0.528761;-0.663945;0.528761;,
  -0.000000;-0.663945;0.747781;,
  -0.528761;-0.663945;0.528761;,
  -0.747781;-0.663945;0.000000;,
  -0.528761;-0.663945;-0.528761;,
  0.000000;-0.737262;-0.675607;,
  0.477726;-0.737262;-0.477726;,
  0.675607;-0.737262;-0.000000;,
  0.477726;-0.737262;0.477726;,
  0.000000;-0.737262;0.675607;,
  -0.477726;-0.737262;0.477726;,
  -0.675607;-0.737262;0.000000;,
  -0.477726;-0.737262;-0.477726;,
  -0.705003;-0.077077;0.705003;,
  0.703914;0.647681;-0.291573;,
  0.000000;0.473729;-0.880671;,
  0.622727;0.473732;-0.622727;,
  0.880671;0.473729;0.000000;,
  0.622727;0.473732;0.622727;,
  0.000000;0.473729;0.880671;,
  -0.622727;0.473732;0.622727;,
  -0.880671;0.473729;0.000000;,
  -0.622727;0.473732;-0.622727;,
  0.000000;0.340114;-0.940384;,
  0.664952;0.340116;-0.664952;,
  0.940384;0.340114;0.000000;,
  0.664952;0.340116;0.664952;,
  0.000000;0.340114;0.940384;,
  -0.664952;0.340116;0.664952;,
  -0.940384;0.340114;0.000000;,
  -0.664952;0.340116;-0.664952;,
  0.000000;0.892202;0.451637;,
  -0.319356;0.892202;0.319356;,
  -0.451637;0.892202;0.000000;,
  -0.319356;0.892202;-0.319356;,
  0.000000;0.892202;-0.451637;,
  0.319356;0.892202;-0.319356;,
  0.451637;0.892202;0.000000;,
  0.319356;0.892202;0.319356;,
  0.000000;0.848793;-0.528725;,
  0.373865;0.848793;-0.373865;,
  0.528725;0.848793;0.000000;,
  0.373865;0.848793;0.373865;,
  0.000000;0.848793;0.528725;,
  -0.373865;0.848793;0.373865;,
  -0.528725;0.848793;0.000000;,
  -0.373865;0.848793;-0.373865;,
  0.000000;-0.628690;-0.777656;,
  0.549886;-0.628690;-0.549886;,
  0.777656;-0.628690;-0.000000;,
  0.549886;-0.628690;0.549886;,
  0.000000;-0.628690;0.777656;,
  -0.549886;-0.628690;0.549886;,
  -0.777656;-0.628690;0.000000;,
  -0.549886;-0.628690;-0.549886;,
  0.000000;-0.878657;-0.477454;,
  0.337611;-0.878657;-0.337611;,
  0.477454;-0.878657;-0.000000;,
  0.337611;-0.878657;0.337611;,
  0.000000;-0.878657;0.477454;,
  -0.337611;-0.878657;0.337611;,
  -0.477454;-0.878657;0.000000;,
  -0.337611;-0.878657;-0.337611;,
  0.000000;-0.924735;-0.380612;,
  0.269133;-0.924735;-0.269133;,
  0.380612;-0.924735;-0.000000;,
  0.269133;-0.924735;0.269133;,
  0.000000;-0.924735;0.380612;,
  -0.269133;-0.924735;0.269133;,
  -0.380612;-0.924735;0.000000;,
  -0.269133;-0.924735;-0.269133;,
  0.000000;-1.000000;-0.000000;,
  0.000000;-0.077077;0.997025;,
  -0.997025;-0.077077;0.000000;,
  -0.705003;-0.077077;-0.705003;,
  0.000000;-0.077077;-0.997025;,
  0.705003;-0.077077;-0.705003;,
  0.997025;-0.077077;-0.000000;,
  0.705003;-0.077077;0.705003;,
  -0.291573;0.647681;0.703914;,
  -0.568279;0.595079;-0.568279;,
  0.000000;-0.160829;-0.986982;,
  0.697902;-0.160829;-0.697902;,
  0.986982;-0.160829;-0.000000;,
  0.697902;-0.160829;0.697902;,
  0.000000;-0.160829;0.986982;,
  -0.697902;-0.160829;0.697902;,
  -0.986982;-0.160829;0.000000;,
  -0.697902;-0.160829;-0.697902;,
  0.000000;1.000000;0.000000;,
  0.000407;0.008300;0.999965;,
  -0.682570;0.231632;0.693141;,
  -0.948146;0.317836;-0.000039;,
  -0.682770;0.230412;-0.693351;,
  0.000319;0.006472;-0.999979;,
  0.685114;-0.217841;-0.695100;,
  0.952367;-0.304955;0.000038;,
  0.685305;-0.216611;0.695296;,
  0.000000;-1.000000;-0.000000;,
  0.000000;1.000000;0.000000;,
  -0.999959;0.009061;0.000439;,
  -0.693300;0.230133;-0.682916;,
  0.000072;0.315150;-0.949042;,
  0.693680;0.227899;-0.683279;,
  0.999984;0.005716;0.000280;,
  0.695248;-0.216325;0.685444;,
  -0.000069;-0.302233;0.953234;,
  -0.695603;-0.214072;0.685791;,
  0.000000;-1.000000;-0.000000;,
  0.000000;1.000000;0.000000;,
  0.999984;0.005722;-0.000262;,
  0.693673;0.227900;0.683286;,
  0.000072;0.315149;0.949042;,
  -0.693293;0.230134;0.682922;,
  -0.999959;0.009067;-0.000421;,
  -0.695640;-0.214061;-0.685758;,
  -0.000069;-0.302233;-0.953234;,
  0.695284;-0.216314;-0.685411;,
  0.000000;-1.000000;-0.000000;,
  0.000000;1.000000;0.000000;,
  -0.000311;0.006475;-0.999979;,
  0.682756;0.230408;-0.693366;,
  0.948146;0.317836;-0.000031;,
  0.682565;0.231630;0.693147;,
  -0.000398;0.008303;0.999965;,
  -0.685308;-0.216612;0.695293;,
  -0.952367;-0.304955;0.000047;,
  -0.685108;-0.217839;-0.695107;,
  0.000000;-1.000000;-0.000000;,
  0.000000;1.000000;0.000000;,
  -0.707315;0.006851;-0.706865;,
  -0.007453;0.230414;-0.973064;,
  0.670502;0.317504;-0.670536;,
  0.972893;0.231137;0.007450;,
  0.706822;0.007934;0.707347;,
  0.007064;-0.216607;0.976233;,
  -0.673485;-0.304619;0.673517;,
  -0.976071;-0.217337;-0.007062;,
  0.000000;-1.000000;-0.000000;,
  0.000000;1.000000;0.000000;,
  -0.706865;0.006840;0.707315;,
  -0.973235;0.229692;0.007433;,
  -0.670778;0.316554;-0.670709;,
  0.007405;0.230435;-0.973060;,
  0.707336;0.007950;-0.706833;,
  0.976393;-0.215889;-0.006994;,
  0.673706;-0.303657;0.673731;,
  -0.007016;-0.216628;0.976229;,
  0.000000;-1.000000;-0.000000;,
  0.000000;1.000000;0.000000;,
  0.706953;0.004098;-0.707249;,
  0.973524;0.228463;-0.007467;,
  0.670632;0.317349;0.670479;,
  -0.007432;0.232852;0.972484;,
  -0.707428;0.010676;0.706705;,
  -0.976667;-0.214643;0.007052;,
  -0.673648;-0.304462;-0.673425;,
  0.007049;-0.219067;-0.975684;,
  0.000000;-1.000000;-0.000000;,
  0.000000;1.000000;0.000000;,
  0.707309;0.006090;0.706878;,
  0.007650;0.232592;0.972544;,
  -0.669625;0.321091;0.669704;,
  -0.972131;0.234315;-0.007640;,
  -0.706775;0.008676;-0.707385;,
  -0.007220;-0.218817;-0.975739;,
  0.672635;-0.308255;-0.672712;,
  0.975348;-0.220556;0.007215;,
  0.000000;-1.000000;-0.000000;,
  0.000000;1.000000;0.000000;,
  -0.000000;0.995201;-0.097857;,
  0.069195;0.995201;-0.069195;,
  0.097856;0.995201;0.000000;,
  0.069195;0.995201;0.069195;,
  -0.000000;0.995201;0.097857;,
  -0.069195;0.995201;0.069195;,
  -0.097857;0.995201;0.000000;,
  -0.069195;0.995201;-0.069195;,
  0.000000;0.924734;-0.380613;,
  0.269134;0.924734;-0.269134;,
  0.380614;0.924734;0.000000;,
  0.269134;0.924734;0.269134;,
  0.000000;0.924734;0.380613;,
  -0.269134;0.924735;0.269134;,
  -0.380613;0.924734;0.000000;,
  -0.269134;0.924734;-0.269134;,
  0.000000;0.831466;-0.555576;,
  0.392853;0.831465;-0.392853;,
  0.555577;0.831465;0.000000;,
  0.392853;0.831465;0.392853;,
  0.000000;0.831466;0.555576;,
  -0.392851;0.831466;0.392851;,
  -0.555576;0.831466;0.000000;,
  -0.392851;0.831466;-0.392851;,
  0.000000;-0.026104;0.999659;,
  -0.706866;-0.026104;0.706866;,
  -0.999659;-0.026104;0.000000;,
  -0.706866;-0.026104;-0.706866;,
  0.000000;-0.026104;-0.999659;,
  0.706866;-0.026104;-0.706866;,
  0.999659;-0.026104;-0.000000;,
  0.706866;-0.026104;0.706866;,
  0.000000;0.997471;-0.071071;,
  0.050255;0.997471;-0.050255;,
  0.071072;0.997471;0.000000;,
  0.050255;0.997471;0.050255;,
  0.000000;0.997471;0.071071;,
  -0.050255;0.997471;0.050255;,
  -0.071072;0.997471;0.000000;,
  -0.050255;0.997471;-0.050255;,
  0.000000;-0.098153;-0.995171;,
  0.703692;-0.098153;-0.703692;,
  0.995171;-0.098153;-0.000000;,
  0.703692;-0.098153;0.703692;,
  0.000000;-0.098153;0.995171;,
  -0.703692;-0.098153;0.703692;,
  -0.995171;-0.098153;0.000000;,
  -0.703692;-0.098153;-0.703692;,
  0.000000;-0.384548;-0.923105;,
  0.652734;-0.384548;-0.652734;,
  0.923105;-0.384548;-0.000000;,
  0.652734;-0.384548;0.652734;,
  0.000000;-0.384548;0.923105;,
  -0.652734;-0.384548;0.652734;,
  -0.923105;-0.384548;0.000000;,
  -0.652734;-0.384548;-0.652734;,
  0.000000;-0.709231;-0.704976;,
  0.498494;-0.709230;-0.498494;,
  0.704977;-0.709230;-0.000000;,
  0.498494;-0.709230;0.498494;,
  0.000000;-0.709231;0.704976;,
  -0.498493;-0.709231;0.498493;,
  -0.704976;-0.709231;0.000000;,
  -0.498493;-0.709231;-0.498493;,
  0.000000;-0.924736;-0.380608;,
  0.269131;-0.924736;-0.269131;,
  0.380608;-0.924736;-0.000000;,
  0.269131;-0.924736;0.269131;,
  0.000000;-0.924736;0.380608;,
  -0.269130;-0.924737;0.269130;,
  -0.380608;-0.924736;0.000000;,
  -0.269130;-0.924737;-0.269130;,
  -0.000000;-0.995201;-0.097857;,
  0.069195;-0.995201;-0.069195;,
  0.097856;-0.995201;-0.000000;,
  0.069195;-0.995201;0.069195;,
  -0.000000;-0.995201;0.097857;,
  -0.069195;-0.995201;0.069195;,
  -0.097857;-0.995201;0.000000;,
  -0.069195;-0.995201;-0.069195;,
  0.000000;-1.000000;-0.000000;,
  0.000000;0.000000;-1.000000;,
  0.707107;0.000000;-0.707107;,
  1.000000;0.000000;0.000000;,
  0.707107;0.000000;0.707107;,
  0.000000;0.000000;1.000000;,
  -0.707107;0.000000;0.707107;,
  -1.000000;0.000000;0.000000;,
  -0.707107;0.000000;-0.707107;,
  0.000000;1.000000;0.000000;,
  -0.000291;-0.003835;0.999993;,
  -0.655720;0.331797;0.678190;,
  -0.891722;0.452583;-0.000030;,
  -0.655831;0.331369;-0.678292;,
  -0.000343;-0.004523;-0.999990;,
  0.653729;-0.338956;-0.676570;,
  0.888587;-0.458708;0.000009;,
  0.653827;-0.338523;0.676692;,
  0.000000;-1.000000;-0.000000;,
  -0.999996;-0.002667;-0.000199;,
  -0.678058;0.332071;-0.655718;,
  0.000040;0.452377;-0.891827;,
  0.678265;0.331279;-0.655905;,
  0.999992;-0.003926;-0.000294;,
  0.676810;-0.337705;0.654128;,
  -0.000032;-0.457211;0.889358;,
  -0.677015;-0.336920;0.654321;,
  1.000000;-0.000403;0.000025;,
  0.677610;0.334295;0.655050;,
  0.000024;0.454967;0.890508;,
  -0.677413;0.335080;0.654853;,
  -1.000000;0.000856;-0.000069;,
  -0.677704;-0.333900;-0.655155;,
  -0.000048;-0.454631;-0.890680;,
  0.677489;-0.334693;-0.654973;,
  0.000043;-0.000141;-1.000000;,
  0.654796;0.335118;-0.677449;,
  0.890087;0.455790;-0.000019;,
  0.654693;0.335548;0.677337;,
  -0.000008;0.000547;1.000000;,
  -0.654890;-0.334800;0.677516;,
  -0.890227;-0.455517;0.000019;,
  -0.654786;-0.335231;-0.677403;,
  -0.707075;-0.000766;-0.707138;,
  -0.015983;0.334486;-0.942265;,
  0.629625;0.455141;-0.629618;,
  0.942172;0.334750;0.015953;,
  0.707135;-0.000345;0.707079;,
  0.016011;-0.335440;0.941925;,
  -0.629325;-0.455955;0.629329;,
  -0.941837;-0.335688;-0.016028;,
  -0.707319;-0.003898;0.706884;,
  -0.943309;0.331534;0.015896;,
  -0.630588;0.452529;-0.630537;,
  0.015835;0.331814;-0.943212;,
  0.706910;-0.003485;-0.707295;,
  0.941051;-0.337883;-0.016086;,
  0.628608;-0.457949;0.628597;,
  -0.016125;-0.338129;0.940962;,
  0.707179;-0.001041;-0.707033;,
  0.942286;0.334424;-0.016037;,
  0.629496;0.455633;0.629391;,
  -0.015978;0.335986;0.941732;,
  -0.707189;0.001415;0.707024;,
  -0.942392;-0.334129;0.015967;,
  -0.629603;-0.455364;-0.629478;,
  0.015997;-0.335662;-0.941847;,
  0.707204;0.002056;0.707007;,
  0.015424;0.330414;0.943710;,
  -0.632320;0.447890;0.632112;,
  -0.944775;0.327353;-0.015488;,
  -0.707250;-0.002803;-0.706958;,
  -0.015450;-0.331061;-0.943483;,
  0.632099;-0.448448;-0.631938;,
  0.944545;-0.328016;0.015471;;
  600;
  3;0,2,1;,
  3;0,3,2;,
  3;0,4,3;,
  3;0,5,4;,
  3;0,6,5;,
  3;0,7,6;,
  3;0,8,7;,
  3;0,1,8;,
  4;1,2,10,9;,
  4;2,3,11,10;,
  4;3,4,12,11;,
  4;4,5,13,12;,
  4;5,6,14,13;,
  4;6,7,15,14;,
  4;7,8,16,15;,
  4;8,1,9,16;,
  4;9,10,18,17;,
  4;10,11,19,18;,
  4;11,12,20,19;,
  4;12,13,21,20;,
  4;13,14,22,21;,
  4;14,15,23,22;,
  4;15,16,24,23;,
  4;16,9,17,24;,
  4;17,18,26,25;,
  4;18,19,27,26;,
  4;19,20,28,27;,
  4;20,21,29,28;,
  4;21,22,30,29;,
  4;22,23,31,30;,
  4;23,24,32,31;,
  4;24,17,25,32;,
  4;25,26,34,33;,
  4;26,27,35,34;,
  4;27,28,36,35;,
  4;28,29,37,36;,
  4;29,30,38,37;,
  4;30,31,39,38;,
  4;31,32,40,39;,
  4;32,25,33,40;,
  4;33,34,42,41;,
  4;34,35,43,42;,
  4;35,36,44,43;,
  4;36,37,45,44;,
  4;37,38,46,45;,
  4;38,39,47,46;,
  4;39,40,48,47;,
  4;40,33,41,48;,
  4;41,42,50,49;,
  4;42,43,51,50;,
  4;43,44,52,51;,
  4;44,45,53,52;,
  4;45,46,54,53;,
  4;46,47,55,54;,
  4;47,48,56,55;,
  4;48,41,49,56;,
  3;116,57,57;,
  3;57,117,57;,
  3;117,118,118;,
  3;118,119,118;,
  3;119,120,120;,
  3;120,121,120;,
  3;121,122,122;,
  3;122,116,122;,
  3;58,60,59;,
  3;58,61,60;,
  3;58,62,61;,
  3;123,63,62;,
  3;123,64,63;,
  3;123,65,64;,
  3;124,66,65;,
  3;124,59,66;,
  4;59,60,68,67;,
  4;60,61,69,68;,
  4;61,62,70,69;,
  4;62,63,71,70;,
  4;63,64,72,71;,
  4;64,65,73,72;,
  4;65,66,74,73;,
  4;66,59,67,74;,
  4;75,76,76,75;,
  4;76,77,77,76;,
  4;77,78,78,77;,
  4;78,79,79,78;,
  4;79,80,80,79;,
  4;80,81,81,80;,
  4;81,82,82,81;,
  4;82,75,75,82;,
  4;83,84,84,83;,
  4;84,85,85,84;,
  4;85,86,86,85;,
  4;86,87,87,86;,
  4;87,88,88,87;,
  4;88,89,89,88;,
  4;89,90,90,89;,
  4;90,83,83,90;,
  4;125,126,92,91;,
  4;126,127,93,92;,
  4;127,128,94,93;,
  4;128,129,95,94;,
  4;129,130,96,95;,
  4;130,131,97,96;,
  4;131,132,98,97;,
  4;132,125,91,98;,
  4;91,92,100,99;,
  4;92,93,101,100;,
  4;93,94,102,101;,
  4;94,95,103,102;,
  4;95,96,104,103;,
  4;96,97,105,104;,
  4;97,98,106,105;,
  4;98,91,99,106;,
  4;99,100,108,107;,
  4;100,101,109,108;,
  4;101,102,110,109;,
  4;102,103,111,110;,
  4;103,104,112,111;,
  4;104,105,113,112;,
  4;105,106,114,113;,
  4;106,99,107,114;,
  3;107,108,115;,
  3;108,109,115;,
  3;109,110,115;,
  3;110,111,115;,
  3;111,112,115;,
  3;112,113,115;,
  3;113,114,115;,
  3;114,107,115;,
  4;134,135,135,134;,
  4;135,136,136,135;,
  4;136,137,137,136;,
  4;137,138,138,137;,
  4;138,139,139,138;,
  4;139,140,140,139;,
  4;140,141,141,140;,
  4;141,134,134,141;,
  3;133,133,133;,
  3;133,133,133;,
  3;133,133,133;,
  3;133,133,133;,
  3;133,133,133;,
  3;133,133,133;,
  3;133,133,133;,
  3;133,133,133;,
  3;142,142,142;,
  3;142,142,142;,
  3;142,142,142;,
  3;142,142,142;,
  3;142,142,142;,
  3;142,142,142;,
  3;142,142,142;,
  3;142,142,142;,
  4;144,145,145,144;,
  4;145,146,146,145;,
  4;146,147,147,146;,
  4;147,148,148,147;,
  4;148,149,149,148;,
  4;149,150,150,149;,
  4;150,151,151,150;,
  4;151,144,144,151;,
  3;143,143,143;,
  3;143,143,143;,
  3;143,143,143;,
  3;143,143,143;,
  3;143,143,143;,
  3;143,143,143;,
  3;143,143,143;,
  3;143,143,143;,
  3;152,152,152;,
  3;152,152,152;,
  3;152,152,152;,
  3;152,152,152;,
  3;152,152,152;,
  3;152,152,152;,
  3;152,152,152;,
  3;152,152,152;,
  4;154,155,155,154;,
  4;155,156,156,155;,
  4;156,157,157,156;,
  4;157,158,158,157;,
  4;158,159,159,158;,
  4;159,160,160,159;,
  4;160,161,161,160;,
  4;161,154,154,161;,
  3;153,153,153;,
  3;153,153,153;,
  3;153,153,153;,
  3;153,153,153;,
  3;153,153,153;,
  3;153,153,153;,
  3;153,153,153;,
  3;153,153,153;,
  3;162,162,162;,
  3;162,162,162;,
  3;162,162,162;,
  3;162,162,162;,
  3;162,162,162;,
  3;162,162,162;,
  3;162,162,162;,
  3;162,162,162;,
  4;164,165,165,164;,
  4;165,166,166,165;,
  4;166,167,167,166;,
  4;167,168,168,167;,
  4;168,169,169,168;,
  4;169,170,170,169;,
  4;170,171,171,170;,
  4;171,164,164,171;,
  3;163,163,163;,
  3;163,163,163;,
  3;163,163,163;,
  3;163,163,163;,
  3;163,163,163;,
  3;163,163,163;,
  3;163,163,163;,
  3;163,163,163;,
  3;172,172,172;,
  3;172,172,172;,
  3;172,172,172;,
  3;172,172,172;,
  3;172,172,172;,
  3;172,172,172;,
  3;172,172,172;,
  3;172,172,172;,
  4;174,175,175,174;,
  4;175,176,176,175;,
  4;176,177,177,176;,
  4;177,178,178,177;,
  4;178,179,179,178;,
  4;179,180,180,179;,
  4;180,181,181,180;,
  4;181,174,174,181;,
  3;173,173,173;,
  3;173,173,173;,
  3;173,173,173;,
  3;173,173,173;,
  3;173,173,173;,
  3;173,173,173;,
  3;173,173,173;,
  3;173,173,173;,
  3;182,182,182;,
  3;182,182,182;,
  3;182,182,182;,
  3;182,182,182;,
  3;182,182,182;,
  3;182,182,182;,
  3;182,182,182;,
  3;182,182,182;,
  4;184,185,185,184;,
  4;185,186,186,185;,
  4;186,187,187,186;,
  4;187,188,188,187;,
  4;188,189,189,188;,
  4;189,190,190,189;,
  4;190,191,191,190;,
  4;191,184,184,191;,
  3;183,183,183;,
  3;183,183,183;,
  3;183,183,183;,
  3;183,183,183;,
  3;183,183,183;,
  3;183,183,183;,
  3;183,183,183;,
  3;183,183,183;,
  3;192,192,192;,
  3;192,192,192;,
  3;192,192,192;,
  3;192,192,192;,
  3;192,192,192;,
  3;192,192,192;,
  3;192,192,192;,
  3;192,192,192;,
  4;194,195,195,194;,
  4;195,196,196,195;,
  4;196,197,197,196;,
  4;197,198,198,197;,
  4;198,199,199,198;,
  4;199,200,200,199;,
  4;200,201,201,200;,
  4;201,194,194,201;,
  3;193,193,193;,
  3;193,193,193;,
  3;193,193,193;,
  3;193,193,193;,
  3;193,193,193;,
  3;193,193,193;,
  3;193,193,193;,
  3;193,193,193;,
  3;202,202,202;,
  3;202,202,202;,
  3;202,202,202;,
  3;202,202,202;,
  3;202,202,202;,
  3;202,202,202;,
  3;202,202,202;,
  3;202,202,202;,
  4;204,205,205,204;,
  4;205,206,206,205;,
  4;206,207,207,206;,
  4;207,208,208,207;,
  4;208,209,209,208;,
  4;209,210,210,209;,
  4;210,211,211,210;,
  4;211,204,204,211;,
  3;203,203,203;,
  3;203,203,203;,
  3;203,203,203;,
  3;203,203,203;,
  3;203,203,203;,
  3;203,203,203;,
  3;203,203,203;,
  3;203,203,203;,
  3;212,212,212;,
  3;212,212,212;,
  3;212,212,212;,
  3;212,212,212;,
  3;212,212,212;,
  3;212,212,212;,
  3;212,212,212;,
  3;212,212,212;,
  3;213,215,214;,
  3;213,216,215;,
  3;213,217,216;,
  3;213,218,217;,
  3;213,219,218;,
  3;213,220,219;,
  3;213,221,220;,
  3;213,214,221;,
  4;214,215,223,222;,
  4;215,216,224,223;,
  4;216,217,225,224;,
  4;217,218,226,225;,
  4;218,219,227,226;,
  4;219,220,228,227;,
  4;220,221,229,228;,
  4;221,214,222,229;,
  4;222,223,231,230;,
  4;223,224,232,231;,
  4;224,225,233,232;,
  4;225,226,234,233;,
  4;226,227,235,234;,
  4;227,228,236,235;,
  4;228,229,237,236;,
  4;229,222,230,237;,
  4;238,239,239,238;,
  4;239,240,240,239;,
  4;240,241,241,240;,
  4;241,242,242,241;,
  4;242,243,243,242;,
  4;243,244,244,243;,
  4;244,245,245,244;,
  4;245,238,238,245;,
  4;246,247,247,246;,
  4;247,248,248,247;,
  4;248,249,249,248;,
  4;249,250,250,249;,
  4;250,251,251,250;,
  4;251,252,252,251;,
  4;252,253,253,252;,
  4;253,246,246,253;,
  4;295,296,255,254;,
  4;296,297,256,255;,
  4;297,298,257,256;,
  4;298,299,258,257;,
  4;299,300,259,258;,
  4;300,301,260,259;,
  4;301,302,261,260;,
  4;302,295,254,261;,
  4;254,255,263,262;,
  4;255,256,264,263;,
  4;256,257,265,264;,
  4;257,258,266,265;,
  4;258,259,267,266;,
  4;259,260,268,267;,
  4;260,261,269,268;,
  4;261,254,262,269;,
  4;262,263,271,270;,
  4;263,264,272,271;,
  4;264,265,273,272;,
  4;265,266,274,273;,
  4;266,267,275,274;,
  4;267,268,276,275;,
  4;268,269,277,276;,
  4;269,262,270,277;,
  4;270,271,279,278;,
  4;271,272,280,279;,
  4;272,273,281,280;,
  4;273,274,282,281;,
  4;274,275,283,282;,
  4;275,276,284,283;,
  4;276,277,285,284;,
  4;277,270,278,285;,
  4;278,279,287,286;,
  4;279,280,288,287;,
  4;280,281,289,288;,
  4;281,282,290,289;,
  4;282,283,291,290;,
  4;283,284,292,291;,
  4;284,285,293,292;,
  4;285,278,286,293;,
  3;286,287,294;,
  3;287,288,294;,
  3;288,289,294;,
  3;289,290,294;,
  3;290,291,294;,
  3;291,292,294;,
  3;292,293,294;,
  3;293,286,294;,
  4;304,305,305,304;,
  4;305,306,306,305;,
  4;306,307,307,306;,
  4;307,308,308,307;,
  4;308,309,309,308;,
  4;309,310,310,309;,
  4;310,311,311,310;,
  4;311,304,304,311;,
  3;303,303,303;,
  3;303,303,303;,
  3;303,303,303;,
  3;303,303,303;,
  3;303,303,303;,
  3;303,303,303;,
  3;303,303,303;,
  3;303,303,303;,
  3;312,312,312;,
  3;312,312,312;,
  3;312,312,312;,
  3;312,312,312;,
  3;312,312,312;,
  3;312,312,312;,
  3;312,312,312;,
  3;312,312,312;,
  4;313,314,314,313;,
  4;314,315,315,314;,
  4;315,316,316,315;,
  4;316,317,317,316;,
  4;317,318,318,317;,
  4;318,319,319,318;,
  4;319,320,320,319;,
  4;320,313,313,320;,
  3;303,303,303;,
  3;303,303,303;,
  3;303,303,303;,
  3;303,303,303;,
  3;303,303,303;,
  3;303,303,303;,
  3;303,303,303;,
  3;303,303,303;,
  3;312,312,312;,
  3;312,312,312;,
  3;312,312,312;,
  3;312,312,312;,
  3;312,312,312;,
  3;312,312,312;,
  3;312,312,312;,
  3;312,312,312;,
  4;321,322,322,321;,
  4;322,323,323,322;,
  4;323,324,324,323;,
  4;324,325,325,324;,
  4;325,326,326,325;,
  4;326,327,327,326;,
  4;327,328,328,327;,
  4;328,321,321,328;,
  3;303,303,303;,
  3;303,303,303;,
  3;303,303,303;,
  3;303,303,303;,
  3;303,303,303;,
  3;303,303,303;,
  3;303,303,303;,
  3;303,303,303;,
  3;312,312,312;,
  3;312,312,312;,
  3;312,312,312;,
  3;312,312,312;,
  3;312,312,312;,
  3;312,312,312;,
  3;312,312,312;,
  3;312,312,312;,
  4;329,330,330,329;,
  4;330,331,331,330;,
  4;331,332,332,331;,
  4;332,333,333,332;,
  4;333,334,334,333;,
  4;334,335,335,334;,
  4;335,336,336,335;,
  4;336,329,329,336;,
  3;303,303,303;,
  3;303,303,303;,
  3;303,303,303;,
  3;303,303,303;,
  3;303,303,303;,
  3;303,303,303;,
  3;303,303,303;,
  3;303,303,303;,
  3;312,312,312;,
  3;312,312,312;,
  3;312,312,312;,
  3;312,312,312;,
  3;312,312,312;,
  3;312,312,312;,
  3;312,312,312;,
  3;312,312,312;,
  4;337,338,338,337;,
  4;338,339,339,338;,
  4;339,340,340,339;,
  4;340,341,341,340;,
  4;341,342,342,341;,
  4;342,343,343,342;,
  4;343,344,344,343;,
  4;344,337,337,344;,
  3;303,303,303;,
  3;303,303,303;,
  3;303,303,303;,
  3;303,303,303;,
  3;303,303,303;,
  3;303,303,303;,
  3;303,303,303;,
  3;303,303,303;,
  3;312,312,312;,
  3;312,312,312;,
  3;312,312,312;,
  3;312,312,312;,
  3;312,312,312;,
  3;312,312,312;,
  3;312,312,312;,
  3;312,312,312;,
  4;345,346,346,345;,
  4;346,347,347,346;,
  4;347,348,348,347;,
  4;348,349,349,348;,
  4;349,350,350,349;,
  4;350,351,351,350;,
  4;351,352,352,351;,
  4;352,345,345,352;,
  3;303,303,303;,
  3;303,303,303;,
  3;303,303,303;,
  3;303,303,303;,
  3;303,303,303;,
  3;303,303,303;,
  3;303,303,303;,
  3;303,303,303;,
  3;312,312,312;,
  3;312,312,312;,
  3;312,312,312;,
  3;312,312,312;,
  3;312,312,312;,
  3;312,312,312;,
  3;312,312,312;,
  3;312,312,312;,
  4;353,354,354,353;,
  4;354,355,355,354;,
  4;355,356,356,355;,
  4;356,357,357,356;,
  4;357,358,358,357;,
  4;358,359,359,358;,
  4;359,360,360,359;,
  4;360,353,353,360;,
  3;303,303,303;,
  3;303,303,303;,
  3;303,303,303;,
  3;303,303,303;,
  3;303,303,303;,
  3;303,303,303;,
  3;303,303,303;,
  3;303,303,303;,
  3;312,312,312;,
  3;312,312,312;,
  3;312,312,312;,
  3;312,312,312;,
  3;312,312,312;,
  3;312,312,312;,
  3;312,312,312;,
  3;312,312,312;,
  4;361,362,362,361;,
  4;362,363,363,362;,
  4;363,364,364,363;,
  4;364,365,365,364;,
  4;365,366,366,365;,
  4;366,367,367,366;,
  4;367,368,368,367;,
  4;368,361,361,368;,
  3;303,303,303;,
  3;303,303,303;,
  3;303,303,303;,
  3;303,303,303;,
  3;303,303,303;,
  3;303,303,303;,
  3;303,303,303;,
  3;303,303,303;,
  3;312,312,312;,
  3;312,312,312;,
  3;312,312,312;,
  3;312,312,312;,
  3;312,312,312;,
  3;312,312,312;,
  3;312,312,312;,
  3;312,312,312;;
 }
 MeshTextureCoords {
  784;
  0.062500;0.000000;,
  0.125000;0.125000;,
  0.000000;0.125000;,
  0.187500;0.000000;,
  0.250000;0.125000;,
  0.312500;0.000000;,
  0.375000;0.125000;,
  0.437500;0.000000;,
  0.500000;0.125000;,
  0.562500;0.000000;,
  0.625000;0.125000;,
  0.687500;0.000000;,
  0.750000;0.125000;,
  0.812500;0.000000;,
  0.875000;0.125000;,
  0.937500;0.000000;,
  1.000000;0.125000;,
  0.125000;0.250000;,
  0.000000;0.250000;,
  0.250000;0.250000;,
  0.375000;0.250000;,
  0.500000;0.250000;,
  0.625000;0.250000;,
  0.750000;0.250000;,
  0.875000;0.250000;,
  1.000000;0.250000;,
  0.125000;0.375000;,
  0.000000;0.375000;,
  0.250000;0.375000;,
  0.375000;0.375000;,
  0.500000;0.375000;,
  0.625000;0.375000;,
  0.750000;0.375000;,
  0.875000;0.375000;,
  1.000000;0.375000;,
  0.125000;0.500000;,
  0.000000;0.500000;,
  0.250000;0.500000;,
  0.375000;0.500000;,
  0.500000;0.500000;,
  0.625000;0.500000;,
  0.750000;0.500000;,
  0.875000;0.500000;,
  1.000000;0.500000;,
  0.125000;0.625000;,
  0.000000;0.625000;,
  0.250000;0.625000;,
  0.375000;0.625000;,
  0.500000;0.625000;,
  0.625000;0.625000;,
  0.750000;0.625000;,
  0.875000;0.625000;,
  1.000000;0.625000;,
  0.125000;0.750000;,
  0.000000;0.750000;,
  0.250000;0.750000;,
  0.375000;0.750000;,
  0.500000;0.750000;,
  0.625000;0.750000;,
  0.750000;0.750000;,
  0.875000;0.750000;,
  1.000000;0.750000;,
  0.125000;0.875000;,
  0.000000;0.875000;,
  0.250000;0.875000;,
  0.375000;0.875000;,
  0.500000;0.875000;,
  0.625000;0.875000;,
  0.750000;0.875000;,
  0.875000;0.875000;,
  1.000000;0.875000;,
  0.062500;1.000000;,
  0.187500;1.000000;,
  0.312500;1.000000;,
  0.437500;1.000000;,
  0.562500;1.000000;,
  0.687500;1.000000;,
  0.812500;1.000000;,
  0.937500;1.000000;,
  0.062500;0.000000;,
  0.125000;0.125000;,
  0.000000;0.125000;,
  0.187500;0.000000;,
  0.250000;0.125000;,
  0.312500;0.000000;,
  0.375000;0.125000;,
  0.437500;0.000000;,
  0.500000;0.125000;,
  0.562500;0.000000;,
  0.625000;0.125000;,
  0.687500;0.000000;,
  0.750000;0.125000;,
  0.812500;0.000000;,
  0.875000;0.125000;,
  0.937500;0.000000;,
  1.000000;0.125000;,
  0.125000;0.250000;,
  0.000000;0.250000;,
  0.250000;0.250000;,
  0.375000;0.250000;,
  0.500000;0.250000;,
  0.625000;0.250000;,
  0.750000;0.250000;,
  0.875000;0.250000;,
  1.000000;0.250000;,
  0.125000;0.375000;,
  0.000000;0.375000;,
  0.250000;0.375000;,
  0.375000;0.375000;,
  0.500000;0.375000;,
  0.625000;0.375000;,
  0.750000;0.375000;,
  0.875000;0.375000;,
  1.000000;0.375000;,
  0.125000;0.500000;,
  0.000000;0.500000;,
  0.250000;0.500000;,
  0.375000;0.500000;,
  0.500000;0.500000;,
  0.625000;0.500000;,
  0.750000;0.500000;,
  0.875000;0.500000;,
  1.000000;0.500000;,
  0.125000;0.625000;,
  0.000000;0.625000;,
  0.250000;0.625000;,
  0.375000;0.625000;,
  0.500000;0.625000;,
  0.625000;0.625000;,
  0.750000;0.625000;,
  0.875000;0.625000;,
  1.000000;0.625000;,
  0.125000;0.750000;,
  0.000000;0.750000;,
  0.250000;0.750000;,
  0.375000;0.750000;,
  0.500000;0.750000;,
  0.625000;0.750000;,
  0.750000;0.750000;,
  0.875000;0.750000;,
  1.000000;0.750000;,
  0.125000;0.875000;,
  0.000000;0.875000;,
  0.250000;0.875000;,
  0.375000;0.875000;,
  0.500000;0.875000;,
  0.625000;0.875000;,
  0.750000;0.875000;,
  0.875000;0.875000;,
  1.000000;0.875000;,
  0.062500;1.000000;,
  0.187500;1.000000;,
  0.312500;1.000000;,
  0.437500;1.000000;,
  0.562500;1.000000;,
  0.687500;1.000000;,
  0.812500;1.000000;,
  0.937500;1.000000;,
  0.000000;0.000000;,
  0.125000;0.000000;,
  0.125000;1.000000;,
  0.000000;1.000000;,
  0.250000;0.000000;,
  0.250000;1.000000;,
  0.375000;0.000000;,
  0.375000;1.000000;,
  0.500000;0.000000;,
  0.500000;1.000000;,
  0.625000;0.000000;,
  0.625000;1.000000;,
  0.750000;0.000000;,
  0.750000;1.000000;,
  0.875000;0.000000;,
  0.875000;1.000000;,
  1.000000;0.000000;,
  1.000000;1.000000;,
  0.062500;0.000000;,
  0.187500;0.000000;,
  0.312500;0.000000;,
  0.437500;0.000000;,
  0.562500;0.000000;,
  0.687500;0.000000;,
  0.812500;0.000000;,
  0.937500;0.000000;,
  0.062500;1.000000;,
  0.187500;1.000000;,
  0.312500;1.000000;,
  0.437500;1.000000;,
  0.562500;1.000000;,
  0.687500;1.000000;,
  0.812500;1.000000;,
  0.937500;1.000000;,
  0.000000;0.000000;,
  0.125000;0.000000;,
  0.125000;1.000000;,
  0.000000;1.000000;,
  0.250000;0.000000;,
  0.250000;1.000000;,
  0.375000;0.000000;,
  0.375000;1.000000;,
  0.500000;0.000000;,
  0.500000;1.000000;,
  0.625000;0.000000;,
  0.625000;1.000000;,
  0.750000;0.000000;,
  0.750000;1.000000;,
  0.875000;0.000000;,
  0.875000;1.000000;,
  1.000000;0.000000;,
  1.000000;1.000000;,
  0.062500;0.000000;,
  0.187500;0.000000;,
  0.312500;0.000000;,
  0.437500;0.000000;,
  0.562500;0.000000;,
  0.687500;0.000000;,
  0.812500;0.000000;,
  0.937500;0.000000;,
  0.062500;1.000000;,
  0.187500;1.000000;,
  0.312500;1.000000;,
  0.437500;1.000000;,
  0.562500;1.000000;,
  0.687500;1.000000;,
  0.812500;1.000000;,
  0.937500;1.000000;,
  0.000000;0.000000;,
  0.125000;0.000000;,
  0.125000;1.000000;,
  0.000000;1.000000;,
  0.250000;0.000000;,
  0.250000;1.000000;,
  0.375000;0.000000;,
  0.375000;1.000000;,
  0.500000;0.000000;,
  0.500000;1.000000;,
  0.625000;0.000000;,
  0.625000;1.000000;,
  0.750000;0.000000;,
  0.750000;1.000000;,
  0.875000;0.000000;,
  0.875000;1.000000;,
  1.000000;0.000000;,
  1.000000;1.000000;,
  0.062500;0.000000;,
  0.187500;0.000000;,
  0.312500;0.000000;,
  0.437500;0.000000;,
  0.562500;0.000000;,
  0.687500;0.000000;,
  0.812500;0.000000;,
  0.937500;0.000000;,
  0.062500;1.000000;,
  0.187500;1.000000;,
  0.312500;1.000000;,
  0.437500;1.000000;,
  0.562500;1.000000;,
  0.687500;1.000000;,
  0.812500;1.000000;,
  0.937500;1.000000;,
  0.000000;0.000000;,
  0.125000;0.000000;,
  0.125000;1.000000;,
  0.000000;1.000000;,
  0.250000;0.000000;,
  0.250000;1.000000;,
  0.375000;0.000000;,
  0.375000;1.000000;,
  0.500000;0.000000;,
  0.500000;1.000000;,
  0.625000;0.000000;,
  0.625000;1.000000;,
  0.750000;0.000000;,
  0.750000;1.000000;,
  0.875000;0.000000;,
  0.875000;1.000000;,
  1.000000;0.000000;,
  1.000000;1.000000;,
  0.062500;0.000000;,
  0.187500;0.000000;,
  0.312500;0.000000;,
  0.437500;0.000000;,
  0.562500;0.000000;,
  0.687500;0.000000;,
  0.812500;0.000000;,
  0.937500;0.000000;,
  0.062500;1.000000;,
  0.187500;1.000000;,
  0.312500;1.000000;,
  0.437500;1.000000;,
  0.562500;1.000000;,
  0.687500;1.000000;,
  0.812500;1.000000;,
  0.937500;1.000000;,
  0.000000;0.000000;,
  0.125000;0.000000;,
  0.125000;1.000000;,
  0.000000;1.000000;,
  0.250000;0.000000;,
  0.250000;1.000000;,
  0.375000;0.000000;,
  0.375000;1.000000;,
  0.500000;0.000000;,
  0.500000;1.000000;,
  0.625000;0.000000;,
  0.625000;1.000000;,
  0.750000;0.000000;,
  0.750000;1.000000;,
  0.875000;0.000000;,
  0.875000;1.000000;,
  1.000000;0.000000;,
  1.000000;1.000000;,
  0.062500;0.000000;,
  0.187500;0.000000;,
  0.312500;0.000000;,
  0.437500;0.000000;,
  0.562500;0.000000;,
  0.687500;0.000000;,
  0.812500;0.000000;,
  0.937500;0.000000;,
  0.062500;1.000000;,
  0.187500;1.000000;,
  0.312500;1.000000;,
  0.437500;1.000000;,
  0.562500;1.000000;,
  0.687500;1.000000;,
  0.812500;1.000000;,
  0.937500;1.000000;,
  0.000000;0.000000;,
  0.125000;0.000000;,
  0.125000;1.000000;,
  0.000000;1.000000;,
  0.250000;0.000000;,
  0.250000;1.000000;,
  0.375000;0.000000;,
  0.375000;1.000000;,
  0.500000;0.000000;,
  0.500000;1.000000;,
  0.625000;0.000000;,
  0.625000;1.000000;,
  0.750000;0.000000;,
  0.750000;1.000000;,
  0.875000;0.000000;,
  0.875000;1.000000;,
  1.000000;0.000000;,
  1.000000;1.000000;,
  0.062500;0.000000;,
  0.187500;0.000000;,
  0.312500;0.000000;,
  0.437500;0.000000;,
  0.562500;0.000000;,
  0.687500;0.000000;,
  0.812500;0.000000;,
  0.937500;0.000000;,
  0.062500;1.000000;,
  0.187500;1.000000;,
  0.312500;1.000000;,
  0.437500;1.000000;,
  0.562500;1.000000;,
  0.687500;1.000000;,
  0.812500;1.000000;,
  0.937500;1.000000;,
  0.000000;0.000000;,
  0.125000;0.000000;,
  0.125000;1.000000;,
  0.000000;1.000000;,
  0.250000;0.000000;,
  0.250000;1.000000;,
  0.375000;0.000000;,
  0.375000;1.000000;,
  0.500000;0.000000;,
  0.500000;1.000000;,
  0.625000;0.000000;,
  0.625000;1.000000;,
  0.750000;0.000000;,
  0.750000;1.000000;,
  0.875000;0.000000;,
  0.875000;1.000000;,
  1.000000;0.000000;,
  1.000000;1.000000;,
  0.062500;0.000000;,
  0.187500;0.000000;,
  0.312500;0.000000;,
  0.437500;0.000000;,
  0.562500;0.000000;,
  0.687500;0.000000;,
  0.812500;0.000000;,
  0.937500;0.000000;,
  0.062500;1.000000;,
  0.187500;1.000000;,
  0.312500;1.000000;,
  0.437500;1.000000;,
  0.562500;1.000000;,
  0.687500;1.000000;,
  0.812500;1.000000;,
  0.937500;1.000000;,
  0.000000;0.000000;,
  0.125000;0.000000;,
  0.125000;1.000000;,
  0.000000;1.000000;,
  0.250000;0.000000;,
  0.250000;1.000000;,
  0.375000;0.000000;,
  0.375000;1.000000;,
  0.500000;0.000000;,
  0.500000;1.000000;,
  0.625000;0.000000;,
  0.625000;1.000000;,
  0.750000;0.000000;,
  0.750000;1.000000;,
  0.875000;0.000000;,
  0.875000;1.000000;,
  1.000000;0.000000;,
  1.000000;1.000000;,
  0.062500;0.000000;,
  0.187500;0.000000;,
  0.312500;0.000000;,
  0.437500;0.000000;,
  0.562500;0.000000;,
  0.687500;0.000000;,
  0.812500;0.000000;,
  0.937500;0.000000;,
  0.062500;1.000000;,
  0.187500;1.000000;,
  0.312500;1.000000;,
  0.437500;1.000000;,
  0.562500;1.000000;,
  0.687500;1.000000;,
  0.812500;1.000000;,
  0.937500;1.000000;,
  0.000000;0.000000;,
  0.000000;0.000000;,
  0.000000;0.000000;,
  0.000000;0.000000;,
  0.000000;0.000000;,
  0.000000;0.000000;,
  0.000000;0.000000;,
  0.000000;0.000000;,
  0.000000;0.000000;,
  0.000000;0.000000;,
  0.000000;0.000000;,
  0.000000;0.000000;,
  0.000000;0.000000;,
  0.000000;0.000000;,
  0.000000;0.000000;,
  0.000000;0.000000;,
  0.000000;0.000000;,
  0.000000;0.000000;,
  0.000000;0.000000;,
  0.000000;0.000000;,
  0.000000;0.000000;,
  0.000000;0.000000;,
  0.000000;0.000000;,
  0.000000;0.000000;,
  0.000000;0.000000;,
  0.000000;0.000000;,
  0.000000;0.000000;,
  0.000000;0.000000;,
  0.000000;0.000000;,
  0.000000;0.000000;,
  0.000000;0.000000;,
  0.000000;0.000000;,
  0.000000;0.000000;,
  0.000000;0.000000;,
  0.000000;0.000000;,
  0.000000;0.000000;,
  0.000000;0.000000;,
  0.000000;0.000000;,
  0.000000;0.000000;,
  0.000000;0.000000;,
  0.000000;0.000000;,
  0.000000;0.000000;,
  0.000000;0.000000;,
  0.000000;0.000000;,
  0.000000;0.000000;,
  0.000000;0.000000;,
  0.000000;0.000000;,
  0.000000;0.000000;,
  0.000000;0.000000;,
  0.000000;0.000000;,
  0.000000;0.000000;,
  0.000000;0.000000;,
  0.000000;0.000000;,
  0.000000;0.000000;,
  0.000000;0.000000;,
  0.000000;0.000000;,
  0.000000;0.000000;,
  0.000000;0.000000;,
  0.000000;0.000000;,
  0.000000;0.000000;,
  0.000000;0.000000;,
  0.000000;0.000000;,
  0.000000;0.000000;,
  0.000000;0.000000;,
  0.000000;0.000000;,
  0.000000;0.000000;,
  0.000000;0.000000;,
  0.000000;0.000000;,
  0.000000;0.000000;,
  0.000000;0.000000;,
  0.000000;0.000000;,
  0.000000;0.000000;,
  0.000000;0.000000;,
  0.000000;0.000000;,
  0.000000;0.000000;,
  0.000000;0.000000;,
  0.000000;0.000000;,
  0.000000;0.000000;,
  0.000000;0.000000;,
  0.000000;0.000000;,
  0.000000;0.000000;,
  0.000000;0.000000;,
  0.000000;0.000000;,
  0.125000;0.000000;,
  0.125000;1.000000;,
  0.000000;1.000000;,
  0.250000;0.000000;,
  0.250000;1.000000;,
  0.375000;0.000000;,
  0.375000;1.000000;,
  0.500000;0.000000;,
  0.500000;1.000000;,
  0.625000;0.000000;,
  0.625000;1.000000;,
  0.750000;0.000000;,
  0.750000;1.000000;,
  0.875000;0.000000;,
  0.875000;1.000000;,
  1.000000;0.000000;,
  1.000000;1.000000;,
  0.062500;0.000000;,
  0.187500;0.000000;,
  0.312500;0.000000;,
  0.437500;0.000000;,
  0.562500;0.000000;,
  0.687500;0.000000;,
  0.812500;0.000000;,
  0.937500;0.000000;,
  0.062500;1.000000;,
  0.187500;1.000000;,
  0.312500;1.000000;,
  0.437500;1.000000;,
  0.562500;1.000000;,
  0.687500;1.000000;,
  0.812500;1.000000;,
  0.937500;1.000000;,
  0.000000;0.000000;,
  0.125000;0.000000;,
  0.125000;1.000000;,
  0.000000;1.000000;,
  0.250000;0.000000;,
  0.250000;1.000000;,
  0.375000;0.000000;,
  0.375000;1.000000;,
  0.500000;0.000000;,
  0.500000;1.000000;,
  0.625000;0.000000;,
  0.625000;1.000000;,
  0.750000;0.000000;,
  0.750000;1.000000;,
  0.875000;0.000000;,
  0.875000;1.000000;,
  1.000000;0.000000;,
  1.000000;1.000000;,
  0.062500;0.000000;,
  0.187500;0.000000;,
  0.312500;0.000000;,
  0.437500;0.000000;,
  0.562500;0.000000;,
  0.687500;0.000000;,
  0.812500;0.000000;,
  0.937500;0.000000;,
  0.062500;1.000000;,
  0.187500;1.000000;,
  0.312500;1.000000;,
  0.437500;1.000000;,
  0.562500;1.000000;,
  0.687500;1.000000;,
  0.812500;1.000000;,
  0.937500;1.000000;,
  0.000000;0.000000;,
  0.125000;0.000000;,
  0.125000;1.000000;,
  0.000000;1.000000;,
  0.250000;0.000000;,
  0.250000;1.000000;,
  0.375000;0.000000;,
  0.375000;1.000000;,
  0.500000;0.000000;,
  0.500000;1.000000;,
  0.625000;0.000000;,
  0.625000;1.000000;,
  0.750000;0.000000;,
  0.750000;1.000000;,
  0.875000;0.000000;,
  0.875000;1.000000;,
  1.000000;0.000000;,
  1.000000;1.000000;,
  0.062500;0.000000;,
  0.187500;0.000000;,
  0.312500;0.000000;,
  0.437500;0.000000;,
  0.562500;0.000000;,
  0.687500;0.000000;,
  0.812500;0.000000;,
  0.937500;0.000000;,
  0.062500;1.000000;,
  0.187500;1.000000;,
  0.312500;1.000000;,
  0.437500;1.000000;,
  0.562500;1.000000;,
  0.687500;1.000000;,
  0.812500;1.000000;,
  0.937500;1.000000;,
  0.000000;0.000000;,
  0.125000;0.000000;,
  0.125000;1.000000;,
  0.000000;1.000000;,
  0.250000;0.000000;,
  0.250000;1.000000;,
  0.375000;0.000000;,
  0.375000;1.000000;,
  0.500000;0.000000;,
  0.500000;1.000000;,
  0.625000;0.000000;,
  0.625000;1.000000;,
  0.750000;0.000000;,
  0.750000;1.000000;,
  0.875000;0.000000;,
  0.875000;1.000000;,
  1.000000;0.000000;,
  1.000000;1.000000;,
  0.062500;0.000000;,
  0.187500;0.000000;,
  0.312500;0.000000;,
  0.437500;0.000000;,
  0.562500;0.000000;,
  0.687500;0.000000;,
  0.812500;0.000000;,
  0.937500;0.000000;,
  0.062500;1.000000;,
  0.187500;1.000000;,
  0.312500;1.000000;,
  0.437500;1.000000;,
  0.562500;1.000000;,
  0.687500;1.000000;,
  0.812500;1.000000;,
  0.937500;1.000000;,
  0.000000;0.000000;,
  0.125000;0.000000;,
  0.125000;1.000000;,
  0.000000;1.000000;,
  0.250000;0.000000;,
  0.250000;1.000000;,
  0.375000;0.000000;,
  0.375000;1.000000;,
  0.500000;0.000000;,
  0.500000;1.000000;,
  0.625000;0.000000;,
  0.625000;1.000000;,
  0.750000;0.000000;,
  0.750000;1.000000;,
  0.875000;0.000000;,
  0.875000;1.000000;,
  1.000000;0.000000;,
  1.000000;1.000000;,
  0.062500;0.000000;,
  0.187500;0.000000;,
  0.312500;0.000000;,
  0.437500;0.000000;,
  0.562500;0.000000;,
  0.687500;0.000000;,
  0.812500;0.000000;,
  0.937500;0.000000;,
  0.062500;1.000000;,
  0.187500;1.000000;,
  0.312500;1.000000;,
  0.437500;1.000000;,
  0.562500;1.000000;,
  0.687500;1.000000;,
  0.812500;1.000000;,
  0.937500;1.000000;,
  0.000000;0.000000;,
  0.125000;0.000000;,
  0.125000;1.000000;,
  0.000000;1.000000;,
  0.250000;0.000000;,
  0.250000;1.000000;,
  0.375000;0.000000;,
  0.375000;1.000000;,
  0.500000;0.000000;,
  0.500000;1.000000;,
  0.625000;0.000000;,
  0.625000;1.000000;,
  0.750000;0.000000;,
  0.750000;1.000000;,
  0.875000;0.000000;,
  0.875000;1.000000;,
  1.000000;0.000000;,
  1.000000;1.000000;,
  0.062500;0.000000;,
  0.187500;0.000000;,
  0.312500;0.000000;,
  0.437500;0.000000;,
  0.562500;0.000000;,
  0.687500;0.000000;,
  0.812500;0.000000;,
  0.937500;0.000000;,
  0.062500;1.000000;,
  0.187500;1.000000;,
  0.312500;1.000000;,
  0.437500;1.000000;,
  0.562500;1.000000;,
  0.687500;1.000000;,
  0.812500;1.000000;,
  0.937500;1.000000;,
  0.000000;0.000000;,
  0.125000;0.000000;,
  0.125000;1.000000;,
  0.000000;1.000000;,
  0.250000;0.000000;,
  0.250000;1.000000;,
  0.375000;0.000000;,
  0.375000;1.000000;,
  0.500000;0.000000;,
  0.500000;1.000000;,
  0.625000;0.000000;,
  0.625000;1.000000;,
  0.750000;0.000000;,
  0.750000;1.000000;,
  0.875000;0.000000;,
  0.875000;1.000000;,
  1.000000;0.000000;,
  1.000000;1.000000;,
  0.062500;0.000000;,
  0.187500;0.000000;,
  0.312500;0.000000;,
  0.437500;0.000000;,
  0.562500;0.000000;,
  0.687500;0.000000;,
  0.812500;0.000000;,
  0.937500;0.000000;,
  0.062500;1.000000;,
  0.187500;1.000000;,
  0.312500;1.000000;,
  0.437500;1.000000;,
  0.562500;1.000000;,
  0.687500;1.000000;,
  0.812500;1.000000;,
  0.937500;1.000000;,
  0.000000;0.000000;,
  0.125000;0.000000;,
  0.125000;1.000000;,
  0.000000;1.000000;,
  0.250000;0.000000;,
  0.250000;1.000000;,
  0.375000;0.000000;,
  0.375000;1.000000;,
  0.500000;0.000000;,
  0.500000;1.000000;,
  0.625000;0.000000;,
  0.625000;1.000000;,
  0.750000;0.000000;,
  0.750000;1.000000;,
  0.875000;0.000000;,
  0.875000;1.000000;,
  1.000000;0.000000;,
  1.000000;1.000000;,
  0.062500;0.000000;,
  0.187500;0.000000;,
  0.312500;0.000000;,
  0.437500;0.000000;,
  0.562500;0.000000;,
  0.687500;0.000000;,
  0.812500;0.000000;,
  0.937500;0.000000;,
  0.062500;1.000000;,
  0.187500;1.000000;,
  0.312500;1.000000;,
  0.437500;1.000000;,
  0.562500;1.000000;,
  0.687500;1.000000;,
  0.812500;1.000000;,
  0.937500;1.000000;;
 }
}
