xof 0302txt 0064
template Header {
 <3D82AB43-62DA-11cf-AB39-0020AF71E433>
 WORD major;
 WORD minor;
 DWORD flags;
}

template Vector {
 <3D82AB5E-62DA-11cf-AB39-0020AF71E433>
 FLOAT x;
 FLOAT y;
 FLOAT z;
}

template Coords2d {
 <F6F23F44-7686-11cf-8F52-0040333594A3>
 FLOAT u;
 FLOAT v;
}

template Matrix4x4 {
 <F6F23F45-7686-11cf-8F52-0040333594A3>
 array FLOAT matrix[16];
}

template ColorRGBA {
 <35FF44E0-6C7C-11cf-8F52-0040333594A3>
 FLOAT red;
 FLOAT green;
 FLOAT blue;
 FLOAT alpha;
}

template ColorRGB {
 <D3E16E81-7835-11cf-8F52-0040333594A3>
 FLOAT red;
 FLOAT green;
 FLOAT blue;
}

template IndexedColor {
 <1630B820-7842-11cf-8F52-0040333594A3>
 DWORD index;
 ColorRGBA indexColor;
}

template Boolean {
 <4885AE61-78E8-11cf-8F52-0040333594A3>
 WORD truefalse;
}

template Boolean2d {
 <4885AE63-78E8-11cf-8F52-0040333594A3>
 Boolean u;
 Boolean v;
}

template MaterialWrap {
 <4885AE60-78E8-11cf-8F52-0040333594A3>
 Boolean u;
 Boolean v;
}

template TextureFilename {
 <A42790E1-7810-11cf-8F52-0040333594A3>
 STRING filename;
}

template Material {
 <3D82AB4D-62DA-11cf-AB39-0020AF71E433>
 ColorRGBA faceColor;
 FLOAT power;
 ColorRGB specularColor;
 ColorRGB emissiveColor;
 [...]
}

template MeshFace {
 <3D82AB5F-62DA-11cf-AB39-0020AF71E433>
 DWORD nFaceVertexIndices;
 array DWORD faceVertexIndices[nFaceVertexIndices];
}

template MeshFaceWraps {
 <4885AE62-78E8-11cf-8F52-0040333594A3>
 DWORD nFaceWrapValues;
 Boolean2d faceWrapValues;
}

template MeshTextureCoords {
 <F6F23F40-7686-11cf-8F52-0040333594A3>
 DWORD nTextureCoords;
 array Coords2d textureCoords[nTextureCoords];
}

template MeshMaterialList {
 <F6F23F42-7686-11cf-8F52-0040333594A3>
 DWORD nMaterials;
 DWORD nFaceIndexes;
 array DWORD faceIndexes[nFaceIndexes];
 [Material]
}

template MeshNormals {
 <F6F23F43-7686-11cf-8F52-0040333594A3>
 DWORD nNormals;
 array Vector normals[nNormals];
 DWORD nFaceNormals;
 array MeshFace faceNormals[nFaceNormals];
}

template MeshVertexColors {
 <1630B821-7842-11cf-8F52-0040333594A3>
 DWORD nVertexColors;
 array IndexedColor vertexColors[nVertexColors];
}

template Mesh {
 <3D82AB44-62DA-11cf-AB39-0020AF71E433>
 DWORD nVertices;
 array Vector vertices[nVertices];
 DWORD nFaces;
 array MeshFace faces[nFaces];
 [...]
}

Header{
1;
0;
1;
}

Mesh {
 597;
 33.55267;8.49623;0.81473;,
 33.29989;5.51722;-5.29466;,
 32.71307;8.30030;-1.72030;,
 32.54083;9.08008;0.78825;,
 33.18337;5.37890;-7.28698;,
 31.64572;6.15166;-8.11246;,
 33.18269;5.10082;-7.69480;,
 31.64994;5.17859;-8.27338;,
 33.22104;4.16010;-7.51871;,
 31.64572;3.59244;-8.11246;,
 32.89028;3.49711;-4.35618;,
 29.84912;1.60039;-5.59905;,
 33.45545;0.55507;0.81220;,
 33.16923;-0.01114;0.80471;,
 32.62058;3.49711;5.94391;,
 29.51852;1.60039;7.02594;,
 32.78532;4.16010;9.11938;,
 31.18114;3.59244;9.62992;,
 32.73789;5.10082;9.29324;,
 31.17692;5.17859;9.79083;,
 32.75982;5.37890;8.88603;,
 31.18114;6.15166;9.62992;,
 32.98051;5.51722;6.90252;,
 32.58158;8.30030;3.30236;,
 33.55267;8.49623;0.81473;,
 32.54083;9.08008;0.78825;,
 22.96875;9.08301;-1.97547;,
 22.90296;9.83798;0.53587;,
 23.13530;6.98018;-8.33532;,
 26.28632;5.22128;-34.95930;,
 23.13530;4.42096;-8.33532;,
 21.99194;0.60727;-4.33094;,
 21.86520;-0.01114;0.50870;,
 21.73849;0.60727;5.34833;,
 22.67069;4.42096;9.40705;,
 24.42402;5.22128;36.15946;,
 22.67069;6.98018;9.40705;,
 22.83723;9.08301;3.04721;,
 22.90296;9.83798;0.53587;,
 14.45832;9.67150;-2.19832;,
 14.39255;10.42646;0.31302;,
 14.62483;6.98019;-8.55817;,
 16.47145;5.22128;-35.16682;,
 14.62483;4.42096;-8.55817;,
 14.22950;0.60728;-6.67950;,
 14.04662;-0.01114;0.30395;,
 13.86375;0.60728;7.28742;,
 14.16024;4.42096;9.18420;,
 14.61171;5.22128;35.85302;,
 14.16024;6.98019;9.18420;,
 14.32680;9.67150;2.82435;,
 14.39255;10.42646;0.31302;,
 5.94785;9.67622;-2.42117;,
 5.88209;10.43118;0.09016;,
 6.11440;6.98019;-8.78103;,
 7.61046;5.22128;-16.24695;,
 6.11440;4.42096;-8.78103;,
 6.42006;1.12425;-7.23499;,
 6.22801;0.50583;0.09922;,
 6.03595;1.12425;7.43343;,
 5.64981;4.42096;8.96135;,
 6.75308;5.22128;16.49532;,
 5.64981;6.98019;8.96135;,
 5.81634;9.67622;2.60150;,
 5.88209;10.43118;0.09016;,
 0.82695;10.10441;-2.55527;,
 0.76118;10.85938;-0.04393;,
 0.99348;7.01965;-8.91512;,
 1.01110;5.89803;-9.58803;,
 0.99348;5.09771;-8.91512;,
 1.99128;1.12425;-7.36210;,
 1.79894;0.50583;-0.01676;,
 1.60660;1.12425;7.32858;,
 0.52888;5.09771;8.82726;,
 0.51126;5.89803;9.50017;,
 0.52888;7.01965;8.82726;,
 0.69542;10.10441;2.46740;,
 0.76118;10.85938;-0.04393;,
 -27.46296;8.28616;-4.70014;,
 -23.77809;11.53314;-0.68653;,
 -21.30181;8.61702;-6.01578;,
 -22.65558;8.18445;-8.84895;,
 -21.04972;6.15413;-8.93027;,
 -18.04710;1.12425;-7.22660;,
 -18.26282;0.50583;-0.54209;,
 -18.39722;1.12425;6.14455;,
 -21.48489;6.15413;7.68873;,
 -23.08431;8.18445;7.52348;,
 -21.58412;8.61702;4.76504;,
 -27.66798;8.28616;3.12876;,
 -23.77809;11.53314;-0.68653;,
 32.75542;4.60479;0.79386;,
 32.75542;4.60479;0.79386;,
 32.75542;4.60479;0.79386;,
 32.75542;4.60479;0.79386;,
 32.75542;4.60479;0.79386;,
 32.75542;4.60479;0.79386;,
 32.75542;4.60479;0.79386;,
 32.75542;4.60479;0.79386;,
 32.75542;4.60479;0.79386;,
 32.75542;4.60479;0.79386;,
 32.75542;4.60479;0.79386;,
 32.75542;4.60479;0.79386;,
 -16.42569;5.89803;-0.49398;,
 -16.42569;5.89803;-0.49398;,
 -16.42569;5.89803;-0.49398;,
 -16.42569;5.89803;-0.49398;,
 -16.42569;5.89803;-0.49398;,
 -16.42569;5.89803;-0.49398;,
 -16.42569;5.89803;-0.49398;,
 -16.42569;5.89803;-0.49398;,
 -16.42569;5.89803;-0.49398;,
 -16.42569;5.89803;-0.49398;,
 -16.42569;5.89803;-0.49398;,
 -16.42569;5.89803;-0.49398;,
 -23.80994;11.47751;-0.68736;,
 -25.30305;10.04495;-2.68484;,
 -32.20401;9.02138;-3.10623;,
 -32.26160;10.22666;-0.90865;,
 -27.00123;8.47860;-4.62543;,
 -32.17278;6.66419;-4.29836;,
 -15.24215;8.60545;-4.21468;,
 -32.15905;4.79992;-4.82276;,
 -17.53416;2.98259;-3.91504;,
 -32.17278;2.98259;-4.29836;,
 -17.79920;1.12425;-2.29359;,
 -31.99304;1.12425;-2.66528;,
 -17.84537;0.50583;-0.53116;,
 -32.03923;0.50583;-0.90284;,
 -17.89150;1.12425;1.23128;,
 -32.08536;1.12425;0.85961;,
 -17.71172;2.98259;2.86436;,
 -32.35033;2.98259;2.48104;,
 -15.43849;8.60545;3.28356;,
 -32.36404;4.79992;3.00542;,
 -27.20295;8.47860;3.07830;,
 -32.35033;6.66419;2.48104;,
 -25.40557;10.04495;1.22927;,
 -32.31907;9.02138;1.28890;,
 -23.80994;11.47751;-0.68736;,
 -32.26160;10.22666;-0.90865;,
 -38.67881;6.62064;-2.11844;,
 -38.70611;7.11196;-1.07741;,
 -37.64828;5.99025;-3.02819;,
 -38.62065;4.69991;-4.33820;,
 -38.62614;3.27317;-4.13003;,
 -38.65996;1.12425;-2.83985;,
 -38.70611;0.50583;-1.07741;,
 -38.75226;1.12425;0.68502;,
 -38.78602;3.27317;1.97522;,
 -38.79148;4.69991;2.18340;,
 -37.75186;5.99025;0.92606;,
 -38.73343;6.62064;-0.03640;,
 -38.70611;7.11196;-1.07741;,
 -47.82260;4.60480;-1.31616;,
 -47.82260;4.60480;-1.31616;,
 -47.82260;4.60480;-1.31616;,
 -47.82260;4.60480;-1.31616;,
 -47.82260;4.60480;-1.31616;,
 -47.82260;4.60480;-1.31616;,
 -47.82260;4.60480;-1.31616;,
 -47.82260;4.60480;-1.31616;,
 -47.82260;4.60480;-1.31616;,
 -47.82260;4.60480;-1.31616;,
 -47.82260;4.60480;-1.31616;,
 -47.82260;4.60480;-1.31616;,
 36.65911;7.02949;0.89608;,
 36.41366;6.70773;-0.31155;,
 35.47283;6.70773;-0.33622;,
 35.44140;7.02949;0.86419;,
 36.70694;5.82868;-1.18326;,
 35.49585;5.82868;-1.21497;,
 36.34475;4.62787;-1.51460;,
 35.50424;4.62787;-1.53660;,
 36.60376;3.42706;-1.18593;,
 35.49585;3.42706;-1.21497;,
 36.28135;2.54800;-0.31504;,
 35.47283;2.54800;-0.33622;,
 36.54933;2.22624;0.89323;,
 35.44140;2.22624;0.86419;,
 36.21847;2.54800;2.08578;,
 35.40995;2.54800;2.06460;,
 36.49489;3.42706;2.97237;,
 35.38692;3.42706;2.94336;,
 36.21900;4.62787;3.28700;,
 35.37856;4.62787;3.26499;,
 36.59807;5.82868;2.97508;,
 35.38692;5.82868;2.94336;,
 36.35082;6.70773;2.08925;,
 35.40995;6.70773;2.06460;,
 36.65911;7.02949;0.89608;,
 35.44140;7.02949;0.86419;,
 31.97002;8.33723;-1.36905;,
 31.91392;8.91107;0.77182;,
 32.01108;6.76947;-2.93628;,
 32.02607;4.62787;-3.50993;,
 32.01108;2.48626;-2.93628;,
 31.97002;0.91849;-1.36905;,
 31.91392;0.34466;0.77182;,
 31.85788;0.91849;2.91270;,
 31.81682;2.48626;4.47994;,
 31.80178;4.62787;5.05357;,
 31.81682;6.76947;4.47994;,
 31.85788;8.33723;2.91270;,
 31.91392;8.91107;0.77182;,
 33.10100;4.62787;0.80291;,
 33.10100;4.62787;0.80291;,
 33.10100;4.62787;0.80291;,
 33.10100;4.62787;0.80291;,
 33.10100;4.62787;0.80291;,
 33.10100;4.62787;0.80291;,
 33.10100;4.62787;0.80291;,
 33.10100;4.62787;0.80291;,
 33.10100;4.62787;0.80291;,
 33.10100;4.62787;0.80291;,
 33.10100;4.62787;0.80291;,
 33.10100;4.62787;0.80291;,
 26.85670;4.62787;0.63940;,
 26.85670;4.62787;0.63940;,
 26.85670;4.62787;0.63940;,
 26.85670;4.62787;0.63940;,
 26.85670;4.62787;0.63940;,
 26.85670;4.62787;0.63940;,
 26.85670;4.62787;0.63940;,
 26.85670;4.62787;0.63940;,
 26.85670;4.62787;0.63940;,
 26.85670;4.62787;0.63940;,
 26.85670;4.62787;0.63940;,
 26.85670;4.62787;0.63940;,
 33.14326;4.86270;-3.84230;,
 33.24110;4.86270;-7.57908;,
 33.24110;4.72028;-7.57908;,
 33.14326;4.72028;-3.84230;,
 40.54276;4.68046;-15.42958;,
 40.54276;4.53833;-15.42958;,
 42.31286;4.68046;-18.19726;,
 42.31286;4.53833;-18.19726;,
 33.24110;4.22930;-7.57908;,
 33.14326;4.22930;-3.84230;,
 40.54276;4.41125;-15.42958;,
 42.31286;4.41125;-18.19726;,
 33.24110;4.18924;-7.57908;,
 33.14326;4.18924;-3.84230;,
 40.54276;4.37149;-15.42958;,
 42.31286;4.37149;-18.19726;,
 42.31286;4.68046;-18.19726;,
 43.42856;4.68046;-18.16806;,
 43.42856;4.53833;-18.16806;,
 42.31286;4.53833;-18.19726;,
 43.99672;4.68046;-18.15317;,
 43.99672;4.53833;-18.15317;,
 45.29390;4.68046;-18.11920;,
 45.29390;4.53833;-18.11920;,
 43.42856;4.41125;-18.16806;,
 42.31286;4.41125;-18.19726;,
 43.99672;4.41125;-18.15317;,
 45.29390;4.41125;-18.11920;,
 43.42856;4.37149;-18.16806;,
 42.31286;4.37149;-18.19726;,
 43.99672;4.37149;-18.15317;,
 45.29390;4.37149;-18.11920;,
 45.29390;4.68046;-18.11920;,
 45.99219;4.68046;-15.28687;,
 45.99219;4.53833;-15.28687;,
 45.29390;4.53833;-18.11920;,
 47.32470;4.64005;-9.01252;,
 47.32470;4.55922;-9.01252;,
 47.94420;4.64005;-3.45470;,
 47.94420;4.55922;-3.45470;,
 45.99219;4.41125;-15.28687;,
 45.29390;4.41125;-18.11920;,
 47.32470;4.39036;-9.01252;,
 47.94420;4.39036;-3.45470;,
 45.99219;4.37149;-15.28687;,
 45.29390;4.37149;-18.11920;,
 47.32470;4.30026;-9.01252;,
 47.94420;4.30026;-3.45470;,
 47.94420;4.64005;-3.45470;,
 40.61680;4.86270;-3.64661;,
 40.61680;4.55922;-3.64661;,
 47.94420;4.55922;-3.45470;,
 36.88001;4.86270;-3.74446;,
 36.88001;4.72028;-3.74446;,
 33.14326;4.86270;-3.84230;,
 33.14326;4.72028;-3.84230;,
 40.61680;4.39036;-3.64661;,
 47.94420;4.39036;-3.45470;,
 36.88001;4.22930;-3.74446;,
 33.14326;4.22930;-3.84230;,
 40.61680;4.18924;-3.64661;,
 47.94420;4.30026;-3.45470;,
 36.88001;4.18924;-3.74446;,
 33.14326;4.18924;-3.84230;,
 47.32470;4.64005;-9.01252;,
 44.05819;4.86270;-9.09804;,
 40.61680;4.86270;-3.64661;,
 45.99219;4.68046;-15.28687;,
 43.62526;4.68046;-15.34884;,
 43.99672;4.68046;-18.15317;,
 36.99125;4.86270;-7.61517;,
 36.88001;4.86270;-3.74446;,
 40.81310;4.68046;-15.42249;,
 43.42856;4.68046;-18.16806;,
 33.24110;4.86270;-7.57908;,
 33.14326;4.86270;-3.84230;,
 40.54276;4.68046;-15.42958;,
 42.31286;4.68046;-18.19726;,
 40.61680;4.18924;-3.64661;,
 44.05819;4.18924;-9.09804;,
 47.32470;4.30026;-9.01252;,
 43.62526;4.37149;-15.34884;,
 45.99219;4.37149;-15.28687;,
 43.99672;4.37149;-18.15317;,
 36.88001;4.18924;-3.74446;,
 36.99125;4.18924;-7.61517;,
 40.81310;4.37149;-15.42249;,
 43.42856;4.37149;-18.16806;,
 33.14326;4.18924;-3.84230;,
 33.24110;4.18924;-7.57908;,
 40.54276;4.37149;-15.42958;,
 42.31286;4.37149;-18.19726;,
 32.90286;4.18924;5.33773;,
 32.80503;4.18924;9.07450;,
 32.80503;4.33166;9.07450;,
 32.90286;4.33166;5.33773;,
 39.68582;4.37149;17.29640;,
 39.68582;4.51361;17.29640;,
 41.30861;4.37149;20.15291;,
 41.30861;4.51361;20.15291;,
 32.80503;4.82264;9.07450;,
 32.90286;4.82264;5.33773;,
 39.68582;4.64069;17.29640;,
 41.30861;4.64069;20.15291;,
 32.80503;4.86270;9.07450;,
 32.90286;4.86270;5.33773;,
 39.68582;4.68046;17.29640;,
 41.30861;4.68046;20.15291;,
 41.30861;4.37149;20.15291;,
 42.42434;4.37149;20.18214;,
 42.42434;4.51361;20.18214;,
 41.30861;4.51361;20.15291;,
 42.99248;4.37149;20.19699;,
 42.99248;4.51361;20.19699;,
 44.28968;4.37149;20.23099;,
 44.28968;4.51361;20.23099;,
 42.42434;4.64069;20.18214;,
 41.30861;4.64069;20.15291;,
 42.99248;4.64069;20.19699;,
 44.28968;4.64069;20.23099;,
 42.42434;4.68046;20.18214;,
 41.30861;4.68046;20.15291;,
 42.99248;4.68046;20.19699;,
 44.28968;4.68046;20.23099;,
 44.28968;4.37149;20.23099;,
 45.13522;4.37149;17.43909;,
 45.13522;4.51361;17.43909;,
 44.28968;4.51361;20.23099;,
 46.79432;4.41188;11.24307;,
 46.79432;4.49272;11.24307;,
 47.70383;4.41188;5.72530;,
 47.70383;4.49272;5.72530;,
 45.13522;4.64069;17.43909;,
 44.28968;4.64069;20.23099;,
 46.79432;4.66158;11.24307;,
 47.70383;4.66158;5.72530;,
 45.13522;4.68046;17.43909;,
 44.28968;4.68046;20.23099;,
 46.79432;4.75167;11.24307;,
 47.70383;4.75167;5.72530;,
 47.70383;4.41188;5.72530;,
 40.37644;4.18924;5.53341;,
 40.37644;4.49272;5.53341;,
 47.70383;4.49272;5.72530;,
 36.63962;4.18924;5.43557;,
 36.63962;4.33166;5.43557;,
 32.90286;4.18924;5.33773;,
 32.90286;4.33166;5.33773;,
 40.37644;4.66158;5.53341;,
 47.70383;4.66158;5.72530;,
 36.63962;4.82264;5.43557;,
 32.90286;4.82264;5.33773;,
 40.37644;4.86270;5.53341;,
 47.70383;4.75167;5.72530;,
 36.63962;4.86270;5.43557;,
 32.90286;4.86270;5.33773;,
 46.79432;4.41188;11.24307;,
 43.52779;4.18924;11.15751;,
 40.37644;4.18924;5.53341;,
 45.13522;4.37149;17.43909;,
 42.76824;4.37149;17.37710;,
 42.99248;4.37149;20.19699;,
 36.64065;4.18924;9.38535;,
 36.63962;4.18924;5.43557;,
 39.95614;4.37149;17.30346;,
 42.42434;4.37149;20.18214;,
 32.80503;4.18924;9.07450;,
 32.90286;4.18924;5.33773;,
 39.68582;4.37149;17.29640;,
 41.30861;4.37149;20.15291;,
 40.37644;4.86270;5.53341;,
 43.52779;4.86270;11.15751;,
 46.79432;4.75167;11.24307;,
 42.76824;4.68046;17.37710;,
 45.13522;4.68046;17.43909;,
 42.99248;4.68046;20.19699;,
 36.63962;4.86270;5.43557;,
 36.64065;4.86270;9.38535;,
 39.95614;4.68046;17.30346;,
 42.42434;4.68046;20.18214;,
 32.90286;4.86270;5.33773;,
 32.80503;4.86270;9.07450;,
 39.68582;4.68046;17.29640;,
 41.30861;4.68046;20.15291;,
 23.25782;6.69941;-6.50945;,
 26.33646;10.08724;-8.00913;,
 26.33983;10.02704;-8.13816;,
 23.26122;6.63923;-6.63847;,
 31.74208;17.29597;-11.43140;,
 31.74542;17.23590;-11.56017;,
 33.52771;19.84548;-12.57390;,
 33.53108;19.78541;-12.70265;,
 26.35146;9.81955;-8.58298;,
 23.27285;6.43173;-7.08330;,
 31.74850;17.18221;-11.67529;,
 33.53406;19.73169;-12.81780;,
 26.35243;9.80262;-8.61929;,
 23.27380;6.41480;-7.11959;,
 31.74941;17.16539;-11.71131;,
 33.53501;19.71489;-12.85383;,
 33.52771;19.84548;-12.57390;,
 34.41103;19.84548;-12.55077;,
 34.41439;19.78541;-12.67952;,
 33.53108;19.78541;-12.70265;,
 37.39493;19.84548;-12.47262;,
 37.39832;19.78541;-12.60141;,
 40.11946;19.84548;-12.40129;,
 40.12285;19.78541;-12.53004;,
 34.41745;19.73169;-12.79465;,
 33.53406;19.73169;-12.81780;,
 37.40127;19.73169;-12.71653;,
 40.12586;19.73169;-12.64517;,
 34.41839;19.71489;-12.83067;,
 33.53501;19.71489;-12.85383;,
 37.40226;19.71489;-12.75257;,
 40.12680;19.71489;-12.68119;,
 40.11946;19.84548;-12.40129;,
 39.16484;17.29597;-11.23704;,
 39.16820;17.23590;-11.36578;,
 40.12285;19.78541;-12.53004;,
 37.26685;11.62596;-8.68641;,
 37.26877;11.59180;-8.75968;,
 35.59565;6.60532;-6.38822;,
 35.59758;6.57116;-6.46147;,
 39.17125;17.18221;-11.48092;,
 40.12586;19.73169;-12.64517;,
 37.27271;11.52043;-8.91265;,
 35.60155;6.49979;-6.61442;,
 39.17221;17.16539;-11.51694;,
 40.12680;19.71489;-12.68119;,
 37.27494;11.48236;-8.99427;,
 35.60373;6.46172;-6.69607;,
 35.59565;6.60532;-6.38822;,
 32.62873;6.69941;-6.26405;,
 32.63595;6.57116;-6.53903;,
 35.59758;6.57116;-6.46147;,
 28.89194;6.69941;-6.36191;,
 28.89530;6.63923;-6.49094;,
 23.25782;6.69941;-6.50945;,
 23.26122;6.63923;-6.63847;,
 32.63993;6.49979;-6.69201;,
 35.60155;6.49979;-6.61442;,
 28.90692;6.43173;-6.93577;,
 23.27285;6.43173;-7.08330;,
 32.64469;6.41480;-6.87421;,
 35.60373;6.46172;-6.69607;,
 28.90790;6.41480;-6.97206;,
 23.27380;6.41480;-7.11959;,
 37.26685;11.62596;-8.68641;,
 34.64567;11.72005;-8.55322;,
 32.62873;6.69941;-6.26405;,
 39.16484;17.29597;-11.23704;,
 36.46415;17.29597;-11.30773;,
 37.39493;19.84548;-12.47262;,
 30.90888;11.72005;-8.65107;,
 28.89194;6.69941;-6.36191;,
 33.65205;17.29597;-11.38136;,
 34.41103;19.84548;-12.55077;,
 26.33646;10.08724;-8.00913;,
 23.25782;6.69941;-6.50945;,
 31.74208;17.29597;-11.43140;,
 33.52771;19.84548;-12.57390;,
 32.64469;6.41480;-6.87421;,
 34.66166;11.43544;-9.16337;,
 37.27494;11.48236;-8.99427;,
 36.47149;17.16539;-11.58767;,
 39.17221;17.16539;-11.51694;,
 37.40226;19.71489;-12.75257;,
 28.90790;6.41480;-6.97206;,
 30.92483;11.43544;-9.26121;,
 33.65942;17.16539;-11.66131;,
 34.41839;19.71489;-12.83067;,
 23.27380;6.41480;-7.11959;,
 26.35243;9.80262;-8.61929;,
 31.74941;17.16539;-11.71131;,
 33.53501;19.71489;-12.85383;,
 21.72466;5.61230;7.44558;,
 24.72061;9.00013;9.10435;,
 24.72396;9.06031;8.97530;,
 21.72801;5.67249;7.31654;,
 29.94834;16.36290;12.47460;,
 29.95170;16.42297;12.34583;,
 31.67176;18.91240;13.70898;,
 31.67509;18.97246;13.58020;,
 24.73560;9.26781;8.53048;,
 21.73967;5.87999;6.87172;,
 29.95474;16.47667;12.23069;,
 31.67809;19.02617;13.46504;,
 24.73655;9.28474;8.49419;,
 21.74064;5.89692;6.83543;,
 29.95563;16.49347;12.19466;,
 31.67904;19.04297;13.42904;,
 31.67176;18.91240;13.70898;,
 32.55505;18.91240;13.73211;,
 32.55842;18.97246;13.60334;,
 31.67509;18.97246;13.58020;,
 35.53888;18.91240;13.81024;,
 35.54231;18.97246;13.68148;,
 38.26343;18.91240;13.88157;,
 38.26688;18.97246;13.75280;,
 32.56145;19.02617;13.48819;,
 31.67809;19.02617;13.46504;,
 35.54531;19.02617;13.56635;,
 38.26986;19.02617;13.63767;,
 32.56236;19.04297;13.45217;,
 31.67904;19.04297;13.42904;,
 35.54627;19.04297;13.53031;,
 38.27082;19.04297;13.60165;,
 38.26343;18.91240;13.88157;,
 37.37113;16.36290;12.66896;,
 37.37449;16.42297;12.54019;,
 38.26688;18.97246;13.75280;,
 35.61107;10.72703;9.94934;,
 35.61299;10.76120;9.87606;,
 34.06245;5.70639;7.56680;,
 34.06439;5.74056;7.49356;,
 37.37745;16.47667;12.42505;,
 38.26986;19.02617;13.63767;,
 35.61703;10.83256;9.72308;,
 34.06838;5.81192;7.34059;,
 37.37844;16.49347;12.38905;,
 38.27082;19.04297;13.60165;,
 35.61915;10.87064;9.64148;,
 34.07051;5.85000;7.25896;,
 34.06245;5.70639;7.56680;,
 31.09552;5.61230;7.69094;,
 31.10272;5.74056;7.41602;,
 34.06439;5.74056;7.49356;,
 27.35873;5.61230;7.59311;,
 27.36214;5.67249;7.46408;,
 21.72466;5.61230;7.44558;,
 21.72801;5.67249;7.31654;,
 31.10674;5.81192;7.26301;,
 34.06838;5.81192;7.34059;,
 27.37377;5.87999;7.01927;,
 21.73967;5.87999;6.87172;,
 31.11149;5.89692;7.08082;,
 34.07051;5.85000;7.25896;,
 27.37477;5.89692;6.98297;,
 21.74064;5.89692;6.83543;,
 35.61107;10.72703;9.94934;,
 32.98985;10.63294;10.08253;,
 31.09552;5.61230;7.69094;,
 37.37113;16.36290;12.66896;,
 34.67040;16.36290;12.59823;,
 35.53888;18.91240;13.81024;,
 29.25313;10.63294;9.98467;,
 27.35873;5.61230;7.59311;,
 31.85829;16.36290;12.52462;,
 32.55505;18.91240;13.73211;,
 24.72061;9.00013;9.10435;,
 21.72466;5.61230;7.44558;,
 29.94834;16.36290;12.47460;,
 31.67176;18.91240;13.70898;,
 31.11149;5.89692;7.08082;,
 33.00584;10.91756;9.47237;,
 35.61915;10.87064;9.64148;,
 34.67774;16.49347;12.31828;,
 37.37844;16.49347;12.38905;,
 35.54627;19.04297;13.53031;,
 27.37477;5.89692;6.98297;,
 29.26913;10.91756;9.37454;,
 31.86560;16.49347;12.24466;,
 32.56236;19.04297;13.45217;,
 21.74064;5.89692;6.83543;,
 24.73655;9.28474;8.49419;,
 29.95563;16.49347;12.19466;,
 31.67904;19.04297;13.42904;;
 
 396;
 4;0,1,2,3;,
 4;1,4,5,2;,
 4;4,6,7,5;,
 4;6,8,9,7;,
 4;8,10,11,9;,
 4;10,12,13,11;,
 4;12,14,15,13;,
 4;14,16,17,15;,
 4;16,18,19,17;,
 4;18,20,21,19;,
 4;20,22,23,21;,
 4;22,24,25,23;,
 4;3,2,26,27;,
 4;2,5,28,26;,
 4;5,7,29,28;,
 4;7,9,30,29;,
 4;9,11,31,30;,
 4;11,13,32,31;,
 4;13,15,33,32;,
 4;15,17,34,33;,
 4;17,19,35,34;,
 4;19,21,36,35;,
 4;21,23,37,36;,
 4;23,25,38,37;,
 4;27,26,39,40;,
 4;26,28,41,39;,
 4;28,29,42,41;,
 4;29,30,43,42;,
 4;30,31,44,43;,
 4;31,32,45,44;,
 4;32,33,46,45;,
 4;33,34,47,46;,
 4;34,35,48,47;,
 4;35,36,49,48;,
 4;36,37,50,49;,
 4;37,38,51,50;,
 4;40,39,52,53;,
 4;39,41,54,52;,
 4;41,42,55,54;,
 4;42,43,56,55;,
 4;43,44,57,56;,
 4;44,45,58,57;,
 4;45,46,59,58;,
 4;46,47,60,59;,
 4;47,48,61,60;,
 4;48,49,62,61;,
 4;49,50,63,62;,
 4;50,51,64,63;,
 4;53,52,65,66;,
 4;52,54,67,65;,
 4;54,55,68,67;,
 4;55,56,69,68;,
 4;56,57,70,69;,
 4;57,58,71,70;,
 4;58,59,72,71;,
 4;59,60,73,72;,
 4;60,61,74,73;,
 4;61,62,75,74;,
 4;62,63,76,75;,
 4;63,64,77,76;,
 4;66,65,78,79;,
 4;65,67,80,78;,
 4;67,68,81,80;,
 4;68,69,82,81;,
 4;69,70,83,82;,
 4;70,71,84,83;,
 4;71,72,85,84;,
 4;72,73,86,85;,
 4;73,74,87,86;,
 4;74,75,88,87;,
 4;75,76,89,88;,
 4;76,77,90,89;,
 3;91,1,0;,
 3;92,4,1;,
 3;93,6,4;,
 3;94,8,6;,
 3;95,10,8;,
 3;96,12,10;,
 3;97,14,12;,
 3;98,16,14;,
 3;99,18,16;,
 3;100,20,18;,
 3;101,22,20;,
 3;102,24,22;,
 3;103,79,78;,
 3;104,78,80;,
 3;105,80,81;,
 3;106,81,82;,
 3;107,82,83;,
 3;108,83,84;,
 3;109,84,85;,
 3;110,85,86;,
 3;111,86,87;,
 3;112,87,88;,
 3;113,88,89;,
 3;114,89,90;,
 4;115,116,117,118;,
 4;116,119,120,117;,
 4;119,121,122,120;,
 4;121,123,124,122;,
 4;123,125,126,124;,
 4;125,127,128,126;,
 4;127,129,130,128;,
 4;129,131,132,130;,
 4;131,133,134,132;,
 4;133,135,136,134;,
 4;135,137,138,136;,
 4;137,139,140,138;,
 4;118,117,141,142;,
 4;117,120,143,141;,
 4;120,122,144,143;,
 4;122,124,145,144;,
 4;124,126,146,145;,
 4;126,128,147,146;,
 4;128,130,148,147;,
 4;130,132,149,148;,
 4;132,134,150,149;,
 4;134,136,151,150;,
 4;136,138,152,151;,
 4;138,140,153,152;,
 3;154,142,141;,
 3;155,141,143;,
 3;156,143,144;,
 3;157,144,145;,
 3;158,145,146;,
 3;159,146,147;,
 3;160,147,148;,
 3;161,148,149;,
 3;162,149,150;,
 3;163,150,151;,
 3;164,151,152;,
 3;165,152,153;,
 4;166,167,168,169;,
 4;167,170,171,168;,
 4;170,172,173,171;,
 4;172,174,175,173;,
 4;174,176,177,175;,
 4;176,178,179,177;,
 4;178,180,181,179;,
 4;180,182,183,181;,
 4;182,184,185,183;,
 4;184,186,187,185;,
 4;186,188,189,187;,
 4;188,190,191,189;,
 4;169,168,192,193;,
 4;168,171,194,192;,
 4;171,173,195,194;,
 4;173,175,196,195;,
 4;175,177,197,196;,
 4;177,179,198,197;,
 4;179,181,199,198;,
 4;181,183,200,199;,
 4;183,185,201,200;,
 4;185,187,202,201;,
 4;187,189,203,202;,
 4;189,191,204,203;,
 3;205,167,166;,
 3;206,170,167;,
 3;207,172,170;,
 3;208,174,172;,
 3;209,176,174;,
 3;210,178,176;,
 3;211,180,178;,
 3;212,182,180;,
 3;213,184,182;,
 3;214,186,184;,
 3;215,188,186;,
 3;216,190,188;,
 3;217,193,192;,
 3;218,192,194;,
 3;219,194,195;,
 3;220,195,196;,
 3;221,196,197;,
 3;222,197,198;,
 3;223,198,199;,
 3;224,199,200;,
 3;225,200,201;,
 3;226,201,202;,
 3;227,202,203;,
 3;228,203,204;,
 4;229,230,231,232;,
 4;230,233,234,231;,
 4;233,235,236,234;,
 4;232,231,237,238;,
 4;231,234,239,237;,
 4;234,236,240,239;,
 4;238,237,241,242;,
 4;237,239,243,241;,
 4;239,240,244,243;,
 4;245,246,247,248;,
 4;246,249,250,247;,
 4;249,251,252,250;,
 4;248,247,253,254;,
 4;247,250,255,253;,
 4;250,252,256,255;,
 4;254,253,257,258;,
 4;253,255,259,257;,
 4;255,256,260,259;,
 4;261,262,263,264;,
 4;262,265,266,263;,
 4;265,267,268,266;,
 4;264,263,269,270;,
 4;263,266,271,269;,
 4;266,268,272,271;,
 4;270,269,273,274;,
 4;269,271,275,273;,
 4;271,272,276,275;,
 4;277,278,279,280;,
 4;278,281,282,279;,
 4;281,283,284,282;,
 4;280,279,285,286;,
 4;279,282,287,285;,
 4;282,284,288,287;,
 4;286,285,289,290;,
 4;285,287,291,289;,
 4;287,288,292,291;,
 4;277,293,294,295;,
 4;293,296,297,294;,
 4;296,251,298,297;,
 4;295,294,299,300;,
 4;294,297,301,299;,
 4;297,298,302,301;,
 4;300,299,303,304;,
 4;299,301,305,303;,
 4;301,302,306,305;,
 4;307,308,309,290;,
 4;308,310,311,309;,
 4;310,312,260,311;,
 4;313,314,308,307;,
 4;314,315,310,308;,
 4;315,316,312,310;,
 4;317,318,314,313;,
 4;318,319,315,314;,
 4;319,320,316,315;,
 4;321,322,323,324;,
 4;322,325,326,323;,
 4;325,327,328,326;,
 4;324,323,329,330;,
 4;323,326,331,329;,
 4;326,328,332,331;,
 4;330,329,333,334;,
 4;329,331,335,333;,
 4;331,332,336,335;,
 4;337,338,339,340;,
 4;338,341,342,339;,
 4;341,343,344,342;,
 4;340,339,345,346;,
 4;339,342,347,345;,
 4;342,344,348,347;,
 4;346,345,349,350;,
 4;345,347,351,349;,
 4;347,348,352,351;,
 4;353,354,355,356;,
 4;354,357,358,355;,
 4;357,359,360,358;,
 4;356,355,361,362;,
 4;355,358,363,361;,
 4;358,360,364,363;,
 4;362,361,365,366;,
 4;361,363,367,365;,
 4;363,364,368,367;,
 4;369,370,371,372;,
 4;370,373,374,371;,
 4;373,375,376,374;,
 4;372,371,377,378;,
 4;371,374,379,377;,
 4;374,376,380,379;,
 4;378,377,381,382;,
 4;377,379,383,381;,
 4;379,380,384,383;,
 4;369,385,386,387;,
 4;385,388,389,386;,
 4;388,343,390,389;,
 4;387,386,391,392;,
 4;386,389,393,391;,
 4;389,390,394,393;,
 4;392,391,395,396;,
 4;391,393,397,395;,
 4;393,394,398,397;,
 4;399,400,401,382;,
 4;400,402,403,401;,
 4;402,404,352,403;,
 4;405,406,400,399;,
 4;406,407,402,400;,
 4;407,408,404,402;,
 4;409,410,406,405;,
 4;410,411,407,406;,
 4;411,412,408,407;,
 4;413,414,415,416;,
 4;414,417,418,415;,
 4;417,419,420,418;,
 4;416,415,421,422;,
 4;415,418,423,421;,
 4;418,420,424,423;,
 4;422,421,425,426;,
 4;421,423,427,425;,
 4;423,424,428,427;,
 4;429,430,431,432;,
 4;430,433,434,431;,
 4;433,435,436,434;,
 4;432,431,437,438;,
 4;431,434,439,437;,
 4;434,436,440,439;,
 4;438,437,441,442;,
 4;437,439,443,441;,
 4;439,440,444,443;,
 4;445,446,447,448;,
 4;446,449,450,447;,
 4;449,451,452,450;,
 4;448,447,453,454;,
 4;447,450,455,453;,
 4;450,452,456,455;,
 4;454,453,457,458;,
 4;453,455,459,457;,
 4;455,456,460,459;,
 4;461,462,463,464;,
 4;462,465,466,463;,
 4;465,467,468,466;,
 4;464,463,469,470;,
 4;463,466,471,469;,
 4;466,468,472,471;,
 4;470,469,473,474;,
 4;469,471,475,473;,
 4;471,472,476,475;,
 4;461,477,478,479;,
 4;477,480,481,478;,
 4;480,435,482,481;,
 4;479,478,483,484;,
 4;478,481,485,483;,
 4;481,482,486,485;,
 4;484,483,487,488;,
 4;483,485,489,487;,
 4;485,486,490,489;,
 4;491,492,493,474;,
 4;492,494,495,493;,
 4;494,496,444,495;,
 4;497,498,492,491;,
 4;498,499,494,492;,
 4;499,500,496,494;,
 4;501,502,498,497;,
 4;502,503,499,498;,
 4;503,504,500,499;,
 4;505,506,507,508;,
 4;506,509,510,507;,
 4;509,511,512,510;,
 4;508,507,513,514;,
 4;507,510,515,513;,
 4;510,512,516,515;,
 4;514,513,517,518;,
 4;513,515,519,517;,
 4;515,516,520,519;,
 4;521,522,523,524;,
 4;522,525,526,523;,
 4;525,527,528,526;,
 4;524,523,529,530;,
 4;523,526,531,529;,
 4;526,528,532,531;,
 4;530,529,533,534;,
 4;529,531,535,533;,
 4;531,532,536,535;,
 4;537,538,539,540;,
 4;538,541,542,539;,
 4;541,543,544,542;,
 4;540,539,545,546;,
 4;539,542,547,545;,
 4;542,544,548,547;,
 4;546,545,549,550;,
 4;545,547,551,549;,
 4;547,548,552,551;,
 4;553,554,555,556;,
 4;554,557,558,555;,
 4;557,559,560,558;,
 4;556,555,561,562;,
 4;555,558,563,561;,
 4;558,560,564,563;,
 4;562,561,565,566;,
 4;561,563,567,565;,
 4;563,564,568,567;,
 4;553,569,570,571;,
 4;569,572,573,570;,
 4;572,527,574,573;,
 4;571,570,575,576;,
 4;570,573,577,575;,
 4;573,574,578,577;,
 4;576,575,579,580;,
 4;575,577,581,579;,
 4;577,578,582,581;,
 4;583,584,585,566;,
 4;584,586,587,585;,
 4;586,588,536,587;,
 4;589,590,584,583;,
 4;590,591,586,584;,
 4;591,592,588,586;,
 4;593,594,590,589;,
 4;594,595,591,590;,
 4;595,596,592,591;;
 
 MeshMaterialList {
  3;
  396;
  0,
  0,
  0,
  0,
  0,
  0,
  0,
  0,
  0,
  0,
  0,
  0,
  0,
  0,
  0,
  0,
  0,
  0,
  0,
  0,
  0,
  0,
  0,
  0,
  0,
  0,
  0,
  0,
  0,
  0,
  0,
  0,
  0,
  0,
  0,
  0,
  0,
  0,
  0,
  0,
  0,
  0,
  0,
  0,
  0,
  0,
  0,
  0,
  0,
  0,
  0,
  0,
  0,
  0,
  0,
  0,
  0,
  0,
  0,
  0,
  0,
  0,
  0,
  0,
  0,
  0,
  0,
  0,
  0,
  0,
  0,
  0,
  0,
  0,
  0,
  0,
  0,
  0,
  0,
  0,
  0,
  0,
  0,
  0,
  0,
  0,
  0,
  0,
  0,
  0,
  0,
  0,
  0,
  0,
  0,
  0,
  1,
  1,
  0,
  0,
  0,
  0,
  0,
  0,
  0,
  0,
  1,
  1,
  1,
  1,
  0,
  0,
  0,
  0,
  0,
  0,
  0,
  0,
  1,
  1,
  0,
  0,
  0,
  0,
  0,
  0,
  0,
  0,
  0,
  0,
  0,
  0,
  2,
  2,
  2,
  2,
  2,
  2,
  2,
  2,
  2,
  2,
  2,
  2,
  2,
  2,
  2,
  2,
  2,
  2,
  2,
  2,
  2,
  2,
  2,
  2,
  2,
  2,
  2,
  2,
  2,
  2,
  2,
  2,
  2,
  2,
  2,
  2,
  2,
  2,
  2,
  2,
  2,
  2,
  2,
  2,
  2,
  2,
  2,
  2,
  0,
  0,
  0,
  0,
  0,
  0,
  0,
  0,
  0,
  0,
  0,
  0,
  0,
  0,
  0,
  0,
  0,
  0,
  0,
  0,
  0,
  0,
  0,
  0,
  0,
  0,
  0,
  0,
  0,
  0,
  0,
  0,
  0,
  0,
  0,
  0,
  0,
  0,
  0,
  0,
  0,
  0,
  0,
  0,
  0,
  0,
  0,
  0,
  0,
  0,
  0,
  0,
  0,
  0,
  0,
  0,
  0,
  0,
  0,
  0,
  0,
  0,
  0,
  0,
  0,
  0,
  0,
  0,
  0,
  0,
  0,
  0,
  0,
  0,
  0,
  0,
  0,
  0,
  0,
  0,
  0,
  0,
  0,
  0,
  0,
  0,
  0,
  0,
  0,
  0,
  0,
  0,
  0,
  0,
  0,
  0,
  0,
  0,
  0,
  0,
  0,
  0,
  0,
  0,
  0,
  0,
  0,
  0,
  0,
  0,
  0,
  0,
  0,
  0,
  0,
  0,
  0,
  0,
  0,
  0,
  0,
  0,
  0,
  0,
  0,
  0,
  0,
  0,
  0,
  0,
  0,
  0,
  0,
  0,
  0,
  0,
  0,
  0,
  0,
  0,
  0,
  0,
  0,
  0,
  0,
  0,
  0,
  0,
  0,
  0,
  0,
  0,
  0,
  0,
  0,
  0,
  0,
  0,
  0,
  0,
  0,
  0,
  0,
  0,
  0,
  0,
  0,
  0,
  0,
  0,
  0,
  0,
  0,
  0,
  0,
  0,
  0,
  0,
  0,
  0,
  0,
  0,
  0,
  0,
  0,
  0,
  0,
  0,
  0,
  0,
  0,
  0,
  0,
  0,
  0,
  0,
  0,
  0,
  0,
  0,
  0,
  0,
  0,
  0,
  0,
  0,
  0,
  0,
  0,
  0,
  0,
  0,
  0,
  0,
  0,
  0;;
  Material {
   0.344800;0.344800;0.344800;1.000000;;
   5.000000;
   0.000000;0.000000;0.000000;;
   0.000000;0.000000;0.000000;;
  }
  Material {
   0.800000;0.800000;0.800000;0.940000;;
   5.000000;
   0.150000;0.150000;0.150000;;
   0.000000;0.000000;0.000000;;
  }
  Material {
   0.607160;0.607160;0.607160;1.000000;;
   5.000000;
   0.000000;0.000000;0.000000;;
   0.000000;0.000000;0.000000;;
  }
 }
 MeshNormals {
  523;
  0.990419;-0.135636;0.025934;,
  0.669898;0.742246;0.017539;,
  0.644875;0.725744;-0.239652;,
  0.830855;0.431843;-0.350986;,
  0.454898;0.166035;-0.874929;,
  0.361386;-0.126991;-0.923728;,
  0.899838;-0.400177;-0.173637;,
  0.984863;-0.071431;-0.157932;,
  0.777298;-0.573387;0.258910;,
  0.925586;-0.371459;0.072859;,
  0.408505;0.166043;0.897526;,
  0.811318;0.431934;0.393949;,
  0.631459;0.725734;0.273074;,
  0.395711;0.918317;0.010361;,
  0.384174;0.878142;-0.285089;,
  0.375163;0.768272;-0.518663;,
  0.373061;0.381849;-0.845586;,
  0.139884;-0.570769;-0.809108;,
  0.327129;-0.849507;-0.413913;,
  0.299852;-0.937073;-0.178839;,
  0.305020;-0.849506;0.430468;,
  0.153577;-0.822098;0.548242;,
  0.328309;0.381854;0.863945;,
  0.347511;0.768272;0.537582;,
  0.368734;0.878139;0.304806;,
  0.074055;0.997252;0.001939;,
  0.072565;0.947579;-0.311172;,
  0.075945;0.929943;-0.359775;,
  0.085774;0.918874;-0.385116;,
  0.046014;-0.816832;-0.575037;,
  0.046101;-0.883549;-0.466063;,
  0.031884;-0.999491;0.000835;,
  0.021645;-0.883549;0.467838;,
  0.015854;-0.816831;0.576659;,
  0.017998;-0.925128;0.379228;,
  0.057011;0.929942;0.363259;,
  0.056180;0.947579;0.314543;,
  0.034769;0.999395;0.000910;,
  0.033319;0.943784;-0.328880;,
  -0.006568;0.970133;-0.242485;,
  -0.038800;0.993205;-0.109716;,
  0.038288;-0.860486;-0.508033;,
  0.034713;-0.848227;-0.528494;,
  -0.026008;-0.999662;-0.000681;,
  0.007006;-0.848227;0.529587;,
  0.011647;-0.860486;0.509341;,
  -0.020378;-0.998573;0.049370;,
  -0.019250;0.970132;0.241811;,
  0.016061;0.943784;0.330173;,
  0.041954;0.999119;0.001099;,
  0.039517;0.938023;-0.344312;,
  -0.022828;0.917929;-0.396087;,
  -0.078436;0.917499;-0.389928;,
  -0.076014;-0.832787;-0.548350;,
  -0.008549;-0.817031;-0.576530;,
  -0.031987;-0.999488;-0.000838;,
  -0.038710;-0.817031;0.575293;,
  -0.091060;-0.588481;0.803367;,
  -0.120798;-0.951554;0.282758;,
  -0.043526;0.917930;0.394349;,
  0.021443;0.938023;0.345908;,
  0.045371;0.998969;0.001188;,
  0.032113;0.935057;-0.353039;,
  -0.010398;0.885554;-0.464420;,
  -0.032772;0.807027;-0.589605;,
  -0.055385;-0.505753;-0.860899;,
  -0.004971;-0.371808;-0.928296;,
  -0.000640;-1.000000;-0.000017;,
  -0.002888;-0.996299;0.085905;,
  -0.100365;-0.505754;0.856820;,
  -0.147574;-0.634777;0.758472;,
  -0.034689;0.885555;0.463238;,
  0.013592;0.935057;0.354236;,
  0.004257;0.999991;0.000111;,
  -0.005760;0.934275;-0.356507;,
  -0.010064;0.909558;-0.415455;,
  0.007622;0.818073;-0.575064;,
  -0.021336;-0.340749;-0.939912;,
  -0.010705;-0.347192;-0.937733;,
  -0.001387;-0.999999;-0.000036;,
  -0.003684;-0.996122;0.087906;,
  -0.070499;-0.340750;0.937507;,
  -0.081219;-0.334253;0.938977;,
  -0.031794;0.909558;0.414358;,
  -0.024411;0.934275;0.355716;,
  -0.709965;-0.654032;0.261137;,
  0.814808;-0.576029;-0.065407;,
  0.484855;-0.855373;-0.182353;,
  0.670780;-0.533878;0.514809;,
  0.312563;-0.127002;0.941369;,
  0.070097;-0.732418;-0.677238;,
  0.037821;-0.925129;-0.377763;,
  0.034556;-0.732416;0.679980;,
  0.065500;0.918871;0.389083;,
  -0.017766;-0.998573;-0.050367;,
  -0.044489;0.993205;0.107539;,
  -0.105835;-0.951554;-0.288693;,
  0.028987;-0.433623;-0.900628;,
  -0.039879;-0.996839;0.068717;,
  -0.098735;0.917499;0.385288;,
  -0.107677;-0.634775;-0.765157;,
  0.001612;-0.996299;-0.085939;,
  -0.053547;-0.371808;0.926764;,
  -0.063584;0.807028;0.587080;,
  -0.031965;-0.334251;-0.941942;,
  0.000921;-0.996122;-0.087978;,
  -0.059767;-0.347192;0.935888;,
  -0.022485;0.818074;0.574674;,
  0.921545;-0.387507;0.024338;,
  0.979303;-0.200771;0.025643;,
  0.829003;-0.559161;-0.009662;,
  0.998717;-0.009718;0.049702;,
  0.997303;0.050599;0.053156;,
  0.983420;0.170276;0.062371;,
  0.999950;-0.009611;0.002623;,
  0.921536;-0.387555;0.023931;,
  0.827303;-0.559246;0.053048;,
  -0.400838;-0.496688;0.769824;,
  -0.443257;-0.645085;-0.622405;,
  -0.039380;-0.909783;-0.413211;,
  -0.761653;-0.478459;0.436992;,
  -0.741976;-0.532303;0.407585;,
  -0.780725;-0.468309;0.413708;,
  -0.970208;-0.011754;0.241988;,
  -0.946212;0.322596;-0.024776;,
  -0.956214;-0.011755;-0.292432;,
  -0.758003;-0.468312;-0.454000;,
  -0.719625;-0.532308;-0.445856;,
  -0.737736;-0.478464;-0.476253;,
  -0.060952;-0.909783;0.410585;,
  -0.359999;-0.496692;-0.789745;,
  -0.105675;0.858488;-0.501828;,
  -0.130464;0.761883;-0.634440;,
  -0.110485;0.407657;-0.906426;,
  -0.010725;-0.019974;-0.999743;,
  0.030488;-0.433700;-0.900541;,
  0.014659;-0.828489;-0.559814;,
  0.000000;-1.000000;-0.000000;,
  -0.014659;-0.828488;0.559815;,
  -0.016684;-0.433698;0.900904;,
  -0.063031;-0.019974;0.997812;,
  -0.157770;0.407657;0.899402;,
  -0.163488;0.761882;0.626743;,
  -0.324789;0.925852;-0.193157;,
  -0.237846;0.728083;-0.642903;,
  -0.170457;0.462084;-0.870300;,
  -0.061303;0.070585;-0.995620;,
  -0.001102;-0.421379;-0.906884;,
  0.006263;-0.815880;-0.578187;,
  -0.000000;-1.000000;0.000000;,
  -0.024005;-0.815880;0.577722;,
  -0.048562;-0.421378;0.905584;,
  -0.113322;0.070584;0.991048;,
  -0.215768;0.462085;0.860187;,
  -0.271164;0.728086;0.629573;,
  -0.346231;0.938105;-0.009071;,
  -0.284721;0.739676;-0.609765;,
  -0.220089;0.623392;-0.750296;,
  -0.203704;0.263910;-0.942792;,
  -0.178047;-0.366278;-0.913313;,
  -0.188890;-0.771992;-0.606917;,
  -0.210541;-0.977570;-0.005513;,
  -0.220396;-0.771993;0.596198;,
  -0.225603;-0.366284;0.902740;,
  -0.252768;0.263907;0.930839;,
  -0.259054;0.623393;0.737748;,
  -0.316243;0.739679;0.594024;,
  -0.266694;0.610119;-0.746076;,
  -0.131793;0.858487;0.495611;,
  -0.420521;-0.849261;-0.319247;,
  -0.365459;-0.315619;0.875685;,
  -0.248451;0.782359;0.571127;,
  0.658542;-0.213584;0.721598;,
  0.000002;1.000000;-0.000001;,
  0.013095;0.866027;-0.499825;,
  0.022667;0.500000;-0.865729;,
  0.026170;-0.000007;-0.999657;,
  0.022677;-0.499998;-0.865730;,
  0.013098;-0.866023;-0.499832;,
  0.000000;-1.000000;0.000001;,
  -0.013094;-0.866024;0.499831;,
  -0.022673;-0.499994;0.865732;,
  -0.026176;-0.000000;0.999657;,
  -0.022672;0.499995;0.865731;,
  -0.013091;0.866026;0.499828;,
  0.243318;0.969926;0.006372;,
  0.256016;0.839982;-0.478421;,
  0.265308;0.484960;-0.833322;,
  0.268708;-0.000003;-0.963222;,
  0.265312;-0.484958;-0.833322;,
  0.256018;-0.839979;-0.478425;,
  0.243318;-0.969926;0.006373;,
  0.230622;-0.839980;0.491170;,
  0.221329;-0.484959;0.846066;,
  0.217928;-0.000000;0.975965;,
  0.221330;0.484961;0.846065;,
  0.230622;0.839981;0.491167;,
  0.470353;0.882392;0.012319;,
  0.481904;0.764175;-0.428724;,
  0.490363;0.441190;-0.751595;,
  0.493459;0.000000;-0.869769;,
  0.490364;-0.441188;-0.751596;,
  0.481906;-0.764174;-0.428725;,
  0.470355;-0.882391;0.012319;,
  0.458808;-0.764172;0.453361;,
  0.450352;-0.441194;0.776229;,
  0.447256;0.000000;0.894406;,
  0.450352;0.441196;0.776227;,
  0.458806;0.764174;0.453361;,
  -0.721312;0.174478;-0.670273;,
  0.579759;-0.699649;0.417577;,
  0.559132;-0.828949;0.014637;,
  0.541228;-0.434287;0.720047;,
  0.581180;-0.022699;0.813458;,
  0.552463;0.403792;0.729203;,
  0.595688;0.688690;0.413355;,
  0.637623;0.672522;-0.375701;,
  0.571185;0.820685;0.014959;,
  0.616507;0.688689;-0.381612;,
  0.589871;0.403784;-0.699293;,
  0.622955;-0.022711;-0.781928;,
  0.608722;-0.601334;-0.517547;,
  0.578167;-0.434284;-0.690739;,
  0.600819;-0.699642;-0.386676;,
  -0.645945;0.763196;-0.016917;,
  -0.635953;0.660946;-0.398390;,
  -0.628640;0.381603;-0.677636;,
  -0.625967;0.000000;-0.779850;,
  -0.628641;-0.381601;-0.677637;,
  -0.635955;-0.660945;-0.398389;,
  -0.750840;-0.476682;0.457180;,
  -0.645946;-0.763196;-0.016917;,
  -0.655934;-0.660949;0.364551;,
  -0.663248;-0.381602;0.643803;,
  -0.665925;0.000000;0.746018;,
  -0.663248;0.381603;0.643802;,
  -0.655932;0.660950;0.364552;,
  -0.999657;0.000000;-0.026174;,
  -0.925787;0.000000;-0.378046;,
  -0.790546;0.000000;-0.612403;,
  -0.790546;0.000000;-0.612403;,
  -0.468695;0.000000;-0.883360;,
  0.026185;0.000000;-0.999657;,
  0.026191;0.000000;-0.999657;,
  0.026185;0.000000;-0.999657;,
  0.026191;0.000000;-0.999657;,
  0.026185;0.000000;-0.999657;,
  0.026191;0.000000;-0.999657;,
  0.026177;0.000000;-0.999657;,
  0.974684;0.000000;-0.223587;,
  0.987206;0.000000;-0.159452;,
  0.026177;0.000000;-0.999657;,
  0.993845;0.000000;-0.110778;,
  -0.026180;0.000000;0.999657;,
  -0.026176;0.000000;0.999657;,
  -0.026176;0.000000;0.999657;,
  0.993845;0.000000;-0.110778;,
  -0.026176;0.000000;0.999657;,
  0.993845;0.000000;-0.110778;,
  -0.026176;0.000000;0.999657;,
  0.020310;0.999742;-0.010156;,
  0.008042;0.999901;-0.011562;,
  -0.000539;0.999919;-0.012708;,
  -0.000539;0.999919;-0.012708;,
  0.009939;-0.999876;-0.012184;,
  0.003816;-0.999910;-0.012885;,
  -0.000539;-0.999919;-0.012709;,
  0.970927;0.000000;-0.239374;,
  0.970928;0.000000;-0.239374;,
  0.970928;0.000000;-0.239374;,
  0.970927;0.000000;-0.239374;,
  -0.026181;0.000000;0.999657;,
  -0.026172;0.000000;0.999657;,
  -0.026172;0.000000;0.999657;,
  0.049050;0.998780;0.005630;,
  0.041784;0.999105;-0.006506;,
  0.024532;0.999695;0.002816;,
  0.017258;0.999808;-0.009322;,
  0.000000;1.000000;0.000000;,
  0.000095;0.999933;-0.011615;,
  0.012244;-0.999924;0.001403;,
  0.021050;-0.999723;-0.010564;,
  0.024486;-0.999696;0.002805;,
  0.008806;-0.999890;-0.011967;,
  0.000000;-1.000000;-0.000000;,
  0.000095;-0.999933;-0.011616;,
  -0.999657;0.000000;-0.026171;,
  -0.944302;0.000000;0.329079;,
  -0.821515;0.000000;0.570188;,
  -0.999658;0.000000;-0.026171;,
  -0.944302;0.000000;0.329079;,
  -0.514287;0.000000;0.857618;,
  -0.026166;0.000000;0.999658;,
  -0.026169;0.000000;0.999658;,
  -0.026166;0.000000;0.999658;,
  -0.514287;0.000000;0.857618;,
  -0.026169;0.000000;0.999658;,
  -0.026166;0.000000;0.999658;,
  -0.026169;0.000000;0.999658;,
  -0.026195;0.000000;0.999657;,
  0.961647;0.000000;0.274290;,
  0.977507;0.000000;0.210902;,
  0.961647;0.000000;0.274290;,
  0.977507;0.000000;0.210902;,
  0.986686;0.000000;0.162638;,
  0.026176;0.000000;-0.999657;,
  0.026173;0.000000;-0.999658;,
  0.986686;0.000000;0.162638;,
  0.026176;0.000000;-0.999657;,
  0.026173;0.000000;-0.999657;,
  0.026176;0.000000;-0.999657;,
  0.026173;0.000000;-0.999657;,
  0.986686;0.000000;0.162638;,
  0.019772;-0.999742;0.011219;,
  0.007448;-0.999900;0.011981;,
  -0.001242;-0.999918;0.012754;,
  0.009311;0.999876;0.012699;,
  0.003159;0.999910;0.013079;,
  -0.001242;0.999918;0.012753;,
  0.957071;0.000000;0.289852;,
  0.957072;0.000000;0.289852;,
  0.026179;0.000000;-0.999657;,
  0.026174;0.000000;-0.999657;,
  0.026174;0.000000;-0.999658;,
  0.026179;0.000000;-0.999657;,
  0.026174;0.000000;-0.999658;,
  0.026174;0.000000;-0.999657;,
  0.049275;-0.998781;-0.003055;,
  0.041384;-0.999106;0.008685;,
  0.024645;-0.999695;-0.001528;,
  0.016746;-0.999808;0.010213;,
  0.000000;-1.000000;-0.000000;,
  -0.000634;-0.999931;0.011760;,
  0.012302;0.999924;-0.000760;,
  0.020470;0.999723;0.011650;,
  0.024602;0.999696;-0.001520;,
  0.008168;0.999890;0.012411;,
  0.000000;1.000000;0.000000;,
  -0.000634;0.999931;0.011760;,
  -0.768752;0.571619;-0.286832;,
  -0.799253;0.536363;-0.271127;,
  -0.835115;0.489832;-0.250297;,
  -0.768753;0.571637;-0.286792;,
  -0.799251;0.536349;-0.271158;,
  -0.835112;0.489788;-0.250389;,
  -0.768752;0.571621;-0.286827;,
  -0.799252;0.536353;-0.271149;,
  -0.835117;0.489825;-0.250304;,
  -0.768750;0.571586;-0.286902;,
  -0.799253;0.536371;-0.271108;,
  -0.835123;0.489904;-0.250128;,
  -0.475268;0.792522;-0.382137;,
  0.011064;0.906290;-0.422511;,
  0.011063;0.906301;-0.422488;,
  -0.475268;0.792497;-0.382189;,
  0.011065;0.906275;-0.422543;,
  0.011065;0.906277;-0.422539;,
  -0.475272;0.792550;-0.382075;,
  0.011064;0.906313;-0.422462;,
  0.011063;0.906310;-0.422470;,
  -0.475277;0.792627;-0.381908;,
  0.011062;0.906366;-0.422348;,
  0.011060;0.906366;-0.422349;,
  0.011065;0.906300;-0.422489;,
  0.951314;-0.269041;0.150396;,
  0.956457;-0.254109;0.143591;,
  0.011067;0.906278;-0.422538;,
  0.951313;-0.269033;0.150414;,
  0.956459;-0.254145;0.143515;,
  0.011066;0.906306;-0.422477;,
  0.951307;-0.268936;0.150626;,
  0.956450;-0.254005;0.143821;,
  0.011063;0.906357;-0.422367;,
  0.951302;-0.268846;0.150819;,
  0.956439;-0.253829;0.144203;,
  0.956826;-0.252971;0.143143;,
  -0.011064;-0.906339;0.422405;,
  -0.011062;-0.906330;0.422425;,
  0.956831;-0.253041;0.142987;,
  -0.011064;-0.906313;0.422463;,
  -0.011062;-0.906316;0.422455;,
  0.956824;-0.252910;0.143265;,
  -0.011063;-0.906304;0.422483;,
  -0.011063;-0.906303;0.422483;,
  0.956812;-0.252708;0.143699;,
  -0.011062;-0.906321;0.422444;,
  -0.011063;-0.906304;0.422481;,
  0.006872;0.423127;0.906044;,
  -0.013035;0.429078;0.903173;,
  -0.025075;0.435975;0.899609;,
  -0.025077;0.435977;0.899608;,
  0.039084;-0.415576;-0.908719;,
  0.029142;-0.412713;-0.910395;,
  0.022368;-0.409169;-0.912184;,
  0.022369;-0.409168;-0.912185;,
  0.946300;-0.282766;0.156716;,
  0.946299;-0.282751;0.156748;,
  0.946298;-0.282704;0.156837;,
  0.946298;-0.282673;0.156894;,
  -0.011065;-0.906347;0.422389;,
  -0.011066;-0.906310;0.422469;,
  -0.011062;-0.906329;0.422428;,
  -0.011062;-0.906317;0.422453;,
  -0.011064;-0.906306;0.422477;,
  -0.011063;-0.906306;0.422478;,
  -0.011061;-0.906340;0.422404;,
  -0.011063;-0.906305;0.422478;,
  0.055878;0.397980;0.915691;,
  0.037301;0.409966;0.911338;,
  0.016091;0.410662;0.911646;,
  -0.002508;0.422274;0.906465;,
  -0.023718;0.422613;0.906000;,
  -0.023721;0.422617;0.905998;,
  -0.023723;0.422619;0.905997;,
  -0.023728;0.422623;0.905995;,
  -0.026590;0.436139;0.899486;,
  -0.023722;0.422616;0.905998;,
  -0.026595;0.436143;0.899484;,
  -0.023732;0.422624;0.905994;,
  0.043604;-0.428315;-0.902577;,
  0.054274;-0.421696;-0.905111;,
  0.063465;-0.433824;-0.898760;,
  0.034403;-0.416072;-0.908681;,
  0.023726;-0.422618;-0.905997;,
  0.023731;-0.422620;-0.905996;,
  0.023724;-0.422619;-0.905997;,
  0.023726;-0.422618;-0.905997;,
  0.023725;-0.422619;-0.905997;,
  0.020853;-0.408999;-0.912297;,
  0.020856;-0.408999;-0.912297;,
  0.023732;-0.422619;-0.905996;,
  -0.782709;0.571594;0.246266;,
  -0.812348;0.536321;0.229020;,
  -0.847073;0.489762;0.206399;,
  -0.782708;0.571619;0.246211;,
  -0.812347;0.536351;0.228956;,
  -0.847072;0.489797;0.206320;,
  -0.782705;0.571681;0.246076;,
  -0.812349;0.536343;0.228966;,
  -0.847077;0.489730;0.206457;,
  -0.782704;0.571717;0.245995;,
  -0.812352;0.536306;0.229040;,
  -0.847084;0.489628;0.206672;,
  -0.494617;0.792507;0.356772;,
  -0.011062;0.906329;0.422427;,
  -0.011060;0.906327;0.422432;,
  -0.494619;0.792526;0.356729;,
  -0.011064;0.906321;0.422445;,
  -0.011062;0.906311;0.422467;,
  -0.494623;0.792480;0.356826;,
  -0.011065;0.906321;0.422444;,
  -0.011061;0.906332;0.422422;,
  -0.494625;0.792415;0.356965;,
  -0.011064;0.906330;0.422427;,
  -0.011060;0.906369;0.422342;,
  -0.011059;0.906328;0.422430;,
  0.957880;-0.269075;-0.100323;,
  0.962659;-0.254133;-0.093294;,
  -0.011060;0.906308;0.422474;,
  0.957883;-0.269013;-0.100464;,
  0.962660;-0.254120;-0.093320;,
  -0.011059;0.906326;0.422434;,
  0.957876;-0.269117;-0.100244;,
  0.962659;-0.254144;-0.093267;,
  -0.011058;0.906365;0.422350;,
  0.957867;-0.269284;-0.099885;,
  0.962657;-0.254182;-0.093187;,
  0.963003;-0.253048;-0.092695;,
  0.011063;-0.906287;-0.422518;,
  0.011063;-0.906301;-0.422489;,
  0.963003;-0.253036;-0.092726;,
  0.011062;-0.906302;-0.422486;,
  0.011062;-0.906305;-0.422480;,
  0.963005;-0.252993;-0.092824;,
  0.011063;-0.906309;-0.422471;,
  0.011062;-0.906315;-0.422458;,
  0.963006;-0.252963;-0.092892;,
  0.011064;-0.906302;-0.422487;,
  0.011062;-0.906321;-0.422445;,
  0.006852;-0.421716;0.906702;,
  -0.013196;-0.416090;0.909228;,
  -0.025400;-0.409171;0.912104;,
  -0.025400;-0.409170;0.912105;,
  0.038913;0.429538;-0.902210;,
  0.028902;0.432463;-0.901188;,
  0.022040;0.435975;-0.899689;,
  0.022038;0.435977;-0.899688;,
  0.953203;-0.282865;-0.106729;,
  0.953207;-0.282754;-0.106988;,
  0.953199;-0.282871;-0.106754;,
  0.953186;-0.283099;-0.106263;,
  0.011062;-0.906283;-0.422527;,
  0.011063;-0.906300;-0.422491;,
  0.011063;-0.906310;-0.422469;,
  0.011063;-0.906305;-0.422479;,
  0.011064;-0.906304;-0.422483;,
  0.011063;-0.906315;-0.422458;,
  0.011066;-0.906290;-0.422511;,
  0.011062;-0.906329;-0.422428;,
  0.056438;-0.444285;0.894106;,
  0.037582;-0.433619;0.900313;,
  0.016372;-0.433834;0.900844;,
  -0.002508;-0.422770;0.906233;,
  -0.023723;-0.422619;0.905997;,
  -0.023722;-0.422619;0.905997;,
  -0.023722;-0.422620;0.905997;,
  -0.023723;-0.422617;0.905998;,
  -0.026918;-0.409001;0.912137;,
  -0.023721;-0.422620;0.905997;,
  -0.026921;-0.408999;0.912138;,
  -0.023725;-0.422616;0.905998;,
  0.043745;0.416735;-0.907975;,
  0.054260;0.423145;-0.904436;,
  0.063748;0.410669;-0.909553;,
  0.034247;0.429097;-0.902609;,
  0.023727;0.422620;-0.905997;,
  0.023731;0.422617;-0.905998;,
  0.023725;0.422618;-0.905998;,
  0.023721;0.422621;-0.905996;,
  0.023727;0.422617;-0.905998;,
  0.020523;0.436139;-0.899645;,
  0.020520;0.436141;-0.899645;,
  0.023720;0.422619;-0.905997;;
  396;
  4;1,2,14,13;,
  4;2,3,15,14;,
  4;3,4,16,15;,
  4;4,5,17,16;,
  4;86,6,18,87;,
  4;6,7,19,18;,
  4;88,8,20,88;,
  4;8,9,21,20;,
  4;89,10,22,89;,
  4;10,11,23,22;,
  4;11,12,24,23;,
  4;12,1,13,24;,
  4;13,14,26,25;,
  4;14,15,27,26;,
  4;15,16,28,27;,
  4;90,17,29,91;,
  4;17,18,30,29;,
  4;18,19,31,30;,
  4;19,20,32,31;,
  4;20,21,33,32;,
  4;21,92,34,33;,
  4;22,23,35,93;,
  4;23,24,36,35;,
  4;24,13,25,36;,
  4;25,26,38,37;,
  4;26,27,39,38;,
  4;27,28,40,39;,
  4;91,29,41,94;,
  4;29,30,42,41;,
  4;30,31,43,42;,
  4;31,32,44,43;,
  4;32,33,45,44;,
  4;33,34,46,45;,
  4;93,35,47,95;,
  4;35,36,48,47;,
  4;36,25,37,48;,
  4;37,38,50,49;,
  4;38,39,51,50;,
  4;39,40,52,51;,
  4;94,41,53,96;,
  4;41,42,54,97;,
  4;42,43,55,54;,
  4;43,44,56,55;,
  4;44,45,57,56;,
  4;45,46,58,98;,
  4;95,47,59,99;,
  4;47,48,60,59;,
  4;48,37,49,60;,
  4;49,50,62,61;,
  4;50,51,63,62;,
  4;51,52,64,63;,
  4;96,53,65,100;,
  4;53,54,66,65;,
  4;54,55,67,101;,
  4;55,56,68,67;,
  4;56,57,69,102;,
  4;57,58,70,69;,
  4;99,59,71,103;,
  4;59,60,72,71;,
  4;60,49,61,72;,
  4;61,62,74,73;,
  4;62,63,75,74;,
  4;63,64,76,75;,
  4;100,65,77,104;,
  4;65,66,78,77;,
  4;101,67,79,105;,
  4;67,68,80,79;,
  4;102,69,81,106;,
  4;69,70,82,81;,
  4;103,71,83,107;,
  4;71,72,84,83;,
  4;72,61,73,84;,
  3;0,108,109;,
  3;0,110,108;,
  3;0,111,3;,
  3;0,112,111;,
  3;0,6,86;,
  3;0,7,6;,
  3;0,113,7;,
  3;0,9,8;,
  3;0,114,9;,
  3;0,11,114;,
  3;0,115,116;,
  3;0,109,115;,
  3;85,117,117;,
  3;118,119,119;,
  3;85,120,121;,
  3;85,121,122;,
  3;85,122,123;,
  3;124,123,124;,
  3;124,124,125;,
  3;118,125,126;,
  3;85,126,127;,
  3;85,127,128;,
  3;85,129,129;,
  3;118,130,130;,
  4;131,132,144,143;,
  4;132,133,145,144;,
  4;133,134,146,145;,
  4;134,135,147,146;,
  4;135,136,148,147;,
  4;136,137,149,148;,
  4;137,138,150,149;,
  4;138,139,151,150;,
  4;139,140,152,151;,
  4;140,141,153,152;,
  4;141,142,154,153;,
  4;142,168,168,154;,
  4;143,144,156,155;,
  4;144,145,157,156;,
  4;145,146,158,157;,
  4;146,147,159,158;,
  4;147,148,160,159;,
  4;148,149,161,160;,
  4;149,150,162,161;,
  4;150,151,163,162;,
  4;151,152,164,163;,
  4;152,153,165,164;,
  4;153,154,166,165;,
  4;154,143,155,166;,
  3;167,155,156;,
  3;167,156,157;,
  3;167,157,158;,
  3;167,158,159;,
  3;169,159,160;,
  3;169,160,161;,
  3;169,161,162;,
  3;170,162,163;,
  3;170,163,164;,
  3;171,164,165;,
  3;171,165,166;,
  3;171,166,155;,
  4;173,174,186,185;,
  4;174,175,187,186;,
  4;175,176,188,187;,
  4;176,177,189,188;,
  4;177,178,190,189;,
  4;178,179,191,190;,
  4;179,180,192,191;,
  4;180,181,193,192;,
  4;181,182,194,193;,
  4;182,183,195,194;,
  4;183,184,196,195;,
  4;184,173,185,196;,
  4;185,186,198,197;,
  4;186,187,199,198;,
  4;187,188,200,199;,
  4;188,189,201,200;,
  4;189,190,202,201;,
  4;190,191,203,202;,
  4;191,192,204,203;,
  4;192,193,205,204;,
  4;193,194,206,205;,
  4;194,195,207,206;,
  4;195,196,208,207;,
  4;196,185,197,208;,
  3;172,210,211;,
  3;172,212,210;,
  3;172,213,212;,
  3;172,214,213;,
  3;172,215,214;,
  3;216,217,215;,
  3;216,218,217;,
  3;216,219,218;,
  3;216,220,219;,
  3;221,222,220;,
  3;221,223,222;,
  3;221,211,223;,
  3;209,224,225;,
  3;209,225,226;,
  3;209,226,227;,
  3;209,227,228;,
  3;209,228,229;,
  3;230,229,231;,
  3;230,231,232;,
  3;230,232,233;,
  3;230,233,234;,
  3;230,234,235;,
  3;236,235,236;,
  3;236,236,224;,
  4;237,238,238,237;,
  4;238,239,240,238;,
  4;239,241,241,240;,
  4;237,238,238,237;,
  4;238,240,240,238;,
  4;240,241,241,240;,
  4;237,238,238,237;,
  4;238,240,239,238;,
  4;240,241,241,239;,
  4;241,242,244,241;,
  4;242,243,245,244;,
  4;243,248,248,245;,
  4;241,244,244,241;,
  4;244,245,245,244;,
  4;245,248,251,245;,
  4;241,244,246,241;,
  4;244,245,247,246;,
  4;245,251,251,247;,
  4;267,249,249,268;,
  4;249,250,250,249;,
  4;250,252,252,250;,
  4;268,249,249,269;,
  4;249,250,250,249;,
  4;250,252,256,250;,
  4;269,249,249,270;,
  4;249,250,250,249;,
  4;250,256,258,250;,
  4;271,253,253,271;,
  4;253,254,255,253;,
  4;254,272,273,255;,
  4;271,253,253,271;,
  4;253,255,257,253;,
  4;255,273,273,257;,
  4;271,253,253,271;,
  4;253,257,259,253;,
  4;257,273,273,259;,
  4;274,275,260,276;,
  4;275,277,261,260;,
  4;277,278,278,261;,
  4;276,260,262,278;,
  4;260,261,263,262;,
  4;261,278,278,263;,
  4;278,262,279,278;,
  4;262,263,279,279;,
  4;263,278,278,279;,
  4;280,264,281,282;,
  4;264,265,283,281;,
  4;265,284,284,283;,
  4;284,266,264,280;,
  4;266,266,265,264;,
  4;266,284,284,265;,
  4;284,285,266,284;,
  4;285,285,266,266;,
  4;285,284,284,266;,
  4;286,287,287,289;,
  4;287,288,288,287;,
  4;288,291,291,288;,
  4;289,287,287,289;,
  4;287,288,288,287;,
  4;288,291,295,288;,
  4;289,287,290,286;,
  4;287,288,288,290;,
  4;288,295,295,288;,
  4;291,292,294,291;,
  4;292,293,293,294;,
  4;293,299,299,293;,
  4;291,294,294,295;,
  4;294,293,296,294;,
  4;293,299,299,296;,
  4;295,294,297,295;,
  4;294,296,298,297;,
  4;296,299,299,298;,
  4;319,300,302,320;,
  4;300,301,301,302;,
  4;301,304,307,301;,
  4;320,302,302,320;,
  4;302,301,301,302;,
  4;301,307,307,301;,
  4;320,302,300,319;,
  4;302,301,303,300;,
  4;301,307,312,303;,
  4;321,305,308,321;,
  4;305,306,309,308;,
  4;306,322,323,309;,
  4;321,308,310,324;,
  4;308,309,311,310;,
  4;309,323,325,311;,
  4;324,310,308,324;,
  4;310,311,306,308;,
  4;311,325,326,306;,
  4;327,328,313,329;,
  4;328,330,314,313;,
  4;330,331,331,314;,
  4;329,313,315,331;,
  4;313,314,315,315;,
  4;314,331,331,315;,
  4;331,315,332,331;,
  4;315,315,332,332;,
  4;315,331,331,332;,
  4;333,316,334,335;,
  4;316,317,336,334;,
  4;317,337,337,336;,
  4;337,318,316,333;,
  4;318,318,317,316;,
  4;318,337,337,317;,
  4;337,338,318,337;,
  4;338,338,318,318;,
  4;338,337,337,318;,
  4;339,340,343,342;,
  4;340,341,344,343;,
  4;341,351,354,344;,
  4;342,343,346,345;,
  4;343,344,347,346;,
  4;344,354,357,347;,
  4;345,346,349,348;,
  4;346,347,350,349;,
  4;347,357,360,350;,
  4;351,352,355,354;,
  4;352,353,356,355;,
  4;353,363,366,356;,
  4;354,355,358,357;,
  4;355,356,359,358;,
  4;356,366,369,359;,
  4;357,358,361,360;,
  4;358,359,362,361;,
  4;359,369,372,362;,
  4;395,364,367,396;,
  4;364,365,368,367;,
  4;365,375,378,368;,
  4;396,367,370,397;,
  4;367,368,371,370;,
  4;368,378,381,371;,
  4;397,370,373,398;,
  4;370,371,374,373;,
  4;371,381,384,374;,
  4;399,376,379,400;,
  4;376,377,380,379;,
  4;377,401,402,380;,
  4;400,379,382,403;,
  4;379,380,383,382;,
  4;380,402,404,383;,
  4;403,382,385,405;,
  4;382,383,386,385;,
  4;383,404,406,386;,
  4;407,408,387,409;,
  4;408,410,388,387;,
  4;410,411,412,388;,
  4;409,387,389,413;,
  4;387,388,390,389;,
  4;388,412,414,390;,
  4;413,389,415,416;,
  4;389,390,417,415;,
  4;390,414,418,417;,
  4;419,391,420,421;,
  4;391,392,422,420;,
  4;392,423,424,422;,
  4;425,393,391,419;,
  4;393,394,392,391;,
  4;394,426,423,392;,
  4;427,428,393,425;,
  4;428,429,394,393;,
  4;429,430,426,394;,
  4;431,432,435,434;,
  4;432,433,436,435;,
  4;433,443,446,436;,
  4;434,435,438,437;,
  4;435,436,439,438;,
  4;436,446,449,439;,
  4;437,438,441,440;,
  4;438,439,442,441;,
  4;439,449,452,442;,
  4;443,444,447,446;,
  4;444,445,448,447;,
  4;445,455,458,448;,
  4;446,447,450,449;,
  4;447,448,451,450;,
  4;448,458,461,451;,
  4;449,450,453,452;,
  4;450,451,454,453;,
  4;451,461,464,454;,
  4;487,456,459,488;,
  4;456,457,460,459;,
  4;457,467,470,460;,
  4;488,459,462,489;,
  4;459,460,463,462;,
  4;460,470,473,463;,
  4;489,462,465,490;,
  4;462,463,466,465;,
  4;463,473,476,466;,
  4;491,468,471,492;,
  4;468,469,472,471;,
  4;469,493,494,472;,
  4;492,471,474,495;,
  4;471,472,475,474;,
  4;472,494,496,475;,
  4;495,474,477,497;,
  4;474,475,478,477;,
  4;475,496,498,478;,
  4;499,500,479,501;,
  4;500,502,480,479;,
  4;502,503,504,480;,
  4;501,479,481,505;,
  4;479,480,482,481;,
  4;480,504,506,482;,
  4;505,481,507,508;,
  4;481,482,509,507;,
  4;482,506,510,509;,
  4;511,483,512,513;,
  4;483,484,514,512;,
  4;484,515,516,514;,
  4;517,485,483,511;,
  4;485,486,484,483;,
  4;486,518,515,484;,
  4;519,520,485,517;,
  4;520,521,486,485;,
  4;521,522,518,486;;
 }
 MeshTextureCoords {
  597;
  0.000000;0.000000;,
  0.083330;0.000000;,
  0.083330;0.166670;,
  0.000000;0.166670;,
  0.166670;0.000000;,
  0.166670;0.166670;,
  0.250000;0.000000;,
  0.250000;0.166670;,
  0.333330;0.000000;,
  0.333330;0.166670;,
  0.416670;0.000000;,
  0.416670;0.166670;,
  0.500000;0.000000;,
  0.500000;0.166670;,
  0.583330;0.000000;,
  0.583330;0.166670;,
  0.666670;0.000000;,
  0.666670;0.166670;,
  0.750000;0.000000;,
  0.750000;0.166670;,
  0.833330;0.000000;,
  0.833330;0.166670;,
  0.916670;0.000000;,
  0.916670;0.166670;,
  1.000000;0.000000;,
  1.000000;0.166670;,
  0.083330;0.333330;,
  0.000000;0.333330;,
  0.166670;0.333330;,
  0.250000;0.333330;,
  0.333330;0.333330;,
  0.416670;0.333330;,
  0.500000;0.333330;,
  0.583330;0.333330;,
  0.666670;0.333330;,
  0.750000;0.333330;,
  0.833330;0.333330;,
  0.916670;0.333330;,
  1.000000;0.333330;,
  0.083330;0.500000;,
  0.000000;0.500000;,
  0.166670;0.500000;,
  0.250000;0.500000;,
  0.333330;0.500000;,
  0.416670;0.500000;,
  0.500000;0.500000;,
  0.583330;0.500000;,
  0.666670;0.500000;,
  0.750000;0.500000;,
  0.833330;0.500000;,
  0.916670;0.500000;,
  1.000000;0.500000;,
  0.083330;0.666670;,
  0.000000;0.666670;,
  0.166670;0.666670;,
  0.250000;0.666670;,
  0.333330;0.666670;,
  0.416670;0.666670;,
  0.500000;0.666670;,
  0.583330;0.666670;,
  0.666670;0.666670;,
  0.750000;0.666670;,
  0.833330;0.666670;,
  0.916670;0.666670;,
  1.000000;0.666670;,
  0.083330;0.833330;,
  0.000000;0.833330;,
  0.166670;0.833330;,
  0.250000;0.833330;,
  0.333330;0.833330;,
  0.416670;0.833330;,
  0.500000;0.833330;,
  0.583330;0.833330;,
  0.666670;0.833330;,
  0.750000;0.833330;,
  0.833330;0.833330;,
  0.916670;0.833330;,
  1.000000;0.833330;,
  0.083330;1.000000;,
  0.000000;1.000000;,
  0.166670;1.000000;,
  0.250000;1.000000;,
  0.333330;1.000000;,
  0.416670;1.000000;,
  0.500000;1.000000;,
  0.583330;1.000000;,
  0.666670;1.000000;,
  0.750000;1.000000;,
  0.833330;1.000000;,
  0.916670;1.000000;,
  1.000000;1.000000;,
  0.041670;0.000000;,
  0.125000;0.000000;,
  0.208330;0.000000;,
  0.291670;0.000000;,
  0.375000;0.000000;,
  0.458330;0.000000;,
  0.541670;0.000000;,
  0.625000;0.000000;,
  0.708330;0.000000;,
  0.791670;0.000000;,
  0.875000;0.000000;,
  0.958330;0.000000;,
  0.041670;1.000000;,
  0.125000;1.000000;,
  0.208330;1.000000;,
  0.291670;1.000000;,
  0.375000;1.000000;,
  0.458330;1.000000;,
  0.541670;1.000000;,
  0.625000;1.000000;,
  0.708330;1.000000;,
  0.791670;1.000000;,
  0.875000;1.000000;,
  0.958330;1.000000;,
  0.000000;0.666670;,
  0.083330;0.666670;,
  0.083330;0.833330;,
  0.000000;0.833330;,
  0.166670;0.666670;,
  0.166670;0.833330;,
  0.250000;0.666670;,
  0.250000;0.833330;,
  0.333330;0.666670;,
  0.333330;0.833330;,
  0.416670;0.666670;,
  0.416670;0.833330;,
  0.500000;0.666670;,
  0.500000;0.833330;,
  0.583330;0.666670;,
  0.583330;0.833330;,
  0.666670;0.666670;,
  0.666670;0.833330;,
  0.750000;0.666670;,
  0.750000;0.833330;,
  0.833330;0.666670;,
  0.833330;0.833330;,
  0.916670;0.666670;,
  0.916670;0.833330;,
  1.000000;0.666670;,
  1.000000;0.833330;,
  0.083330;1.000000;,
  0.000000;1.000000;,
  0.166670;1.000000;,
  0.250000;1.000000;,
  0.333330;1.000000;,
  0.416670;1.000000;,
  0.500000;1.000000;,
  0.583330;1.000000;,
  0.666670;1.000000;,
  0.750000;1.000000;,
  0.833330;1.000000;,
  0.916670;1.000000;,
  1.000000;1.000000;,
  0.041670;1.000000;,
  0.125000;1.000000;,
  0.208330;1.000000;,
  0.291670;1.000000;,
  0.375000;1.000000;,
  0.458330;1.000000;,
  0.541670;1.000000;,
  0.625000;1.000000;,
  0.708330;1.000000;,
  0.791670;1.000000;,
  0.875000;1.000000;,
  0.958330;1.000000;,
  0.000000;0.000000;,
  0.083330;0.000000;,
  0.083330;0.500000;,
  0.000000;0.500000;,
  0.166670;0.000000;,
  0.166670;0.500000;,
  0.250000;0.000000;,
  0.250000;0.500000;,
  0.333330;0.000000;,
  0.333330;0.500000;,
  0.416670;0.000000;,
  0.416670;0.500000;,
  0.500000;0.000000;,
  0.500000;0.500000;,
  0.583330;0.000000;,
  0.583330;0.500000;,
  0.666670;0.000000;,
  0.666670;0.500000;,
  0.750000;0.000000;,
  0.750000;0.500000;,
  0.833330;0.000000;,
  0.833330;0.500000;,
  0.916670;0.000000;,
  0.916670;0.500000;,
  1.000000;0.000000;,
  1.000000;0.500000;,
  0.083330;1.000000;,
  0.000000;1.000000;,
  0.166670;1.000000;,
  0.250000;1.000000;,
  0.333330;1.000000;,
  0.416670;1.000000;,
  0.500000;1.000000;,
  0.583330;1.000000;,
  0.666670;1.000000;,
  0.750000;1.000000;,
  0.833330;1.000000;,
  0.916670;1.000000;,
  1.000000;1.000000;,
  0.041670;0.000000;,
  0.125000;0.000000;,
  0.208330;0.000000;,
  0.291670;0.000000;,
  0.375000;0.000000;,
  0.458330;0.000000;,
  0.541670;0.000000;,
  0.625000;0.000000;,
  0.708330;0.000000;,
  0.791670;0.000000;,
  0.875000;0.000000;,
  0.958330;0.000000;,
  0.041670;1.000000;,
  0.125000;1.000000;,
  0.208330;1.000000;,
  0.291670;1.000000;,
  0.375000;1.000000;,
  0.458330;1.000000;,
  0.541670;1.000000;,
  0.625000;1.000000;,
  0.708330;1.000000;,
  0.791670;1.000000;,
  0.875000;1.000000;,
  0.958330;1.000000;,
  0.000000;0.000000;,
  0.333330;0.000000;,
  0.333330;0.333330;,
  0.000000;0.333330;,
  0.666670;0.000000;,
  0.666670;0.333330;,
  1.000000;0.000000;,
  1.000000;0.333330;,
  0.333330;0.666670;,
  0.000000;0.666670;,
  0.666670;0.666670;,
  1.000000;0.666670;,
  0.333330;1.000000;,
  0.000000;1.000000;,
  0.666670;1.000000;,
  1.000000;1.000000;,
  0.000000;0.000000;,
  0.333330;0.000000;,
  0.333330;0.333330;,
  0.000000;0.333330;,
  0.666670;0.000000;,
  0.666670;0.333330;,
  1.000000;0.000000;,
  1.000000;0.333330;,
  0.333330;0.666670;,
  0.000000;0.666670;,
  0.666670;0.666670;,
  1.000000;0.666670;,
  0.333330;1.000000;,
  0.000000;1.000000;,
  0.666670;1.000000;,
  1.000000;1.000000;,
  0.000000;0.000000;,
  0.333330;0.000000;,
  0.333330;0.333330;,
  0.000000;0.333330;,
  0.666670;0.000000;,
  0.666670;0.333330;,
  1.000000;0.000000;,
  1.000000;0.333330;,
  0.333330;0.666670;,
  0.000000;0.666670;,
  0.666670;0.666670;,
  1.000000;0.666670;,
  0.333330;1.000000;,
  0.000000;1.000000;,
  0.666670;1.000000;,
  1.000000;1.000000;,
  0.000000;0.000000;,
  0.333330;0.000000;,
  0.333330;0.333330;,
  0.000000;0.333330;,
  0.666670;0.000000;,
  0.666670;0.333330;,
  1.000000;0.000000;,
  1.000000;0.333330;,
  0.333330;0.666670;,
  0.000000;0.666670;,
  0.666670;0.666670;,
  1.000000;0.666670;,
  0.333330;1.000000;,
  0.000000;1.000000;,
  0.666670;1.000000;,
  1.000000;1.000000;,
  0.333330;0.000000;,
  0.333330;0.333330;,
  0.000000;0.333330;,
  0.666670;0.000000;,
  0.666670;0.333330;,
  1.000000;0.333330;,
  0.333330;0.666670;,
  0.000000;0.666670;,
  0.666670;0.666670;,
  1.000000;0.666670;,
  0.333330;1.000000;,
  0.000000;1.000000;,
  0.666670;1.000000;,
  1.000000;1.000000;,
  0.000000;0.666670;,
  0.333330;0.666670;,
  0.333330;1.000000;,
  0.666670;0.666670;,
  0.666670;1.000000;,
  1.000000;0.666670;,
  0.000000;0.333330;,
  0.333330;0.333330;,
  0.666670;0.333330;,
  1.000000;0.333330;,
  0.000000;0.000000;,
  0.333330;0.000000;,
  0.666670;0.000000;,
  1.000000;0.000000;,
  0.000000;0.000000;,
  0.333330;0.000000;,
  0.333330;0.333330;,
  0.000000;0.333330;,
  0.666670;0.000000;,
  0.666670;0.333330;,
  1.000000;0.000000;,
  1.000000;0.333330;,
  0.333330;0.666670;,
  0.000000;0.666670;,
  0.666670;0.666670;,
  1.000000;0.666670;,
  0.333330;1.000000;,
  0.000000;1.000000;,
  0.666670;1.000000;,
  1.000000;1.000000;,
  0.000000;0.000000;,
  0.333330;0.000000;,
  0.333330;0.333330;,
  0.000000;0.333330;,
  0.666670;0.000000;,
  0.666670;0.333330;,
  1.000000;0.000000;,
  1.000000;0.333330;,
  0.333330;0.666670;,
  0.000000;0.666670;,
  0.666670;0.666670;,
  1.000000;0.666670;,
  0.333330;1.000000;,
  0.000000;1.000000;,
  0.666670;1.000000;,
  1.000000;1.000000;,
  0.000000;0.000000;,
  0.333330;0.000000;,
  0.333330;0.333330;,
  0.000000;0.333330;,
  0.666670;0.000000;,
  0.666670;0.333330;,
  1.000000;0.000000;,
  1.000000;0.333330;,
  0.333330;0.666670;,
  0.000000;0.666670;,
  0.666670;0.666670;,
  1.000000;0.666670;,
  0.333330;1.000000;,
  0.000000;1.000000;,
  0.666670;1.000000;,
  1.000000;1.000000;,
  0.000000;0.000000;,
  0.333330;0.000000;,
  0.333330;0.333330;,
  0.000000;0.333330;,
  0.666670;0.000000;,
  0.666670;0.333330;,
  1.000000;0.000000;,
  1.000000;0.333330;,
  0.333330;0.666670;,
  0.000000;0.666670;,
  0.666670;0.666670;,
  1.000000;0.666670;,
  0.333330;1.000000;,
  0.000000;1.000000;,
  0.666670;1.000000;,
  1.000000;1.000000;,
  0.333330;0.000000;,
  0.333330;0.333330;,
  0.000000;0.333330;,
  0.666670;0.000000;,
  0.666670;0.333330;,
  1.000000;0.333330;,
  0.333330;0.666670;,
  0.000000;0.666670;,
  0.666670;0.666670;,
  1.000000;0.666670;,
  0.333330;1.000000;,
  0.000000;1.000000;,
  0.666670;1.000000;,
  1.000000;1.000000;,
  0.000000;0.666670;,
  0.333330;0.666670;,
  0.333330;1.000000;,
  0.666670;0.666670;,
  0.666670;1.000000;,
  1.000000;0.666670;,
  0.000000;0.333330;,
  0.333330;0.333330;,
  0.666670;0.333330;,
  1.000000;0.333330;,
  0.000000;0.000000;,
  0.333330;0.000000;,
  0.666670;0.000000;,
  1.000000;0.000000;,
  0.000000;0.000000;,
  0.333330;0.000000;,
  0.333330;0.333330;,
  0.000000;0.333330;,
  0.666670;0.000000;,
  0.666670;0.333330;,
  1.000000;0.000000;,
  1.000000;0.333330;,
  0.333330;0.666670;,
  0.000000;0.666670;,
  0.666670;0.666670;,
  1.000000;0.666670;,
  0.333330;1.000000;,
  0.000000;1.000000;,
  0.666670;1.000000;,
  1.000000;1.000000;,
  0.000000;0.000000;,
  0.333330;0.000000;,
  0.333330;0.333330;,
  0.000000;0.333330;,
  0.666670;0.000000;,
  0.666670;0.333330;,
  1.000000;0.000000;,
  1.000000;0.333330;,
  0.333330;0.666670;,
  0.000000;0.666670;,
  0.666670;0.666670;,
  1.000000;0.666670;,
  0.333330;1.000000;,
  0.000000;1.000000;,
  0.666670;1.000000;,
  1.000000;1.000000;,
  0.000000;0.000000;,
  0.333330;0.000000;,
  0.333330;0.333330;,
  0.000000;0.333330;,
  0.666670;0.000000;,
  0.666670;0.333330;,
  1.000000;0.000000;,
  1.000000;0.333330;,
  0.333330;0.666670;,
  0.000000;0.666670;,
  0.666670;0.666670;,
  1.000000;0.666670;,
  0.333330;1.000000;,
  0.000000;1.000000;,
  0.666670;1.000000;,
  1.000000;1.000000;,
  0.000000;0.000000;,
  0.333330;0.000000;,
  0.333330;0.333330;,
  0.000000;0.333330;,
  0.666670;0.000000;,
  0.666670;0.333330;,
  1.000000;0.000000;,
  1.000000;0.333330;,
  0.333330;0.666670;,
  0.000000;0.666670;,
  0.666670;0.666670;,
  1.000000;0.666670;,
  0.333330;1.000000;,
  0.000000;1.000000;,
  0.666670;1.000000;,
  1.000000;1.000000;,
  0.333330;0.000000;,
  0.333330;0.333330;,
  0.000000;0.333330;,
  0.666670;0.000000;,
  0.666670;0.333330;,
  1.000000;0.333330;,
  0.333330;0.666670;,
  0.000000;0.666670;,
  0.666670;0.666670;,
  1.000000;0.666670;,
  0.333330;1.000000;,
  0.000000;1.000000;,
  0.666670;1.000000;,
  1.000000;1.000000;,
  0.000000;0.666670;,
  0.333330;0.666670;,
  0.333330;1.000000;,
  0.666670;0.666670;,
  0.666670;1.000000;,
  1.000000;0.666670;,
  0.000000;0.333330;,
  0.333330;0.333330;,
  0.666670;0.333330;,
  1.000000;0.333330;,
  0.000000;0.000000;,
  0.333330;0.000000;,
  0.666670;0.000000;,
  1.000000;0.000000;,
  0.000000;0.000000;,
  0.333330;0.000000;,
  0.333330;0.333330;,
  0.000000;0.333330;,
  0.666670;0.000000;,
  0.666670;0.333330;,
  1.000000;0.000000;,
  1.000000;0.333330;,
  0.333330;0.666670;,
  0.000000;0.666670;,
  0.666670;0.666670;,
  1.000000;0.666670;,
  0.333330;1.000000;,
  0.000000;1.000000;,
  0.666670;1.000000;,
  1.000000;1.000000;,
  0.000000;0.000000;,
  0.333330;0.000000;,
  0.333330;0.333330;,
  0.000000;0.333330;,
  0.666670;0.000000;,
  0.666670;0.333330;,
  1.000000;0.000000;,
  1.000000;0.333330;,
  0.333330;0.666670;,
  0.000000;0.666670;,
  0.666670;0.666670;,
  1.000000;0.666670;,
  0.333330;1.000000;,
  0.000000;1.000000;,
  0.666670;1.000000;,
  1.000000;1.000000;,
  0.000000;0.000000;,
  0.333330;0.000000;,
  0.333330;0.333330;,
  0.000000;0.333330;,
  0.666670;0.000000;,
  0.666670;0.333330;,
  1.000000;0.000000;,
  1.000000;0.333330;,
  0.333330;0.666670;,
  0.000000;0.666670;,
  0.666670;0.666670;,
  1.000000;0.666670;,
  0.333330;1.000000;,
  0.000000;1.000000;,
  0.666670;1.000000;,
  1.000000;1.000000;,
  0.000000;0.000000;,
  0.333330;0.000000;,
  0.333330;0.333330;,
  0.000000;0.333330;,
  0.666670;0.000000;,
  0.666670;0.333330;,
  1.000000;0.000000;,
  1.000000;0.333330;,
  0.333330;0.666670;,
  0.000000;0.666670;,
  0.666670;0.666670;,
  1.000000;0.666670;,
  0.333330;1.000000;,
  0.000000;1.000000;,
  0.666670;1.000000;,
  1.000000;1.000000;,
  0.333330;0.000000;,
  0.333330;0.333330;,
  0.000000;0.333330;,
  0.666670;0.000000;,
  0.666670;0.333330;,
  1.000000;0.333330;,
  0.333330;0.666670;,
  0.000000;0.666670;,
  0.666670;0.666670;,
  1.000000;0.666670;,
  0.333330;1.000000;,
  0.000000;1.000000;,
  0.666670;1.000000;,
  1.000000;1.000000;,
  0.000000;0.666670;,
  0.333330;0.666670;,
  0.333330;1.000000;,
  0.666670;0.666670;,
  0.666670;1.000000;,
  1.000000;0.666670;,
  0.000000;0.333330;,
  0.333330;0.333330;,
  0.666670;0.333330;,
  1.000000;0.333330;,
  0.000000;0.000000;,
  0.333330;0.000000;,
  0.666670;0.000000;,
  1.000000;0.000000;;
 }
}
