xof 0302txt 0064
template Header {
 <3D82AB43-62DA-11cf-AB39-0020AF71E433>
 WORD major;
 WORD minor;
 DWORD flags;
}

template Vector {
 <3D82AB5E-62DA-11cf-AB39-0020AF71E433>
 FLOAT x;
 FLOAT y;
 FLOAT z;
}

template Coords2d {
 <F6F23F44-7686-11cf-8F52-0040333594A3>
 FLOAT u;
 FLOAT v;
}

template Matrix4x4 {
 <F6F23F45-7686-11cf-8F52-0040333594A3>
 array FLOAT matrix[16];
}

template ColorRGBA {
 <35FF44E0-6C7C-11cf-8F52-0040333594A3>
 FLOAT red;
 FLOAT green;
 FLOAT blue;
 FLOAT alpha;
}

template ColorRGB {
 <D3E16E81-7835-11cf-8F52-0040333594A3>
 FLOAT red;
 FLOAT green;
 FLOAT blue;
}

template IndexedColor {
 <1630B820-7842-11cf-8F52-0040333594A3>
 DWORD index;
 ColorRGBA indexColor;
}

template Boolean {
 <4885AE61-78E8-11cf-8F52-0040333594A3>
 WORD truefalse;
}

template Boolean2d {
 <4885AE63-78E8-11cf-8F52-0040333594A3>
 Boolean u;
 Boolean v;
}

template MaterialWrap {
 <4885AE60-78E8-11cf-8F52-0040333594A3>
 Boolean u;
 Boolean v;
}

template TextureFilename {
 <A42790E1-7810-11cf-8F52-0040333594A3>
 STRING filename;
}

template Material {
 <3D82AB4D-62DA-11cf-AB39-0020AF71E433>
 ColorRGBA faceColor;
 FLOAT power;
 ColorRGB specularColor;
 ColorRGB emissiveColor;
 [...]
}

template MeshFace {
 <3D82AB5F-62DA-11cf-AB39-0020AF71E433>
 DWORD nFaceVertexIndices;
 array DWORD faceVertexIndices[nFaceVertexIndices];
}

template MeshFaceWraps {
 <4885AE62-78E8-11cf-8F52-0040333594A3>
 DWORD nFaceWrapValues;
 Boolean2d faceWrapValues;
}

template MeshTextureCoords {
 <F6F23F40-7686-11cf-8F52-0040333594A3>
 DWORD nTextureCoords;
 array Coords2d textureCoords[nTextureCoords];
}

template MeshMaterialList {
 <F6F23F42-7686-11cf-8F52-0040333594A3>
 DWORD nMaterials;
 DWORD nFaceIndexes;
 array DWORD faceIndexes[nFaceIndexes];
 [Material]
}

template MeshNormals {
 <F6F23F43-7686-11cf-8F52-0040333594A3>
 DWORD nNormals;
 array Vector normals[nNormals];
 DWORD nFaceNormals;
 array MeshFace faceNormals[nFaceNormals];
}

template MeshVertexColors {
 <1630B821-7842-11cf-8F52-0040333594A3>
 DWORD nVertexColors;
 array IndexedColor vertexColors[nVertexColors];
}

template Mesh {
 <3D82AB44-62DA-11cf-AB39-0020AF71E433>
 DWORD nVertices;
 array Vector vertices[nVertices];
 DWORD nFaces;
 array MeshFace faces[nFaces];
 [...]
}

Header{
1;
0;
1;
}

Mesh {
 384;
 0.56224;-8.89441;0.30745;,
 -5.03935;-11.66696;3.36011;,
 0.66537;-11.66696;6.21544;,
 0.56224;-8.89441;0.30745;,
 -5.14248;-11.66696;-2.54786;,
 0.56224;-8.89441;0.30745;,
 0.45912;-11.66696;-5.60051;,
 0.56224;-8.89441;0.30745;,
 6.16383;-11.66696;-2.74521;,
 0.56224;-8.89441;0.30745;,
 6.26696;-11.66696;3.16275;,
 0.56224;-8.89441;0.30745;,
 0.66537;-11.66696;6.21544;,
 -7.35961;-18.36053;4.62457;,
 0.70808;-18.36053;8.66258;,
 -7.50545;-18.36053;-3.73057;,
 0.41641;-18.36053;-8.04769;,
 8.48409;-18.36053;-4.00967;,
 8.62993;-18.36053;4.34547;,
 0.70808;-18.36053;8.66258;,
 -5.03935;-25.05409;3.36011;,
 0.66537;-25.05409;6.21544;,
 -5.14248;-25.05409;-2.54786;,
 0.45912;-25.05409;-5.60051;,
 6.16383;-25.05409;-2.74521;,
 6.26696;-25.05409;3.16275;,
 0.66537;-25.05409;6.21544;,
 0.56224;-27.82666;0.30745;,
 0.56224;-27.82666;0.30745;,
 0.56224;-27.82666;0.30745;,
 0.56224;-27.82666;0.30745;,
 0.56224;-27.82666;0.30745;,
 0.56224;-27.82666;0.30745;,
 0.51429;8.16285;7.70512;,
 -6.18256;4.92672;11.72900;,
 0.65063;4.92672;15.51670;,
 0.51429;8.16285;7.70512;,
 -6.31891;4.92672;3.91742;,
 0.51429;8.16285;7.70512;,
 0.37794;4.92672;-0.10645;,
 0.51429;8.16285;7.70512;,
 7.21114;4.92672;3.68125;,
 0.51429;8.16285;7.70512;,
 7.34747;4.92672;11.49279;,
 0.51429;8.16285;7.70512;,
 0.65063;4.92672;15.51670;,
 -8.95650;-2.88607;13.39575;,
 0.70710;-2.88607;18.75232;,
 -9.14932;-2.88607;2.34850;,
 0.32146;-2.88607;-3.34211;,
 9.98507;-2.88607;2.01451;,
 10.17786;-2.88607;13.06170;,
 0.70710;-2.88607;18.75232;,
 -6.18256;-10.69884;11.72900;,
 0.65063;-10.69884;15.51670;,
 -6.31891;-10.69884;3.91742;,
 0.37794;-10.69884;-0.10645;,
 7.21114;-10.69884;3.68125;,
 7.34747;-10.69884;11.49279;,
 0.65063;-10.69884;15.51670;,
 0.51429;-13.93501;7.70512;,
 0.51429;-13.93501;7.70512;,
 0.51429;-13.93501;7.70512;,
 0.51429;-13.93501;7.70512;,
 0.51429;-13.93501;7.70512;,
 0.51429;-13.93501;7.70512;,
 -7.43054;8.16285;-7.68812;,
 -14.12744;4.92672;-3.66426;,
 -7.29418;4.92672;0.12345;,
 -7.43054;8.16285;-7.68812;,
 -14.26382;4.92672;-11.47588;,
 -7.43054;8.16285;-7.68812;,
 -7.56692;4.92672;-15.49978;,
 -7.43054;8.16285;-7.68812;,
 -0.73368;4.92672;-11.71199;,
 -7.43054;8.16285;-7.68812;,
 -0.59733;4.92672;-3.90042;,
 -7.43054;8.16285;-7.68812;,
 -7.29418;4.92672;0.12345;,
 -16.90140;-2.88607;-1.99753;,
 -7.23770;-2.88607;3.35912;,
 -17.09424;-2.88607;-13.04480;,
 -7.62341;-2.88607;-18.73541;,
 2.04025;-2.88607;-13.37873;,
 2.23308;-2.88607;-2.33150;,
 -7.23770;-2.88607;3.35912;,
 -14.12744;-10.69884;-3.66426;,
 -7.29418;-10.69884;0.12345;,
 -14.26382;-10.69884;-11.47588;,
 -7.56692;-10.69884;-15.49978;,
 -0.73368;-10.69884;-11.71199;,
 -0.59733;-10.69884;-3.90042;,
 -7.29418;-10.69884;0.12345;,
 -7.43054;-13.93501;-7.68812;,
 -7.43054;-13.93501;-7.68812;,
 -7.43054;-13.93501;-7.68812;,
 -7.43054;-13.93501;-7.68812;,
 -7.43054;-13.93501;-7.68812;,
 -7.43054;-13.93501;-7.68812;,
 4.81074;8.16285;-6.98468;,
 -1.88611;4.92672;-2.96082;,
 4.94709;4.92672;0.82688;,
 4.81074;8.16285;-6.98468;,
 -2.02246;4.92672;-10.77239;,
 4.81074;8.16285;-6.98468;,
 4.67439;4.92672;-14.79627;,
 4.81074;8.16285;-6.98468;,
 11.50761;4.92672;-11.00856;,
 4.81074;8.16285;-6.98468;,
 11.64397;4.92672;-3.19699;,
 4.81074;8.16285;-6.98468;,
 4.94709;4.92672;0.82688;,
 -4.66002;-2.88607;-1.29407;,
 5.00357;-2.88607;4.06256;,
 -4.85285;-2.88607;-12.34130;,
 4.61790;-2.88607;-18.03192;,
 14.28149;-2.88607;-12.67529;,
 14.47430;-2.88607;-1.62806;,
 5.00357;-2.88607;4.06256;,
 -1.88611;-10.69884;-2.96082;,
 4.94709;-10.69884;0.82688;,
 -2.02246;-10.69884;-10.77239;,
 4.67439;-10.69884;-14.79627;,
 11.50761;-10.69884;-11.00856;,
 11.64397;-10.69884;-3.19699;,
 4.94709;-10.69884;0.82688;,
 4.81074;-13.93501;-6.98468;,
 4.81074;-13.93501;-6.98468;,
 4.81074;-13.93501;-6.98468;,
 4.81074;-13.93501;-6.98468;,
 4.81074;-13.93501;-6.98468;,
 4.81074;-13.93501;-6.98468;,
 11.08595;26.53682;-1.30265;,
 4.38909;23.30069;2.72122;,
 11.22231;23.30069;6.50894;,
 11.08595;26.53682;-1.30265;,
 4.25276;23.30069;-5.09035;,
 11.08595;26.53682;-1.30265;,
 10.94961;23.30069;-9.11422;,
 11.08595;26.53682;-1.30265;,
 17.78275;23.30069;-5.32651;,
 11.08595;26.53682;-1.30265;,
 17.91908;23.30069;2.48503;,
 11.08595;26.53682;-1.30265;,
 11.22231;23.30069;6.50894;,
 1.61518;15.48791;4.38796;,
 11.27876;15.48791;9.74455;,
 1.42235;15.48791;-6.65927;,
 10.89312;15.48791;-12.34989;,
 20.55667;15.48791;-6.99325;,
 20.74948;15.48791;4.05394;,
 11.27876;15.48791;9.74455;,
 4.38909;7.67511;2.72122;,
 11.22231;7.67511;6.50894;,
 4.25276;7.67511;-5.09035;,
 10.94961;7.67511;-9.11422;,
 17.78275;7.67511;-5.32651;,
 17.91908;7.67511;2.48503;,
 11.22231;7.67511;6.50894;,
 11.08595;4.43895;-1.30265;,
 11.08595;4.43895;-1.30265;,
 11.08595;4.43895;-1.30265;,
 11.08595;4.43895;-1.30265;,
 11.08595;4.43895;-1.30265;,
 11.08595;4.43895;-1.30265;,
 -0.73890;26.53682;11.49705;,
 -7.43578;23.30069;15.52092;,
 -0.60257;23.30069;19.30862;,
 -0.73890;26.53682;11.49705;,
 -7.57212;23.30069;7.70935;,
 -0.73890;26.53682;11.49705;,
 -0.87525;23.30069;3.68548;,
 -0.73890;26.53682;11.49705;,
 5.95795;23.30069;7.47318;,
 -0.73890;26.53682;11.49705;,
 6.09427;23.30069;15.28472;,
 -0.73890;26.53682;11.49705;,
 -0.60257;23.30069;19.30862;,
 -10.20970;15.48791;17.18767;,
 -0.54610;15.48791;22.54424;,
 -10.40251;15.48791;6.14043;,
 -0.93173;15.48791;0.44980;,
 8.73186;15.48791;5.80644;,
 8.92464;15.48791;16.85363;,
 -0.54610;15.48791;22.54424;,
 -7.43578;7.67511;15.52092;,
 -0.60257;7.67511;19.30862;,
 -7.57212;7.67511;7.70935;,
 -0.87525;7.67511;3.68548;,
 5.95795;7.67511;7.47318;,
 6.09427;7.67511;15.28472;,
 -0.60257;7.67511;19.30862;,
 -0.73890;4.43895;11.49705;,
 -0.73890;4.43895;11.49705;,
 -0.73890;4.43895;11.49705;,
 -0.73890;4.43895;11.49705;,
 -0.73890;4.43895;11.49705;,
 -0.73890;4.43895;11.49705;,
 -13.21384;26.53682;-3.08058;,
 -19.91072;23.30069;0.94328;,
 -13.07749;23.30069;4.73101;,
 -13.21384;26.53682;-3.08058;,
 -20.04709;23.30069;-6.86832;,
 -13.21384;26.53682;-3.08058;,
 -13.35022;23.30069;-10.89222;,
 -13.21384;26.53682;-3.08058;,
 -6.51693;23.30069;-7.10444;,
 -13.21384;26.53682;-3.08058;,
 -6.38059;23.30069;0.70712;,
 -13.21384;26.53682;-3.08058;,
 -13.07749;23.30069;4.73101;,
 -22.68464;15.48791;2.61002;,
 -13.02101;15.48791;7.96666;,
 -22.87750;15.48791;-8.43726;,
 -13.40669;15.48791;-14.12788;,
 -3.74303;15.48791;-8.77120;,
 -3.55019;15.48791;2.27604;,
 -13.02101;15.48791;7.96666;,
 -19.91072;7.67511;0.94328;,
 -13.07749;7.67511;4.73101;,
 -20.04709;7.67511;-6.86832;,
 -13.35022;7.67511;-10.89222;,
 -6.51693;7.67511;-7.10444;,
 -6.38059;7.67511;0.70712;,
 -13.07749;7.67511;4.73101;,
 -13.21384;4.43895;-3.08058;,
 -13.21384;4.43895;-3.08058;,
 -13.21384;4.43895;-3.08058;,
 -13.21384;4.43895;-3.08058;,
 -13.21384;4.43895;-3.08058;,
 -13.21384;4.43895;-3.08058;,
 20.62357;36.43161;-0.70435;,
 21.12697;40.10506;-0.71314;,
 -21.38841;42.47982;0.02896;,
 -21.89179;38.80632;0.03776;,
 21.12697;40.10506;-0.71314;,
 21.05072;40.10506;-5.08146;,
 -21.46465;42.47982;-4.33938;,
 -21.38841;42.47982;0.02896;,
 21.05072;40.10506;-5.08146;,
 20.54731;36.43161;-5.07267;,
 -21.96805;38.80632;-4.33059;,
 -21.46465;42.47982;-4.33938;,
 20.54731;36.43161;-5.07267;,
 20.62357;36.43161;-0.70435;,
 -21.89179;38.80632;0.03776;,
 -21.96805;38.80632;-4.33059;,
 21.12697;40.10506;-0.71314;,
 20.62357;36.43161;-0.70435;,
 -21.89179;38.80632;0.03776;,
 -21.38841;42.47982;0.02896;,
 -1.28837;26.53682;-13.72796;,
 -7.98522;23.30069;-9.70407;,
 -1.15202;23.30069;-5.91636;,
 -1.28837;26.53682;-13.72796;,
 -8.12161;23.30069;-17.51572;,
 -1.28837;26.53682;-13.72796;,
 -1.42476;23.30069;-21.53956;,
 -1.28837;26.53682;-13.72796;,
 5.40848;23.30069;-17.75185;,
 -1.28837;26.53682;-13.72796;,
 5.54485;23.30069;-9.94024;,
 -1.28837;26.53682;-13.72796;,
 -1.15202;23.30069;-5.91636;,
 -10.75915;15.48791;-8.03735;,
 -1.09554;15.48791;-2.68069;,
 -10.95204;15.48791;-19.08465;,
 -1.48124;15.48791;-24.77524;,
 8.18239;15.48791;-19.41860;,
 8.37523;15.48791;-8.37135;,
 -1.09554;15.48791;-2.68069;,
 -7.98522;7.67511;-9.70407;,
 -1.15202;7.67511;-5.91636;,
 -8.12161;7.67511;-17.51572;,
 -1.42476;7.67511;-21.53956;,
 5.40848;7.67511;-17.75185;,
 5.54485;7.67511;-9.94024;,
 -1.15202;7.67511;-5.91636;,
 -1.28837;4.43895;-13.72796;,
 -1.28837;4.43895;-13.72796;,
 -1.28837;4.43895;-13.72796;,
 -1.28837;4.43895;-13.72796;,
 -1.28837;4.43895;-13.72796;,
 -1.28837;4.43895;-13.72796;,
 1.46113;37.36803;-0.36985;,
 -2.22582;37.36803;-0.30549;,
 -2.22582;-12.95282;-0.30549;,
 1.46113;-12.95282;-0.36985;,
 -2.22582;37.36803;-0.30549;,
 -2.30207;37.36803;-4.67383;,
 -2.30207;-12.95282;-4.67383;,
 -2.22582;-12.95282;-0.30549;,
 -2.30207;37.36803;-4.67383;,
 1.38488;37.36803;-4.73818;,
 1.38488;-12.95282;-4.73818;,
 -2.30207;-12.95282;-4.67383;,
 1.38488;37.36803;-4.73818;,
 1.46113;37.36803;-0.36985;,
 1.46113;-12.95282;-0.36985;,
 1.38488;-12.95282;-4.73818;,
 -2.22582;37.36803;-0.30549;,
 1.46113;37.36803;-0.36985;,
 1.46113;-12.95282;-0.36985;,
 -2.22582;-12.95282;-0.30549;,
 0.27645;-8.85195;7.65976;,
 -3.47747;-10.27493;9.91535;,
 0.35289;-10.27493;12.03856;,
 0.27645;-8.85195;7.65976;,
 -3.55390;-10.27493;5.53655;,
 0.27645;-8.85195;7.65976;,
 0.20002;-10.27493;3.28096;,
 0.27645;-8.85195;7.65976;,
 4.03039;-10.27493;5.40417;,
 0.27645;-8.85195;7.65976;,
 4.10682;-10.27493;9.78297;,
 0.27645;-8.85195;7.65976;,
 0.35289;-10.27493;12.03856;,
 -5.79754;-14.00033;11.30939;,
 0.40011;-14.00033;14.74477;,
 -5.92120;-14.00033;4.22433;,
 0.15278;-14.00033;0.57472;,
 6.35044;-14.00033;4.01013;,
 6.47410;-14.00033;11.09517;,
 0.40011;-14.00033;14.74477;,
 -5.79754;-18.60517;11.30939;,
 0.40011;-18.60517;14.74477;,
 -5.92120;-18.60517;4.22433;,
 0.15278;-18.60517;0.57472;,
 6.35044;-18.60517;4.01013;,
 6.47410;-18.60517;11.09517;,
 0.40011;-18.60517;14.74477;,
 -3.47747;-22.33058;9.91535;,
 0.35289;-22.33058;12.03856;,
 -3.55390;-22.33058;5.53655;,
 0.20002;-22.33058;3.28096;,
 4.03039;-22.33058;5.40417;,
 4.10682;-22.33058;9.78297;,
 0.35289;-22.33058;12.03856;,
 0.27645;-23.75355;7.65976;,
 0.27645;-23.75355;7.65976;,
 0.27645;-23.75355;7.65976;,
 0.27645;-23.75355;7.65976;,
 0.27645;-23.75355;7.65976;,
 0.27645;-23.75355;7.65976;,
 -0.01435;-8.85195;-9.00062;,
 -3.76828;-10.27493;-6.74503;,
 0.06208;-10.27493;-4.62183;,
 -0.01435;-8.85195;-9.00062;,
 -3.84471;-10.27493;-11.12383;,
 -0.01435;-8.85195;-9.00062;,
 -0.09079;-10.27493;-13.37942;,
 -0.01435;-8.85195;-9.00062;,
 3.73958;-10.27493;-11.25621;,
 -0.01435;-8.85195;-9.00062;,
 3.81601;-10.27493;-6.87742;,
 -0.01435;-8.85195;-9.00062;,
 0.06208;-10.27493;-4.62183;,
 -6.08834;-14.00033;-5.35100;,
 0.10932;-14.00033;-1.91558;,
 -6.21202;-14.00033;-12.43605;,
 -0.13803;-14.00033;-16.08568;,
 6.05964;-14.00033;-12.65024;,
 6.18331;-14.00033;-5.56520;,
 0.10932;-14.00033;-1.91558;,
 -6.08834;-18.60517;-5.35100;,
 0.10932;-18.60517;-1.91558;,
 -6.21202;-18.60517;-12.43605;,
 -0.13803;-18.60517;-16.08568;,
 6.05964;-18.60517;-12.65024;,
 6.18331;-18.60517;-5.56520;,
 0.10932;-18.60517;-1.91558;,
 -3.76828;-22.33058;-6.74503;,
 0.06208;-22.33058;-4.62183;,
 -3.84471;-22.33058;-11.12383;,
 -0.09079;-22.33058;-13.37942;,
 3.73958;-22.33058;-11.25621;,
 3.81601;-22.33058;-6.87742;,
 0.06208;-22.33058;-4.62183;,
 -0.01435;-23.75355;-9.00062;,
 -0.01435;-23.75355;-9.00062;,
 -0.01435;-23.75355;-9.00062;,
 -0.01435;-23.75355;-9.00062;,
 -0.01435;-23.75355;-9.00062;,
 -0.01435;-23.75355;-9.00062;;
 
 264;
 3;0,1,2;,
 3;3,4,1;,
 3;5,6,4;,
 3;7,8,6;,
 3;9,10,8;,
 3;11,12,10;,
 4;2,1,13,14;,
 4;1,4,15,13;,
 4;4,6,16,15;,
 4;6,8,17,16;,
 4;8,10,18,17;,
 4;10,12,19,18;,
 4;14,13,20,21;,
 4;13,15,22,20;,
 4;15,16,23,22;,
 4;16,17,24,23;,
 4;17,18,25,24;,
 4;18,19,26,25;,
 3;21,20,27;,
 3;20,22,28;,
 3;22,23,29;,
 3;23,24,30;,
 3;24,25,31;,
 3;25,26,32;,
 3;33,34,35;,
 3;36,37,34;,
 3;38,39,37;,
 3;40,41,39;,
 3;42,43,41;,
 3;44,45,43;,
 4;35,34,46,47;,
 4;34,37,48,46;,
 4;37,39,49,48;,
 4;39,41,50,49;,
 4;41,43,51,50;,
 4;43,45,52,51;,
 4;47,46,53,54;,
 4;46,48,55,53;,
 4;48,49,56,55;,
 4;49,50,57,56;,
 4;50,51,58,57;,
 4;51,52,59,58;,
 3;54,53,60;,
 3;53,55,61;,
 3;55,56,62;,
 3;56,57,63;,
 3;57,58,64;,
 3;58,59,65;,
 3;66,67,68;,
 3;69,70,67;,
 3;71,72,70;,
 3;73,74,72;,
 3;75,76,74;,
 3;77,78,76;,
 4;68,67,79,80;,
 4;67,70,81,79;,
 4;70,72,82,81;,
 4;72,74,83,82;,
 4;74,76,84,83;,
 4;76,78,85,84;,
 4;80,79,86,87;,
 4;79,81,88,86;,
 4;81,82,89,88;,
 4;82,83,90,89;,
 4;83,84,91,90;,
 4;84,85,92,91;,
 3;87,86,93;,
 3;86,88,94;,
 3;88,89,95;,
 3;89,90,96;,
 3;90,91,97;,
 3;91,92,98;,
 3;99,100,101;,
 3;102,103,100;,
 3;104,105,103;,
 3;106,107,105;,
 3;108,109,107;,
 3;110,111,109;,
 4;101,100,112,113;,
 4;100,103,114,112;,
 4;103,105,115,114;,
 4;105,107,116,115;,
 4;107,109,117,116;,
 4;109,111,118,117;,
 4;113,112,119,120;,
 4;112,114,121,119;,
 4;114,115,122,121;,
 4;115,116,123,122;,
 4;116,117,124,123;,
 4;117,118,125,124;,
 3;120,119,126;,
 3;119,121,127;,
 3;121,122,128;,
 3;122,123,129;,
 3;123,124,130;,
 3;124,125,131;,
 3;132,133,134;,
 3;135,136,133;,
 3;137,138,136;,
 3;139,140,138;,
 3;141,142,140;,
 3;143,144,142;,
 4;134,133,145,146;,
 4;133,136,147,145;,
 4;136,138,148,147;,
 4;138,140,149,148;,
 4;140,142,150,149;,
 4;142,144,151,150;,
 4;146,145,152,153;,
 4;145,147,154,152;,
 4;147,148,155,154;,
 4;148,149,156,155;,
 4;149,150,157,156;,
 4;150,151,158,157;,
 3;153,152,159;,
 3;152,154,160;,
 3;154,155,161;,
 3;155,156,162;,
 3;156,157,163;,
 3;157,158,164;,
 3;165,166,167;,
 3;168,169,166;,
 3;170,171,169;,
 3;172,173,171;,
 3;174,175,173;,
 3;176,177,175;,
 4;167,166,178,179;,
 4;166,169,180,178;,
 4;169,171,181,180;,
 4;171,173,182,181;,
 4;173,175,183,182;,
 4;175,177,184,183;,
 4;179,178,185,186;,
 4;178,180,187,185;,
 4;180,181,188,187;,
 4;181,182,189,188;,
 4;182,183,190,189;,
 4;183,184,191,190;,
 3;186,185,192;,
 3;185,187,193;,
 3;187,188,194;,
 3;188,189,195;,
 3;189,190,196;,
 3;190,191,197;,
 3;198,199,200;,
 3;201,202,199;,
 3;203,204,202;,
 3;205,206,204;,
 3;207,208,206;,
 3;209,210,208;,
 4;200,199,211,212;,
 4;199,202,213,211;,
 4;202,204,214,213;,
 4;204,206,215,214;,
 4;206,208,216,215;,
 4;208,210,217,216;,
 4;212,211,218,219;,
 4;211,213,220,218;,
 4;213,214,221,220;,
 4;214,215,222,221;,
 4;215,216,223,222;,
 4;216,217,224,223;,
 3;219,218,225;,
 3;218,220,226;,
 3;220,221,227;,
 3;221,222,228;,
 3;222,223,229;,
 3;223,224,230;,
 4;231,232,233,234;,
 4;235,236,237,238;,
 4;239,240,241,242;,
 4;243,244,245,246;,
 4;243,236,247,248;,
 4;249,250,237,246;,
 3;251,252,253;,
 3;254,255,252;,
 3;256,257,255;,
 3;258,259,257;,
 3;260,261,259;,
 3;262,263,261;,
 4;253,252,264,265;,
 4;252,255,266,264;,
 4;255,257,267,266;,
 4;257,259,268,267;,
 4;259,261,269,268;,
 4;261,263,270,269;,
 4;265,264,271,272;,
 4;264,266,273,271;,
 4;266,267,274,273;,
 4;267,268,275,274;,
 4;268,269,276,275;,
 4;269,270,277,276;,
 3;272,271,278;,
 3;271,273,279;,
 3;273,274,280;,
 3;274,275,281;,
 3;275,276,282;,
 3;276,277,283;,
 4;284,285,286,287;,
 4;288,289,290,291;,
 4;292,293,294,295;,
 4;296,297,298,299;,
 4;296,289,300,301;,
 4;302,303,290,299;,
 3;304,305,306;,
 3;307,308,305;,
 3;309,310,308;,
 3;311,312,310;,
 3;313,314,312;,
 3;315,316,314;,
 4;306,305,317,318;,
 4;305,308,319,317;,
 4;308,310,320,319;,
 4;310,312,321,320;,
 4;312,314,322,321;,
 4;314,316,323,322;,
 4;318,317,324,325;,
 4;317,319,326,324;,
 4;319,320,327,326;,
 4;320,321,328,327;,
 4;321,322,329,328;,
 4;322,323,330,329;,
 4;325,324,331,332;,
 4;324,326,333,331;,
 4;326,327,334,333;,
 4;327,328,335,334;,
 4;328,329,336,335;,
 4;329,330,337,336;,
 3;332,331,338;,
 3;331,333,339;,
 3;333,334,340;,
 3;334,335,341;,
 3;335,336,342;,
 3;336,337,343;,
 3;344,345,346;,
 3;347,348,345;,
 3;349,350,348;,
 3;351,352,350;,
 3;353,354,352;,
 3;355,356,354;,
 4;346,345,357,358;,
 4;345,348,359,357;,
 4;348,350,360,359;,
 4;350,352,361,360;,
 4;352,354,362,361;,
 4;354,356,363,362;,
 4;358,357,364,365;,
 4;357,359,366,364;,
 4;359,360,367,366;,
 4;360,361,368,367;,
 4;361,362,369,368;,
 4;362,363,370,369;,
 4;365,364,371,372;,
 4;364,366,373,371;,
 4;366,367,374,373;,
 4;367,368,375,374;,
 4;368,369,376,375;,
 4;369,370,377,376;,
 3;372,371,378;,
 3;371,373,379;,
 3;373,374,380;,
 3;374,375,381;,
 3;375,376,382;,
 3;376,377,383;;
 
 MeshMaterialList {
  4;
  264;
  0,
  0,
  0,
  0,
  0,
  0,
  0,
  0,
  0,
  0,
  0,
  0,
  0,
  0,
  0,
  0,
  0,
  0,
  0,
  0,
  0,
  0,
  0,
  0,
  0,
  0,
  0,
  0,
  0,
  0,
  0,
  0,
  0,
  0,
  0,
  0,
  0,
  0,
  0,
  0,
  0,
  0,
  0,
  0,
  0,
  0,
  0,
  0,
  0,
  0,
  0,
  0,
  0,
  0,
  0,
  0,
  0,
  0,
  0,
  0,
  0,
  0,
  0,
  0,
  0,
  0,
  0,
  0,
  0,
  0,
  0,
  0,
  0,
  0,
  0,
  0,
  0,
  0,
  0,
  0,
  0,
  0,
  0,
  0,
  0,
  0,
  0,
  0,
  0,
  0,
  0,
  0,
  0,
  0,
  0,
  0,
  0,
  0,
  0,
  0,
  0,
  0,
  0,
  0,
  0,
  0,
  0,
  0,
  0,
  0,
  0,
  0,
  0,
  0,
  0,
  0,
  0,
  0,
  0,
  0,
  0,
  0,
  0,
  0,
  0,
  0,
  0,
  0,
  0,
  0,
  0,
  0,
  0,
  0,
  0,
  0,
  0,
  0,
  0,
  0,
  0,
  0,
  0,
  0,
  0,
  0,
  0,
  0,
  0,
  0,
  0,
  0,
  0,
  0,
  0,
  0,
  0,
  0,
  0,
  0,
  0,
  0,
  0,
  0,
  0,
  0,
  0,
  0,
  1,
  1,
  1,
  1,
  1,
  1,
  0,
  0,
  0,
  0,
  0,
  0,
  0,
  0,
  0,
  0,
  0,
  0,
  0,
  0,
  0,
  0,
  0,
  0,
  0,
  0,
  0,
  0,
  0,
  0,
  1,
  1,
  1,
  1,
  1,
  1,
  0,
  0,
  0,
  0,
  0,
  0,
  0,
  0,
  0,
  0,
  0,
  0,
  0,
  0,
  0,
  0,
  0,
  0,
  0,
  0,
  0,
  0,
  0,
  0,
  0,
  0,
  0,
  0,
  0,
  0,
  0,
  0,
  0,
  0,
  0,
  0,
  0,
  0,
  0,
  0,
  0,
  0,
  0,
  0,
  0,
  0,
  0,
  0,
  0,
  0,
  0,
  0,
  0,
  0,
  0,
  0,
  0,
  0,
  0,
  0;;
  Material {
   0.298400;0.000000;0.615200;1.000000;;
   5.000000;
   0.090000;0.090000;0.090000;;
   0.000000;0.000000;0.000000;;
  }
  Material {
   0.216800;0.373600;0.000000;1.000000;;
   5.000000;
   0.000000;0.000000;0.000000;;
   0.000000;0.000000;0.000000;;
  }
  Material {
   0.800000;0.712000;0.511200;1.000000;;
   5.000000;
   0.000000;0.000000;0.000000;;
   0.000000;0.000000;0.000000;;
  }
  Material {
   0.373600;0.248000;0.065600;1.000000;;
   5.000000;
   0.000000;0.000000;0.000000;;
   0.000000;0.000000;0.000000;;
  }
 }
 MeshNormals {
  234;
  0.000000;1.000000;-0.000001;,
  0.012668;0.687887;0.725708;,
  -0.592673;0.710383;0.379599;,
  -0.605559;0.710383;-0.358684;,
  -0.012667;0.687887;-0.725708;,
  0.592672;0.710383;-0.379599;,
  0.605560;0.710383;0.358683;,
  0.017453;-0.000000;0.999848;,
  -0.844878;-0.000001;0.534959;,
  -0.863033;-0.000000;-0.505147;,
  -0.017452;-0.000000;-0.999848;,
  0.844878;-0.000000;-0.534959;,
  0.863034;-0.000000;0.505146;,
  0.012668;-0.687886;0.725708;,
  -0.592673;-0.710382;0.379599;,
  -0.605560;-0.710382;-0.358684;,
  -0.012667;-0.687886;-0.725708;,
  0.592673;-0.710382;-0.379600;,
  0.605561;-0.710382;0.358683;,
  0.000000;-1.000000;-0.000001;,
  0.000001;1.000000;0.000000;,
  0.012081;0.721779;0.692018;,
  -0.593264;0.721780;0.356470;,
  -0.605344;0.721780;-0.335548;,
  -0.012079;0.721780;-0.692017;,
  0.593265;0.721780;-0.356469;,
  0.605346;0.721778;0.335549;,
  0.017455;-0.000001;0.999848;,
  -0.857167;-0.000001;0.515039;,
  -0.874619;-0.000001;-0.484810;,
  -0.017452;-0.000001;-0.999848;,
  0.857168;-0.000001;-0.515037;,
  0.874619;-0.000001;0.484810;,
  0.012081;-0.721778;0.692020;,
  -0.593266;-0.721779;0.356471;,
  -0.605345;-0.721779;-0.335549;,
  -0.012079;-0.721778;-0.692019;,
  0.593267;-0.721778;-0.356470;,
  0.605347;-0.721777;0.335549;,
  0.000001;-1.000000;-0.000000;,
  0.000002;1.000000;0.000002;,
  0.012080;0.721780;0.692017;,
  -0.593262;0.721781;0.356471;,
  -0.605342;0.721782;-0.335546;,
  -0.012076;0.721781;-0.692016;,
  0.593266;0.721780;-0.356468;,
  0.605344;0.721780;0.335548;,
  0.017454;-0.000001;0.999848;,
  -0.857166;-0.000001;0.515040;,
  -0.874620;-0.000000;-0.484810;,
  -0.017449;-0.000001;-0.999848;,
  0.857168;-0.000001;-0.515036;,
  0.874620;-0.000001;0.484810;,
  0.012080;-0.721778;0.692019;,
  -0.593264;-0.721780;0.356472;,
  -0.605344;-0.721781;-0.335547;,
  -0.012076;-0.721779;-0.692018;,
  0.593268;-0.721778;-0.356469;,
  0.605345;-0.721779;0.335549;,
  0.000002;-1.000000;0.000002;,
  -0.000001;1.000000;0.000000;,
  0.012079;0.721780;0.692017;,
  -0.593265;0.721780;0.356470;,
  -0.605345;0.721779;-0.335548;,
  -0.012080;0.721780;-0.692017;,
  0.593266;0.721779;-0.356470;,
  0.605345;0.721779;0.335548;,
  0.017453;-0.000001;0.999848;,
  -0.857168;-0.000001;0.515038;,
  -0.874620;-0.000001;-0.484809;,
  -0.017453;-0.000001;-0.999848;,
  0.857168;-0.000001;-0.515037;,
  0.874620;-0.000001;0.484809;,
  0.012079;-0.721778;0.692019;,
  -0.593267;-0.721778;0.356470;,
  -0.605346;-0.721778;-0.335548;,
  -0.012080;-0.721778;-0.692019;,
  0.593267;-0.721777;-0.356471;,
  0.605346;-0.721777;0.335549;,
  -0.000001;-1.000000;0.000000;,
  0.000002;1.000000;-0.000000;,
  0.012082;0.721779;0.692018;,
  -0.593265;0.721780;0.356469;,
  -0.605344;0.721780;-0.335548;,
  -0.012078;0.721780;-0.692017;,
  0.593267;0.721779;-0.356468;,
  0.605347;0.721777;0.335548;,
  0.017456;0.000000;0.999848;,
  -0.857167;0.000001;0.515038;,
  -0.874619;0.000001;-0.484810;,
  -0.017450;0.000001;-0.999848;,
  0.857169;0.000001;-0.515035;,
  0.874620;0.000000;0.484808;,
  0.012082;-0.721778;0.692019;,
  -0.593267;-0.721778;0.356470;,
  -0.605345;-0.721778;-0.335549;,
  -0.012078;-0.721779;-0.692018;,
  0.593268;-0.721777;-0.356469;,
  0.605348;-0.721776;0.335548;,
  0.000002;-1.000000;-0.000000;,
  0.000001;1.000000;0.000000;,
  0.012081;0.721779;0.692018;,
  -0.593264;0.721780;0.356470;,
  -0.605344;0.721780;-0.335549;,
  -0.012079;0.721780;-0.692017;,
  0.593266;0.721780;-0.356468;,
  0.605346;0.721778;0.335549;,
  0.017455;0.000000;0.999848;,
  -0.857167;0.000000;0.515038;,
  -0.874619;0.000001;-0.484810;,
  -0.017452;0.000001;-0.999848;,
  0.857169;0.000001;-0.515036;,
  0.874619;0.000001;0.484811;,
  0.012081;-0.721778;0.692020;,
  -0.593266;-0.721779;0.356470;,
  -0.605345;-0.721779;-0.335549;,
  -0.012079;-0.721779;-0.692019;,
  0.593267;-0.721778;-0.356469;,
  0.605347;-0.721776;0.335550;,
  0.000001;-1.000000;0.000000;,
  -0.000000;1.000000;0.000001;,
  0.012078;0.721780;0.692017;,
  -0.593264;0.721780;0.356470;,
  -0.605344;0.721781;-0.335546;,
  -0.012078;0.721781;-0.692016;,
  0.593265;0.721780;-0.356468;,
  0.605343;0.721780;0.335548;,
  0.017451;0.000000;0.999848;,
  -0.857167;0.000000;0.515039;,
  -0.874620;0.000001;-0.484808;,
  -0.017451;0.000000;-0.999848;,
  0.857168;0.000000;-0.515037;,
  0.874619;0.000000;0.484810;,
  0.012078;-0.721778;0.692019;,
  -0.593266;-0.721779;0.356471;,
  -0.605345;-0.721780;-0.335547;,
  -0.012078;-0.721780;-0.692017;,
  0.593266;-0.721779;-0.356469;,
  0.605344;-0.721779;0.335549;,
  -0.000000;-1.000000;0.000001;,
  0.017452;0.000002;0.999848;,
  0.055753;0.998444;-0.000973;,
  -0.017452;-0.000001;-0.999848;,
  0.000000;1.000000;0.000000;,
  0.012079;0.721780;0.692017;,
  -0.593264;0.721780;0.356471;,
  -0.605342;0.721782;-0.335546;,
  -0.012078;0.721781;-0.692017;,
  0.593265;0.721780;-0.356470;,
  0.605345;0.721780;0.335547;,
  0.017452;0.000001;0.999848;,
  -0.857166;0.000000;0.515040;,
  -0.874620;0.000001;-0.484809;,
  -0.017451;0.000001;-0.999848;,
  0.857167;0.000001;-0.515039;,
  0.874620;0.000001;0.484808;,
  0.012079;-0.721779;0.692019;,
  -0.593265;-0.721779;0.356471;,
  -0.605344;-0.721781;-0.335547;,
  -0.012078;-0.721779;-0.692018;,
  0.593266;-0.721778;-0.356471;,
  0.605346;-0.721778;0.335548;,
  0.000000;-1.000000;0.000000;,
  0.017454;0.000000;0.999848;,
  -0.999848;0.000000;0.017453;,
  -0.017451;0.000000;-0.999848;,
  -0.000001;1.000000;0.000000;,
  0.010067;0.816863;0.576743;,
  -0.494440;0.816864;0.297089;,
  -0.504507;0.816864;-0.279653;,
  -0.010067;0.816865;-0.576742;,
  0.494440;0.816864;-0.297089;,
  0.504507;0.816864;0.279654;,
  0.016559;0.315984;0.948620;,
  -0.813249;0.315986;0.488650;,
  -0.829807;0.315987;-0.459970;,
  -0.016558;0.315986;-0.948619;,
  0.813250;0.315986;-0.488649;,
  0.829807;0.315984;0.459972;,
  -0.175808;-0.407764;0.896002;,
  -0.666685;-0.407767;0.623905;,
  -0.873659;-0.407767;-0.265416;,
  -0.206973;-0.407767;-0.889319;,
  0.666687;-0.407766;-0.623904;,
  0.873660;-0.407764;0.265418;,
  0.010067;-0.816863;0.576744;,
  -0.494440;-0.816864;0.297090;,
  -0.504507;-0.816864;-0.279653;,
  -0.010067;-0.816864;-0.576742;,
  0.494440;-0.816864;-0.297089;,
  0.504508;-0.816863;0.279654;,
  -0.000001;-1.000000;0.000000;,
  0.000000;1.000000;0.000000;,
  0.010067;0.816865;0.576742;,
  -0.494439;0.816865;0.297089;,
  -0.504506;0.816865;-0.279652;,
  -0.010067;0.816865;-0.576741;,
  0.494440;0.816865;-0.297089;,
  0.504506;0.816865;0.279653;,
  0.016558;0.315987;0.948619;,
  -0.813249;0.315987;0.488650;,
  -0.829808;0.315987;-0.459969;,
  -0.016558;0.315987;-0.948619;,
  0.813250;0.315986;-0.488649;,
  0.829807;0.315987;0.459970;,
  -0.175810;-0.407767;0.896000;,
  -0.666686;-0.407767;0.623903;,
  -0.873659;-0.407768;-0.265414;,
  -0.206973;-0.407768;-0.889318;,
  0.666687;-0.407767;-0.623902;,
  0.873659;-0.407767;0.265416;,
  0.010067;-0.816864;0.576742;,
  -0.494440;-0.816864;0.297090;,
  -0.504507;-0.816865;-0.279652;,
  -0.010067;-0.816865;-0.576741;,
  0.494440;-0.816864;-0.297089;,
  0.504507;-0.816864;0.279653;,
  0.000000;-1.000000;0.000000;,
  -0.055751;-0.998444;0.000973;,
  0.990587;-0.135790;-0.017292;,
  -0.990588;0.135784;0.017291;,
  0.999848;0.000000;-0.017453;,
  0.000000;1.000000;0.000000;,
  0.000000;-1.000000;-0.000000;,
  -0.999848;0.000000;0.017451;,
  -0.515037;0.000000;-0.857168;,
  0.484809;0.000000;-0.874620;,
  0.999848;0.000000;-0.017451;,
  0.515036;0.000000;0.857169;,
  -0.999848;0.000000;0.017454;,
  -0.515039;0.000000;-0.857167;,
  0.484811;0.000000;-0.874619;,
  0.999848;0.000000;-0.017452;,
  0.515038;0.000000;0.857167;;
  264;
  3;0,2,1;,
  3;0,3,2;,
  3;0,4,3;,
  3;0,5,4;,
  3;0,6,5;,
  3;0,1,6;,
  4;1,2,8,7;,
  4;2,3,9,8;,
  4;3,4,10,9;,
  4;4,5,11,10;,
  4;5,6,12,11;,
  4;6,1,7,12;,
  4;7,8,14,13;,
  4;8,9,15,14;,
  4;9,10,16,15;,
  4;10,11,17,16;,
  4;11,12,18,17;,
  4;12,7,13,18;,
  3;13,14,19;,
  3;14,15,19;,
  3;15,16,19;,
  3;16,17,19;,
  3;17,18,19;,
  3;18,13,19;,
  3;20,22,21;,
  3;20,23,22;,
  3;20,24,23;,
  3;20,25,24;,
  3;20,26,25;,
  3;20,21,26;,
  4;21,22,28,27;,
  4;22,23,29,28;,
  4;23,24,30,29;,
  4;24,25,31,30;,
  4;25,26,32,31;,
  4;26,21,27,32;,
  4;27,28,34,33;,
  4;28,29,35,34;,
  4;29,30,36,35;,
  4;30,31,37,36;,
  4;31,32,38,37;,
  4;32,27,33,38;,
  3;33,34,39;,
  3;34,35,39;,
  3;35,36,39;,
  3;36,37,39;,
  3;37,38,39;,
  3;38,33,39;,
  3;40,42,41;,
  3;40,43,42;,
  3;40,44,43;,
  3;40,45,44;,
  3;40,46,45;,
  3;40,41,46;,
  4;41,42,48,47;,
  4;42,43,49,48;,
  4;43,44,50,49;,
  4;44,45,51,50;,
  4;45,46,52,51;,
  4;46,41,47,52;,
  4;47,48,54,53;,
  4;48,49,55,54;,
  4;49,50,56,55;,
  4;50,51,57,56;,
  4;51,52,58,57;,
  4;52,47,53,58;,
  3;53,54,59;,
  3;54,55,59;,
  3;55,56,59;,
  3;56,57,59;,
  3;57,58,59;,
  3;58,53,59;,
  3;60,62,61;,
  3;60,63,62;,
  3;60,64,63;,
  3;60,65,64;,
  3;60,66,65;,
  3;60,61,66;,
  4;61,62,68,67;,
  4;62,63,69,68;,
  4;63,64,70,69;,
  4;64,65,71,70;,
  4;65,66,72,71;,
  4;66,61,67,72;,
  4;67,68,74,73;,
  4;68,69,75,74;,
  4;69,70,76,75;,
  4;70,71,77,76;,
  4;71,72,78,77;,
  4;72,67,73,78;,
  3;73,74,79;,
  3;74,75,79;,
  3;75,76,79;,
  3;76,77,79;,
  3;77,78,79;,
  3;78,73,79;,
  3;80,82,81;,
  3;80,83,82;,
  3;80,84,83;,
  3;80,85,84;,
  3;80,86,85;,
  3;80,81,86;,
  4;81,82,88,87;,
  4;82,83,89,88;,
  4;83,84,90,89;,
  4;84,85,91,90;,
  4;85,86,92,91;,
  4;86,81,87,92;,
  4;87,88,94,93;,
  4;88,89,95,94;,
  4;89,90,96,95;,
  4;90,91,97,96;,
  4;91,92,98,97;,
  4;92,87,93,98;,
  3;93,94,99;,
  3;94,95,99;,
  3;95,96,99;,
  3;96,97,99;,
  3;97,98,99;,
  3;98,93,99;,
  3;100,102,101;,
  3;100,103,102;,
  3;100,104,103;,
  3;100,105,104;,
  3;100,106,105;,
  3;100,101,106;,
  4;101,102,108,107;,
  4;102,103,109,108;,
  4;103,104,110,109;,
  4;104,105,111,110;,
  4;105,106,112,111;,
  4;106,101,107,112;,
  4;107,108,114,113;,
  4;108,109,115,114;,
  4;109,110,116,115;,
  4;110,111,117,116;,
  4;111,112,118,117;,
  4;112,107,113,118;,
  3;113,114,119;,
  3;114,115,119;,
  3;115,116,119;,
  3;116,117,119;,
  3;117,118,119;,
  3;118,113,119;,
  3;120,122,121;,
  3;120,123,122;,
  3;120,124,123;,
  3;120,125,124;,
  3;120,126,125;,
  3;120,121,126;,
  4;121,122,128,127;,
  4;122,123,129,128;,
  4;123,124,130,129;,
  4;124,125,131,130;,
  4;125,126,132,131;,
  4;126,121,127,132;,
  4;127,128,134,133;,
  4;128,129,135,134;,
  4;129,130,136,135;,
  4;130,131,137,136;,
  4;131,132,138,137;,
  4;132,127,133,138;,
  3;133,134,139;,
  3;134,135,139;,
  3;135,136,139;,
  3;136,137,139;,
  3;137,138,139;,
  3;138,133,139;,
  4;140,140,140,140;,
  4;141,141,141,141;,
  4;142,142,142,142;,
  4;218,218,218,218;,
  4;219,219,219,219;,
  4;220,220,220,220;,
  3;143,145,144;,
  3;143,146,145;,
  3;143,147,146;,
  3;143,148,147;,
  3;143,149,148;,
  3;143,144,149;,
  4;144,145,151,150;,
  4;145,146,152,151;,
  4;146,147,153,152;,
  4;147,148,154,153;,
  4;148,149,155,154;,
  4;149,144,150,155;,
  4;150,151,157,156;,
  4;151,152,158,157;,
  4;152,153,159,158;,
  4;153,154,160,159;,
  4;154,155,161,160;,
  4;155,150,156,161;,
  3;156,157,162;,
  3;157,158,162;,
  3;158,159,162;,
  3;159,160,162;,
  3;160,161,162;,
  3;161,156,162;,
  4;163,163,163,163;,
  4;164,164,164,164;,
  4;165,165,165,165;,
  4;221,221,221,221;,
  4;222,222,222,222;,
  4;223,223,223,223;,
  3;166,168,167;,
  3;166,169,168;,
  3;166,170,169;,
  3;166,171,170;,
  3;166,172,171;,
  3;166,167,172;,
  4;167,168,174,173;,
  4;168,169,175,174;,
  4;169,170,176,175;,
  4;170,171,177,176;,
  4;171,172,178,177;,
  4;172,167,173,178;,
  4;173,174,180,179;,
  4;174,175,181,224;,
  4;175,176,182,225;,
  4;176,177,183,226;,
  4;177,178,184,227;,
  4;178,173,228,228;,
  4;179,180,186,185;,
  4;180,181,187,186;,
  4;181,182,188,187;,
  4;182,183,189,188;,
  4;183,184,190,189;,
  4;184,179,185,190;,
  3;185,186,191;,
  3;186,187,191;,
  3;187,188,191;,
  3;188,189,191;,
  3;189,190,191;,
  3;190,185,191;,
  3;192,194,193;,
  3;192,195,194;,
  3;192,196,195;,
  3;192,197,196;,
  3;192,198,197;,
  3;192,193,198;,
  4;193,194,200,199;,
  4;194,195,201,200;,
  4;195,196,202,201;,
  4;196,197,203,202;,
  4;197,198,204,203;,
  4;198,193,199,204;,
  4;199,200,206,205;,
  4;200,201,207,229;,
  4;201,202,208,230;,
  4;202,203,209,231;,
  4;203,204,210,232;,
  4;204,199,233,233;,
  4;205,206,212,211;,
  4;206,207,213,212;,
  4;207,208,214,213;,
  4;208,209,215,214;,
  4;209,210,216,215;,
  4;210,205,211,216;,
  3;211,212,217;,
  3;212,213,217;,
  3;213,214,217;,
  3;214,215,217;,
  3;215,216,217;,
  3;216,211,217;;
 }
 MeshTextureCoords {
  384;
  0.083330;0.000000;,
  0.166670;0.250000;,
  0.000000;0.250000;,
  0.250000;0.000000;,
  0.333330;0.250000;,
  0.416670;0.000000;,
  0.500000;0.250000;,
  0.583330;0.000000;,
  0.666670;0.250000;,
  0.750000;0.000000;,
  0.833330;0.250000;,
  0.916670;0.000000;,
  1.000000;0.250000;,
  0.166670;0.500000;,
  0.000000;0.500000;,
  0.333330;0.500000;,
  0.500000;0.500000;,
  0.666670;0.500000;,
  0.833330;0.500000;,
  1.000000;0.500000;,
  0.166670;0.750000;,
  0.000000;0.750000;,
  0.333330;0.750000;,
  0.500000;0.750000;,
  0.666670;0.750000;,
  0.833330;0.750000;,
  1.000000;0.750000;,
  0.083330;1.000000;,
  0.250000;1.000000;,
  0.416670;1.000000;,
  0.583330;1.000000;,
  0.750000;1.000000;,
  0.916670;1.000000;,
  0.083330;0.000000;,
  0.166670;0.250000;,
  0.000000;0.250000;,
  0.250000;0.000000;,
  0.333330;0.250000;,
  0.416670;0.000000;,
  0.500000;0.250000;,
  0.583330;0.000000;,
  0.666670;0.250000;,
  0.750000;0.000000;,
  0.833330;0.250000;,
  0.916670;0.000000;,
  1.000000;0.250000;,
  0.166670;0.500000;,
  0.000000;0.500000;,
  0.333330;0.500000;,
  0.500000;0.500000;,
  0.666670;0.500000;,
  0.833330;0.500000;,
  1.000000;0.500000;,
  0.166670;0.750000;,
  0.000000;0.750000;,
  0.333330;0.750000;,
  0.500000;0.750000;,
  0.666670;0.750000;,
  0.833330;0.750000;,
  1.000000;0.750000;,
  0.083330;1.000000;,
  0.250000;1.000000;,
  0.416670;1.000000;,
  0.583330;1.000000;,
  0.750000;1.000000;,
  0.916670;1.000000;,
  0.083330;0.000000;,
  0.166670;0.250000;,
  0.000000;0.250000;,
  0.250000;0.000000;,
  0.333330;0.250000;,
  0.416670;0.000000;,
  0.500000;0.250000;,
  0.583330;0.000000;,
  0.666670;0.250000;,
  0.750000;0.000000;,
  0.833330;0.250000;,
  0.916670;0.000000;,
  1.000000;0.250000;,
  0.166670;0.500000;,
  0.000000;0.500000;,
  0.333330;0.500000;,
  0.500000;0.500000;,
  0.666670;0.500000;,
  0.833330;0.500000;,
  1.000000;0.500000;,
  0.166670;0.750000;,
  0.000000;0.750000;,
  0.333330;0.750000;,
  0.500000;0.750000;,
  0.666670;0.750000;,
  0.833330;0.750000;,
  1.000000;0.750000;,
  0.083330;1.000000;,
  0.250000;1.000000;,
  0.416670;1.000000;,
  0.583330;1.000000;,
  0.750000;1.000000;,
  0.916670;1.000000;,
  0.083330;0.000000;,
  0.166670;0.250000;,
  0.000000;0.250000;,
  0.250000;0.000000;,
  0.333330;0.250000;,
  0.416670;0.000000;,
  0.500000;0.250000;,
  0.583330;0.000000;,
  0.666670;0.250000;,
  0.750000;0.000000;,
  0.833330;0.250000;,
  0.916670;0.000000;,
  1.000000;0.250000;,
  0.166670;0.500000;,
  0.000000;0.500000;,
  0.333330;0.500000;,
  0.500000;0.500000;,
  0.666670;0.500000;,
  0.833330;0.500000;,
  1.000000;0.500000;,
  0.166670;0.750000;,
  0.000000;0.750000;,
  0.333330;0.750000;,
  0.500000;0.750000;,
  0.666670;0.750000;,
  0.833330;0.750000;,
  1.000000;0.750000;,
  0.083330;1.000000;,
  0.250000;1.000000;,
  0.416670;1.000000;,
  0.583330;1.000000;,
  0.750000;1.000000;,
  0.916670;1.000000;,
  0.083330;0.000000;,
  0.166670;0.250000;,
  0.000000;0.250000;,
  0.250000;0.000000;,
  0.333330;0.250000;,
  0.416670;0.000000;,
  0.500000;0.250000;,
  0.583330;0.000000;,
  0.666670;0.250000;,
  0.750000;0.000000;,
  0.833330;0.250000;,
  0.916670;0.000000;,
  1.000000;0.250000;,
  0.166670;0.500000;,
  0.000000;0.500000;,
  0.333330;0.500000;,
  0.500000;0.500000;,
  0.666670;0.500000;,
  0.833330;0.500000;,
  1.000000;0.500000;,
  0.166670;0.750000;,
  0.000000;0.750000;,
  0.333330;0.750000;,
  0.500000;0.750000;,
  0.666670;0.750000;,
  0.833330;0.750000;,
  1.000000;0.750000;,
  0.083330;1.000000;,
  0.250000;1.000000;,
  0.416670;1.000000;,
  0.583330;1.000000;,
  0.750000;1.000000;,
  0.916670;1.000000;,
  0.083330;0.000000;,
  0.166670;0.250000;,
  0.000000;0.250000;,
  0.250000;0.000000;,
  0.333330;0.250000;,
  0.416670;0.000000;,
  0.500000;0.250000;,
  0.583330;0.000000;,
  0.666670;0.250000;,
  0.750000;0.000000;,
  0.833330;0.250000;,
  0.916670;0.000000;,
  1.000000;0.250000;,
  0.166670;0.500000;,
  0.000000;0.500000;,
  0.333330;0.500000;,
  0.500000;0.500000;,
  0.666670;0.500000;,
  0.833330;0.500000;,
  1.000000;0.500000;,
  0.166670;0.750000;,
  0.000000;0.750000;,
  0.333330;0.750000;,
  0.500000;0.750000;,
  0.666670;0.750000;,
  0.833330;0.750000;,
  1.000000;0.750000;,
  0.083330;1.000000;,
  0.250000;1.000000;,
  0.416670;1.000000;,
  0.583330;1.000000;,
  0.750000;1.000000;,
  0.916670;1.000000;,
  0.083330;0.000000;,
  0.166670;0.250000;,
  0.000000;0.250000;,
  0.250000;0.000000;,
  0.333330;0.250000;,
  0.416670;0.000000;,
  0.500000;0.250000;,
  0.583330;0.000000;,
  0.666670;0.250000;,
  0.750000;0.000000;,
  0.833330;0.250000;,
  0.916670;0.000000;,
  1.000000;0.250000;,
  0.166670;0.500000;,
  0.000000;0.500000;,
  0.333330;0.500000;,
  0.500000;0.500000;,
  0.666670;0.500000;,
  0.833330;0.500000;,
  1.000000;0.500000;,
  0.166670;0.750000;,
  0.000000;0.750000;,
  0.333330;0.750000;,
  0.500000;0.750000;,
  0.666670;0.750000;,
  0.833330;0.750000;,
  1.000000;0.750000;,
  0.083330;1.000000;,
  0.250000;1.000000;,
  0.416670;1.000000;,
  0.583330;1.000000;,
  0.750000;1.000000;,
  0.916670;1.000000;,
  0.000000;0.000000;,
  1.000000;0.000000;,
  1.000000;1.000000;,
  0.000000;1.000000;,
  0.000000;0.000000;,
  1.000000;0.000000;,
  1.000000;1.000000;,
  0.000000;1.000000;,
  0.000000;0.000000;,
  1.000000;0.000000;,
  1.000000;1.000000;,
  0.000000;1.000000;,
  0.000000;0.000000;,
  1.000000;0.000000;,
  1.000000;1.000000;,
  0.000000;1.000000;,
  1.000000;1.000000;,
  0.000000;1.000000;,
  0.000000;0.000000;,
  1.000000;0.000000;,
  0.083330;0.000000;,
  0.166670;0.250000;,
  0.000000;0.250000;,
  0.250000;0.000000;,
  0.333330;0.250000;,
  0.416670;0.000000;,
  0.500000;0.250000;,
  0.583330;0.000000;,
  0.666670;0.250000;,
  0.750000;0.000000;,
  0.833330;0.250000;,
  0.916670;0.000000;,
  1.000000;0.250000;,
  0.166670;0.500000;,
  0.000000;0.500000;,
  0.333330;0.500000;,
  0.500000;0.500000;,
  0.666670;0.500000;,
  0.833330;0.500000;,
  1.000000;0.500000;,
  0.166670;0.750000;,
  0.000000;0.750000;,
  0.333330;0.750000;,
  0.500000;0.750000;,
  0.666670;0.750000;,
  0.833330;0.750000;,
  1.000000;0.750000;,
  0.083330;1.000000;,
  0.250000;1.000000;,
  0.416670;1.000000;,
  0.583330;1.000000;,
  0.750000;1.000000;,
  0.916670;1.000000;,
  0.000000;0.000000;,
  1.000000;0.000000;,
  1.000000;1.000000;,
  0.000000;1.000000;,
  0.000000;0.000000;,
  1.000000;0.000000;,
  1.000000;1.000000;,
  0.000000;1.000000;,
  0.000000;0.000000;,
  1.000000;0.000000;,
  1.000000;1.000000;,
  0.000000;1.000000;,
  0.000000;0.000000;,
  1.000000;0.000000;,
  1.000000;1.000000;,
  0.000000;1.000000;,
  1.000000;1.000000;,
  0.000000;1.000000;,
  0.000000;0.000000;,
  1.000000;0.000000;,
  0.083330;0.000000;,
  0.166670;0.200000;,
  0.000000;0.200000;,
  0.250000;0.000000;,
  0.333330;0.200000;,
  0.416670;0.000000;,
  0.500000;0.200000;,
  0.583330;0.000000;,
  0.666670;0.200000;,
  0.750000;0.000000;,
  0.833330;0.200000;,
  0.916670;0.000000;,
  1.000000;0.200000;,
  0.166670;0.400000;,
  0.000000;0.400000;,
  0.333330;0.400000;,
  0.500000;0.400000;,
  0.666670;0.400000;,
  0.833330;0.400000;,
  1.000000;0.400000;,
  0.166670;0.600000;,
  0.000000;0.600000;,
  0.333330;0.600000;,
  0.500000;0.600000;,
  0.666670;0.600000;,
  0.833330;0.600000;,
  1.000000;0.600000;,
  0.166670;0.800000;,
  0.000000;0.800000;,
  0.333330;0.800000;,
  0.500000;0.800000;,
  0.666670;0.800000;,
  0.833330;0.800000;,
  1.000000;0.800000;,
  0.083330;1.000000;,
  0.250000;1.000000;,
  0.416670;1.000000;,
  0.583330;1.000000;,
  0.750000;1.000000;,
  0.916670;1.000000;,
  0.083330;0.000000;,
  0.166670;0.200000;,
  0.000000;0.200000;,
  0.250000;0.000000;,
  0.333330;0.200000;,
  0.416670;0.000000;,
  0.500000;0.200000;,
  0.583330;0.000000;,
  0.666670;0.200000;,
  0.750000;0.000000;,
  0.833330;0.200000;,
  0.916670;0.000000;,
  1.000000;0.200000;,
  0.166670;0.400000;,
  0.000000;0.400000;,
  0.333330;0.400000;,
  0.500000;0.400000;,
  0.666670;0.400000;,
  0.833330;0.400000;,
  1.000000;0.400000;,
  0.166670;0.600000;,
  0.000000;0.600000;,
  0.333330;0.600000;,
  0.500000;0.600000;,
  0.666670;0.600000;,
  0.833330;0.600000;,
  1.000000;0.600000;,
  0.166670;0.800000;,
  0.000000;0.800000;,
  0.333330;0.800000;,
  0.500000;0.800000;,
  0.666670;0.800000;,
  0.833330;0.800000;,
  1.000000;0.800000;,
  0.083330;1.000000;,
  0.250000;1.000000;,
  0.416670;1.000000;,
  0.583330;1.000000;,
  0.750000;1.000000;,
  0.916670;1.000000;;
 }
}
