xof 0302txt 0064
template Header {
 <3D82AB43-62DA-11cf-AB39-0020AF71E433>
 WORD major;
 WORD minor;
 DWORD flags;
}

template Vector {
 <3D82AB5E-62DA-11cf-AB39-0020AF71E433>
 FLOAT x;
 FLOAT y;
 FLOAT z;
}

template Coords2d {
 <F6F23F44-7686-11cf-8F52-0040333594A3>
 FLOAT u;
 FLOAT v;
}

template Matrix4x4 {
 <F6F23F45-7686-11cf-8F52-0040333594A3>
 array FLOAT matrix[16];
}

template ColorRGBA {
 <35FF44E0-6C7C-11cf-8F52-0040333594A3>
 FLOAT red;
 FLOAT green;
 FLOAT blue;
 FLOAT alpha;
}

template ColorRGB {
 <D3E16E81-7835-11cf-8F52-0040333594A3>
 FLOAT red;
 FLOAT green;
 FLOAT blue;
}

template IndexedColor {
 <1630B820-7842-11cf-8F52-0040333594A3>
 DWORD index;
 ColorRGBA indexColor;
}

template Boolean {
 <4885AE61-78E8-11cf-8F52-0040333594A3>
 WORD truefalse;
}

template Boolean2d {
 <4885AE63-78E8-11cf-8F52-0040333594A3>
 Boolean u;
 Boolean v;
}

template MaterialWrap {
 <4885AE60-78E8-11cf-8F52-0040333594A3>
 Boolean u;
 Boolean v;
}

template TextureFilename {
 <A42790E1-7810-11cf-8F52-0040333594A3>
 STRING filename;
}

template Material {
 <3D82AB4D-62DA-11cf-AB39-0020AF71E433>
 ColorRGBA faceColor;
 FLOAT power;
 ColorRGB specularColor;
 ColorRGB emissiveColor;
 [...]
}

template MeshFace {
 <3D82AB5F-62DA-11cf-AB39-0020AF71E433>
 DWORD nFaceVertexIndices;
 array DWORD faceVertexIndices[nFaceVertexIndices];
}

template MeshFaceWraps {
 <4885AE62-78E8-11cf-8F52-0040333594A3>
 DWORD nFaceWrapValues;
 Boolean2d faceWrapValues;
}

template MeshTextureCoords {
 <F6F23F40-7686-11cf-8F52-0040333594A3>
 DWORD nTextureCoords;
 array Coords2d textureCoords[nTextureCoords];
}

template MeshMaterialList {
 <F6F23F42-7686-11cf-8F52-0040333594A3>
 DWORD nMaterials;
 DWORD nFaceIndexes;
 array DWORD faceIndexes[nFaceIndexes];
 [Material]
}

template MeshNormals {
 <F6F23F43-7686-11cf-8F52-0040333594A3>
 DWORD nNormals;
 array Vector normals[nNormals];
 DWORD nFaceNormals;
 array MeshFace faceNormals[nFaceNormals];
}

template MeshVertexColors {
 <1630B821-7842-11cf-8F52-0040333594A3>
 DWORD nVertexColors;
 array IndexedColor vertexColors[nVertexColors];
}

template Mesh {
 <3D82AB44-62DA-11cf-AB39-0020AF71E433>
 DWORD nVertices;
 array Vector vertices[nVertices];
 DWORD nFaces;
 array MeshFace faces[nFaces];
 [...]
}

Header{
1;
0;
1;
}

Mesh {
 130;
 0.18093;-9.56852;1.80591;,
 -2.35520;-9.56852;0.80690;,
 -2.35520;-26.53330;0.80690;,
 0.18093;-26.53330;1.80591;,
 -3.44212;-9.56852;-1.69284;,
 -3.44212;-26.53330;-1.69284;,
 -2.44311;-9.56852;-4.22897;,
 -2.44311;-26.53330;-4.22897;,
 0.05663;-9.56852;-5.31589;,
 0.05663;-26.53330;-5.31589;,
 2.59277;-9.56852;-4.31687;,
 2.59277;-26.53330;-4.31687;,
 3.67968;-9.56852;-1.81715;,
 3.67968;-26.53330;-1.81715;,
 2.68065;-9.56852;0.71900;,
 2.68065;-26.53330;0.71900;,
 0.18093;-9.56852;1.80591;,
 0.18093;-26.53330;1.80591;,
 0.11878;-9.56852;-1.75500;,
 0.11878;-9.56852;-1.75500;,
 0.11878;-9.56852;-1.75500;,
 0.11878;-9.56852;-1.75500;,
 0.11878;-9.56852;-1.75500;,
 0.11878;-9.56852;-1.75500;,
 0.11878;-9.56852;-1.75500;,
 0.11878;-9.56852;-1.75500;,
 0.11878;-26.53330;-1.75500;,
 0.11878;-26.53330;-1.75500;,
 0.11878;-26.53330;-1.75500;,
 0.11878;-26.53330;-1.75500;,
 0.11878;-26.53330;-1.75500;,
 0.11878;-26.53330;-1.75500;,
 0.11878;-26.53330;-1.75500;,
 0.11878;-26.53330;-1.75500;,
 0.11586;-22.71054;2.37709;,
 3.74540;-22.71054;1.08516;,
 3.86806;-22.71054;-4.66297;,
 -0.04129;-22.71054;-6.62604;,
 -3.80692;-22.71054;-4.52900;,
 -3.48373;-22.71054;1.21135;,
 0.11586;-31.39033;2.37709;,
 -4.34927;-31.39033;2.45503;,
 -4.50642;-31.39033;-6.54810;,
 -0.04129;-31.39033;-6.62604;,
 4.49667;-31.39033;-6.70525;,
 4.65383;-31.39033;2.29788;,
 -0.06837;-24.96055;-8.17729;,
 -0.04129;-22.71054;-6.62604;,
 3.86806;-22.71054;-4.66297;,
 4.49667;-24.96055;-6.70525;,
 -4.50642;-24.96055;-6.54810;,
 -3.80692;-22.71054;-4.52900;,
 4.49667;-24.96055;-6.70525;,
 3.74540;-22.71054;1.08516;,
 4.65383;-24.96055;2.29788;,
 4.65383;-31.39033;2.29788;,
 -4.50642;-24.96055;-6.54810;,
 -4.34927;-31.39033;2.45503;,
 -4.34927;-24.96055;2.45503;,
 -3.48373;-22.71054;1.21135;,
 4.65383;-24.96055;2.29788;,
 3.74540;-22.71054;1.08516;,
 0.11586;-22.71054;2.37709;,
 0.11586;-24.96055;2.37709;,
 0.11586;-31.39033;2.37709;,
 4.65383;-31.39033;2.29788;,
 -4.34927;-24.96055;2.45503;,
 -4.34927;-31.39033;2.45503;,
 -3.48373;-22.71054;1.21135;,
 -0.27586;-28.74287;-20.06287;,
 3.04834;-28.74287;-20.12087;,
 3.04834;-31.39033;-20.12087;,
 -0.27586;-31.39033;-20.06287;,
 -3.52720;-31.39033;-20.00613;,
 -3.52720;-28.74287;-20.00613;,
 -0.18337;-26.89872;-14.76578;,
 3.33964;-27.45092;-14.05774;,
 -3.60670;-27.45092;-13.93650;,
 4.39730;-31.39033;-12.39831;,
 -4.60580;-31.39033;-12.24116;,
 -0.14067;-31.39033;-12.31911;,
 4.47175;-30.53563;-8.13326;,
 4.49667;-31.39033;-6.70525;,
 -0.04129;-31.39033;-6.62604;,
 -0.04938;-30.53563;-7.08840;,
 -4.50642;-31.39033;-6.54810;,
 -4.53135;-30.53563;-7.97611;,
 4.40391;-30.53563;-12.01840;,
 -0.13403;-30.53563;-11.93920;,
 -4.59917;-30.53563;-11.86126;,
 -0.02118;1.77060;-2.41322;,
 -3.77511;0.34761;-0.15764;,
 0.05525;0.34761;1.96557;,
 -0.02118;1.77060;-2.41322;,
 -3.85155;0.34761;-4.53643;,
 -0.02118;1.77060;-2.41322;,
 -0.09762;0.34761;-6.79201;,
 -0.02118;1.77060;-2.41322;,
 3.73274;0.34761;-4.66881;,
 -0.02118;1.77060;-2.41322;,
 3.80917;0.34761;-0.29002;,
 -0.02118;1.77060;-2.41322;,
 0.05525;0.34761;1.96557;,
 -6.09518;-3.37777;1.23640;,
 0.10248;-3.37777;4.67181;,
 -6.21884;-3.37777;-5.84864;,
 -0.14485;-3.37777;-9.49826;,
 6.05276;-3.37777;-6.06284;,
 6.17641;-3.37777;1.02219;,
 0.10248;-3.37777;4.67181;,
 -6.09518;-7.98261;1.23640;,
 0.10248;-7.98261;4.67181;,
 -6.21884;-7.98261;-5.84864;,
 -0.14485;-7.98261;-9.49826;,
 6.05276;-7.98261;-6.06284;,
 6.17641;-7.98261;1.02219;,
 0.10248;-7.98261;4.67181;,
 -3.77511;-11.70801;-0.15764;,
 0.05525;-11.70801;1.96557;,
 -3.85155;-11.70801;-4.53643;,
 -0.09762;-11.70801;-6.79201;,
 3.73274;-11.70801;-4.66881;,
 3.80917;-11.70801;-0.29002;,
 0.05525;-11.70801;1.96557;,
 -0.02118;-13.13098;-2.41322;,
 -0.02118;-13.13098;-2.41322;,
 -0.02118;-13.13098;-2.41322;,
 -0.02118;-13.13098;-2.41322;,
 -0.02118;-13.13098;-2.41322;,
 -0.02118;-13.13098;-2.41322;;
 
 90;
 4;0,1,2,3;,
 4;1,4,5,2;,
 4;4,6,7,5;,
 4;6,8,9,7;,
 4;8,10,11,9;,
 4;10,12,13,11;,
 4;12,14,15,13;,
 4;14,16,17,15;,
 3;18,1,0;,
 3;19,4,1;,
 3;20,6,4;,
 3;21,8,6;,
 3;22,10,8;,
 3;23,12,10;,
 3;24,14,12;,
 3;25,16,14;,
 3;26,3,2;,
 3;27,2,5;,
 3;28,5,7;,
 3;29,7,9;,
 3;30,9,11;,
 3;31,11,13;,
 3;32,13,15;,
 3;33,15,17;,
 4;34,35,36,37;,
 4;34,37,38,39;,
 4;40,41,42,43;,
 4;40,43,44,45;,
 4;46,47,48,49;,
 4;46,50,51,47;,
 4;52,36,53,54;,
 4;52,54,55,44;,
 4;56,42,57,58;,
 4;56,58,59,38;,
 4;60,61,62,63;,
 4;60,63,64,65;,
 4;66,67,64,63;,
 4;66,63,62,68;,
 4;69,70,71,72;,
 4;69,72,73,74;,
 4;75,76,70,69;,
 4;75,69,74,77;,
 4;76,78,71,70;,
 4;77,74,73,79;,
 4;78,80,72,71;,
 4;79,73,72,80;,
 4;81,82,83,84;,
 4;84,83,85,86;,
 4;87,81,84,88;,
 4;87,88,80,78;,
 4;87,76,49,81;,
 4;88,84,86,89;,
 4;88,89,79,80;,
 4;76,75,46,49;,
 4;89,86,50,77;,
 4;75,77,50,46;,
 3;49,82,81;,
 3;76,87,78;,
 3;50,86,85;,
 3;77,79,89;,
 3;90,91,92;,
 3;93,94,91;,
 3;95,96,94;,
 3;97,98,96;,
 3;99,100,98;,
 3;101,102,100;,
 4;92,91,103,104;,
 4;91,94,105,103;,
 4;94,96,106,105;,
 4;96,98,107,106;,
 4;98,100,108,107;,
 4;100,102,109,108;,
 4;104,103,110,111;,
 4;103,105,112,110;,
 4;105,106,113,112;,
 4;106,107,114,113;,
 4;107,108,115,114;,
 4;108,109,116,115;,
 4;111,110,117,118;,
 4;110,112,119,117;,
 4;112,113,120,119;,
 4;113,114,121,120;,
 4;114,115,122,121;,
 4;115,116,123,122;,
 3;118,117,124;,
 3;117,119,125;,
 3;119,120,126;,
 3;120,121,127;,
 3;121,122,128;,
 3;122,123,129;;
 
 MeshMaterialList {
  4;
  90;
  2,
  2,
  2,
  2,
  2,
  2,
  2,
  2,
  2,
  2,
  2,
  2,
  2,
  2,
  2,
  2,
  2,
  2,
  2,
  2,
  2,
  2,
  2,
  2,
  3,
  3,
  3,
  3,
  3,
  3,
  3,
  3,
  3,
  3,
  3,
  3,
  3,
  3,
  3,
  3,
  3,
  3,
  3,
  3,
  3,
  3,
  3,
  3,
  3,
  3,
  3,
  3,
  3,
  3,
  3,
  3,
  3,
  3,
  3,
  3,
  0,
  0,
  0,
  0,
  0,
  0,
  0,
  0,
  0,
  0,
  0,
  0,
  0,
  0,
  0,
  0,
  0,
  0,
  0,
  0,
  0,
  0,
  0,
  0,
  0,
  0,
  0,
  0,
  0,
  0;;
  Material {
   0.298400;0.000000;0.615200;1.000000;;
   5.000000;
   0.090000;0.090000;0.090000;;
   0.000000;0.000000;0.000000;;
  }
  Material {
   0.216800;0.373600;0.000000;1.000000;;
   5.000000;
   0.000000;0.000000;0.000000;;
   0.000000;0.000000;0.000000;;
  }
  Material {
   0.800000;0.712000;0.511200;1.000000;;
   5.000000;
   0.000000;0.000000;0.000000;;
   0.000000;0.000000;0.000000;;
  }
  Material {
   0.373600;0.248000;0.065600;1.000000;;
   5.000000;
   0.000000;0.000000;0.000000;;
   0.000000;0.000000;0.000000;;
  }
 }
 MeshNormals {
  91;
  0.000000;1.000000;0.000000;,
  0.017453;0.000000;0.999848;,
  -0.694658;0.000000;0.719340;,
  -0.999848;0.000000;0.017452;,
  -0.719340;0.000000;-0.694658;,
  -0.017451;0.000000;-0.999848;,
  0.694659;0.000000;-0.719339;,
  0.999848;0.000000;-0.017452;,
  0.719339;0.000000;0.694659;,
  0.000000;-1.000000;-0.000000;,
  -0.180053;0.899428;-0.398260;,
  0.024317;-0.919207;-0.393023;,
  0.163372;0.899575;-0.405060;,
  -0.037522;-0.919222;-0.391948;,
  -0.008452;0.913069;-0.407718;,
  -0.006606;-0.919654;-0.392673;,
  0.985523;0.169347;-0.008102;,
  -0.985206;0.169347;0.026298;,
  0.016520;0.127146;0.991746;,
  -0.017449;0.000000;-0.999848;,
  -0.017445;0.000000;-0.999848;,
  -0.017447;0.000000;-0.999848;,
  0.972115;0.111355;-0.206382;,
  -0.978724;0.111351;-0.172337;,
  0.233749;0.809501;-0.538582;,
  -0.011706;0.834647;-0.550660;,
  -0.256420;0.808864;-0.529139;,
  0.125079;0.948736;-0.290266;,
  -0.006363;0.956855;-0.290495;,
  -0.137696;0.948380;-0.285685;,
  0.000000;1.000000;0.000000;,
  0.010068;0.816864;0.576742;,
  -0.494439;0.816864;0.297089;,
  -0.504506;0.816865;-0.279652;,
  -0.010066;0.816864;-0.576742;,
  0.494442;0.816863;-0.297089;,
  0.504509;0.816863;0.279653;,
  0.016560;0.315986;0.948619;,
  -0.813249;0.315987;0.488650;,
  -0.829807;0.315987;-0.459970;,
  -0.016557;0.315987;-0.948619;,
  0.813251;0.315985;-0.488647;,
  0.829809;0.315984;0.459969;,
  -0.175809;-0.407767;0.896001;,
  -0.666686;-0.407768;0.623904;,
  -0.873659;-0.407768;-0.265416;,
  -0.206972;-0.407767;-0.889319;,
  0.666689;-0.407765;-0.623902;,
  0.873660;-0.407764;0.265417;,
  0.010068;-0.816864;0.576742;,
  -0.494439;-0.816864;0.297090;,
  -0.504506;-0.816865;-0.279653;,
  -0.010066;-0.816864;-0.576742;,
  0.494442;-0.816863;-0.297089;,
  0.504509;-0.816863;0.279653;,
  0.000000;-1.000000;0.000000;,
  0.993376;0.108423;-0.038064;,
  0.942647;0.333788;0.001484;,
  0.999848;0.000000;-0.017454;,
  0.999848;0.000000;-0.017451;,
  -0.994099;0.108423;-0.003372;,
  -0.999848;0.000000;0.017454;,
  -0.999848;0.000000;0.017452;,
  -0.942021;0.333789;0.034382;,
  0.101505;0.126646;0.986741;,
  0.183196;0.250344;0.950667;,
  0.015300;0.254019;0.967078;,
  0.017452;0.000000;0.999848;,
  0.017452;0.000000;0.999848;,
  -0.068598;0.126724;0.989563;,
  0.017453;0.000000;0.999848;,
  -0.153032;0.250462;0.955955;,
  0.094254;0.957433;-0.272833;,
  -0.005783;0.962148;-0.272467;,
  -0.105762;0.957212;-0.269369;,
  0.978528;0.106069;-0.176723;,
  0.989482;0.094884;-0.109188;,
  -0.984100;0.106067;-0.142470;,
  -0.992690;0.094884;-0.074587;,
  0.015945;-0.406232;0.913631;,
  0.015947;-0.406229;0.913632;,
  0.971252;0.111496;-0.210327;,
  0.996577;0.047740;-0.067488;,
  0.015949;-0.406227;0.913633;,
  -0.978000;0.111491;-0.176310;,
  -0.998326;0.047740;-0.032667;,
  -0.999848;0.000000;0.017452;,
  -0.515038;0.000000;-0.857167;,
  0.484812;0.000000;-0.874618;,
  0.999848;0.000000;-0.017450;,
  0.515042;0.000000;0.857165;;
  90;
  4;1,2,2,1;,
  4;2,3,3,2;,
  4;3,4,4,3;,
  4;4,5,5,4;,
  4;5,6,6,5;,
  4;6,7,7,6;,
  4;7,8,8,7;,
  4;8,1,1,8;,
  3;0,0,0;,
  3;0,0,0;,
  3;0,0,0;,
  3;0,0,0;,
  3;0,0,0;,
  3;0,0,0;,
  3;0,0,0;,
  3;0,0,0;,
  3;9,9,9;,
  3;9,9,9;,
  3;9,9,9;,
  3;9,9,9;,
  3;9,9,9;,
  3;9,9,9;,
  3;9,9,9;,
  3;9,9,9;,
  4;0,0,12,14;,
  4;0,14,10,0;,
  4;9,9,11,15;,
  4;9,15,13,9;,
  4;25,14,12,24;,
  4;25,26,10,14;,
  4;56,57,57,16;,
  4;56,16,58,59;,
  4;60,61,62,17;,
  4;60,17,63,63;,
  4;64,65,66,18;,
  4;64,18,67,68;,
  4;69,70,67,18;,
  4;69,18,66,71;,
  4;21,20,20,21;,
  4;21,21,19,19;,
  4;28,27,72,73;,
  4;28,73,74,29;,
  4;75,22,76,76;,
  4;77,78,78,23;,
  4;9,9,9,9;,
  4;9,9,9,9;,
  4;13,13,15,15;,
  4;15,15,11,11;,
  4;9,13,15,9;,
  4;79,80,80,79;,
  4;81,75,56,82;,
  4;9,15,11,9;,
  4;80,83,83,80;,
  4;27,28,25,24;,
  4;84,85,60,77;,
  4;28,29,26,25;,
  3;56,59,82;,
  3;75,81,22;,
  3;60,85,61;,
  3;77,23,84;,
  3;30,32,31;,
  3;30,33,32;,
  3;30,34,33;,
  3;30,35,34;,
  3;30,36,35;,
  3;30,31,36;,
  4;31,32,38,37;,
  4;32,33,39,38;,
  4;33,34,40,39;,
  4;34,35,41,40;,
  4;35,36,42,41;,
  4;36,31,37,42;,
  4;37,38,44,43;,
  4;38,39,45,86;,
  4;39,40,46,87;,
  4;40,41,47,88;,
  4;41,42,48,89;,
  4;42,37,90,90;,
  4;43,44,50,49;,
  4;44,45,51,50;,
  4;45,46,52,51;,
  4;46,47,53,52;,
  4;47,48,54,53;,
  4;48,43,49,54;,
  3;49,50,55;,
  3;50,51,55;,
  3;51,52,55;,
  3;52,53,55;,
  3;53,54,55;,
  3;54,49,55;;
 }
 MeshTextureCoords {
  130;
  0.000000;0.000000;,
  0.125000;0.000000;,
  0.125000;1.000000;,
  0.000000;1.000000;,
  0.250000;0.000000;,
  0.250000;1.000000;,
  0.375000;0.000000;,
  0.375000;1.000000;,
  0.500000;0.000000;,
  0.500000;1.000000;,
  0.625000;0.000000;,
  0.625000;1.000000;,
  0.750000;0.000000;,
  0.750000;1.000000;,
  0.875000;0.000000;,
  0.875000;1.000000;,
  1.000000;0.000000;,
  1.000000;1.000000;,
  0.062500;0.000000;,
  0.187500;0.000000;,
  0.312500;0.000000;,
  0.437500;0.000000;,
  0.562500;0.000000;,
  0.687500;0.000000;,
  0.812500;0.000000;,
  0.937500;0.000000;,
  0.062500;1.000000;,
  0.187500;1.000000;,
  0.312500;1.000000;,
  0.437500;1.000000;,
  0.562500;1.000000;,
  0.687500;1.000000;,
  0.812500;1.000000;,
  0.937500;1.000000;,
  0.504050;1.000000;,
  0.000000;1.000000;,
  0.000000;0.000000;,
  0.504050;0.000000;,
  1.000000;0.000000;,
  1.000000;1.000000;,
  0.504050;0.000000;,
  1.000000;0.000000;,
  1.000000;1.000000;,
  0.504050;1.000000;,
  0.000000;1.000000;,
  0.000000;0.000000;,
  0.495950;0.208810;,
  0.495950;0.000000;,
  1.000000;0.000000;,
  1.000000;0.208810;,
  0.000000;0.208810;,
  0.000000;0.000000;,
  0.000000;0.208810;,
  1.000000;0.000000;,
  1.000000;0.208810;,
  1.000000;1.000000;,
  1.000000;0.208810;,
  0.000000;1.000000;,
  0.000000;0.208810;,
  0.000000;0.000000;,
  0.000000;0.208810;,
  0.000000;0.000000;,
  0.504050;0.000000;,
  0.504050;0.208810;,
  0.504050;1.000000;,
  0.000000;1.000000;,
  1.000000;0.208810;,
  1.000000;1.000000;,
  1.000000;0.000000;,
  0.495950;0.208810;,
  1.000000;0.208810;,
  1.000000;1.000000;,
  0.495950;1.000000;,
  0.000000;1.000000;,
  0.000000;0.208810;,
  0.495950;0.208810;,
  1.000000;0.208810;,
  0.000000;0.208810;,
  1.000000;1.000000;,
  0.000000;1.000000;,
  0.495950;1.000000;,
  1.000000;1.000000;,
  1.000000;1.000000;,
  0.495950;1.000000;,
  0.495950;1.000000;,
  0.000000;1.000000;,
  0.000000;1.000000;,
  1.000000;1.000000;,
  0.495950;1.000000;,
  0.000000;1.000000;,
  0.083330;0.000000;,
  0.166670;0.200000;,
  0.000000;0.200000;,
  0.250000;0.000000;,
  0.333330;0.200000;,
  0.416670;0.000000;,
  0.500000;0.200000;,
  0.583330;0.000000;,
  0.666670;0.200000;,
  0.750000;0.000000;,
  0.833330;0.200000;,
  0.916670;0.000000;,
  1.000000;0.200000;,
  0.166670;0.400000;,
  0.000000;0.400000;,
  0.333330;0.400000;,
  0.500000;0.400000;,
  0.666670;0.400000;,
  0.833330;0.400000;,
  1.000000;0.400000;,
  0.166670;0.600000;,
  0.000000;0.600000;,
  0.333330;0.600000;,
  0.500000;0.600000;,
  0.666670;0.600000;,
  0.833330;0.600000;,
  1.000000;0.600000;,
  0.166670;0.800000;,
  0.000000;0.800000;,
  0.333330;0.800000;,
  0.500000;0.800000;,
  0.666670;0.800000;,
  0.833330;0.800000;,
  1.000000;0.800000;,
  0.083330;1.000000;,
  0.250000;1.000000;,
  0.416670;1.000000;,
  0.583330;1.000000;,
  0.750000;1.000000;,
  0.916670;1.000000;;
 }
}
