xof 0302txt 0064
template Header {
 <3D82AB43-62DA-11cf-AB39-0020AF71E433>
 WORD major;
 WORD minor;
 DWORD flags;
}

template Vector {
 <3D82AB5E-62DA-11cf-AB39-0020AF71E433>
 FLOAT x;
 FLOAT y;
 FLOAT z;
}

template Coords2d {
 <F6F23F44-7686-11cf-8F52-0040333594A3>
 FLOAT u;
 FLOAT v;
}

template Matrix4x4 {
 <F6F23F45-7686-11cf-8F52-0040333594A3>
 array FLOAT matrix[16];
}

template ColorRGBA {
 <35FF44E0-6C7C-11cf-8F52-0040333594A3>
 FLOAT red;
 FLOAT green;
 FLOAT blue;
 FLOAT alpha;
}

template ColorRGB {
 <D3E16E81-7835-11cf-8F52-0040333594A3>
 FLOAT red;
 FLOAT green;
 FLOAT blue;
}

template IndexedColor {
 <1630B820-7842-11cf-8F52-0040333594A3>
 DWORD index;
 ColorRGBA indexColor;
}

template Boolean {
 <4885AE61-78E8-11cf-8F52-0040333594A3>
 WORD truefalse;
}

template Boolean2d {
 <4885AE63-78E8-11cf-8F52-0040333594A3>
 Boolean u;
 Boolean v;
}

template MaterialWrap {
 <4885AE60-78E8-11cf-8F52-0040333594A3>
 Boolean u;
 Boolean v;
}

template TextureFilename {
 <A42790E1-7810-11cf-8F52-0040333594A3>
 STRING filename;
}

template Material {
 <3D82AB4D-62DA-11cf-AB39-0020AF71E433>
 ColorRGBA faceColor;
 FLOAT power;
 ColorRGB specularColor;
 ColorRGB emissiveColor;
 [...]
}

template MeshFace {
 <3D82AB5F-62DA-11cf-AB39-0020AF71E433>
 DWORD nFaceVertexIndices;
 array DWORD faceVertexIndices[nFaceVertexIndices];
}

template MeshFaceWraps {
 <4885AE62-78E8-11cf-8F52-0040333594A3>
 DWORD nFaceWrapValues;
 Boolean2d faceWrapValues;
}

template MeshTextureCoords {
 <F6F23F40-7686-11cf-8F52-0040333594A3>
 DWORD nTextureCoords;
 array Coords2d textureCoords[nTextureCoords];
}

template MeshMaterialList {
 <F6F23F42-7686-11cf-8F52-0040333594A3>
 DWORD nMaterials;
 DWORD nFaceIndexes;
 array DWORD faceIndexes[nFaceIndexes];
 [Material]
}

template MeshNormals {
 <F6F23F43-7686-11cf-8F52-0040333594A3>
 DWORD nNormals;
 array Vector normals[nNormals];
 DWORD nFaceNormals;
 array MeshFace faceNormals[nFaceNormals];
}

template MeshVertexColors {
 <1630B821-7842-11cf-8F52-0040333594A3>
 DWORD nVertexColors;
 array IndexedColor vertexColors[nVertexColors];
}

template Mesh {
 <3D82AB44-62DA-11cf-AB39-0020AF71E433>
 DWORD nVertices;
 array Vector vertices[nVertices];
 DWORD nFaces;
 array MeshFace faces[nFaces];
 [...]
}

Header{
1;
0;
1;
}

Mesh {
 147;
 10.50403;1.23074;2.08872;,
 25.93420;1.36479;2.01674;,
 25.90757;3.85263;0.93688;,
 10.47735;3.71860;1.00886;,
 25.88714;4.84816;-1.58599;,
 10.45696;4.71406;-1.51402;,
 25.88493;3.76817;-4.07394;,
 10.45472;3.63413;-4.00196;,
 25.90217;1.24532;-5.06952;,
 10.47201;1.11130;-4.99754;,
 25.92885;-1.24248;-3.98964;,
 10.49868;-1.37650;-3.91768;,
 25.94927;-2.23798;-1.46678;,
 10.51909;-2.37198;-1.39481;,
 25.95147;-1.15801;1.02118;,
 10.52132;-1.29201;1.09316;,
 25.93420;1.36479;2.01674;,
 10.50403;1.23074;2.08872;,
 10.48801;1.17106;-1.45441;,
 10.48801;1.17106;-1.45441;,
 10.48801;1.17106;-1.45441;,
 10.48801;1.17106;-1.45441;,
 10.48801;1.17106;-1.45441;,
 10.48801;1.17106;-1.45441;,
 10.48801;1.17106;-1.45441;,
 10.48801;1.17106;-1.45441;,
 25.91817;1.30505;-1.52639;,
 25.91817;1.30505;-1.52639;,
 25.91817;1.30505;-1.52639;,
 25.91817;1.30505;-1.52639;,
 25.91817;1.30505;-1.52639;,
 25.91817;1.30505;-1.52639;,
 25.91817;1.30505;-1.52639;,
 25.91817;1.30505;-1.52639;,
 -5.83577;0.16176;-1.15403;,
 -3.74904;0.28637;5.16987;,
 -3.81146;5.71773;1.91084;,
 -5.83577;0.16176;-1.15403;,
 -3.84008;5.61095;-4.42263;,
 -5.83577;0.16176;-1.15403;,
 -3.80628;0.07281;-7.49714;,
 -5.83577;0.16176;-1.15403;,
 -3.74390;-5.35858;-4.23812;,
 -5.83577;0.16176;-1.15403;,
 -3.71529;-5.25179;2.09537;,
 -5.83577;0.16176;-1.15403;,
 -3.74904;0.28637;5.16987;,
 1.65675;0.39917;9.05898;,
 1.55579;9.18732;3.78589;,
 1.50949;9.01455;-6.46199;,
 1.56416;0.05363;-11.43652;,
 1.66512;-8.73455;-6.16343;,
 1.71141;-8.56177;4.08447;,
 1.65675;0.39917;9.05898;,
 8.31687;0.45702;9.02792;,
 8.21590;9.24521;3.75480;,
 8.16961;9.07243;-6.49306;,
 8.22427;0.11149;-11.46758;,
 8.32524;-8.67671;-6.19450;,
 8.37154;-8.50394;4.05341;,
 8.31687;0.45702;9.02792;,
 10.71299;0.41197;5.10241;,
 10.65063;5.84338;1.84338;,
 10.62201;5.73659;-4.49010;,
 10.65575;0.19841;-7.56458;,
 10.71816;-5.23297;-4.30557;,
 10.74677;-5.12615;2.02792;,
 10.71299;0.41197;5.10241;,
 15.71682;0.34889;-1.25456;,
 15.71682;0.34889;-1.25456;,
 15.71682;0.34889;-1.25456;,
 15.71682;0.34889;-1.25456;,
 15.71682;0.34889;-1.25456;,
 15.71682;0.34889;-1.25456;,
 27.89888;-2.34897;2.17762;,
 22.94602;-2.39197;2.20073;,
 22.91049;-2.52462;-5.66806;,
 27.86333;-2.48161;-5.69116;,
 28.29423;4.97352;3.06730;,
 28.24951;4.80665;-6.83070;,
 22.84188;4.75965;-6.80547;,
 22.88659;4.92653;3.09251;,
 28.34266;-0.55164;3.16024;,
 22.93502;-0.59864;3.18547;,
 22.94602;-2.39197;2.20073;,
 27.89888;-2.34897;2.17762;,
 28.29423;4.97352;3.06730;,
 22.88659;4.92653;3.09251;,
 34.06539;2.62793;3.08076;,
 34.02070;2.46108;-6.81723;,
 33.99983;4.83947;-6.85723;,
 34.04453;5.00633;3.04077;,
 22.93502;-0.59864;3.18547;,
 22.89032;-0.76547;-6.71253;,
 22.94602;-2.39197;2.20073;,
 22.88659;4.92653;3.09251;,
 22.89032;-0.76547;-6.71253;,
 28.29796;-0.71851;-6.73775;,
 27.86333;-2.48161;-5.69116;,
 22.91049;-2.52462;-5.66806;,
 22.84188;4.75965;-6.80547;,
 28.24951;4.80665;-6.83070;,
 29.84157;1.01527;3.12705;,
 28.54524;4.97565;3.06613;,
 29.84157;1.01527;3.12705;,
 29.79684;0.84842;-6.77094;,
 28.54524;4.97565;3.06613;,
 28.50053;4.80880;-6.83187;,
 28.50053;4.80880;-6.83187;,
 29.79684;0.84842;-6.77094;,
 29.84157;1.01527;3.12705;,
 29.79684;0.84842;-6.77094;,
 30.61139;4.78731;-6.84104;,
 30.21738;1.67753;-6.78683;,
 33.99983;4.83947;-6.85723;,
 34.02070;2.46108;-6.81723;,
 30.61139;4.78731;-6.84104;,
 30.65610;4.95417;3.05696;,
 34.04453;5.00633;3.04077;,
 30.21738;1.67753;-6.78683;,
 30.26207;1.84441;3.11116;,
 34.02070;2.46108;-6.81723;,
 34.06539;2.62793;3.08076;,
 30.65610;4.95417;3.05696;,
 30.26207;1.84441;3.11116;,
 34.06539;2.62793;3.08076;,
 34.04453;5.00633;3.04077;,
 23.74688;-1.25576;-6.01847;,
 32.01885;-1.18392;-6.05706;,
 31.99185;1.89692;-6.10888;,
 23.71985;1.82506;-6.07029;,
 23.71985;1.82506;-6.07029;,
 31.99185;1.89692;-6.10888;,
 31.98138;1.85784;-8.42746;,
 23.70936;1.78597;-8.38887;,
 23.70936;1.78597;-8.38887;,
 31.98138;1.85784;-8.42746;,
 32.00838;-1.22302;-8.37563;,
 23.73640;-1.29487;-8.33703;,
 23.73640;-1.29487;-8.33703;,
 32.00838;-1.22302;-8.37563;,
 32.01885;-1.18392;-6.05706;,
 23.74688;-1.25576;-6.01847;,
 23.74688;-1.25576;-6.01847;,
 23.71985;1.82506;-6.07029;,
 32.01885;-1.18392;-6.05706;,
 31.99185;1.89692;-6.10888;;
 
 83;
 4;0,1,2,3;,
 4;3,2,4,5;,
 4;5,4,6,7;,
 4;7,6,8,9;,
 4;9,8,10,11;,
 4;11,10,12,13;,
 4;13,12,14,15;,
 4;15,14,16,17;,
 3;18,0,3;,
 3;19,3,5;,
 3;20,5,7;,
 3;21,7,9;,
 3;22,9,11;,
 3;23,11,13;,
 3;24,13,15;,
 3;25,15,17;,
 3;26,2,1;,
 3;27,4,2;,
 3;28,6,4;,
 3;29,8,6;,
 3;30,10,8;,
 3;31,12,10;,
 3;32,14,12;,
 3;33,16,14;,
 3;34,35,36;,
 3;37,36,38;,
 3;39,38,40;,
 3;41,40,42;,
 3;43,42,44;,
 3;45,44,46;,
 4;35,47,48,36;,
 4;36,48,49,38;,
 4;38,49,50,40;,
 4;40,50,51,42;,
 4;42,51,52,44;,
 4;44,52,53,46;,
 4;47,54,55,48;,
 4;48,55,56,49;,
 4;49,56,57,50;,
 4;50,57,58,51;,
 4;51,58,59,52;,
 4;52,59,60,53;,
 4;54,61,62,55;,
 4;55,62,63,56;,
 4;56,63,64,57;,
 4;57,64,65,58;,
 4;58,65,66,59;,
 4;59,66,67,60;,
 3;61,68,62;,
 3;62,69,63;,
 3;63,70,64;,
 3;64,71,65;,
 3;65,72,66;,
 3;66,73,67;,
 4;74,75,76,77;,
 4;78,79,80,81;,
 4;82,83,84,85;,
 4;82,86,87,83;,
 4;88,89,90,91;,
 4;92,93,76,94;,
 4;92,95,80,93;,
 4;96,97,98,99;,
 4;96,100,101,97;,
 4;102,103,86,82;,
 4;104,74,77,105;,
 4;106,107,79,78;,
 4;108,109,97,101;,
 3;110,82,85;,
 3;111,98,97;,
 4;112,113,109,108;,
 4;112,114,115,113;,
 4;116,117,118,90;,
 4;116,107,106,117;,
 4;119,120,104,105;,
 4;119,121,122,120;,
 4;123,124,125,126;,
 4;123,103,102,124;,
 4;127,128,129,130;,
 4;131,132,133,134;,
 4;135,136,137,138;,
 4;139,140,141,142;,
 4;139,143,144,134;,
 4;145,140,133,146;;
 
 MeshMaterialList {
  4;
  83;
  2,
  2,
  2,
  2,
  2,
  2,
  2,
  2,
  2,
  2,
  2,
  2,
  2,
  2,
  2,
  2,
  2,
  2,
  2,
  2,
  2,
  2,
  2,
  2,
  0,
  0,
  0,
  0,
  0,
  0,
  0,
  0,
  0,
  0,
  0,
  0,
  0,
  0,
  0,
  0,
  0,
  0,
  0,
  0,
  0,
  0,
  0,
  0,
  0,
  0,
  0,
  0,
  0,
  0,
  2,
  2,
  2,
  2,
  2,
  2,
  2,
  2,
  2,
  2,
  2,
  2,
  2,
  2,
  2,
  2,
  2,
  2,
  2,
  2,
  2,
  2,
  2,
  2,
  2,
  2,
  2,
  2,
  2;;
  Material {
   0.298400;0.000000;0.615200;1.000000;;
   5.000000;
   0.090000;0.090000;0.090000;;
   0.000000;0.000000;0.000000;;
  }
  Material {
   0.216800;0.373600;0.000000;1.000000;;
   5.000000;
   0.000000;0.000000;0.000000;;
   0.000000;0.000000;0.000000;;
  }
  Material {
   0.800000;0.712000;0.511200;1.000000;;
   5.000000;
   0.000000;0.000000;0.000000;;
   0.000000;0.000000;0.000000;;
  }
  Material {
   0.373600;0.248000;0.065600;1.000000;;
   5.000000;
   0.000000;0.000000;0.000000;;
   0.000000;0.000000;0.000000;;
  }
 }
 MeshNormals {
  97;
  -0.999951;-0.008693;0.004664;,
  0.004518;0.016856;0.999848;,
  -0.003003;0.718894;0.695113;,
  -0.008765;0.999820;-0.016816;,
  -0.009392;0.695056;-0.718895;,
  -0.004518;-0.016863;-0.999848;,
  0.003002;-0.718898;-0.695109;,
  0.008762;-0.999820;0.016816;,
  0.009390;-0.695056;0.718894;,
  0.999951;0.008686;-0.004664;,
  -0.999951;-0.008687;0.004665;,
  -0.814219;0.002628;0.580552;,
  -0.819899;0.497226;0.283781;,
  -0.822505;0.487502;-0.292962;,
  -0.819430;-0.016821;-0.572932;,
  -0.813749;-0.511418;-0.276160;,
  -0.811144;-0.501693;0.300582;,
  -0.311685;0.013250;0.950093;,
  -0.321030;0.826757;0.461966;,
  -0.325316;0.810763;-0.486655;,
  -0.320255;-0.018739;-0.947146;,
  -0.310913;-0.832247;-0.459019;,
  -0.306628;-0.816252;0.489603;,
  0.645407;0.215606;0.732778;,
  0.641494;0.555999;0.528535;,
  0.636424;0.741090;-0.213894;,
  0.638729;0.190681;-0.745430;,
  0.646105;-0.544807;-0.534540;,
  0.651175;-0.729900;0.207888;,
  0.821366;0.016790;0.570155;,
  0.815711;0.509015;0.274807;,
  0.813119;0.499336;-0.299168;,
  0.816179;-0.002565;-0.577793;,
  0.821834;-0.494788;-0.282444;,
  0.824426;-0.485111;0.291529;,
  0.848483;0.529069;-0.012755;,
  0.008759;-0.999820;0.016814;,
  0.999951;0.008695;-0.004661;,
  -0.008767;0.999820;-0.016817;,
  0.554822;-0.785837;0.273190;,
  -0.008690;0.999821;-0.016817;,
  0.552455;-0.794682;-0.251545;,
  0.149937;-0.255497;0.955113;,
  0.006615;-0.240243;0.970690;,
  -0.999951;-0.008692;0.004663;,
  0.141346;-0.287571;-0.947272;,
  0.198243;-0.169186;0.965441;,
  0.004520;0.016859;0.999848;,
  0.817104;-0.527141;-0.233375;,
  0.000747;0.999858;-0.016859;,
  -0.004527;-0.016856;-0.999848;,
  -0.002683;0.999855;-0.016843;,
  0.607073;-0.794575;0.010653;,
  0.004518;0.016857;0.999848;,
  -0.008765;0.999820;-0.016815;,
  -0.004519;-0.016862;-0.999848;,
  -0.999951;-0.008695;0.004666;,
  -0.999951;-0.008691;0.004662;,
  -0.999951;-0.008686;0.004663;,
  -0.999951;-0.008690;0.004666;,
  -0.999951;-0.008696;0.004662;,
  -0.999951;-0.008696;0.004660;,
  -0.999951;-0.008693;0.004663;,
  -0.999951;-0.008694;0.004667;,
  0.999951;0.008677;-0.004671;,
  0.999951;0.008682;-0.004669;,
  0.999952;0.008679;-0.004664;,
  0.999952;0.008675;-0.004659;,
  0.999951;0.008685;-0.004663;,
  0.999951;0.008699;-0.004663;,
  0.999951;0.008699;-0.004661;,
  0.999951;0.008693;-0.004664;,
  -0.008769;0.999820;-0.016817;,
  -0.008295;0.485306;-0.874305;,
  0.000469;-0.514504;-0.857488;,
  0.008761;-0.999820;0.016818;,
  0.008292;-0.485305;0.874306;,
  0.857625;-0.514254;0.004797;,
  0.008270;-0.481260;0.876539;,
  0.004517;0.016859;0.999848;,
  0.004517;0.016860;0.999848;,
  -0.999951;-0.008698;0.004662;,
  -0.999951;-0.008687;0.004663;,
  -0.002118;-0.272826;-0.962061;,
  0.000423;-0.510526;-0.859862;,
  -0.004518;-0.016859;-0.999848;,
  -0.004517;-0.016860;-0.999848;,
  0.878986;-0.476830;0.004067;,
  -0.004525;-0.016859;-0.999848;,
  -0.004519;-0.016856;-0.999848;,
  -0.015471;0.999739;-0.016783;,
  0.201871;-0.979288;0.015598;,
  0.004521;0.016856;0.999848;,
  0.004519;0.016853;0.999848;,
  0.008761;-0.999820;0.016824;,
  -0.999951;-0.008696;0.004666;,
  0.999951;0.008685;-0.004660;;
  83;
  4;1,1,2,2;,
  4;2,2,3,3;,
  4;3,3,4,4;,
  4;4,4,5,5;,
  4;5,5,6,6;,
  4;6,6,7,7;,
  4;7,7,8,8;,
  4;8,8,1,1;,
  3;0,56,57;,
  3;0,57,58;,
  3;0,58,59;,
  3;0,59,60;,
  3;0,60,61;,
  3;0,61,62;,
  3;0,62,63;,
  3;0,63,56;,
  3;9,64,65;,
  3;9,66,64;,
  3;9,67,66;,
  3;9,68,67;,
  3;9,69,68;,
  3;9,70,69;,
  3;9,71,70;,
  3;9,65,71;,
  3;10,11,12;,
  3;10,12,13;,
  3;10,13,14;,
  3;10,14,15;,
  3;10,15,16;,
  3;10,16,11;,
  4;11,17,18,12;,
  4;12,18,19,13;,
  4;13,19,20,14;,
  4;14,20,21,15;,
  4;15,21,22,16;,
  4;16,22,17,11;,
  4;17,23,24,18;,
  4;18,72,25,19;,
  4;19,73,26,20;,
  4;20,74,27,21;,
  4;21,75,28,22;,
  4;22,76,76,17;,
  4;23,29,30,24;,
  4;24,30,31,25;,
  4;25,31,32,26;,
  4;26,32,33,27;,
  4;27,33,34,28;,
  4;28,34,29,23;,
  3;29,35,30;,
  3;30,35,31;,
  3;31,35,32;,
  3;32,77,33;,
  3;33,77,34;,
  3;34,77,29;,
  4;39,36,36,41;,
  4;40,40,38,38;,
  4;42,43,78,78;,
  4;42,79,80,43;,
  4;37,37,37,37;,
  4;44,44,81,81;,
  4;44,82,82,44;,
  4;83,45,84,84;,
  4;83,85,86,45;,
  4;46,47,79,42;,
  4;87,39,41,48;,
  4;49,49,40,40;,
  4;88,88,45,86;,
  3;46,42,39;,
  3;48,41,45;,
  4;50,50,88,88;,
  4;50,89,89,50;,
  4;51,51,90,90;,
  4;51,49,49,51;,
  4;52,52,87,48;,
  4;52,91,91,52;,
  4;92,92,93,93;,
  4;92,47,46,92;,
  4;53,53,53,53;,
  4;54,54,54,54;,
  4;55,55,55,55;,
  4;94,94,94,94;,
  4;95,95,95,95;,
  4;96,96,96,96;;
 }
 MeshTextureCoords {
  147;
  0.000000;0.000000;,
  0.000000;1.000000;,
  0.125000;1.000000;,
  0.125000;0.000000;,
  0.250000;1.000000;,
  0.250000;0.000000;,
  0.375000;1.000000;,
  0.375000;0.000000;,
  0.500000;1.000000;,
  0.500000;0.000000;,
  0.625000;1.000000;,
  0.625000;0.000000;,
  0.750000;1.000000;,
  0.750000;0.000000;,
  0.875000;1.000000;,
  0.875000;0.000000;,
  1.000000;1.000000;,
  1.000000;0.000000;,
  0.062500;0.000000;,
  0.187500;0.000000;,
  0.312500;0.000000;,
  0.437500;0.000000;,
  0.562500;0.000000;,
  0.687500;0.000000;,
  0.812500;0.000000;,
  0.937500;0.000000;,
  0.062500;1.000000;,
  0.187500;1.000000;,
  0.312500;1.000000;,
  0.437500;1.000000;,
  0.562500;1.000000;,
  0.687500;1.000000;,
  0.812500;1.000000;,
  0.937500;1.000000;,
  0.083330;0.000000;,
  0.000000;0.200000;,
  0.166670;0.200000;,
  0.250000;0.000000;,
  0.333330;0.200000;,
  0.416670;0.000000;,
  0.500000;0.200000;,
  0.583330;0.000000;,
  0.666670;0.200000;,
  0.750000;0.000000;,
  0.833330;0.200000;,
  0.916670;0.000000;,
  1.000000;0.200000;,
  0.000000;0.400000;,
  0.166670;0.400000;,
  0.333330;0.400000;,
  0.500000;0.400000;,
  0.666670;0.400000;,
  0.833330;0.400000;,
  1.000000;0.400000;,
  0.000000;0.600000;,
  0.166670;0.600000;,
  0.333330;0.600000;,
  0.500000;0.600000;,
  0.666670;0.600000;,
  0.833330;0.600000;,
  1.000000;0.600000;,
  0.000000;0.800000;,
  0.166670;0.800000;,
  0.333330;0.800000;,
  0.500000;0.800000;,
  0.666670;0.800000;,
  0.833330;0.800000;,
  1.000000;0.800000;,
  0.083330;1.000000;,
  0.250000;1.000000;,
  0.416670;1.000000;,
  0.583330;1.000000;,
  0.750000;1.000000;,
  0.916670;1.000000;,
  1.000000;0.484650;,
  1.000000;0.000000;,
  0.000000;0.000000;,
  0.000000;0.484650;,
  0.000000;0.484650;,
  1.000000;0.484650;,
  1.000000;0.000000;,
  0.000000;0.000000;,
  0.243280;0.484650;,
  0.243280;0.000000;,
  0.000000;0.000000;,
  0.000000;0.484650;,
  1.000000;0.484650;,
  1.000000;0.000000;,
  0.243280;0.000000;,
  0.243280;1.000000;,
  1.000000;1.000000;,
  1.000000;0.000000;,
  0.243280;1.000000;,
  0.243280;0.000000;,
  0.000000;1.000000;,
  1.000000;1.000000;,
  0.756720;0.000000;,
  0.756720;0.484650;,
  1.000000;0.484650;,
  1.000000;0.000000;,
  0.000000;0.000000;,
  0.000000;0.484650;,
  0.243280;0.507150;,
  1.000000;0.507150;,
  1.000000;0.507150;,
  0.000000;0.507150;,
  0.000000;0.507150;,
  1.000000;0.507150;,
  0.000000;0.507150;,
  0.756720;0.507150;,
  0.121640;0.507150;,
  0.878360;0.507150;,
  0.000000;0.696300;,
  0.756720;0.696300;,
  0.000000;1.000000;,
  0.756720;1.000000;,
  1.000000;0.696300;,
  0.000000;0.696300;,
  0.000000;1.000000;,
  0.000000;0.696300;,
  1.000000;0.696300;,
  0.000000;1.000000;,
  1.000000;1.000000;,
  1.000000;0.696300;,
  0.243280;0.696300;,
  0.243280;1.000000;,
  1.000000;1.000000;,
  0.000000;0.000000;,
  0.000000;1.000000;,
  1.000000;1.000000;,
  1.000000;0.000000;,
  0.000000;0.000000;,
  0.000000;1.000000;,
  1.000000;1.000000;,
  1.000000;0.000000;,
  0.000000;0.000000;,
  0.000000;1.000000;,
  1.000000;1.000000;,
  1.000000;0.000000;,
  0.000000;0.000000;,
  0.000000;1.000000;,
  1.000000;1.000000;,
  1.000000;0.000000;,
  0.000000;1.000000;,
  1.000000;1.000000;,
  0.000000;0.000000;,
  1.000000;0.000000;;
 }
}
