xof 0302txt 0064
template Header {
 <3D82AB43-62DA-11cf-AB39-0020AF71E433>
 WORD major;
 WORD minor;
 DWORD flags;
}

template Vector {
 <3D82AB5E-62DA-11cf-AB39-0020AF71E433>
 FLOAT x;
 FLOAT y;
 FLOAT z;
}

template Coords2d {
 <F6F23F44-7686-11cf-8F52-0040333594A3>
 FLOAT u;
 FLOAT v;
}

template Matrix4x4 {
 <F6F23F45-7686-11cf-8F52-0040333594A3>
 array FLOAT matrix[16];
}

template ColorRGBA {
 <35FF44E0-6C7C-11cf-8F52-0040333594A3>
 FLOAT red;
 FLOAT green;
 FLOAT blue;
 FLOAT alpha;
}

template ColorRGB {
 <D3E16E81-7835-11cf-8F52-0040333594A3>
 FLOAT red;
 FLOAT green;
 FLOAT blue;
}

template IndexedColor {
 <1630B820-7842-11cf-8F52-0040333594A3>
 DWORD index;
 ColorRGBA indexColor;
}

template Boolean {
 <4885AE61-78E8-11cf-8F52-0040333594A3>
 WORD truefalse;
}

template Boolean2d {
 <4885AE63-78E8-11cf-8F52-0040333594A3>
 Boolean u;
 Boolean v;
}

template MaterialWrap {
 <4885AE60-78E8-11cf-8F52-0040333594A3>
 Boolean u;
 Boolean v;
}

template TextureFilename {
 <A42790E1-7810-11cf-8F52-0040333594A3>
 STRING filename;
}

template Material {
 <3D82AB4D-62DA-11cf-AB39-0020AF71E433>
 ColorRGBA faceColor;
 FLOAT power;
 ColorRGB specularColor;
 ColorRGB emissiveColor;
 [...]
}

template MeshFace {
 <3D82AB5F-62DA-11cf-AB39-0020AF71E433>
 DWORD nFaceVertexIndices;
 array DWORD faceVertexIndices[nFaceVertexIndices];
}

template MeshFaceWraps {
 <4885AE62-78E8-11cf-8F52-0040333594A3>
 DWORD nFaceWrapValues;
 Boolean2d faceWrapValues;
}

template MeshTextureCoords {
 <F6F23F40-7686-11cf-8F52-0040333594A3>
 DWORD nTextureCoords;
 array Coords2d textureCoords[nTextureCoords];
}

template MeshMaterialList {
 <F6F23F42-7686-11cf-8F52-0040333594A3>
 DWORD nMaterials;
 DWORD nFaceIndexes;
 array DWORD faceIndexes[nFaceIndexes];
 [Material]
}

template MeshNormals {
 <F6F23F43-7686-11cf-8F52-0040333594A3>
 DWORD nNormals;
 array Vector normals[nNormals];
 DWORD nFaceNormals;
 array MeshFace faceNormals[nFaceNormals];
}

template MeshVertexColors {
 <1630B821-7842-11cf-8F52-0040333594A3>
 DWORD nVertexColors;
 array IndexedColor vertexColors[nVertexColors];
}

template Mesh {
 <3D82AB44-62DA-11cf-AB39-0020AF71E433>
 DWORD nVertices;
 array Vector vertices[nVertices];
 DWORD nFaces;
 array MeshFace faces[nFaces];
 [...]
}

Header{
1;
0;
1;
}

Mesh {
 147;
 -10.51091;0.35283;2.59812;,
 -10.53766;2.87562;1.60255;,
 -25.96788;2.74038;1.67451;,
 -25.94110;0.21761;2.67008;,
 -10.55874;3.95544;-0.88544;,
 -25.98893;3.82015;-0.81346;,
 -10.56178;2.95974;-3.40831;,
 -25.99199;2.82449;-3.33634;,
 -10.54500;0.47178;-4.48817;,
 -25.97519;0.33652;-4.41622;,
 -10.51824;-2.05105;-3.49257;,
 -25.94843;-2.18622;-3.42062;,
 -10.49716;-3.13079;-1.00462;,
 -25.92736;-3.26600;-0.93265;,
 -10.49412;-2.13510;1.51827;,
 -25.92432;-2.27030;1.59023;,
 -10.51091;0.35283;2.59812;,
 -25.94110;0.21761;2.67008;,
 -10.52795;0.41231;-0.94502;,
 -10.52795;0.41231;-0.94502;,
 -10.52795;0.41231;-0.94502;,
 -10.52795;0.41231;-0.94502;,
 -10.52795;0.41231;-0.94502;,
 -10.52795;0.41231;-0.94502;,
 -10.52795;0.41231;-0.94502;,
 -10.52795;0.41231;-0.94502;,
 -25.95814;0.27706;-0.87307;,
 -25.95814;0.27706;-0.87307;,
 -25.95814;0.27706;-0.87307;,
 -25.95814;0.27706;-0.87307;,
 -25.95814;0.27706;-0.87307;,
 -25.95814;0.27706;-0.87307;,
 -25.95814;0.27706;-0.87307;,
 -25.95814;0.27706;-0.87307;,
 5.81300;-0.31905;-0.82630;,
 3.72248;5.09458;2.44231;,
 3.78536;-0.44340;5.51681;,
 5.81300;-0.31905;-0.82630;,
 3.69202;5.20090;-3.89121;,
 5.81300;-0.31905;-0.82630;,
 3.72442;-0.23087;-7.15020;,
 5.81300;-0.31905;-0.82630;,
 3.78732;-5.76878;-4.07570;,
 5.81300;-0.31905;-0.82630;,
 3.81779;-5.87506;2.25779;,
 5.81300;-0.31905;-0.82630;,
 3.78536;-0.44340;5.51681;,
 -1.68569;8.40432;4.48166;,
 -1.58392;-0.55628;9.45622;,
 -1.73499;8.57628;-5.76627;,
 -1.68254;-0.21236;-11.03937;,
 -1.58079;-9.17297;-6.06479;,
 -1.53147;-9.34491;4.18311;,
 -1.58392;-0.55628;9.45622;,
 -8.34578;8.34600;4.51271;,
 -8.24403;-0.61464;9.48729;,
 -8.39509;8.51795;-5.73520;,
 -8.34265;-0.27072;-11.00833;,
 -8.24090;-9.23137;-6.03373;,
 -8.19160;-9.40333;4.21417;,
 -8.24403;-0.61464;9.48729;,
 -10.73963;4.96783;2.50975;,
 -10.67668;-0.57012;5.58426;,
 -10.77010;5.07415;-3.82377;,
 -10.73763;-0.35755;-7.08277;,
 -10.67472;-5.89558;-4.00825;,
 -10.64424;-6.00183;2.32524;,
 -10.67668;-0.57012;5.58426;,
 -15.73958;-0.50800;-0.72578;,
 -15.73958;-0.50800;-0.72578;,
 -15.73958;-0.50800;-0.72578;,
 -15.73958;-0.50800;-0.72578;,
 -15.73958;-0.50800;-0.72578;,
 -15.73958;-0.50800;-0.72578;,
 -27.83962;-3.53349;2.72342;,
 -27.87748;-3.40143;-5.14540;,
 -22.92463;-3.35801;-5.16850;,
 -22.88677;-3.49007;2.70032;,
 -28.35295;3.74697;3.86295;,
 -22.94532;3.79438;3.83776;,
 -22.99293;3.96045;-6.06029;,
 -28.40059;3.91306;-6.03507;,
 -28.30494;-1.77824;3.77004;,
 -27.83962;-3.53349;2.72342;,
 -22.88677;-3.49007;2.70032;,
 -22.89731;-1.73085;3.74482;,
 -22.94532;3.79438;3.83776;,
 -28.35295;3.74697;3.86295;,
 -34.08229;1.30103;3.84949;,
 -34.10296;3.67944;3.88949;,
 -34.15057;3.84551;-6.00854;,
 -34.12994;1.46711;-6.04854;,
 -22.89731;-1.73085;3.74482;,
 -22.88677;-3.49007;2.70032;,
 -22.94493;-1.56473;-6.15322;,
 -22.94532;3.79438;3.83776;,
 -22.94493;-1.56473;-6.15322;,
 -22.92463;-3.35801;-5.16850;,
 -27.87748;-3.40143;-5.14540;,
 -28.35259;-1.61212;-6.12800;,
 -28.40059;3.91306;-6.03507;,
 -22.99293;3.96045;-6.06029;,
 -29.83099;-0.23767;3.80323;,
 -28.60395;3.74475;3.86413;,
 -29.83099;-0.23767;3.80323;,
 -29.87861;-0.07158;-6.09481;,
 -28.60395;3.74475;3.86413;,
 -28.65161;3.91085;-6.03390;,
 -28.65161;3.91085;-6.03390;,
 -29.87861;-0.07158;-6.09481;,
 -29.83099;-0.23767;3.80323;,
 -29.87861;-0.07158;-6.09481;,
 -30.76174;3.85251;-6.02472;,
 -30.31352;0.75009;-6.07894;,
 -34.12994;1.46711;-6.04854;,
 -34.15057;3.84551;-6.00854;,
 -30.76174;3.85251;-6.02472;,
 -34.10296;3.67944;3.88949;,
 -30.71412;3.68641;3.87331;,
 -30.31352;0.75009;-6.07894;,
 -30.26588;0.58399;3.81911;,
 -34.08229;1.30103;3.84949;,
 -34.12994;1.46711;-6.04854;,
 -30.71412;3.68641;3.87331;,
 -34.10296;3.67944;3.88949;,
 -34.08229;1.30103;3.84949;,
 -30.26588;0.58399;3.81911;,
 -23.78619;-2.09304;-5.46837;,
 -23.81292;0.98784;-5.41656;,
 -32.08491;0.91531;-5.37797;,
 -32.05814;-2.16558;-5.42979;,
 -23.81292;0.98784;-5.41656;,
 -23.82407;1.02675;-7.73513;,
 -32.09609;0.95424;-7.69656;,
 -32.08491;0.91531;-5.37797;,
 -23.82407;1.02675;-7.73513;,
 -23.79733;-2.05412;-7.78696;,
 -32.06930;-2.12663;-7.74838;,
 -32.09609;0.95424;-7.69656;,
 -23.79733;-2.05412;-7.78696;,
 -23.78619;-2.09304;-5.46837;,
 -32.05814;-2.16558;-5.42979;,
 -32.06930;-2.12663;-7.74838;,
 -23.81292;0.98784;-5.41656;,
 -23.78619;-2.09304;-5.46837;,
 -32.05814;-2.16558;-5.42979;,
 -32.08491;0.91531;-5.37797;;
 
 83;
 4;0,1,2,3;,
 4;1,4,5,2;,
 4;4,6,7,5;,
 4;6,8,9,7;,
 4;8,10,11,9;,
 4;10,12,13,11;,
 4;12,14,15,13;,
 4;14,16,17,15;,
 3;18,1,0;,
 3;19,4,1;,
 3;20,6,4;,
 3;21,8,6;,
 3;22,10,8;,
 3;23,12,10;,
 3;24,14,12;,
 3;25,16,14;,
 3;26,3,2;,
 3;27,2,5;,
 3;28,5,7;,
 3;29,7,9;,
 3;30,9,11;,
 3;31,11,13;,
 3;32,13,15;,
 3;33,15,17;,
 3;34,35,36;,
 3;37,38,35;,
 3;39,40,38;,
 3;41,42,40;,
 3;43,44,42;,
 3;45,46,44;,
 4;36,35,47,48;,
 4;35,38,49,47;,
 4;38,40,50,49;,
 4;40,42,51,50;,
 4;42,44,52,51;,
 4;44,46,53,52;,
 4;48,47,54,55;,
 4;47,49,56,54;,
 4;49,50,57,56;,
 4;50,51,58,57;,
 4;51,52,59,58;,
 4;52,53,60,59;,
 4;55,54,61,62;,
 4;54,56,63,61;,
 4;56,57,64,63;,
 4;57,58,65,64;,
 4;58,59,66,65;,
 4;59,60,67,66;,
 3;62,61,68;,
 3;61,63,69;,
 3;63,64,70;,
 3;64,65,71;,
 3;65,66,72;,
 3;66,67,73;,
 4;74,75,76,77;,
 4;78,79,80,81;,
 4;82,83,84,85;,
 4;82,85,86,87;,
 4;88,89,90,91;,
 4;92,93,76,94;,
 4;92,94,80,95;,
 4;96,97,98,99;,
 4;96,99,100,101;,
 4;102,82,87,103;,
 4;104,105,75,74;,
 4;106,78,81,107;,
 4;108,100,99,109;,
 3;110,83,82;,
 3;111,99,98;,
 4;112,108,109,113;,
 4;112,113,114,115;,
 4;116,90,117,118;,
 4;116,118,106,107;,
 4;119,105,104,120;,
 4;119,120,121,122;,
 4;123,124,125,126;,
 4;123,126,102,103;,
 4;127,128,129,130;,
 4;131,132,133,134;,
 4;135,136,137,138;,
 4;139,140,141,142;,
 4;139,132,143,144;,
 4;145,146,133,142;;
 
 MeshMaterialList {
  4;
  83;
  2,
  2,
  2,
  2,
  2,
  2,
  2,
  2,
  2,
  2,
  2,
  2,
  2,
  2,
  2,
  2,
  2,
  2,
  2,
  2,
  2,
  2,
  2,
  2,
  0,
  0,
  0,
  0,
  0,
  0,
  0,
  0,
  0,
  0,
  0,
  0,
  0,
  0,
  0,
  0,
  0,
  0,
  0,
  0,
  0,
  0,
  0,
  0,
  0,
  0,
  0,
  0,
  0,
  0,
  2,
  2,
  2,
  2,
  2,
  2,
  2,
  2,
  2,
  2,
  2,
  2,
  2,
  2,
  2,
  2,
  2,
  2,
  2,
  2,
  2,
  2,
  2,
  2,
  2,
  2,
  2,
  2,
  2;;
  Material {
   0.298400;0.000000;0.615200;1.000000;;
   5.000000;
   0.090000;0.090000;0.090000;;
   0.000000;0.000000;0.000000;;
  }
  Material {
   0.216800;0.373600;0.000000;1.000000;;
   5.000000;
   0.000000;0.000000;0.000000;;
   0.000000;0.000000;0.000000;;
  }
  Material {
   0.800000;0.712000;0.511200;1.000000;;
   5.000000;
   0.000000;0.000000;0.000000;;
   0.000000;0.000000;0.000000;;
  }
  Material {
   0.373600;0.248000;0.065600;1.000000;;
   5.000000;
   0.000000;0.000000;0.000000;;
   0.000000;0.000000;0.000000;;
  }
 }
 MeshNormals {
  97;
  0.999951;0.008768;-0.004665;,
  0.004810;-0.016779;0.999848;,
  -0.002740;0.695109;0.718899;,
  -0.008686;0.999821;0.016823;,
  -0.009543;0.718840;-0.695110;,
  -0.004810;0.016774;-0.999848;,
  0.002738;-0.695115;-0.718893;,
  0.008682;-0.999821;-0.016817;,
  0.009541;-0.718838;0.695112;,
  -0.999951;-0.008769;0.004664;,
  0.999951;0.008765;-0.004664;,
  0.819599;-0.002517;0.572932;,
  0.813872;0.501780;0.292965;,
  0.811099;0.511456;-0.283779;,
  0.814049;0.016834;-0.580552;,
  0.819776;-0.487460;-0.300582;,
  0.822551;-0.497137;0.276160;,
  0.320535;-0.013147;0.947145;,
  0.311119;0.816315;0.486656;,
  0.306556;0.832233;-0.461966;,
  0.311409;0.018684;-0.950092;,
  0.320827;-0.810777;-0.489603;,
  0.325391;-0.826694;0.459019;,
  -0.641959;0.179505;0.745431;,
  -0.645896;0.526575;0.552754;,
  -0.651168;0.736532;-0.183033;,
  -0.649070;0.204306;-0.732781;,
  -0.641701;-0.537858;-0.546744;,
  -0.636429;-0.747812;0.189036;,
  -0.816011;-0.016810;0.577792;,
  -0.821710;0.485067;0.299170;,
  -0.824473;0.494697;-0.274806;,
  -0.821534;0.002449;-0.570154;,
  -0.815836;-0.499424;-0.291527;,
  -0.813074;-0.509054;0.282444;,
  -0.857592;0.514172;0.012756;,
  0.008686;-0.999821;-0.016821;,
  -0.999951;-0.008762;0.004665;,
  -0.008685;0.999821;0.016818;,
  -0.538504;-0.804203;0.251537;,
  -0.008719;0.999821;0.016819;,
  -0.541028;-0.795398;-0.273186;,
  -0.136303;-0.289998;0.947271;,
  0.006876;-0.272752;0.962060;,
  0.999951;0.008763;-0.004664;,
  -0.145460;-0.258076;-0.955112;,
  -0.185987;-0.204945;0.960940;,
  0.004824;-0.016775;0.999848;,
  -0.810080;-0.533311;-0.243619;,
  -0.018157;0.999693;0.016863;,
  -0.004809;0.016776;-0.999848;,
  -0.014771;0.999749;0.016847;,
  -0.593121;-0.805043;-0.010655;,
  0.004811;-0.016774;0.999848;,
  -0.008686;0.999821;0.016823;,
  -0.004810;0.016777;-0.999848;,
  0.999951;0.008765;-0.004666;,
  0.999951;0.008767;-0.004663;,
  0.999951;0.008768;-0.004665;,
  0.999951;0.008767;-0.004663;,
  0.999951;0.008767;-0.004665;,
  0.999951;0.008769;-0.004665;,
  0.999951;0.008769;-0.004666;,
  0.999951;0.008770;-0.004664;,
  -0.999951;-0.008771;0.004662;,
  -0.999951;-0.008772;0.004658;,
  -0.999951;-0.008768;0.004664;,
  -0.999951;-0.008773;0.004670;,
  -0.999951;-0.008771;0.004666;,
  -0.999951;-0.008765;0.004666;,
  -0.999951;-0.008765;0.004664;,
  -0.999951;-0.008765;0.004662;,
  -0.008677;0.999821;0.016819;,
  -0.008505;0.514434;-0.857488;,
  0.000178;-0.485378;-0.874305;,
  0.008689;-0.999821;-0.016818;,
  0.008510;-0.514434;0.857488;,
  -0.848520;-0.529142;-0.004795;,
  0.008484;-0.510468;0.859855;,
  0.004807;-0.016774;0.999848;,
  0.004819;-0.016776;0.999848;,
  0.999951;0.008759;-0.004664;,
  0.999951;0.008766;-0.004663;,
  -0.002421;-0.240318;-0.970691;,
  0.000131;-0.481322;-0.876544;,
  -0.004810;0.016775;-0.999848;,
  -0.004810;0.016775;-0.999848;,
  -0.870536;-0.492088;-0.004069;,
  -0.004808;0.016775;-0.999848;,
  -0.004811;0.016777;-0.999848;,
  -0.001981;0.999857;0.016787;,
  -0.184746;-0.982662;-0.015600;,
  0.004812;-0.016773;0.999848;,
  0.004808;-0.016773;0.999848;,
  0.008688;-0.999821;-0.016830;,
  0.999951;0.008757;-0.004662;,
  -0.999951;-0.008770;0.004670;;
  83;
  4;1,2,2,1;,
  4;2,3,3,2;,
  4;3,4,4,3;,
  4;4,5,5,4;,
  4;5,6,6,5;,
  4;6,7,7,6;,
  4;7,8,8,7;,
  4;8,1,1,8;,
  3;0,56,57;,
  3;0,58,56;,
  3;0,59,58;,
  3;0,60,59;,
  3;0,61,60;,
  3;0,62,61;,
  3;0,63,62;,
  3;0,57,63;,
  3;9,64,65;,
  3;9,65,66;,
  3;9,66,67;,
  3;9,67,68;,
  3;9,68,69;,
  3;9,69,70;,
  3;9,70,71;,
  3;9,71,64;,
  3;10,12,11;,
  3;10,13,12;,
  3;10,14,13;,
  3;10,15,14;,
  3;10,16,15;,
  3;10,11,16;,
  4;11,12,18,17;,
  4;12,13,19,18;,
  4;13,14,20,19;,
  4;14,15,21,20;,
  4;15,16,22,21;,
  4;16,11,17,22;,
  4;17,18,24,23;,
  4;18,19,25,72;,
  4;19,20,26,73;,
  4;20,21,27,74;,
  4;21,22,28,75;,
  4;22,17,76,76;,
  4;23,24,30,29;,
  4;24,25,31,30;,
  4;25,26,32,31;,
  4;26,27,33,32;,
  4;27,28,34,33;,
  4;28,23,29,34;,
  3;29,30,35;,
  3;30,31,35;,
  3;31,32,35;,
  3;32,33,77;,
  3;33,34,77;,
  3;34,29,77;,
  4;39,41,36,36;,
  4;40,38,38,40;,
  4;42,78,78,43;,
  4;42,43,79,80;,
  4;37,37,37,37;,
  4;44,81,81,44;,
  4;44,44,82,82;,
  4;83,84,84,45;,
  4;83,45,85,86;,
  4;46,42,80,47;,
  4;87,48,41,39;,
  4;49,40,40,49;,
  4;88,85,45,88;,
  3;46,39,42;,
  3;48,45,41;,
  4;50,88,88,50;,
  4;50,50,89,89;,
  4;51,90,90,51;,
  4;51,51,49,49;,
  4;52,48,87,52;,
  4;52,52,91,91;,
  4;92,93,93,92;,
  4;92,92,46,47;,
  4;53,53,53,53;,
  4;54,54,54,54;,
  4;55,55,55,55;,
  4;94,94,94,94;,
  4;95,95,95,95;,
  4;96,96,96,96;;
 }
 MeshTextureCoords {
  147;
  0.000000;0.000000;,
  0.125000;0.000000;,
  0.125000;1.000000;,
  0.000000;1.000000;,
  0.250000;0.000000;,
  0.250000;1.000000;,
  0.375000;0.000000;,
  0.375000;1.000000;,
  0.500000;0.000000;,
  0.500000;1.000000;,
  0.625000;0.000000;,
  0.625000;1.000000;,
  0.750000;0.000000;,
  0.750000;1.000000;,
  0.875000;0.000000;,
  0.875000;1.000000;,
  1.000000;0.000000;,
  1.000000;1.000000;,
  0.062500;0.000000;,
  0.187500;0.000000;,
  0.312500;0.000000;,
  0.437500;0.000000;,
  0.562500;0.000000;,
  0.687500;0.000000;,
  0.812500;0.000000;,
  0.937500;0.000000;,
  0.062500;1.000000;,
  0.187500;1.000000;,
  0.312500;1.000000;,
  0.437500;1.000000;,
  0.562500;1.000000;,
  0.687500;1.000000;,
  0.812500;1.000000;,
  0.937500;1.000000;,
  0.083330;0.000000;,
  0.166670;0.200000;,
  0.000000;0.200000;,
  0.250000;0.000000;,
  0.333330;0.200000;,
  0.416670;0.000000;,
  0.500000;0.200000;,
  0.583330;0.000000;,
  0.666670;0.200000;,
  0.750000;0.000000;,
  0.833330;0.200000;,
  0.916670;0.000000;,
  1.000000;0.200000;,
  0.166670;0.400000;,
  0.000000;0.400000;,
  0.333330;0.400000;,
  0.500000;0.400000;,
  0.666670;0.400000;,
  0.833330;0.400000;,
  1.000000;0.400000;,
  0.166670;0.600000;,
  0.000000;0.600000;,
  0.333330;0.600000;,
  0.500000;0.600000;,
  0.666670;0.600000;,
  0.833330;0.600000;,
  1.000000;0.600000;,
  0.166670;0.800000;,
  0.000000;0.800000;,
  0.333330;0.800000;,
  0.500000;0.800000;,
  0.666670;0.800000;,
  0.833330;0.800000;,
  1.000000;0.800000;,
  0.083330;1.000000;,
  0.250000;1.000000;,
  0.416670;1.000000;,
  0.583330;1.000000;,
  0.750000;1.000000;,
  0.916670;1.000000;,
  1.000000;0.484650;,
  0.000000;0.484650;,
  0.000000;0.000000;,
  1.000000;0.000000;,
  0.000000;0.484650;,
  0.000000;0.000000;,
  1.000000;0.000000;,
  1.000000;0.484650;,
  0.243280;0.484650;,
  0.000000;0.484650;,
  0.000000;0.000000;,
  0.243280;0.000000;,
  1.000000;0.000000;,
  1.000000;0.484650;,
  0.243280;0.000000;,
  1.000000;0.000000;,
  1.000000;1.000000;,
  0.243280;1.000000;,
  0.243280;1.000000;,
  0.000000;1.000000;,
  0.243280;0.000000;,
  1.000000;1.000000;,
  0.756720;0.000000;,
  1.000000;0.000000;,
  1.000000;0.484650;,
  0.756720;0.484650;,
  0.000000;0.484650;,
  0.000000;0.000000;,
  0.243280;0.507150;,
  1.000000;0.507150;,
  1.000000;0.507150;,
  0.000000;0.507150;,
  0.000000;0.507150;,
  1.000000;0.507150;,
  0.000000;0.507150;,
  0.756720;0.507150;,
  0.121640;0.507150;,
  0.878360;0.507150;,
  0.000000;0.696300;,
  0.756720;0.696300;,
  0.756720;1.000000;,
  0.000000;1.000000;,
  1.000000;0.696300;,
  0.000000;1.000000;,
  0.000000;0.696300;,
  0.000000;0.696300;,
  1.000000;0.696300;,
  1.000000;1.000000;,
  0.000000;1.000000;,
  1.000000;0.696300;,
  1.000000;1.000000;,
  0.243280;1.000000;,
  0.243280;0.696300;,
  0.000000;0.000000;,
  1.000000;0.000000;,
  1.000000;1.000000;,
  0.000000;1.000000;,
  0.000000;0.000000;,
  1.000000;0.000000;,
  1.000000;1.000000;,
  0.000000;1.000000;,
  0.000000;0.000000;,
  1.000000;0.000000;,
  1.000000;1.000000;,
  0.000000;1.000000;,
  0.000000;0.000000;,
  1.000000;0.000000;,
  1.000000;1.000000;,
  0.000000;1.000000;,
  1.000000;1.000000;,
  0.000000;1.000000;,
  0.000000;0.000000;,
  1.000000;0.000000;;
 }
}
