xof 0302txt 0064
template Header {
 <3D82AB43-62DA-11cf-AB39-0020AF71E433>
 WORD major;
 WORD minor;
 DWORD flags;
}

template Vector {
 <3D82AB5E-62DA-11cf-AB39-0020AF71E433>
 FLOAT x;
 FLOAT y;
 FLOAT z;
}

template Coords2d {
 <F6F23F44-7686-11cf-8F52-0040333594A3>
 FLOAT u;
 FLOAT v;
}

template Matrix4x4 {
 <F6F23F45-7686-11cf-8F52-0040333594A3>
 array FLOAT matrix[16];
}

template ColorRGBA {
 <35FF44E0-6C7C-11cf-8F52-0040333594A3>
 FLOAT red;
 FLOAT green;
 FLOAT blue;
 FLOAT alpha;
}

template ColorRGB {
 <D3E16E81-7835-11cf-8F52-0040333594A3>
 FLOAT red;
 FLOAT green;
 FLOAT blue;
}

template IndexedColor {
 <1630B820-7842-11cf-8F52-0040333594A3>
 DWORD index;
 ColorRGBA indexColor;
}

template Boolean {
 <4885AE61-78E8-11cf-8F52-0040333594A3>
 WORD truefalse;
}

template Boolean2d {
 <4885AE63-78E8-11cf-8F52-0040333594A3>
 Boolean u;
 Boolean v;
}

template MaterialWrap {
 <4885AE60-78E8-11cf-8F52-0040333594A3>
 Boolean u;
 Boolean v;
}

template TextureFilename {
 <A42790E1-7810-11cf-8F52-0040333594A3>
 STRING filename;
}

template Material {
 <3D82AB4D-62DA-11cf-AB39-0020AF71E433>
 ColorRGBA faceColor;
 FLOAT power;
 ColorRGB specularColor;
 ColorRGB emissiveColor;
 [...]
}

template MeshFace {
 <3D82AB5F-62DA-11cf-AB39-0020AF71E433>
 DWORD nFaceVertexIndices;
 array DWORD faceVertexIndices[nFaceVertexIndices];
}

template MeshFaceWraps {
 <4885AE62-78E8-11cf-8F52-0040333594A3>
 DWORD nFaceWrapValues;
 Boolean2d faceWrapValues;
}

template MeshTextureCoords {
 <F6F23F40-7686-11cf-8F52-0040333594A3>
 DWORD nTextureCoords;
 array Coords2d textureCoords[nTextureCoords];
}

template MeshMaterialList {
 <F6F23F42-7686-11cf-8F52-0040333594A3>
 DWORD nMaterials;
 DWORD nFaceIndexes;
 array DWORD faceIndexes[nFaceIndexes];
 [Material]
}

template MeshNormals {
 <F6F23F43-7686-11cf-8F52-0040333594A3>
 DWORD nNormals;
 array Vector normals[nNormals];
 DWORD nFaceNormals;
 array MeshFace faceNormals[nFaceNormals];
}

template MeshVertexColors {
 <1630B821-7842-11cf-8F52-0040333594A3>
 DWORD nVertexColors;
 array IndexedColor vertexColors[nVertexColors];
}

template Mesh {
 <3D82AB44-62DA-11cf-AB39-0020AF71E433>
 DWORD nVertices;
 array Vector vertices[nVertices];
 DWORD nFaces;
 array MeshFace faces[nFaces];
 [...]
}

Header{
1;
0;
1;
}

Mesh {
 130;
 -0.09950;-9.69009;2.09746;,
 -0.09950;-26.65487;2.09746;,
 2.40023;-26.65487;1.01055;,
 2.40023;-9.69009;1.01055;,
 3.39924;-26.65487;-1.52560;,
 3.39924;-9.69009;-1.52560;,
 2.31233;-26.65487;-4.02532;,
 2.31233;-9.69009;-4.02532;,
 -0.22381;-26.65487;-5.02433;,
 -0.22381;-9.69009;-5.02433;,
 -2.72354;-26.65487;-3.93742;,
 -2.72354;-9.69009;-3.93742;,
 -3.72255;-26.65487;-1.40129;,
 -3.72255;-9.69009;-1.40129;,
 -2.63564;-26.65487;1.09845;,
 -2.63564;-9.69009;1.09845;,
 -0.09950;-26.65487;2.09746;,
 -0.09950;-9.69009;2.09746;,
 -0.16166;-9.69009;-1.46345;,
 -0.16166;-9.69009;-1.46345;,
 -0.16166;-9.69009;-1.46345;,
 -0.16166;-9.69009;-1.46345;,
 -0.16166;-9.69009;-1.46345;,
 -0.16166;-9.69009;-1.46345;,
 -0.16166;-9.69009;-1.46345;,
 -0.16166;-9.69009;-1.46345;,
 -0.16166;-26.65487;-1.46345;,
 -0.16166;-26.65487;-1.46345;,
 -0.16166;-26.65487;-1.46345;,
 -0.16166;-26.65487;-1.46345;,
 -0.16166;-26.65487;-1.46345;,
 -0.16166;-26.65487;-1.46345;,
 -0.16166;-26.65487;-1.46345;,
 -0.16166;-26.65487;-1.46345;,
 -0.01452;-22.83211;2.66602;,
 -0.17168;-22.83211;-6.33712;,
 -4.01016;-22.83211;-4.23880;,
 -3.68695;-22.83211;1.50155;,
 3.54218;-22.83211;1.37536;,
 3.66484;-22.83211;-4.37277;,
 -0.01452;-31.51189;2.66602;,
 -0.17168;-31.51189;-6.33712;,
 4.29345;-31.51189;-6.41505;,
 4.45061;-31.51189;2.58808;,
 -4.55254;-31.51189;2.74523;,
 -4.70971;-31.51189;-6.25792;,
 -0.19875;-25.08212;-7.88836;,
 -4.70971;-25.08212;-6.25792;,
 -4.01016;-22.83211;-4.23880;,
 -0.17168;-22.83211;-6.33712;,
 3.66484;-22.83211;-4.37277;,
 4.29345;-25.08212;-6.41505;,
 -4.70971;-25.08212;-6.25792;,
 -4.55254;-25.08212;2.74523;,
 -3.68695;-22.83211;1.50155;,
 -4.55254;-31.51189;2.74523;,
 4.29345;-25.08212;-6.41505;,
 4.45061;-25.08212;2.58808;,
 4.45061;-31.51189;2.58808;,
 3.54218;-22.83211;1.37536;,
 -4.55254;-25.08212;2.74523;,
 -0.01452;-25.08212;2.66602;,
 -0.01452;-22.83211;2.66602;,
 -3.68695;-22.83211;1.50155;,
 -4.55254;-31.51189;2.74523;,
 -0.01452;-31.51189;2.66602;,
 4.45061;-25.08212;2.58808;,
 4.45061;-31.51189;2.58808;,
 3.54218;-22.83211;1.37536;,
 -0.40628;-28.86444;-19.77398;,
 -0.40628;-31.51189;-19.77398;,
 -3.73048;-31.51189;-19.71596;,
 -3.73048;-28.86444;-19.71596;,
 2.84508;-28.86444;-19.83071;,
 2.84508;-31.51189;-19.83071;,
 -0.31380;-27.02030;-14.47692;,
 -3.80999;-27.57249;-13.64637;,
 3.13642;-27.57249;-13.76759;,
 -4.80911;-31.51189;-11.95105;,
 4.19408;-31.51189;-12.10812;,
 -0.27108;-31.51189;-12.03023;,
 -4.73465;-30.65720;-7.68595;,
 -0.17974;-30.65720;-6.79947;,
 -0.17168;-31.51189;-6.33712;,
 -4.70971;-31.51189;-6.25792;,
 4.26853;-30.65720;-7.84306;,
 4.29345;-31.51189;-6.41505;,
 -4.80245;-30.65720;-11.57110;,
 -0.26444;-30.65720;-11.65029;,
 4.20071;-30.65720;-11.72821;,
 -0.04475;1.64902;-2.12616;,
 0.03167;0.22604;2.25263;,
 3.78562;0.22604;-0.00295;,
 -0.04475;1.64902;-2.12616;,
 3.70918;0.22604;-4.38174;,
 -0.04475;1.64902;-2.12616;,
 -0.12119;0.22604;-6.50495;,
 -0.04475;1.64902;-2.12616;,
 -3.87512;0.22604;-4.24936;,
 -0.04475;1.64902;-2.12616;,
 -3.79867;0.22604;0.12943;,
 -0.04475;1.64902;-2.12616;,
 0.03167;0.22604;2.25263;,
 0.07891;-3.49934;4.95888;,
 6.15290;-3.49934;1.30926;,
 6.02923;-3.49934;-5.77577;,
 -0.16842;-3.49934;-9.21120;,
 -6.24250;-3.49934;-5.56159;,
 -6.11879;-3.49934;1.52347;,
 0.07891;-3.49934;4.95888;,
 0.07891;-8.10418;4.95888;,
 6.15290;-8.10418;1.30926;,
 6.02923;-8.10418;-5.77577;,
 -0.16842;-8.10418;-9.21120;,
 -6.24250;-8.10418;-5.56159;,
 -6.11879;-8.10418;1.52347;,
 0.07891;-8.10418;4.95888;,
 0.03167;-11.82958;2.25263;,
 3.78562;-11.82958;-0.00295;,
 3.70918;-11.82958;-4.38174;,
 -0.12119;-11.82958;-6.50495;,
 -3.87512;-11.82958;-4.24936;,
 -3.79867;-11.82958;0.12943;,
 0.03167;-11.82958;2.25263;,
 -0.04475;-13.25255;-2.12616;,
 -0.04475;-13.25255;-2.12616;,
 -0.04475;-13.25255;-2.12616;,
 -0.04475;-13.25255;-2.12616;,
 -0.04475;-13.25255;-2.12616;,
 -0.04475;-13.25255;-2.12616;;
 
 90;
 4;0,1,2,3;,
 4;3,2,4,5;,
 4;5,4,6,7;,
 4;7,6,8,9;,
 4;9,8,10,11;,
 4;11,10,12,13;,
 4;13,12,14,15;,
 4;15,14,16,17;,
 3;18,0,3;,
 3;19,3,5;,
 3;20,5,7;,
 3;21,7,9;,
 3;22,9,11;,
 3;23,11,13;,
 3;24,13,15;,
 3;25,15,17;,
 3;26,2,1;,
 3;27,4,2;,
 3;28,6,4;,
 3;29,8,6;,
 3;30,10,8;,
 3;31,12,10;,
 3;32,14,12;,
 3;33,16,14;,
 4;34,35,36,37;,
 4;34,38,39,35;,
 4;40,41,42,43;,
 4;40,44,45,41;,
 4;46,47,48,49;,
 4;46,49,50,51;,
 4;52,53,54,36;,
 4;52,45,55,53;,
 4;56,57,58,42;,
 4;56,39,59,57;,
 4;60,61,62,63;,
 4;60,64,65,61;,
 4;66,61,65,67;,
 4;66,68,62,61;,
 4;69,70,71,72;,
 4;69,73,74,70;,
 4;75,69,72,76;,
 4;75,77,73,69;,
 4;76,72,71,78;,
 4;77,79,74,73;,
 4;78,71,70,80;,
 4;79,80,70,74;,
 4;81,82,83,84;,
 4;82,85,86,83;,
 4;87,88,82,81;,
 4;87,78,80,88;,
 4;87,81,47,76;,
 4;88,89,85,82;,
 4;88,80,79,89;,
 4;76,47,46,75;,
 4;89,77,51,85;,
 4;75,46,51,77;,
 3;47,81,84;,
 3;76,78,87;,
 3;51,86,85;,
 3;77,89,79;,
 3;90,91,92;,
 3;93,92,94;,
 3;95,94,96;,
 3;97,96,98;,
 3;99,98,100;,
 3;101,100,102;,
 4;91,103,104,92;,
 4;92,104,105,94;,
 4;94,105,106,96;,
 4;96,106,107,98;,
 4;98,107,108,100;,
 4;100,108,109,102;,
 4;103,110,111,104;,
 4;104,111,112,105;,
 4;105,112,113,106;,
 4;106,113,114,107;,
 4;107,114,115,108;,
 4;108,115,116,109;,
 4;110,117,118,111;,
 4;111,118,119,112;,
 4;112,119,120,113;,
 4;113,120,121,114;,
 4;114,121,122,115;,
 4;115,122,123,116;,
 3;117,124,118;,
 3;118,125,119;,
 3;119,126,120;,
 3;120,127,121;,
 3;121,128,122;,
 3;122,129,123;;
 
 MeshMaterialList {
  4;
  90;
  2,
  2,
  2,
  2,
  2,
  2,
  2,
  2,
  2,
  2,
  2,
  2,
  2,
  2,
  2,
  2,
  2,
  2,
  2,
  2,
  2,
  2,
  2,
  2,
  3,
  3,
  3,
  3,
  3,
  3,
  3,
  3,
  3,
  3,
  3,
  3,
  3,
  3,
  3,
  3,
  3,
  3,
  3,
  3,
  3,
  3,
  3,
  3,
  3,
  3,
  3,
  3,
  3,
  3,
  3,
  3,
  3,
  3,
  3,
  3,
  0,
  0,
  0,
  0,
  0,
  0,
  0,
  0,
  0,
  0,
  0,
  0,
  0,
  0,
  0,
  0,
  0,
  0,
  0,
  0,
  0,
  0,
  0,
  0,
  0,
  0,
  0,
  0,
  0,
  0;;
  Material {
   0.298400;0.000000;0.615200;1.000000;;
   5.000000;
   0.090000;0.090000;0.090000;;
   0.000000;0.000000;0.000000;;
  }
  Material {
   0.216800;0.373600;0.000000;1.000000;;
   5.000000;
   0.000000;0.000000;0.000000;;
   0.000000;0.000000;0.000000;;
  }
  Material {
   0.800000;0.712000;0.511200;1.000000;;
   5.000000;
   0.000000;0.000000;0.000000;;
   0.000000;0.000000;0.000000;;
  }
  Material {
   0.373600;0.248000;0.065600;1.000000;;
   5.000000;
   0.000000;0.000000;0.000000;;
   0.000000;0.000000;0.000000;;
  }
 }
 MeshNormals {
  91;
  0.000000;1.000000;0.000000;,
  0.017452;0.000000;0.999848;,
  0.719340;0.000000;0.694658;,
  0.999848;0.000000;-0.017454;,
  0.694658;0.000000;-0.719340;,
  -0.017452;0.000000;-0.999848;,
  -0.719339;0.000000;-0.694659;,
  -0.999848;0.000000;0.017451;,
  -0.694659;0.000000;0.719339;,
  0.000000;-1.000000;-0.000000;,
  0.166045;0.899427;-0.404301;,
  -0.038018;-0.919207;-0.391936;,
  -0.177406;0.899577;-0.399111;,
  0.023822;-0.919222;-0.393018;,
  -0.005780;0.913069;-0.407764;,
  -0.007101;-0.919654;-0.392665;,
  -0.985204;0.169357;0.026300;,
  0.985523;0.169349;-0.008102;,
  0.018102;0.127146;0.991719;,
  -0.017445;0.000000;-0.999848;,
  -0.017451;0.000000;-0.999848;,
  -0.017448;0.000000;-0.999848;,
  -0.978726;0.111363;-0.172321;,
  0.972113;0.111348;-0.206395;,
  -0.252398;0.809503;-0.530094;,
  -0.007517;0.834648;-0.550732;,
  0.237797;0.808864;-0.537765;,
  -0.135129;0.948737;-0.285723;,
  -0.003777;0.956856;-0.290539;,
  0.127642;0.948379;-0.290317;,
  -0.000000;1.000000;0.000000;,
  0.010067;0.816865;0.576741;,
  0.504506;0.816865;0.279653;,
  0.494440;0.816864;-0.297089;,
  -0.010066;0.816865;-0.576741;,
  -0.504502;0.816868;-0.279650;,
  -0.494435;0.816867;0.297089;,
  0.016559;0.315987;0.948619;,
  0.829808;0.315986;0.459970;,
  0.813250;0.315986;-0.488649;,
  -0.016554;0.315988;-0.948619;,
  -0.829805;0.315993;-0.459970;,
  -0.813245;0.315992;0.488652;,
  0.206973;-0.407768;0.889318;,
  0.688054;-0.407767;0.600256;,
  0.863864;-0.407767;-0.295744;,
  0.175812;-0.407769;-0.895999;,
  -0.688048;-0.407775;-0.600257;,
  -0.863860;-0.407774;0.295747;,
  0.010067;-0.816865;0.576741;,
  0.504506;-0.816865;0.279653;,
  0.494440;-0.816864;-0.297089;,
  -0.010066;-0.816865;-0.576741;,
  -0.504502;-0.816868;-0.279650;,
  -0.494435;-0.816867;0.297089;,
  -0.000000;-1.000000;0.000000;,
  -0.994098;0.108428;-0.003369;,
  -0.942014;0.333807;0.034384;,
  -0.999848;0.000000;0.017458;,
  -0.999848;0.000000;0.017454;,
  0.993376;0.108424;-0.038063;,
  0.999848;0.000000;-0.017453;,
  0.999848;0.000000;-0.017451;,
  0.942645;0.333792;0.001484;,
  -0.067007;0.126646;0.989682;,
  0.018461;0.254020;0.967023;,
  -0.149906;0.250344;0.956481;,
  0.017452;0.000000;0.999848;,
  0.017452;0.000000;0.999848;,
  0.103093;0.126725;0.986566;,
  0.017453;0.000000;0.999848;,
  0.186303;0.250463;0.950031;,
  -0.003727;0.962147;-0.272504;,
  -0.103715;0.957434;-0.269377;,
  0.096298;0.957211;-0.272898;,
  -0.984100;0.106075;-0.142459;,
  -0.992690;0.094886;-0.074589;,
  0.978528;0.106065;-0.176731;,
  0.989482;0.094882;-0.109194;,
  0.015942;-0.406265;0.913616;,
  0.015941;-0.406256;0.913620;,
  -0.978002;0.111503;-0.176293;,
  -0.998326;0.047741;-0.032663;,
  0.015940;-0.406247;0.913624;,
  0.971251;0.111490;-0.210336;,
  0.996577;0.047741;-0.067487;,
  0.999848;0.000000;-0.017452;,
  0.484811;0.000000;-0.874619;,
  -0.515031;0.000000;-0.857171;,
  -0.999848;0.000000;0.017458;,
  -0.484806;0.000000;0.874622;;
  90;
  4;1,1,2,2;,
  4;2,2,3,3;,
  4;3,3,4,4;,
  4;4,4,5,5;,
  4;5,5,6,6;,
  4;6,6,7,7;,
  4;7,7,8,8;,
  4;8,8,1,1;,
  3;0,0,0;,
  3;0,0,0;,
  3;0,0,0;,
  3;0,0,0;,
  3;0,0,0;,
  3;0,0,0;,
  3;0,0,0;,
  3;0,0,0;,
  3;9,9,9;,
  3;9,9,9;,
  3;9,9,9;,
  3;9,9,9;,
  3;9,9,9;,
  3;9,9,9;,
  3;9,9,9;,
  3;9,9,9;,
  4;0,14,12,0;,
  4;0,0,10,14;,
  4;9,15,11,9;,
  4;9,9,13,15;,
  4;25,24,12,14;,
  4;25,14,10,26;,
  4;56,16,57,57;,
  4;56,58,59,16;,
  4;60,17,61,62;,
  4;60,63,63,17;,
  4;64,18,65,66;,
  4;64,67,68,18;,
  4;69,18,68,70;,
  4;69,71,65,18;,
  4;21,21,20,20;,
  4;21,19,19,21;,
  4;28,72,73,27;,
  4;28,29,74,72;,
  4;75,76,76,22;,
  4;77,23,78,78;,
  4;9,9,9,9;,
  4;9,9,9,9;,
  4;13,15,15,13;,
  4;15,11,11,15;,
  4;9,9,15,13;,
  4;79,79,80,80;,
  4;81,82,56,75;,
  4;9,9,11,15;,
  4;80,80,83,83;,
  4;27,24,25,28;,
  4;84,77,60,85;,
  4;28,25,26,29;,
  3;56,82,58;,
  3;75,22,81;,
  3;60,62,85;,
  3;77,84,23;,
  3;30,31,32;,
  3;30,32,33;,
  3;30,33,34;,
  3;30,34,35;,
  3;30,35,36;,
  3;30,36,31;,
  4;31,37,38,32;,
  4;32,38,39,33;,
  4;33,39,40,34;,
  4;34,40,41,35;,
  4;35,41,42,36;,
  4;36,42,37,31;,
  4;37,43,44,38;,
  4;38,86,45,39;,
  4;39,87,46,40;,
  4;40,88,47,41;,
  4;41,89,48,42;,
  4;42,90,90,37;,
  4;43,49,50,44;,
  4;44,50,51,45;,
  4;45,51,52,46;,
  4;46,52,53,47;,
  4;47,53,54,48;,
  4;48,54,49,43;,
  3;49,55,50;,
  3;50,55,51;,
  3;51,55,52;,
  3;52,55,53;,
  3;53,55,54;,
  3;54,55,49;;
 }
 MeshTextureCoords {
  130;
  0.000000;0.000000;,
  0.000000;1.000000;,
  0.125000;1.000000;,
  0.125000;0.000000;,
  0.250000;1.000000;,
  0.250000;0.000000;,
  0.375000;1.000000;,
  0.375000;0.000000;,
  0.500000;1.000000;,
  0.500000;0.000000;,
  0.625000;1.000000;,
  0.625000;0.000000;,
  0.750000;1.000000;,
  0.750000;0.000000;,
  0.875000;1.000000;,
  0.875000;0.000000;,
  1.000000;1.000000;,
  1.000000;0.000000;,
  0.062500;0.000000;,
  0.187500;0.000000;,
  0.312500;0.000000;,
  0.437500;0.000000;,
  0.562500;0.000000;,
  0.687500;0.000000;,
  0.812500;0.000000;,
  0.937500;0.000000;,
  0.062500;1.000000;,
  0.187500;1.000000;,
  0.312500;1.000000;,
  0.437500;1.000000;,
  0.562500;1.000000;,
  0.687500;1.000000;,
  0.812500;1.000000;,
  0.937500;1.000000;,
  0.504050;1.000000;,
  0.504050;0.000000;,
  0.000000;0.000000;,
  0.000000;1.000000;,
  1.000000;1.000000;,
  1.000000;0.000000;,
  0.504050;0.000000;,
  0.504050;1.000000;,
  1.000000;1.000000;,
  1.000000;0.000000;,
  0.000000;0.000000;,
  0.000000;1.000000;,
  0.495950;0.208810;,
  1.000000;0.208810;,
  1.000000;0.000000;,
  0.495950;0.000000;,
  0.000000;0.000000;,
  0.000000;0.208810;,
  0.000000;0.208810;,
  1.000000;0.208810;,
  1.000000;0.000000;,
  1.000000;1.000000;,
  1.000000;0.208810;,
  0.000000;0.208810;,
  0.000000;1.000000;,
  0.000000;0.000000;,
  0.000000;0.208810;,
  0.504050;0.208810;,
  0.504050;0.000000;,
  0.000000;0.000000;,
  0.000000;1.000000;,
  0.504050;1.000000;,
  1.000000;0.208810;,
  1.000000;1.000000;,
  1.000000;0.000000;,
  0.495950;0.208810;,
  0.495950;1.000000;,
  1.000000;1.000000;,
  1.000000;0.208810;,
  0.000000;0.208810;,
  0.000000;1.000000;,
  0.495950;0.208810;,
  1.000000;0.208810;,
  0.000000;0.208810;,
  1.000000;1.000000;,
  0.000000;1.000000;,
  0.495950;1.000000;,
  1.000000;1.000000;,
  0.495950;1.000000;,
  0.495950;1.000000;,
  1.000000;1.000000;,
  0.000000;1.000000;,
  0.000000;1.000000;,
  1.000000;1.000000;,
  0.495950;1.000000;,
  0.000000;1.000000;,
  0.083330;0.000000;,
  0.000000;0.200000;,
  0.166670;0.200000;,
  0.250000;0.000000;,
  0.333330;0.200000;,
  0.416670;0.000000;,
  0.500000;0.200000;,
  0.583330;0.000000;,
  0.666670;0.200000;,
  0.750000;0.000000;,
  0.833330;0.200000;,
  0.916670;0.000000;,
  1.000000;0.200000;,
  0.000000;0.400000;,
  0.166670;0.400000;,
  0.333330;0.400000;,
  0.500000;0.400000;,
  0.666670;0.400000;,
  0.833330;0.400000;,
  1.000000;0.400000;,
  0.000000;0.600000;,
  0.166670;0.600000;,
  0.333330;0.600000;,
  0.500000;0.600000;,
  0.666670;0.600000;,
  0.833330;0.600000;,
  1.000000;0.600000;,
  0.000000;0.800000;,
  0.166670;0.800000;,
  0.333330;0.800000;,
  0.500000;0.800000;,
  0.666670;0.800000;,
  0.833330;0.800000;,
  1.000000;0.800000;,
  0.083330;1.000000;,
  0.250000;1.000000;,
  0.416670;1.000000;,
  0.583330;1.000000;,
  0.750000;1.000000;,
  0.916670;1.000000;;
 }
}
