xof 0302txt 0064
template Header {
 <3D82AB43-62DA-11cf-AB39-0020AF71E433>
 WORD major;
 WORD minor;
 DWORD flags;
}

template Vector {
 <3D82AB5E-62DA-11cf-AB39-0020AF71E433>
 FLOAT x;
 FLOAT y;
 FLOAT z;
}

template Coords2d {
 <F6F23F44-7686-11cf-8F52-0040333594A3>
 FLOAT u;
 FLOAT v;
}

template Matrix4x4 {
 <F6F23F45-7686-11cf-8F52-0040333594A3>
 array FLOAT matrix[16];
}

template ColorRGBA {
 <35FF44E0-6C7C-11cf-8F52-0040333594A3>
 FLOAT red;
 FLOAT green;
 FLOAT blue;
 FLOAT alpha;
}

template ColorRGB {
 <D3E16E81-7835-11cf-8F52-0040333594A3>
 FLOAT red;
 FLOAT green;
 FLOAT blue;
}

template IndexedColor {
 <1630B820-7842-11cf-8F52-0040333594A3>
 DWORD index;
 ColorRGBA indexColor;
}

template Boolean {
 <4885AE61-78E8-11cf-8F52-0040333594A3>
 WORD truefalse;
}

template Boolean2d {
 <4885AE63-78E8-11cf-8F52-0040333594A3>
 Boolean u;
 Boolean v;
}

template MaterialWrap {
 <4885AE60-78E8-11cf-8F52-0040333594A3>
 Boolean u;
 Boolean v;
}

template TextureFilename {
 <A42790E1-7810-11cf-8F52-0040333594A3>
 STRING filename;
}

template Material {
 <3D82AB4D-62DA-11cf-AB39-0020AF71E433>
 ColorRGBA faceColor;
 FLOAT power;
 ColorRGB specularColor;
 ColorRGB emissiveColor;
 [...]
}

template MeshFace {
 <3D82AB5F-62DA-11cf-AB39-0020AF71E433>
 DWORD nFaceVertexIndices;
 array DWORD faceVertexIndices[nFaceVertexIndices];
}

template MeshFaceWraps {
 <4885AE62-78E8-11cf-8F52-0040333594A3>
 DWORD nFaceWrapValues;
 Boolean2d faceWrapValues;
}

template MeshTextureCoords {
 <F6F23F40-7686-11cf-8F52-0040333594A3>
 DWORD nTextureCoords;
 array Coords2d textureCoords[nTextureCoords];
}

template MeshMaterialList {
 <F6F23F42-7686-11cf-8F52-0040333594A3>
 DWORD nMaterials;
 DWORD nFaceIndexes;
 array DWORD faceIndexes[nFaceIndexes];
 [Material]
}

template MeshNormals {
 <F6F23F43-7686-11cf-8F52-0040333594A3>
 DWORD nNormals;
 array Vector normals[nNormals];
 DWORD nFaceNormals;
 array MeshFace faceNormals[nFaceNormals];
}

template MeshVertexColors {
 <1630B821-7842-11cf-8F52-0040333594A3>
 DWORD nVertexColors;
 array IndexedColor vertexColors[nVertexColors];
}

template Mesh {
 <3D82AB44-62DA-11cf-AB39-0020AF71E433>
 DWORD nVertices;
 array Vector vertices[nVertices];
 DWORD nFaces;
 array MeshFace faces[nFaces];
 [...]
}

Header{
1;
0;
1;
}

Mesh {
 90;
 -0.03815;0.06541;4.79199;,
 -3.37191;0.06541;3.37690;,
 -3.37191;-18.77032;3.37690;,
 -0.03815;-18.77032;4.79199;,
 -4.72859;0.06541;0.01894;,
 -4.72859;-18.77032;0.01894;,
 -3.31351;0.06541;-3.31481;,
 -3.31351;-18.77032;-3.31481;,
 0.04444;0.06541;-4.67150;,
 0.04444;-18.77032;-4.67150;,
 3.37819;0.06541;-3.25642;,
 3.37819;-18.77032;-3.25642;,
 4.73488;0.06541;0.10153;,
 4.73488;-18.77032;0.10153;,
 3.31978;0.06541;3.43530;,
 3.31978;-18.77032;3.43530;,
 -0.03815;0.06541;4.79199;,
 -0.03815;-18.77032;4.79199;,
 0.00315;0.06541;0.06023;,
 0.00315;0.06541;0.06023;,
 0.00315;0.06541;0.06023;,
 0.00315;0.06541;0.06023;,
 0.00315;0.06541;0.06023;,
 0.00315;0.06541;0.06023;,
 0.00315;0.06541;0.06023;,
 0.00315;0.06541;0.06023;,
 0.00315;-18.77032;0.06023;,
 0.00315;-18.77032;0.06023;,
 0.00315;-18.77032;0.06023;,
 0.00315;-18.77032;0.06023;,
 0.00315;-18.77032;0.06023;,
 0.00315;-18.77032;0.06023;,
 0.00315;-18.77032;0.06023;,
 0.00315;-18.77032;0.06023;,
 -0.14445;-14.52597;5.54837;,
 4.72126;-14.52597;3.95868;,
 5.08412;-14.52597;-3.67175;,
 -0.04005;-14.52597;-6.41506;,
 -5.11450;-14.52597;-3.76075;,
 -4.88489;-14.52597;3.87484;,
 -0.14445;-24.16303;5.54837;,
 -6.07777;-24.16303;5.49660;,
 -5.97336;-24.16303;-6.46684;,
 -0.04005;-24.16303;-6.41506;,
 5.99007;-24.16303;-6.36244;,
 5.88567;-24.16303;5.60100;,
 -0.02206;-17.02413;-8.47636;,
 -0.04005;-14.52597;-6.41506;,
 5.08412;-14.52597;-3.67175;,
 5.99007;-17.02413;-6.36244;,
 -5.97336;-17.02413;-6.46684;,
 -5.11450;-14.52597;-3.76075;,
 5.99007;-17.02413;-6.36244;,
 4.72126;-14.52597;3.95868;,
 5.88567;-17.02413;5.60100;,
 5.88567;-24.16303;5.60100;,
 -5.97336;-17.02413;-6.46684;,
 -6.07777;-24.16303;5.49660;,
 -6.07777;-17.02413;5.49660;,
 -4.88489;-14.52597;3.87484;,
 5.88567;-17.02413;5.60100;,
 4.72126;-14.52597;3.95868;,
 -0.14445;-14.52597;5.54837;,
 -0.14445;-17.02413;5.54837;,
 -0.14445;-24.16303;5.54837;,
 5.88567;-24.16303;5.60100;,
 -6.07777;-17.02413;5.49660;,
 -6.07777;-24.16303;5.49660;,
 -4.88489;-14.52597;3.87484;,
 0.11577;-21.22361;-24.27001;,
 4.53300;-21.22361;-24.23146;,
 4.53300;-24.16303;-24.23146;,
 0.11577;-24.16303;-24.27001;,
 -4.20465;-24.16303;-24.30771;,
 -4.20465;-21.22361;-24.30771;,
 0.05434;-19.17607;-17.23121;,
 4.70902;-19.78917;-16.16829;,
 -4.52137;-19.78917;-16.24883;,
 6.05609;-24.16303;-13.92742;,
 -5.90734;-24.16303;-14.03183;,
 0.02597;-24.16303;-13.98005;,
 6.00662;-23.21407;-8.25998;,
 5.99007;-24.16303;-6.36244;,
 -0.04005;-24.16303;-6.41506;,
 -0.03469;-23.21407;-7.02946;,
 -5.97336;-24.16303;-6.46684;,
 -5.95680;-23.21407;-8.36439;,
 6.05169;-23.21407;-13.42260;,
 0.02156;-23.21407;-13.47523;,
 -5.91174;-23.21407;-13.52701;;
 
 60;
 4;0,1,2,3;,
 4;1,4,5,2;,
 4;4,6,7,5;,
 4;6,8,9,7;,
 4;8,10,11,9;,
 4;10,12,13,11;,
 4;12,14,15,13;,
 4;14,16,17,15;,
 3;18,1,0;,
 3;19,4,1;,
 3;20,6,4;,
 3;21,8,6;,
 3;22,10,8;,
 3;23,12,10;,
 3;24,14,12;,
 3;25,16,14;,
 3;26,3,2;,
 3;27,2,5;,
 3;28,5,7;,
 3;29,7,9;,
 3;30,9,11;,
 3;31,11,13;,
 3;32,13,15;,
 3;33,15,17;,
 4;34,35,36,37;,
 4;34,37,38,39;,
 4;40,41,42,43;,
 4;40,43,44,45;,
 4;46,47,48,49;,
 4;46,50,51,47;,
 4;52,36,53,54;,
 4;52,54,55,44;,
 4;56,42,57,58;,
 4;56,58,59,38;,
 4;60,61,62,63;,
 4;60,63,64,65;,
 4;66,67,64,63;,
 4;66,63,62,68;,
 4;69,70,71,72;,
 4;69,72,73,74;,
 4;75,76,70,69;,
 4;75,69,74,77;,
 4;76,78,71,70;,
 4;77,74,73,79;,
 4;78,80,72,71;,
 4;79,73,72,80;,
 4;81,82,83,84;,
 4;84,83,85,86;,
 4;87,81,84,88;,
 4;87,88,80,78;,
 4;87,76,49,81;,
 4;88,84,86,89;,
 4;88,89,79,80;,
 4;76,75,46,49;,
 4;89,86,50,77;,
 4;75,77,50,46;,
 3;49,82,81;,
 3;76,87,78;,
 3;50,86,85;,
 3;77,79,89;;
 
 MeshMaterialList {
  4;
  60;
  2,
  2,
  2,
  2,
  2,
  2,
  2,
  2,
  2,
  2,
  2,
  2,
  2,
  2,
  2,
  2,
  2,
  2,
  2,
  2,
  2,
  2,
  2,
  2,
  3,
  3,
  3,
  3,
  3,
  3,
  3,
  3,
  3,
  3,
  3,
  3,
  3,
  3,
  3,
  3,
  3,
  3,
  3,
  3,
  3,
  3,
  3,
  3,
  3,
  3,
  3,
  3,
  3,
  3,
  3,
  3,
  3,
  3,
  3,
  3;;
  Material {
   0.752800;0.520800;0.179200;1.000000;;
   5.000000;
   0.000000;0.000000;0.000000;;
   0.000000;0.000000;0.000000;;
  }
  Material {
   0.225600;0.408000;0.144000;1.000000;;
   5.000000;
   0.000000;0.000000;0.000000;;
   0.000000;0.000000;0.000000;;
  }
  Material {
   0.800000;0.780800;0.552000;1.000000;;
   5.000000;
   0.000000;0.000000;0.000000;;
   0.000000;0.000000;0.000000;;
  }
  Material {
   0.800000;0.448800;0.000000;1.000000;;
   5.000000;
   0.000000;0.000000;0.000000;;
   0.000000;0.000000;0.000000;;
  }
 }
 MeshNormals {
  59;
  0.000000;1.000000;0.000000;,
  -0.008726;0.000000;0.999962;,
  -0.713251;0.000000;0.700909;,
  -0.999962;0.000000;-0.008727;,
  -0.700909;0.000000;-0.713251;,
  0.008727;0.000000;-0.999962;,
  0.713251;0.000000;-0.700909;,
  0.999962;0.000000;0.008727;,
  0.700909;0.000000;0.713250;,
  0.000000;-1.000000;-0.000000;,
  -0.153743;0.917630;-0.366496;,
  0.029860;-0.933769;-0.356627;,
  0.157694;0.917768;-0.364464;,
  -0.023205;-0.933781;-0.357092;,
  0.002012;0.929032;-0.369993;,
  0.003329;-0.934104;-0.356986;,
  0.979871;0.198869;0.017430;,
  -0.980026;0.198867;0.000325;,
  -0.009433;0.147109;0.989075;,
  0.008726;0.000000;-0.999962;,
  0.008727;0.000000;-0.999962;,
  0.008727;0.000000;-0.999962;,
  0.974641;0.132662;-0.180211;,
  -0.971348;0.132667;-0.197189;,
  0.949529;0.268557;-0.162085;,
  0.002433;0.869895;-0.493232;,
  -0.813173;0.523576;-0.254199;,
  0.112530;0.963342;-0.243534;,
  0.001042;0.969255;-0.246055;,
  -0.110459;0.963081;-0.245507;,
  0.920558;0.389777;0.025435;,
  0.999962;0.000000;0.008726;,
  0.999962;0.000000;0.008725;,
  -0.999962;0.000000;-0.008727;,
  -0.999962;0.000000;-0.008727;,
  -0.920863;0.389774;0.009364;,
  0.076808;0.146516;0.986222;,
  0.160119;0.288787;0.943909;,
  -0.009941;0.293117;0.956025;,
  -0.008727;0.000000;0.999962;,
  -0.008727;0.000000;0.999962;,
  -0.095618;0.146607;0.984563;,
  -0.008726;0.000000;0.999962;,
  -0.179711;0.288921;0.940334;,
  0.085625;0.969689;-0.228849;,
  0.001135;0.973089;-0.230426;,
  -0.083362;0.969529;-0.230356;,
  0.980518;0.126318;-0.150426;,
  0.990146;0.112895;-0.082855;,
  -0.977744;0.126321;-0.167513;,
  -0.988549;0.112896;-0.100123;,
  -0.007704;-0.469665;0.882811;,
  -0.007705;-0.469666;0.882811;,
  0.973892;0.132830;-0.184096;,
  0.997537;0.056828;-0.041119;,
  -0.007705;-0.469667;0.882810;,
  0.139324;0.956052;-0.257980;,
  -0.970531;0.132834;-0.201060;,
  -0.996667;0.056828;-0.058522;;
  60;
  4;1,2,2,1;,
  4;2,3,3,2;,
  4;3,4,4,3;,
  4;4,5,5,4;,
  4;5,6,6,5;,
  4;6,7,7,6;,
  4;7,8,8,7;,
  4;8,1,1,8;,
  3;0,0,0;,
  3;0,0,0;,
  3;0,0,0;,
  3;0,0,0;,
  3;0,0,0;,
  3;0,0,0;,
  3;0,0,0;,
  3;0,0,0;,
  3;9,9,9;,
  3;9,9,9;,
  3;9,9,9;,
  3;9,9,9;,
  3;9,9,9;,
  3;9,9,9;,
  3;9,9,9;,
  3;9,9,9;,
  4;0,0,12,14;,
  4;0,14,10,0;,
  4;9,9,11,15;,
  4;9,15,13,9;,
  4;25,14,12,24;,
  4;25,26,10,14;,
  4;24,30,30,16;,
  4;24,16,31,32;,
  4;33,34,33,17;,
  4;26,17,35,35;,
  4;36,37,38,18;,
  4;36,18,39,40;,
  4;41,42,39,18;,
  4;41,18,38,43;,
  4;21,20,20,21;,
  4;21,21,19,19;,
  4;28,27,44,45;,
  4;28,45,46,29;,
  4;47,22,48,48;,
  4;49,50,50,23;,
  4;9,9,9,9;,
  4;9,9,9,9;,
  4;13,13,15,15;,
  4;15,15,11,11;,
  4;9,13,15,9;,
  4;51,52,52,51;,
  4;53,47,24,54;,
  4;9,15,11,9;,
  4;52,55,55,52;,
  4;27,28,25,56;,
  4;57,58,26,49;,
  4;28,29,26,25;,
  3;24,32,54;,
  3;47,53,22;,
  3;26,58,34;,
  3;49,23,57;;
 }
 MeshTextureCoords {
  90;
  0.000000;0.000000;,
  0.125000;0.000000;,
  0.125000;1.000000;,
  0.000000;1.000000;,
  0.250000;0.000000;,
  0.250000;1.000000;,
  0.375000;0.000000;,
  0.375000;1.000000;,
  0.500000;0.000000;,
  0.500000;1.000000;,
  0.625000;0.000000;,
  0.625000;1.000000;,
  0.750000;0.000000;,
  0.750000;1.000000;,
  0.875000;0.000000;,
  0.875000;1.000000;,
  1.000000;0.000000;,
  1.000000;1.000000;,
  0.062500;0.000000;,
  0.187500;0.000000;,
  0.312500;0.000000;,
  0.437500;0.000000;,
  0.562500;0.000000;,
  0.687500;0.000000;,
  0.812500;0.000000;,
  0.937500;0.000000;,
  0.062500;1.000000;,
  0.187500;1.000000;,
  0.312500;1.000000;,
  0.437500;1.000000;,
  0.562500;1.000000;,
  0.687500;1.000000;,
  0.812500;1.000000;,
  0.937500;1.000000;,
  0.504050;1.000000;,
  0.000000;1.000000;,
  0.000000;0.000000;,
  0.504050;0.000000;,
  1.000000;0.000000;,
  1.000000;1.000000;,
  0.504050;0.000000;,
  1.000000;0.000000;,
  1.000000;1.000000;,
  0.504050;1.000000;,
  0.000000;1.000000;,
  0.000000;0.000000;,
  0.495950;0.208810;,
  0.495950;0.000000;,
  1.000000;0.000000;,
  1.000000;0.208810;,
  0.000000;0.208810;,
  0.000000;0.000000;,
  0.000000;0.208810;,
  1.000000;0.000000;,
  1.000000;0.208810;,
  1.000000;1.000000;,
  1.000000;0.208810;,
  0.000000;1.000000;,
  0.000000;0.208810;,
  0.000000;0.000000;,
  0.000000;0.208810;,
  0.000000;0.000000;,
  0.504050;0.000000;,
  0.504050;0.208810;,
  0.504050;1.000000;,
  0.000000;1.000000;,
  1.000000;0.208810;,
  1.000000;1.000000;,
  1.000000;0.000000;,
  0.495950;0.208810;,
  1.000000;0.208810;,
  1.000000;1.000000;,
  0.495950;1.000000;,
  0.000000;1.000000;,
  0.000000;0.208810;,
  0.495950;0.208810;,
  1.000000;0.208810;,
  0.000000;0.208810;,
  1.000000;1.000000;,
  0.000000;1.000000;,
  0.495950;1.000000;,
  1.000000;1.000000;,
  1.000000;1.000000;,
  0.495950;1.000000;,
  0.495950;1.000000;,
  0.000000;1.000000;,
  0.000000;1.000000;,
  1.000000;1.000000;,
  0.495950;1.000000;,
  0.000000;1.000000;;
 }
}
