xof 0302txt 0064
template Header {
 <3D82AB43-62DA-11cf-AB39-0020AF71E433>
 WORD major;
 WORD minor;
 DWORD flags;
}

template Vector {
 <3D82AB5E-62DA-11cf-AB39-0020AF71E433>
 FLOAT x;
 FLOAT y;
 FLOAT z;
}

template Coords2d {
 <F6F23F44-7686-11cf-8F52-0040333594A3>
 FLOAT u;
 FLOAT v;
}

template Matrix4x4 {
 <F6F23F45-7686-11cf-8F52-0040333594A3>
 array FLOAT matrix[16];
}

template ColorRGBA {
 <35FF44E0-6C7C-11cf-8F52-0040333594A3>
 FLOAT red;
 FLOAT green;
 FLOAT blue;
 FLOAT alpha;
}

template ColorRGB {
 <D3E16E81-7835-11cf-8F52-0040333594A3>
 FLOAT red;
 FLOAT green;
 FLOAT blue;
}

template IndexedColor {
 <1630B820-7842-11cf-8F52-0040333594A3>
 DWORD index;
 ColorRGBA indexColor;
}

template Boolean {
 <4885AE61-78E8-11cf-8F52-0040333594A3>
 WORD truefalse;
}

template Boolean2d {
 <4885AE63-78E8-11cf-8F52-0040333594A3>
 Boolean u;
 Boolean v;
}

template MaterialWrap {
 <4885AE60-78E8-11cf-8F52-0040333594A3>
 Boolean u;
 Boolean v;
}

template TextureFilename {
 <A42790E1-7810-11cf-8F52-0040333594A3>
 STRING filename;
}

template Material {
 <3D82AB4D-62DA-11cf-AB39-0020AF71E433>
 ColorRGBA faceColor;
 FLOAT power;
 ColorRGB specularColor;
 ColorRGB emissiveColor;
 [...]
}

template MeshFace {
 <3D82AB5F-62DA-11cf-AB39-0020AF71E433>
 DWORD nFaceVertexIndices;
 array DWORD faceVertexIndices[nFaceVertexIndices];
}

template MeshFaceWraps {
 <4885AE62-78E8-11cf-8F52-0040333594A3>
 DWORD nFaceWrapValues;
 Boolean2d faceWrapValues;
}

template MeshTextureCoords {
 <F6F23F40-7686-11cf-8F52-0040333594A3>
 DWORD nTextureCoords;
 array Coords2d textureCoords[nTextureCoords];
}

template MeshMaterialList {
 <F6F23F42-7686-11cf-8F52-0040333594A3>
 DWORD nMaterials;
 DWORD nFaceIndexes;
 array DWORD faceIndexes[nFaceIndexes];
 [Material]
}

template MeshNormals {
 <F6F23F43-7686-11cf-8F52-0040333594A3>
 DWORD nNormals;
 array Vector normals[nNormals];
 DWORD nFaceNormals;
 array MeshFace faceNormals[nFaceNormals];
}

template MeshVertexColors {
 <1630B821-7842-11cf-8F52-0040333594A3>
 DWORD nVertexColors;
 array IndexedColor vertexColors[nVertexColors];
}

template Mesh {
 <3D82AB44-62DA-11cf-AB39-0020AF71E433>
 DWORD nVertices;
 array Vector vertices[nVertices];
 DWORD nFaces;
 array MeshFace faces[nFaces];
 [...]
}

Header{
1;
0;
1;
}

Mesh {
 147;
 8.63799;0.40198;4.05551;,
 21.53070;0.51434;4.08557;,
 21.51440;2.61522;3.23600;,
 8.62164;2.50285;3.20593;,
 21.51155;3.50005;1.14969;,
 8.61880;3.38766;1.11961;,
 21.52385;2.65052;-0.95124;,
 8.63110;2.53813;-0.98130;,
 21.54408;0.56428;-1.83603;,
 8.65134;0.45189;-1.86609;,
 21.56043;-1.53654;-0.98645;,
 8.66770;-1.64895;-1.01652;,
 21.56327;-2.42137;1.09988;,
 8.67054;-2.53379;1.06981;,
 21.55094;-1.57187;3.20079;,
 8.65826;-1.68426;3.17072;,
 21.53070;0.51434;4.08557;,
 8.63799;0.40198;4.05551;,
 8.64465;0.42693;1.09470;,
 8.64465;0.42693;1.09470;,
 8.64465;0.42693;1.09470;,
 8.64465;0.42693;1.09470;,
 8.64465;0.42693;1.09470;,
 8.64465;0.42693;1.09470;,
 8.64465;0.42693;1.09470;,
 8.64465;0.42693;1.09470;,
 21.53739;0.53934;1.12478;,
 21.53739;0.53934;1.12478;,
 21.53739;0.53934;1.12478;,
 21.53739;0.53934;1.12478;,
 21.53739;0.53934;1.12478;,
 21.53739;0.53934;1.12478;,
 21.53739;0.53934;1.12478;,
 21.53739;0.53934;1.12478;,
 -1.24164;-0.02248;1.06859;,
 0.02440;-0.04444;4.99529;,
 -0.00085;3.37000;3.06200;,
 -1.24164;-0.02248;1.06859;,
 0.00800;3.40308;-0.86172;,
 -1.24164;-0.02248;1.06859;,
 0.04213;0.02171;-2.85216;,
 -1.24164;-0.02248;1.06859;,
 0.06738;-3.39276;-0.91888;,
 -1.24164;-0.02248;1.06859;,
 0.05852;-3.42582;3.00485;,
 -1.24164;-0.02248;1.06859;,
 0.02440;-0.04444;4.99529;,
 3.35662;-0.03579;7.42805;,
 3.31577;5.48890;4.29994;,
 3.33010;5.54243;-2.04878;,
 3.38530;0.07123;-5.26936;,
 3.42616;-5.45345;-2.14125;,
 3.41181;-5.50697;4.20746;,
 3.35662;-0.03579;7.42805;,
 7.48227;0.00018;7.43767;,
 7.44136;5.52487;4.30957;,
 7.45571;5.57839;-2.03914;,
 7.51095;0.10721;-5.25975;,
 7.55181;-5.41750;-2.13162;,
 7.53746;-5.47101;4.21709;,
 7.48227;0.00018;7.43767;,
 8.98296;0.03367;5.01618;,
 8.95772;3.44810;3.08289;,
 8.96659;3.48117;-0.84082;,
 9.00069;0.09981;-2.83127;,
 9.02595;-3.31465;-0.89798;,
 9.01709;-3.34772;3.02574;,
 8.98296;0.03367;5.01618;,
 12.10921;0.09389;1.09973;,
 12.10921;0.09389;1.09973;,
 12.10921;0.09389;1.09973;,
 12.10921;0.09389;1.09973;,
 12.10921;0.09389;1.09973;,
 12.10921;0.09389;1.09973;,
 23.17161;-2.59119;4.15259;,
 19.03320;-2.62729;4.14294;,
 19.04806;-2.57186;-2.43255;,
 23.18646;-2.53575;-2.42288;,
 23.49636;3.50626;5.05264;,
 23.51508;3.57602;-3.21852;,
 18.99669;3.53663;-3.22904;,
 18.97800;3.46689;5.04210;,
 23.53675;-1.11072;5.01381;,
 19.01832;-1.15012;5.00327;,
 19.03320;-2.62729;4.14294;,
 23.17161;-2.59119;4.15259;,
 23.49636;3.50626;5.05264;,
 18.97800;3.46689;5.04210;,
 28.31845;1.54637;5.04700;,
 28.33715;1.61611;-3.22415;,
 28.31975;3.60355;-3.20744;,
 28.30107;3.53384;5.06372;,
 19.01832;-1.15012;5.00327;,
 19.03703;-1.08038;-3.26789;,
 19.03320;-2.62729;4.14294;,
 18.97800;3.46689;5.04210;,
 19.03703;-1.08038;-3.26789;,
 23.55540;-1.04100;-3.25735;,
 23.18646;-2.53575;-2.42288;,
 19.04806;-2.57186;-2.43255;,
 18.99669;3.53663;-3.22904;,
 23.51508;3.57602;-3.21852;,
 24.78918;0.19868;5.02769;,
 23.70612;3.50810;5.05312;,
 24.78918;0.19868;5.02769;,
 24.80786;0.26839;-3.24348;,
 23.70612;3.50810;5.05312;,
 23.72480;3.57782;-3.21803;,
 23.72480;3.57782;-3.21803;,
 24.80786;0.26839;-3.24348;,
 24.78918;0.19868;5.02769;,
 24.80786;0.26839;-3.24348;,
 25.48852;3.55989;-3.21419;,
 25.15921;0.96124;-3.23684;,
 28.31975;3.60355;-3.20744;,
 28.33715;1.61611;-3.22415;,
 25.48852;3.55989;-3.21419;,
 25.46986;3.49019;5.05696;,
 28.30107;3.53384;5.06372;,
 25.15921;0.96124;-3.23684;,
 25.14056;0.89153;5.03432;,
 28.33715;1.61611;-3.22415;,
 28.31845;1.54637;5.04700;,
 25.46986;3.49019;5.05696;,
 25.14056;0.89153;5.03432;,
 28.31845;1.54637;5.04700;,
 28.30107;3.53384;5.06372;,
 19.74878;-1.50465;-2.69366;,
 26.66050;-1.44442;-2.67753;,
 26.63802;1.13006;-2.65589;,
 19.72629;1.06978;-2.67200;,
 19.72629;1.06978;-2.67200;,
 26.63802;1.13006;-2.65589;,
 26.64240;1.14641;-4.59339;,
 19.73064;1.08612;-4.60951;,
 19.73064;1.08612;-4.60951;,
 26.64240;1.14641;-4.59339;,
 26.66486;-1.42809;-4.61505;,
 19.75317;-1.48832;-4.63116;,
 19.75317;-1.48832;-4.63116;,
 26.66486;-1.42809;-4.61505;,
 26.66050;-1.44442;-2.67753;,
 19.74878;-1.50465;-2.69366;,
 19.74878;-1.50465;-2.69366;,
 19.72629;1.06978;-2.67200;,
 26.66050;-1.44442;-2.67753;,
 26.63802;1.13006;-2.65589;;
 
 83;
 4;0,1,2,3;,
 4;3,2,4,5;,
 4;5,4,6,7;,
 4;7,6,8,9;,
 4;9,8,10,11;,
 4;11,10,12,13;,
 4;13,12,14,15;,
 4;15,14,16,17;,
 3;18,0,3;,
 3;19,3,5;,
 3;20,5,7;,
 3;21,7,9;,
 3;22,9,11;,
 3;23,11,13;,
 3;24,13,15;,
 3;25,15,17;,
 3;26,2,1;,
 3;27,4,2;,
 3;28,6,4;,
 3;29,8,6;,
 3;30,10,8;,
 3;31,12,10;,
 3;32,14,12;,
 3;33,16,14;,
 3;34,35,36;,
 3;37,36,38;,
 3;39,38,40;,
 3;41,40,42;,
 3;43,42,44;,
 3;45,44,46;,
 4;35,47,48,36;,
 4;36,48,49,38;,
 4;38,49,50,40;,
 4;40,50,51,42;,
 4;42,51,52,44;,
 4;44,52,53,46;,
 4;47,54,55,48;,
 4;48,55,56,49;,
 4;49,56,57,50;,
 4;50,57,58,51;,
 4;51,58,59,52;,
 4;52,59,60,53;,
 4;54,61,62,55;,
 4;55,62,63,56;,
 4;56,63,64,57;,
 4;57,64,65,58;,
 4;58,65,66,59;,
 4;59,66,67,60;,
 3;61,68,62;,
 3;62,69,63;,
 3;63,70,64;,
 3;64,71,65;,
 3;65,72,66;,
 3;66,73,67;,
 4;74,75,76,77;,
 4;78,79,80,81;,
 4;82,83,84,85;,
 4;82,86,87,83;,
 4;88,89,90,91;,
 4;92,93,76,94;,
 4;92,95,80,93;,
 4;96,97,98,99;,
 4;96,100,101,97;,
 4;102,103,86,82;,
 4;104,74,77,105;,
 4;106,107,79,78;,
 4;108,109,97,101;,
 3;110,82,85;,
 3;111,98,97;,
 4;112,113,109,108;,
 4;112,114,115,113;,
 4;116,117,118,90;,
 4;116,107,106,117;,
 4;119,120,104,105;,
 4;119,121,122,120;,
 4;123,124,125,126;,
 4;123,103,102,124;,
 4;127,128,129,130;,
 4;131,132,133,134;,
 4;135,136,137,138;,
 4;139,140,141,142;,
 4;139,143,144,134;,
 4;145,140,133,146;;
 
 MeshMaterialList {
  4;
  83;
  2,
  2,
  2,
  2,
  2,
  2,
  2,
  2,
  2,
  2,
  2,
  2,
  2,
  2,
  2,
  2,
  2,
  2,
  2,
  2,
  2,
  2,
  2,
  2,
  0,
  0,
  0,
  0,
  0,
  0,
  0,
  0,
  0,
  0,
  0,
  0,
  0,
  0,
  0,
  0,
  0,
  0,
  0,
  0,
  0,
  0,
  0,
  0,
  0,
  0,
  0,
  0,
  0,
  0,
  3,
  3,
  3,
  3,
  3,
  3,
  3,
  3,
  3,
  3,
  3,
  3,
  3,
  3,
  3,
  3,
  3,
  3,
  3,
  3,
  3,
  3,
  3,
  3,
  3,
  3,
  3,
  3,
  3;;
  Material {
   0.752800;0.520800;0.179200;1.000000;;
   5.000000;
   0.000000;0.000000;0.000000;;
   0.000000;0.000000;0.000000;;
  }
  Material {
   0.225600;0.408000;0.144000;1.000000;;
   5.000000;
   0.000000;0.000000;0.000000;;
   0.000000;0.000000;0.000000;;
  }
  Material {
   0.800000;0.780800;0.552000;1.000000;;
   5.000000;
   0.000000;0.000000;0.000000;;
   0.000000;0.000000;0.000000;;
  }
  Material {
   0.800000;0.448800;0.000000;1.000000;;
   5.000000;
   0.000000;0.000000;0.000000;;
   0.000000;0.000000;0.000000;;
  }
 }
 MeshNormals {
  97;
  -0.999959;-0.008721;-0.002329;,
  -0.002258;-0.008432;0.999962;,
  -0.007774;0.701090;0.713031;,
  -0.008736;0.999926;0.008409;,
  -0.004581;0.713011;-0.701138;,
  0.002258;0.008426;-0.999962;,
  0.007775;-0.701091;-0.713030;,
  0.008737;-0.999926;-0.008413;,
  0.004581;-0.713013;0.701135;,
  0.999959;0.008713;0.002335;,
  -0.999959;-0.008716;-0.002332;,
  -0.818134;-0.011981;0.574903;,
  -0.821845;0.489963;0.290701;,
  -0.820544;0.494824;-0.286107;,
  -0.815528;-0.002258;-0.578714;,
  -0.811815;-0.504202;-0.294510;,
  -0.813118;-0.509065;0.282299;,
  -0.318116;-0.010751;0.947991;,
  -0.324222;0.814840;0.480537;,
  -0.322080;0.822838;-0.468190;,
  -0.313831;0.005243;-0.949464;,
  -0.307724;-0.820349;-0.482009;,
  -0.309866;-0.828346;0.466718;,
  0.640410;0.196955;0.742350;,
  0.637852;0.542404;0.546757;,
  0.637794;0.746208;-0.190769;,
  0.643749;0.209418;-0.736024;,
  0.649759;-0.531176;-0.543752;,
  0.649814;-0.734979;0.193772;,
  0.817482;0.002300;0.575949;,
  0.813786;0.501835;0.293111;,
  0.815083;0.506675;-0.280929;,
  0.820076;0.011978;-0.572130;,
  0.823771;-0.487558;-0.289290;,
  0.822474;-0.492397;0.284749;,
  0.848503;0.529153;0.006378;,
  0.008742;-0.999926;-0.008411;,
  0.999959;0.008728;0.002333;,
  -0.008735;0.999926;0.008412;,
  0.553029;-0.792541;0.256979;,
  -0.008709;0.999927;0.008412;,
  0.554210;-0.788117;-0.267811;,
  0.143490;-0.279580;0.949340;,
  0.000059;-0.264709;0.964328;,
  -0.999959;-0.008713;-0.002334;,
  0.147783;-0.263537;-0.953262;,
  0.191716;-0.193564;0.962174;,
  -0.002256;-0.008427;0.999962;,
  0.818710;-0.521142;-0.241092;,
  0.000728;0.999964;0.008431;,
  0.002266;0.008427;-0.999962;,
  -0.002649;0.999961;0.008422;,
  0.607062;-0.794636;-0.005328;,
  -0.002259;-0.008428;0.999962;,
  -0.008741;0.999926;0.008414;,
  0.002258;0.008429;-0.999962;,
  -0.999959;-0.008726;-0.002322;,
  -0.999959;-0.008717;-0.002327;,
  -0.999959;-0.008711;-0.002332;,
  -0.999959;-0.008713;-0.002332;,
  -0.999959;-0.008721;-0.002334;,
  -0.999959;-0.008726;-0.002336;,
  -0.999959;-0.008724;-0.002327;,
  -0.999959;-0.008727;-0.002320;,
  0.999959;0.008705;0.002331;,
  0.999959;0.008706;0.002335;,
  0.999959;0.008708;0.002330;,
  0.999959;0.008709;0.002332;,
  0.999959;0.008718;0.002333;,
  0.999959;0.008723;0.002337;,
  0.999959;0.008719;0.002342;,
  0.999959;0.008715;0.002339;,
  -0.008736;0.999926;0.008410;,
  -0.002412;0.507264;-0.861787;,
  0.006324;-0.492665;-0.870196;,
  0.008734;-0.999927;-0.008409;,
  0.002412;-0.507264;0.861787;,
  0.857617;-0.514283;-0.002398;,
  0.002374;-0.503265;0.864129;,
  -0.002257;-0.008429;0.999962;,
  -0.002259;-0.008429;0.999962;,
  -0.999959;-0.008713;-0.002334;,
  -0.999959;-0.008714;-0.002334;,
  0.004425;-0.248409;-0.968645;,
  0.006297;-0.488618;-0.872475;,
  0.002257;0.008431;-0.999962;,
  0.002262;0.008431;-0.999962;,
  0.878981;-0.476853;-0.002035;,
  0.002273;0.008429;-0.999962;,
  0.002254;0.008427;-0.999962;,
  -0.015438;0.999846;0.008392;,
  0.201849;-0.979386;-0.007800;,
  -0.002257;-0.008428;0.999962;,
  -0.002256;-0.008429;0.999962;,
  0.008732;-0.999927;-0.008410;,
  -0.999959;-0.008724;-0.002329;,
  0.999959;0.008710;0.002327;;
  83;
  4;1,1,2,2;,
  4;2,2,3,3;,
  4;3,3,4,4;,
  4;4,4,5,5;,
  4;5,5,6,6;,
  4;6,6,7,7;,
  4;7,7,8,8;,
  4;8,8,1,1;,
  3;0,56,57;,
  3;0,57,58;,
  3;0,58,59;,
  3;0,59,60;,
  3;0,60,61;,
  3;0,61,62;,
  3;0,62,63;,
  3;0,63,56;,
  3;9,64,65;,
  3;9,66,64;,
  3;9,67,66;,
  3;9,68,67;,
  3;9,69,68;,
  3;9,70,69;,
  3;9,71,70;,
  3;9,65,71;,
  3;10,11,12;,
  3;10,12,13;,
  3;10,13,14;,
  3;10,14,15;,
  3;10,15,16;,
  3;10,16,11;,
  4;11,17,18,12;,
  4;12,18,19,13;,
  4;13,19,20,14;,
  4;14,20,21,15;,
  4;15,21,22,16;,
  4;16,22,17,11;,
  4;17,23,24,18;,
  4;18,72,25,19;,
  4;19,73,26,20;,
  4;20,74,27,21;,
  4;21,75,28,22;,
  4;22,76,76,17;,
  4;23,29,30,24;,
  4;24,30,31,25;,
  4;25,31,32,26;,
  4;26,32,33,27;,
  4;27,33,34,28;,
  4;28,34,29,23;,
  3;29,35,30;,
  3;30,35,31;,
  3;31,35,32;,
  3;32,77,33;,
  3;33,77,34;,
  3;34,77,29;,
  4;39,36,36,41;,
  4;40,40,38,38;,
  4;42,43,78,78;,
  4;42,79,80,43;,
  4;37,37,37,37;,
  4;44,44,81,81;,
  4;44,82,82,44;,
  4;83,45,84,84;,
  4;83,85,86,45;,
  4;46,47,79,42;,
  4;87,39,41,48;,
  4;49,49,40,40;,
  4;88,88,45,86;,
  3;46,42,39;,
  3;48,41,45;,
  4;50,50,88,88;,
  4;50,89,89,50;,
  4;51,51,90,90;,
  4;51,49,49,51;,
  4;52,52,87,48;,
  4;52,91,91,52;,
  4;92,92,93,93;,
  4;92,47,46,92;,
  4;53,53,53,53;,
  4;54,54,54,54;,
  4;55,55,55,55;,
  4;94,94,94,94;,
  4;95,95,95,95;,
  4;96,96,96,96;;
 }
 MeshTextureCoords {
  147;
  0.000000;0.000000;,
  0.000000;1.000000;,
  0.125000;1.000000;,
  0.125000;0.000000;,
  0.250000;1.000000;,
  0.250000;0.000000;,
  0.375000;1.000000;,
  0.375000;0.000000;,
  0.500000;1.000000;,
  0.500000;0.000000;,
  0.625000;1.000000;,
  0.625000;0.000000;,
  0.750000;1.000000;,
  0.750000;0.000000;,
  0.875000;1.000000;,
  0.875000;0.000000;,
  1.000000;1.000000;,
  1.000000;0.000000;,
  0.062500;0.000000;,
  0.187500;0.000000;,
  0.312500;0.000000;,
  0.437500;0.000000;,
  0.562500;0.000000;,
  0.687500;0.000000;,
  0.812500;0.000000;,
  0.937500;0.000000;,
  0.062500;1.000000;,
  0.187500;1.000000;,
  0.312500;1.000000;,
  0.437500;1.000000;,
  0.562500;1.000000;,
  0.687500;1.000000;,
  0.812500;1.000000;,
  0.937500;1.000000;,
  0.083330;0.000000;,
  0.000000;0.200000;,
  0.166670;0.200000;,
  0.250000;0.000000;,
  0.333330;0.200000;,
  0.416670;0.000000;,
  0.500000;0.200000;,
  0.583330;0.000000;,
  0.666670;0.200000;,
  0.750000;0.000000;,
  0.833330;0.200000;,
  0.916670;0.000000;,
  1.000000;0.200000;,
  0.000000;0.400000;,
  0.166670;0.400000;,
  0.333330;0.400000;,
  0.500000;0.400000;,
  0.666670;0.400000;,
  0.833330;0.400000;,
  1.000000;0.400000;,
  0.000000;0.600000;,
  0.166670;0.600000;,
  0.333330;0.600000;,
  0.500000;0.600000;,
  0.666670;0.600000;,
  0.833330;0.600000;,
  1.000000;0.600000;,
  0.000000;0.800000;,
  0.166670;0.800000;,
  0.333330;0.800000;,
  0.500000;0.800000;,
  0.666670;0.800000;,
  0.833330;0.800000;,
  1.000000;0.800000;,
  0.083330;1.000000;,
  0.250000;1.000000;,
  0.416670;1.000000;,
  0.583330;1.000000;,
  0.750000;1.000000;,
  0.916670;1.000000;,
  1.000000;0.484650;,
  1.000000;0.000000;,
  0.000000;0.000000;,
  0.000000;0.484650;,
  0.000000;0.484650;,
  1.000000;0.484650;,
  1.000000;0.000000;,
  0.000000;0.000000;,
  0.243280;0.484650;,
  0.243280;0.000000;,
  0.000000;0.000000;,
  0.000000;0.484650;,
  1.000000;0.484650;,
  1.000000;0.000000;,
  0.243280;0.000000;,
  0.243280;1.000000;,
  1.000000;1.000000;,
  1.000000;0.000000;,
  0.243280;1.000000;,
  0.243280;0.000000;,
  0.000000;1.000000;,
  1.000000;1.000000;,
  0.756720;0.000000;,
  0.756720;0.484650;,
  1.000000;0.484650;,
  1.000000;0.000000;,
  0.000000;0.000000;,
  0.000000;0.484650;,
  0.243280;0.507150;,
  1.000000;0.507150;,
  1.000000;0.507150;,
  0.000000;0.507150;,
  0.000000;0.507150;,
  1.000000;0.507150;,
  0.000000;0.507150;,
  0.756720;0.507150;,
  0.121640;0.507150;,
  0.878360;0.507150;,
  0.000000;0.696300;,
  0.756720;0.696300;,
  0.000000;1.000000;,
  0.756720;1.000000;,
  1.000000;0.696300;,
  0.000000;0.696300;,
  0.000000;1.000000;,
  0.000000;0.696300;,
  1.000000;0.696300;,
  0.000000;1.000000;,
  1.000000;1.000000;,
  1.000000;0.696300;,
  0.243280;0.696300;,
  0.243280;1.000000;,
  1.000000;1.000000;,
  0.000000;0.000000;,
  0.000000;1.000000;,
  1.000000;1.000000;,
  1.000000;0.000000;,
  0.000000;0.000000;,
  0.000000;1.000000;,
  1.000000;1.000000;,
  1.000000;0.000000;,
  0.000000;0.000000;,
  0.000000;1.000000;,
  1.000000;1.000000;,
  1.000000;0.000000;,
  0.000000;0.000000;,
  0.000000;1.000000;,
  1.000000;1.000000;,
  1.000000;0.000000;,
  0.000000;1.000000;,
  1.000000;1.000000;,
  0.000000;0.000000;,
  1.000000;0.000000;;
 }
}
