xof 0302txt 0064
template Header {
 <3D82AB43-62DA-11cf-AB39-0020AF71E433>
 WORD major;
 WORD minor;
 DWORD flags;
}

template Vector {
 <3D82AB5E-62DA-11cf-AB39-0020AF71E433>
 FLOAT x;
 FLOAT y;
 FLOAT z;
}

template Coords2d {
 <F6F23F44-7686-11cf-8F52-0040333594A3>
 FLOAT u;
 FLOAT v;
}

template Matrix4x4 {
 <F6F23F45-7686-11cf-8F52-0040333594A3>
 array FLOAT matrix[16];
}

template ColorRGBA {
 <35FF44E0-6C7C-11cf-8F52-0040333594A3>
 FLOAT red;
 FLOAT green;
 FLOAT blue;
 FLOAT alpha;
}

template ColorRGB {
 <D3E16E81-7835-11cf-8F52-0040333594A3>
 FLOAT red;
 FLOAT green;
 FLOAT blue;
}

template IndexedColor {
 <1630B820-7842-11cf-8F52-0040333594A3>
 DWORD index;
 ColorRGBA indexColor;
}

template Boolean {
 <4885AE61-78E8-11cf-8F52-0040333594A3>
 WORD truefalse;
}

template Boolean2d {
 <4885AE63-78E8-11cf-8F52-0040333594A3>
 Boolean u;
 Boolean v;
}

template MaterialWrap {
 <4885AE60-78E8-11cf-8F52-0040333594A3>
 Boolean u;
 Boolean v;
}

template TextureFilename {
 <A42790E1-7810-11cf-8F52-0040333594A3>
 STRING filename;
}

template Material {
 <3D82AB4D-62DA-11cf-AB39-0020AF71E433>
 ColorRGBA faceColor;
 FLOAT power;
 ColorRGB specularColor;
 ColorRGB emissiveColor;
 [...]
}

template MeshFace {
 <3D82AB5F-62DA-11cf-AB39-0020AF71E433>
 DWORD nFaceVertexIndices;
 array DWORD faceVertexIndices[nFaceVertexIndices];
}

template MeshFaceWraps {
 <4885AE62-78E8-11cf-8F52-0040333594A3>
 DWORD nFaceWrapValues;
 Boolean2d faceWrapValues;
}

template MeshTextureCoords {
 <F6F23F40-7686-11cf-8F52-0040333594A3>
 DWORD nTextureCoords;
 array Coords2d textureCoords[nTextureCoords];
}

template MeshMaterialList {
 <F6F23F42-7686-11cf-8F52-0040333594A3>
 DWORD nMaterials;
 DWORD nFaceIndexes;
 array DWORD faceIndexes[nFaceIndexes];
 [Material]
}

template MeshNormals {
 <F6F23F43-7686-11cf-8F52-0040333594A3>
 DWORD nNormals;
 array Vector normals[nNormals];
 DWORD nFaceNormals;
 array MeshFace faceNormals[nFaceNormals];
}

template MeshVertexColors {
 <1630B821-7842-11cf-8F52-0040333594A3>
 DWORD nVertexColors;
 array IndexedColor vertexColors[nVertexColors];
}

template Mesh {
 <3D82AB44-62DA-11cf-AB39-0020AF71E433>
 DWORD nVertices;
 array Vector vertices[nVertices];
 DWORD nFaces;
 array MeshFace faces[nFaces];
 [...]
}

Header{
1;
0;
1;
}

Mesh {
 217;
 0.00000;13.65468;0.00000;,
 -6.30851;14.88167;6.19936;,
 -0.07718;14.88167;8.84439;,
 0.00000;13.65468;0.00000;,
 -8.84439;14.88167;-0.07718;,
 0.00000;13.65468;0.00000;,
 -6.19936;14.88167;-6.30851;,
 0.00000;13.65468;0.00000;,
 0.07718;14.88167;-8.84439;,
 0.00000;13.65468;0.00000;,
 6.30851;14.88167;-6.19936;,
 0.00000;13.65468;0.00000;,
 8.84439;14.88167;0.07718;,
 0.00000;13.65468;0.00000;,
 6.19936;14.88167;6.30851;,
 0.00000;13.65468;0.00000;,
 -0.07718;14.88167;8.84439;,
 -11.65661;11.89069;11.45492;,
 -0.14262;11.89069;16.34232;,
 -16.34232;11.89069;-0.14262;,
 -11.45492;11.89069;-11.65661;,
 0.14262;11.89069;-16.34232;,
 11.65661;11.89069;-11.45492;,
 16.34232;11.89069;0.14262;,
 11.45492;11.89069;11.65661;,
 -0.14262;11.89069;16.34232;,
 -15.23009;6.22372;14.96657;,
 -0.18635;6.22372;21.35226;,
 -21.35226;6.22372;-0.18635;,
 -14.96657;6.22372;-15.23009;,
 0.18635;6.22372;-21.35226;,
 15.23011;6.22372;-14.96657;,
 21.35226;6.22372;0.18635;,
 14.96659;6.22372;15.23009;,
 -0.18635;6.22372;21.35226;,
 -16.48494;-2.62104;16.19971;,
 -0.20169;-2.62104;23.11154;,
 -23.11154;-2.62104;-0.20169;,
 -16.19971;-2.62104;-16.48494;,
 0.20169;-2.62104;-23.11154;,
 16.48494;-2.62104;-16.19971;,
 23.11154;-2.62104;0.20169;,
 16.19971;-2.62104;16.48494;,
 -0.20169;-2.62104;23.11154;,
 -15.23009;-8.18614;14.96657;,
 -0.18635;-8.18614;21.35226;,
 -21.35226;-8.18614;-0.18635;,
 -14.96657;-8.18614;-15.23009;,
 0.18635;-8.18614;-21.35226;,
 15.23011;-8.18614;-14.96657;,
 21.35226;-8.18614;0.18635;,
 14.96659;-8.18614;15.23009;,
 -0.18635;-8.18614;21.35226;,
 -11.65661;-12.41931;11.45492;,
 -0.14262;-12.41931;16.34232;,
 -16.34232;-12.41931;-0.14262;,
 -11.45492;-12.41931;-11.65661;,
 0.14262;-12.41931;-16.34232;,
 11.65661;-12.41931;-11.45492;,
 16.34232;-12.41931;0.14262;,
 11.45492;-12.41931;11.65661;,
 -0.14262;-12.41931;16.34232;,
 -6.30851;-14.87820;6.19936;,
 -0.07718;-14.87820;8.84439;,
 -8.84439;-14.87820;-0.07718;,
 -6.19936;-14.87820;-6.30851;,
 0.07718;-14.87820;-8.84439;,
 6.30851;-14.87820;-6.19936;,
 8.84439;-14.87820;0.07718;,
 6.19936;-14.87820;6.30851;,
 -0.07718;-14.87820;8.84439;,
 0.00000;-14.32171;-0.00000;,
 0.00000;-14.32171;-0.00000;,
 0.00000;-14.32171;-0.00000;,
 0.00000;-14.32171;-0.00000;,
 0.00000;-14.32171;-0.00000;,
 0.00000;-14.32171;-0.00000;,
 0.00000;-14.32171;-0.00000;,
 0.00000;-14.32171;-0.00000;,
 -0.01725;16.38257;1.97678;,
 -1.41000;16.38257;1.38561;,
 -1.41000;13.80789;1.38561;,
 -0.01725;13.80789;1.97678;,
 -1.97678;16.38257;-0.01725;,
 -1.97678;13.80789;-0.01725;,
 -1.38561;16.38257;-1.41000;,
 -1.38561;13.80789;-1.41000;,
 0.01725;16.38257;-1.97678;,
 0.01725;13.80789;-1.97678;,
 1.41000;16.38257;-1.38561;,
 1.41000;13.80789;-1.38561;,
 1.97678;16.38257;0.01725;,
 1.97678;13.80789;0.01725;,
 1.38561;16.38257;1.41000;,
 1.38561;13.80789;1.41000;,
 -0.01725;16.38257;1.97678;,
 -0.01725;13.80789;1.97678;,
 0.00000;16.38257;0.00000;,
 0.00000;16.38257;0.00000;,
 0.00000;16.38257;0.00000;,
 0.00000;16.38257;0.00000;,
 0.00000;16.38257;0.00000;,
 0.00000;16.38257;0.00000;,
 0.00000;16.38257;0.00000;,
 0.00000;16.38257;0.00000;,
 0.00000;13.80789;0.00000;,
 0.00000;13.80789;0.00000;,
 0.00000;13.80789;0.00000;,
 0.00000;13.80789;0.00000;,
 0.00000;13.80789;0.00000;,
 0.00000;13.80789;0.00000;,
 0.00000;13.80789;0.00000;,
 0.00000;13.80789;0.00000;,
 -2.43594;15.84124;5.32242;,
 -1.32625;14.56418;0.72695;,
 -1.32749;14.05377;0.86851;,
 -2.43717;15.33084;5.46397;,
 -1.32625;14.56418;0.72695;,
 1.31336;14.56418;0.74999;,
 1.31213;14.05377;0.89154;,
 -1.32749;14.05377;0.86851;,
 1.31336;14.56418;0.74999;,
 2.34268;15.84124;5.36412;,
 2.34144;15.33084;5.50568;,
 1.31213;14.05377;0.89154;,
 -2.43594;15.84124;5.32242;,
 2.34268;15.84124;5.36412;,
 2.34144;15.33084;5.50568;,
 -2.43717;15.33084;5.46397;,
 -0.09802;16.42632;9.43462;,
 -0.09678;16.93674;9.29306;,
 -2.43594;15.84124;5.32242;,
 -2.43717;15.33084;5.46397;,
 -0.09678;16.93674;9.29306;,
 -0.09802;16.42632;9.43462;,
 2.34144;15.33084;5.50568;,
 2.34268;15.84124;5.36412;,
 -0.09678;16.93674;9.29306;,
 -0.09802;16.42632;9.43462;,
 -2.34268;15.84124;-5.36412;,
 -2.34144;15.33084;-5.50568;,
 -1.31213;14.05377;-0.89154;,
 -1.31336;14.56418;-0.74999;,
 -1.31336;14.56418;-0.74999;,
 -1.31213;14.05377;-0.89154;,
 1.32749;14.05377;-0.86851;,
 1.32625;14.56418;-0.72695;,
 1.32625;14.56418;-0.72695;,
 1.32749;14.05377;-0.86851;,
 2.43717;15.33084;-5.46397;,
 2.43594;15.84124;-5.32242;,
 2.43594;15.84124;-5.32242;,
 -2.34268;15.84124;-5.36412;,
 2.43717;15.33084;-5.46397;,
 -2.34144;15.33084;-5.50568;,
 0.06666;16.42632;-9.43489;,
 -2.34144;15.33084;-5.50568;,
 -2.34268;15.84124;-5.36412;,
 0.06542;16.93674;-9.29333;,
 0.06542;16.93674;-9.29333;,
 2.43594;15.84124;-5.32242;,
 2.43717;15.33084;-5.46397;,
 0.06666;16.42632;-9.43489;,
 0.06542;16.93674;-9.29333;,
 0.06666;16.42632;-9.43489;,
 -4.93105;15.84124;-2.64149;,
 -0.36619;14.56418;-1.41189;,
 -0.50767;14.05377;-1.41682;,
 -5.07251;15.33084;-2.64643;,
 -0.36619;14.56418;-1.41189;,
 -0.45832;14.56418;1.22621;,
 -0.59980;14.05377;1.22127;,
 -0.50767;14.05377;-1.41682;,
 -0.45832;14.56418;1.22621;,
 -5.09783;15.84124;2.13439;,
 -5.23930;15.33084;2.12944;,
 -0.59980;14.05377;1.22127;,
 -4.93105;15.84124;-2.64149;,
 -5.09783;15.84124;2.13439;,
 -5.23930;15.33084;2.12944;,
 -5.07251;15.33084;-2.64643;,
 -9.10302;16.42632;-0.41204;,
 -8.96156;16.93674;-0.40708;,
 -4.93105;15.84124;-2.64149;,
 -5.07251;15.33084;-2.64643;,
 -8.96156;16.93674;-0.40708;,
 -9.10302;16.42632;-0.41204;,
 -5.23930;15.33084;2.12944;,
 -5.09783;15.84124;2.13439;,
 -8.96156;16.93674;-0.40708;,
 -9.10302;16.42632;-0.41204;,
 4.97640;15.84124;-2.55503;,
 5.11793;15.33084;-2.55749;,
 0.53232;14.05377;-1.40775;,
 0.39078;14.56418;-1.40528;,
 0.39078;14.56418;-1.40528;,
 0.53232;14.05377;-1.40775;,
 0.57839;14.05377;1.23155;,
 0.43685;14.56418;1.23402;,
 0.43685;14.56418;1.23402;,
 0.57839;14.05377;1.23155;,
 5.20134;15.33084;2.22055;,
 5.05981;15.84124;2.22304;,
 5.05981;15.84124;2.22304;,
 4.97640;15.84124;-2.55503;,
 5.20134;15.33084;2.22055;,
 5.11793;15.33084;-2.55749;,
 9.10883;16.42632;-0.25310;,
 5.11793;15.33084;-2.55749;,
 4.97640;15.84124;-2.55503;,
 8.96730;16.93674;-0.25062;,
 8.96730;16.93674;-0.25062;,
 5.05981;15.84124;2.22304;,
 5.20134;15.33084;2.22055;,
 9.10883;16.42632;-0.25310;,
 8.96730;16.93674;-0.25062;,
 9.10883;16.42632;-0.25310;;
 
 124;
 3;0,1,2;,
 3;3,4,1;,
 3;5,6,4;,
 3;7,8,6;,
 3;9,10,8;,
 3;11,12,10;,
 3;13,14,12;,
 3;15,16,14;,
 4;2,1,17,18;,
 4;1,4,19,17;,
 4;4,6,20,19;,
 4;6,8,21,20;,
 4;8,10,22,21;,
 4;10,12,23,22;,
 4;12,14,24,23;,
 4;14,16,25,24;,
 4;18,17,26,27;,
 4;17,19,28,26;,
 4;19,20,29,28;,
 4;20,21,30,29;,
 4;21,22,31,30;,
 4;22,23,32,31;,
 4;23,24,33,32;,
 4;24,25,34,33;,
 4;27,26,35,36;,
 4;26,28,37,35;,
 4;28,29,38,37;,
 4;29,30,39,38;,
 4;30,31,40,39;,
 4;31,32,41,40;,
 4;32,33,42,41;,
 4;33,34,43,42;,
 4;36,35,44,45;,
 4;35,37,46,44;,
 4;37,38,47,46;,
 4;38,39,48,47;,
 4;39,40,49,48;,
 4;40,41,50,49;,
 4;41,42,51,50;,
 4;42,43,52,51;,
 4;45,44,53,54;,
 4;44,46,55,53;,
 4;46,47,56,55;,
 4;47,48,57,56;,
 4;48,49,58,57;,
 4;49,50,59,58;,
 4;50,51,60,59;,
 4;51,52,61,60;,
 4;54,53,62,63;,
 4;53,55,64,62;,
 4;55,56,65,64;,
 4;56,57,66,65;,
 4;57,58,67,66;,
 4;58,59,68,67;,
 4;59,60,69,68;,
 4;60,61,70,69;,
 3;63,62,71;,
 3;62,64,72;,
 3;64,65,73;,
 3;65,66,74;,
 3;66,67,75;,
 3;67,68,76;,
 3;68,69,77;,
 3;69,70,78;,
 4;79,80,81,82;,
 4;80,83,84,81;,
 4;83,85,86,84;,
 4;85,87,88,86;,
 4;87,89,90,88;,
 4;89,91,92,90;,
 4;91,93,94,92;,
 4;93,95,96,94;,
 3;97,80,79;,
 3;98,83,80;,
 3;99,85,83;,
 3;100,87,85;,
 3;101,89,87;,
 3;102,91,89;,
 3;103,93,91;,
 3;104,95,93;,
 3;105,82,81;,
 3;106,81,84;,
 3;107,84,86;,
 3;108,86,88;,
 3;109,88,90;,
 3;110,90,92;,
 3;111,92,94;,
 3;112,94,96;,
 4;113,114,115,116;,
 4;117,118,119,120;,
 4;121,122,123,124;,
 4;121,114,125,126;,
 4;127,128,115,124;,
 4;129,130,131,132;,
 4;133,134,135,136;,
 3;137,136,131;,
 3;138,132,135;,
 4;139,140,141,142;,
 4;143,144,145,146;,
 4;147,148,149,150;,
 4;147,151,152,142;,
 4;153,148,141,154;,
 4;155,156,157,158;,
 4;159,160,161,162;,
 3;163,157,160;,
 3;164,161,156;,
 4;165,166,167,168;,
 4;169,170,171,172;,
 4;173,174,175,176;,
 4;173,166,177,178;,
 4;179,180,167,176;,
 4;181,182,183,184;,
 4;185,186,187,188;,
 3;189,188,183;,
 3;190,184,187;,
 4;191,192,193,194;,
 4;195,196,197,198;,
 4;199,200,201,202;,
 4;199,203,204,194;,
 4;205,200,193,206;,
 4;207,208,209,210;,
 4;211,212,213,214;,
 3;215,209,212;,
 3;216,213,208;;
 
 MeshMaterialList {
  4;
  124;
  0,
  0,
  0,
  0,
  0,
  0,
  0,
  0,
  0,
  0,
  0,
  0,
  0,
  0,
  0,
  0,
  0,
  0,
  0,
  0,
  0,
  0,
  0,
  0,
  0,
  0,
  0,
  0,
  0,
  0,
  0,
  0,
  0,
  0,
  0,
  0,
  0,
  0,
  0,
  0,
  0,
  0,
  0,
  0,
  0,
  0,
  0,
  0,
  0,
  0,
  0,
  0,
  0,
  0,
  0,
  0,
  0,
  0,
  0,
  0,
  0,
  0,
  0,
  0,
  1,
  1,
  1,
  1,
  1,
  1,
  1,
  1,
  1,
  1,
  1,
  1,
  1,
  1,
  1,
  1,
  1,
  1,
  1,
  1,
  1,
  1,
  1,
  1,
  1,
  1,
  1,
  1,
  1,
  1,
  1,
  1,
  1,
  1,
  1,
  1,
  1,
  1,
  1,
  1,
  1,
  1,
  1,
  1,
  1,
  1,
  1,
  1,
  1,
  1,
  1,
  1,
  1,
  1,
  1,
  1,
  1,
  1,
  1,
  1;;
  Material {
   0.752800;0.520800;0.179200;1.000000;;
   5.000000;
   0.000000;0.000000;0.000000;;
   0.000000;0.000000;0.000000;;
  }
  Material {
   0.225600;0.408000;0.144000;1.000000;;
   5.000000;
   0.000000;0.000000;0.000000;;
   0.000000;0.000000;0.000000;;
  }
  Material {
   0.800000;0.780800;0.552000;1.000000;;
   5.000000;
   0.000000;0.000000;0.000000;;
   0.000000;0.000000;0.000000;;
  }
  Material {
   0.800000;0.448800;0.000000;1.000000;;
   5.000000;
   0.000000;0.000000;0.000000;;
   0.000000;0.000000;0.000000;;
  }
 }
 MeshNormals {
  120;
  -0.000000;1.000000;0.000000;,
  -0.001041;0.992865;0.119238;,
  -0.085050;0.992865;0.083578;,
  -0.119238;0.992865;-0.001041;,
  -0.083578;0.992865;-0.085050;,
  0.001041;0.992865;-0.119238;,
  0.085050;0.992865;-0.083578;,
  0.119238;0.992865;0.001041;,
  0.083578;0.992865;0.085050;,
  -0.004993;0.820158;0.572116;,
  -0.408078;0.820158;0.401016;,
  -0.572116;0.820158;-0.004993;,
  -0.401016;0.820158;-0.408078;,
  0.004993;0.820158;-0.572116;,
  0.408077;0.820158;-0.401016;,
  0.572116;0.820158;0.004993;,
  0.401016;0.820158;0.408077;,
  -0.007803;0.447762;0.894119;,
  -0.637755;0.447762;0.626720;,
  -0.894119;0.447762;-0.007803;,
  -0.626720;0.447762;-0.637755;,
  0.007803;0.447762;-0.894119;,
  0.637755;0.447762;-0.626720;,
  0.894119;0.447762;0.007803;,
  0.626720;0.447762;0.637755;,
  -0.008713;-0.055395;0.998426;,
  -0.712155;-0.055395;0.699833;,
  -0.998426;-0.055395;-0.008713;,
  -0.699833;-0.055395;-0.712155;,
  0.008713;-0.055395;-0.998426;,
  0.712155;-0.055395;-0.699833;,
  0.998427;-0.055395;0.008713;,
  0.699833;-0.055395;0.712155;,
  -0.007236;-0.559030;0.829116;,
  -0.591390;-0.559030;0.581157;,
  -0.829116;-0.559030;-0.007236;,
  -0.581157;-0.559030;-0.591390;,
  0.007236;-0.559030;-0.829116;,
  0.591390;-0.559030;-0.581157;,
  0.829116;-0.559030;0.007236;,
  0.581157;-0.559030;0.591390;,
  -0.004235;-0.874374;0.485235;,
  -0.346107;-0.874374;0.340119;,
  -0.485235;-0.874374;-0.004235;,
  -0.340119;-0.874374;-0.346107;,
  0.004235;-0.874374;-0.485235;,
  0.346107;-0.874374;-0.340118;,
  0.485235;-0.874374;0.004235;,
  0.340118;-0.874374;0.346107;,
  -0.001099;-0.992040;0.125921;,
  -0.089817;-0.992040;0.088263;,
  -0.125921;-0.992040;-0.001099;,
  -0.088263;-0.992040;-0.089817;,
  0.001099;-0.992040;-0.125921;,
  0.089817;-0.992040;-0.088263;,
  0.125921;-0.992040;0.001099;,
  0.088263;-0.992040;0.089817;,
  0.000000;-1.000000;-0.000000;,
  0.000000;1.000000;0.000000;,
  -0.008726;0.000000;0.999962;,
  -0.713250;0.000000;0.700909;,
  -0.999962;0.000000;-0.008726;,
  -0.700909;0.000000;-0.713250;,
  0.008726;0.000000;-0.999962;,
  0.713250;0.000000;-0.700909;,
  0.999962;0.000000;0.008726;,
  0.700909;0.000000;0.713250;,
  0.000000;-1.000000;-0.000000;,
  0.986642;0.041312;0.157580;,
  -0.989655;0.040563;0.137613;,
  -0.973984;-0.058371;-0.218970;,
  0.008409;-0.267253;-0.963590;,
  -0.869560;0.133933;0.475318;,
  0.989242;0.041315;-0.140336;,
  -0.987103;0.040561;-0.154865;,
  -0.977657;-0.058371;0.201939;,
  -0.008409;-0.267253;0.963590;,
  -0.861132;0.133929;-0.490423;,
  -0.183361;0.041289;0.982178;,
  -0.111659;0.040558;-0.992918;,
  0.244390;-0.058376;-0.967918;,
  0.963036;-0.267267;0.033630;,
  -0.452391;0.133929;-0.881706;,
  0.166189;0.041297;0.985229;,
  0.128972;0.040555;-0.990819;,
  -0.227459;-0.058380;-0.972036;,
  -0.963476;-0.267267;0.016818;,
  0.467711;0.133927;-0.873676;,
  0.977657;-0.058371;-0.201939;,
  0.002332;0.963631;-0.267226;,
  0.002332;0.963629;-0.267232;,
  -0.002332;-0.963630;0.267232;,
  -0.002332;-0.963630;0.267229;,
  0.858215;0.135242;0.495152;,
  0.002332;0.963628;-0.267239;,
  -0.002332;-0.963629;0.267234;,
  0.973984;-0.058371;0.218970;,
  -0.002332;0.963631;0.267226;,
  -0.002332;0.963629;0.267232;,
  0.002332;-0.963629;-0.267232;,
  0.002332;-0.963630;-0.267229;,
  0.866726;0.135247;-0.480097;,
  -0.002332;0.963627;0.267239;,
  0.002332;-0.963629;-0.267234;,
  0.176274;-0.058380;0.982608;,
  0.267072;0.963631;0.009326;,
  0.267079;0.963629;0.009327;,
  -0.267079;-0.963629;-0.009327;,
  -0.267077;-0.963630;-0.009327;,
  -0.517459;0.135208;0.844958;,
  0.267086;0.963628;0.009327;,
  -0.267082;-0.963629;-0.009327;,
  -0.193398;-0.058376;0.979382;,
  -0.267194;0.963631;0.004664;,
  -0.267201;0.963629;0.004664;,
  0.267202;-0.963629;-0.004664;,
  0.267199;-0.963630;-0.004664;,
  0.502631;0.135219;0.853861;,
  -0.267209;0.963628;0.004664;,
  0.267204;-0.963629;-0.004664;;
  124;
  3;0,2,1;,
  3;0,3,2;,
  3;0,4,3;,
  3;0,5,4;,
  3;0,6,5;,
  3;0,7,6;,
  3;0,8,7;,
  3;0,1,8;,
  4;1,2,10,9;,
  4;2,3,11,10;,
  4;3,4,12,11;,
  4;4,5,13,12;,
  4;5,6,14,13;,
  4;6,7,15,14;,
  4;7,8,16,15;,
  4;8,1,9,16;,
  4;9,10,18,17;,
  4;10,11,19,18;,
  4;11,12,20,19;,
  4;12,13,21,20;,
  4;13,14,22,21;,
  4;14,15,23,22;,
  4;15,16,24,23;,
  4;16,9,17,24;,
  4;17,18,26,25;,
  4;18,19,27,26;,
  4;19,20,28,27;,
  4;20,21,29,28;,
  4;21,22,30,29;,
  4;22,23,31,30;,
  4;23,24,32,31;,
  4;24,17,25,32;,
  4;25,26,34,33;,
  4;26,27,35,34;,
  4;27,28,36,35;,
  4;28,29,37,36;,
  4;29,30,38,37;,
  4;30,31,39,38;,
  4;31,32,40,39;,
  4;32,25,33,40;,
  4;33,34,42,41;,
  4;34,35,43,42;,
  4;35,36,44,43;,
  4;36,37,45,44;,
  4;37,38,46,45;,
  4;38,39,47,46;,
  4;39,40,48,47;,
  4;40,33,41,48;,
  4;41,42,50,49;,
  4;42,43,51,50;,
  4;43,44,52,51;,
  4;44,45,53,52;,
  4;45,46,54,53;,
  4;46,47,55,54;,
  4;47,48,56,55;,
  4;48,41,49,56;,
  3;49,50,57;,
  3;50,51,57;,
  3;51,52,57;,
  3;52,53,57;,
  3;53,54,57;,
  3;54,55,57;,
  3;55,56,57;,
  3;56,49,57;,
  4;59,60,60,59;,
  4;60,61,61,60;,
  4;61,62,62,61;,
  4;62,63,63,62;,
  4;63,64,64,63;,
  4;64,65,65,64;,
  4;65,66,66,65;,
  4;66,59,59,66;,
  3;58,58,58;,
  3;58,58,58;,
  3;58,58,58;,
  3;58,58,58;,
  3;58,58,58;,
  3;58,58,58;,
  3;58,58,58;,
  3;58,58,58;,
  3;67,67,67;,
  3;67,67,67;,
  3;67,67,67;,
  3;67,67,67;,
  3;67,67,67;,
  3;67,67,67;,
  3;67,67,67;,
  3;67,67,67;,
  4;69,70,70,69;,
  4;71,71,71,71;,
  4;88,68,68,88;,
  4;89,89,90,90;,
  4;91,91,92,92;,
  4;72,72,69,69;,
  4;93,93,68,68;,
  3;94,90,90;,
  3;95,91,91;,
  4;74,74,75,75;,
  4;76,76,76,76;,
  4;96,96,73,73;,
  4;97,98,98,97;,
  4;99,100,100,99;,
  4;77,74,74,77;,
  4;101,73,73,101;,
  3;102,98,98;,
  3;103,99,99;,
  4;79,80,80,79;,
  4;81,81,81,81;,
  4;104,78,78,104;,
  4;105,105,106,106;,
  4;107,107,108,108;,
  4;82,82,79,79;,
  4;109,109,78,78;,
  3;110,106,106;,
  3;111,107,107;,
  4;84,84,85,85;,
  4;86,86,86,86;,
  4;112,112,83,83;,
  4;113,114,114,113;,
  4;115,116,116,115;,
  4;87,84,84,87;,
  4;117,83,83,117;,
  3;118,114,114;,
  3;119,115,115;;
 }
 MeshTextureCoords {
  217;
  0.062500;0.000000;,
  0.125000;0.125000;,
  0.000000;0.125000;,
  0.187500;0.000000;,
  0.250000;0.125000;,
  0.312500;0.000000;,
  0.375000;0.125000;,
  0.437500;0.000000;,
  0.500000;0.125000;,
  0.562500;0.000000;,
  0.625000;0.125000;,
  0.687500;0.000000;,
  0.750000;0.125000;,
  0.812500;0.000000;,
  0.875000;0.125000;,
  0.937500;0.000000;,
  1.000000;0.125000;,
  0.125000;0.250000;,
  0.000000;0.250000;,
  0.250000;0.250000;,
  0.375000;0.250000;,
  0.500000;0.250000;,
  0.625000;0.250000;,
  0.750000;0.250000;,
  0.875000;0.250000;,
  1.000000;0.250000;,
  0.125000;0.375000;,
  0.000000;0.375000;,
  0.250000;0.375000;,
  0.375000;0.375000;,
  0.500000;0.375000;,
  0.625000;0.375000;,
  0.750000;0.375000;,
  0.875000;0.375000;,
  1.000000;0.375000;,
  0.125000;0.500000;,
  0.000000;0.500000;,
  0.250000;0.500000;,
  0.375000;0.500000;,
  0.500000;0.500000;,
  0.625000;0.500000;,
  0.750000;0.500000;,
  0.875000;0.500000;,
  1.000000;0.500000;,
  0.125000;0.625000;,
  0.000000;0.625000;,
  0.250000;0.625000;,
  0.375000;0.625000;,
  0.500000;0.625000;,
  0.625000;0.625000;,
  0.750000;0.625000;,
  0.875000;0.625000;,
  1.000000;0.625000;,
  0.125000;0.750000;,
  0.000000;0.750000;,
  0.250000;0.750000;,
  0.375000;0.750000;,
  0.500000;0.750000;,
  0.625000;0.750000;,
  0.750000;0.750000;,
  0.875000;0.750000;,
  1.000000;0.750000;,
  0.125000;0.875000;,
  0.000000;0.875000;,
  0.250000;0.875000;,
  0.375000;0.875000;,
  0.500000;0.875000;,
  0.625000;0.875000;,
  0.750000;0.875000;,
  0.875000;0.875000;,
  1.000000;0.875000;,
  0.062500;1.000000;,
  0.187500;1.000000;,
  0.312500;1.000000;,
  0.437500;1.000000;,
  0.562500;1.000000;,
  0.687500;1.000000;,
  0.812500;1.000000;,
  0.937500;1.000000;,
  0.000000;0.000000;,
  0.125000;0.000000;,
  0.125000;1.000000;,
  0.000000;1.000000;,
  0.250000;0.000000;,
  0.250000;1.000000;,
  0.375000;0.000000;,
  0.375000;1.000000;,
  0.500000;0.000000;,
  0.500000;1.000000;,
  0.625000;0.000000;,
  0.625000;1.000000;,
  0.750000;0.000000;,
  0.750000;1.000000;,
  0.875000;0.000000;,
  0.875000;1.000000;,
  1.000000;0.000000;,
  1.000000;1.000000;,
  0.062500;0.000000;,
  0.187500;0.000000;,
  0.312500;0.000000;,
  0.437500;0.000000;,
  0.562500;0.000000;,
  0.687500;0.000000;,
  0.812500;0.000000;,
  0.937500;0.000000;,
  0.062500;1.000000;,
  0.187500;1.000000;,
  0.312500;1.000000;,
  0.437500;1.000000;,
  0.562500;1.000000;,
  0.687500;1.000000;,
  0.812500;1.000000;,
  0.937500;1.000000;,
  0.000000;0.000000;,
  1.000000;0.000000;,
  1.000000;1.000000;,
  0.000000;1.000000;,
  0.000000;0.000000;,
  1.000000;0.000000;,
  1.000000;1.000000;,
  0.000000;1.000000;,
  0.000000;0.000000;,
  1.000000;0.000000;,
  1.000000;1.000000;,
  0.000000;1.000000;,
  1.000000;1.000000;,
  0.000000;1.000000;,
  0.000000;0.000000;,
  1.000000;0.000000;,
  1.000000;1.000000;,
  1.000000;0.000000;,
  1.000000;0.000000;,
  1.000000;1.000000;,
  0.000000;0.000000;,
  0.000000;1.000000;,
  0.000000;1.000000;,
  0.000000;0.000000;,
  0.500000;0.000000;,
  0.500000;1.000000;,
  0.000000;0.000000;,
  0.000000;1.000000;,
  1.000000;1.000000;,
  1.000000;0.000000;,
  0.000000;0.000000;,
  0.000000;1.000000;,
  1.000000;1.000000;,
  1.000000;0.000000;,
  0.000000;0.000000;,
  0.000000;1.000000;,
  1.000000;1.000000;,
  1.000000;0.000000;,
  0.000000;1.000000;,
  1.000000;1.000000;,
  0.000000;0.000000;,
  1.000000;0.000000;,
  1.000000;1.000000;,
  1.000000;1.000000;,
  1.000000;0.000000;,
  1.000000;0.000000;,
  0.000000;0.000000;,
  0.000000;0.000000;,
  0.000000;1.000000;,
  0.000000;1.000000;,
  0.500000;0.000000;,
  0.500000;1.000000;,
  0.000000;0.000000;,
  1.000000;0.000000;,
  1.000000;1.000000;,
  0.000000;1.000000;,
  0.000000;0.000000;,
  1.000000;0.000000;,
  1.000000;1.000000;,
  0.000000;1.000000;,
  0.000000;0.000000;,
  1.000000;0.000000;,
  1.000000;1.000000;,
  0.000000;1.000000;,
  1.000000;1.000000;,
  0.000000;1.000000;,
  0.000000;0.000000;,
  1.000000;0.000000;,
  1.000000;1.000000;,
  1.000000;0.000000;,
  1.000000;0.000000;,
  1.000000;1.000000;,
  0.000000;0.000000;,
  0.000000;1.000000;,
  0.000000;1.000000;,
  0.000000;0.000000;,
  0.500000;0.000000;,
  0.500000;1.000000;,
  0.000000;0.000000;,
  0.000000;1.000000;,
  1.000000;1.000000;,
  1.000000;0.000000;,
  0.000000;0.000000;,
  0.000000;1.000000;,
  1.000000;1.000000;,
  1.000000;0.000000;,
  0.000000;0.000000;,
  0.000000;1.000000;,
  1.000000;1.000000;,
  1.000000;0.000000;,
  0.000000;1.000000;,
  1.000000;1.000000;,
  0.000000;0.000000;,
  1.000000;0.000000;,
  1.000000;1.000000;,
  1.000000;1.000000;,
  1.000000;0.000000;,
  1.000000;0.000000;,
  0.000000;0.000000;,
  0.000000;0.000000;,
  0.000000;1.000000;,
  0.000000;1.000000;,
  0.500000;0.000000;,
  0.500000;1.000000;;
 }
}
