xof 0302txt 0064
template Header {
 <3D82AB43-62DA-11cf-AB39-0020AF71E433>
 WORD major;
 WORD minor;
 DWORD flags;
}

template Vector {
 <3D82AB5E-62DA-11cf-AB39-0020AF71E433>
 FLOAT x;
 FLOAT y;
 FLOAT z;
}

template Coords2d {
 <F6F23F44-7686-11cf-8F52-0040333594A3>
 FLOAT u;
 FLOAT v;
}

template Matrix4x4 {
 <F6F23F45-7686-11cf-8F52-0040333594A3>
 array FLOAT matrix[16];
}

template ColorRGBA {
 <35FF44E0-6C7C-11cf-8F52-0040333594A3>
 FLOAT red;
 FLOAT green;
 FLOAT blue;
 FLOAT alpha;
}

template ColorRGB {
 <D3E16E81-7835-11cf-8F52-0040333594A3>
 FLOAT red;
 FLOAT green;
 FLOAT blue;
}

template IndexedColor {
 <1630B820-7842-11cf-8F52-0040333594A3>
 DWORD index;
 ColorRGBA indexColor;
}

template Boolean {
 <4885AE61-78E8-11cf-8F52-0040333594A3>
 WORD truefalse;
}

template Boolean2d {
 <4885AE63-78E8-11cf-8F52-0040333594A3>
 Boolean u;
 Boolean v;
}

template MaterialWrap {
 <4885AE60-78E8-11cf-8F52-0040333594A3>
 Boolean u;
 Boolean v;
}

template TextureFilename {
 <A42790E1-7810-11cf-8F52-0040333594A3>
 STRING filename;
}

template Material {
 <3D82AB4D-62DA-11cf-AB39-0020AF71E433>
 ColorRGBA faceColor;
 FLOAT power;
 ColorRGB specularColor;
 ColorRGB emissiveColor;
 [...]
}

template MeshFace {
 <3D82AB5F-62DA-11cf-AB39-0020AF71E433>
 DWORD nFaceVertexIndices;
 array DWORD faceVertexIndices[nFaceVertexIndices];
}

template MeshFaceWraps {
 <4885AE62-78E8-11cf-8F52-0040333594A3>
 DWORD nFaceWrapValues;
 Boolean2d faceWrapValues;
}

template MeshTextureCoords {
 <F6F23F40-7686-11cf-8F52-0040333594A3>
 DWORD nTextureCoords;
 array Coords2d textureCoords[nTextureCoords];
}

template MeshMaterialList {
 <F6F23F42-7686-11cf-8F52-0040333594A3>
 DWORD nMaterials;
 DWORD nFaceIndexes;
 array DWORD faceIndexes[nFaceIndexes];
 [Material]
}

template MeshNormals {
 <F6F23F43-7686-11cf-8F52-0040333594A3>
 DWORD nNormals;
 array Vector normals[nNormals];
 DWORD nFaceNormals;
 array MeshFace faceNormals[nFaceNormals];
}

template MeshVertexColors {
 <1630B821-7842-11cf-8F52-0040333594A3>
 DWORD nVertexColors;
 array IndexedColor vertexColors[nVertexColors];
}

template Mesh {
 <3D82AB44-62DA-11cf-AB39-0020AF71E433>
 DWORD nVertices;
 array Vector vertices[nVertices];
 DWORD nFaces;
 array MeshFace faces[nFaces];
 [...]
}

Header{
1;
0;
1;
}

Mesh {
 90;
 -0.08998;0.05047;4.60163;,
 -0.08998;-18.78528;4.60163;,
 3.26796;-18.78528;3.24495;,
 3.26796;0.05047;3.24495;,
 4.68305;-18.78528;-0.08883;,
 4.68305;0.05047;-0.08883;,
 3.32636;-18.78528;-3.44677;,
 3.32636;0.05047;-3.44677;,
 -0.00739;-18.78528;-4.86186;,
 -0.00739;0.05047;-4.86186;,
 -3.36533;-18.78528;-3.50517;,
 -3.36533;0.05047;-3.50517;,
 -4.78042;-18.78528;-0.17142;,
 -4.78042;0.05047;-0.17142;,
 -3.42373;-18.78528;3.18655;,
 -3.42373;0.05047;3.18655;,
 -0.08998;-18.78528;4.60163;,
 -0.08998;0.05047;4.60163;,
 -0.04869;0.05047;-0.13012;,
 -0.04869;0.05047;-0.13012;,
 -0.04869;0.05047;-0.13012;,
 -0.04869;0.05047;-0.13012;,
 -0.04869;0.05047;-0.13012;,
 -0.04869;0.05047;-0.13012;,
 -0.04869;0.05047;-0.13012;,
 -0.04869;0.05047;-0.13012;,
 -0.04869;-18.78528;-0.13012;,
 -0.04869;-18.78528;-0.13012;,
 -0.04869;-18.78528;-0.13012;,
 -0.04869;-18.78528;-0.13012;,
 -0.04869;-18.78528;-0.13012;,
 -0.04869;-18.78528;-0.13012;,
 -0.04869;-18.78528;-0.13012;,
 -0.04869;-18.78528;-0.13012;,
 0.00311;-14.54091;5.35975;,
 0.10751;-14.54091;-6.60368;,
 -5.06375;-14.54091;-3.95021;,
 -4.83411;-14.54091;3.68537;,
 4.77203;-14.54091;3.76921;,
 5.13487;-14.54091;-3.86121;,
 0.00311;-24.17798;5.35975;,
 0.10751;-24.17798;-6.60368;,
 6.04082;-24.17798;-6.55190;,
 5.93642;-24.17798;5.41154;,
 -6.02702;-24.17798;5.30713;,
 -5.92262;-24.17798;-6.65631;,
 0.12550;-17.03907;-8.66498;,
 -5.92262;-17.03907;-6.65631;,
 -5.06375;-14.54091;-3.95021;,
 0.10751;-14.54091;-6.60368;,
 5.13487;-14.54091;-3.86121;,
 6.04082;-17.03907;-6.55190;,
 -5.92262;-17.03907;-6.65631;,
 -6.02702;-17.03907;5.30713;,
 -4.83411;-14.54091;3.68537;,
 -6.02702;-24.17798;5.30713;,
 6.04082;-17.03907;-6.55190;,
 5.93642;-17.03907;5.41154;,
 5.93642;-24.17798;5.41154;,
 4.77203;-14.54091;3.76921;,
 -6.02702;-17.03907;5.30713;,
 0.00311;-17.03907;5.35975;,
 0.00311;-14.54091;5.35975;,
 -4.83411;-14.54091;3.68537;,
 -6.02702;-24.17798;5.30713;,
 0.00311;-24.17798;5.35975;,
 5.93642;-17.03907;5.41154;,
 5.93642;-24.17798;5.41154;,
 4.77203;-14.54091;3.76921;,
 0.26333;-21.23856;-24.45862;,
 0.26333;-24.17798;-24.45862;,
 -4.15390;-24.17798;-24.49717;,
 -4.15390;-21.23856;-24.49717;,
 4.58375;-21.23856;-24.42092;,
 4.58375;-24.17798;-24.42092;,
 0.20191;-19.19102;-17.41984;,
 -4.47061;-19.80411;-16.43829;,
 4.75977;-19.80411;-16.35774;,
 -5.85660;-24.17798;-14.22129;,
 6.10684;-24.17798;-14.11689;,
 0.17353;-24.17798;-14.16867;,
 -5.90604;-23.22902;-8.55384;,
 0.11288;-23.22902;-7.21807;,
 0.10751;-24.17798;-6.60368;,
 -5.92262;-24.17798;-6.65631;,
 6.05738;-23.22902;-8.44945;,
 6.04082;-24.17798;-6.55190;,
 -5.86099;-23.22902;-13.71646;,
 0.16913;-23.22902;-13.66384;,
 6.10244;-23.22902;-13.61206;;
 
 60;
 4;0,1,2,3;,
 4;3,2,4,5;,
 4;5,4,6,7;,
 4;7,6,8,9;,
 4;9,8,10,11;,
 4;11,10,12,13;,
 4;13,12,14,15;,
 4;15,14,16,17;,
 3;18,0,3;,
 3;19,3,5;,
 3;20,5,7;,
 3;21,7,9;,
 3;22,9,11;,
 3;23,11,13;,
 3;24,13,15;,
 3;25,15,17;,
 3;26,2,1;,
 3;27,4,2;,
 3;28,6,4;,
 3;29,8,6;,
 3;30,10,8;,
 3;31,12,10;,
 3;32,14,12;,
 3;33,16,14;,
 4;34,35,36,37;,
 4;34,38,39,35;,
 4;40,41,42,43;,
 4;40,44,45,41;,
 4;46,47,48,49;,
 4;46,49,50,51;,
 4;52,53,54,36;,
 4;52,45,55,53;,
 4;56,57,58,42;,
 4;56,39,59,57;,
 4;60,61,62,63;,
 4;60,64,65,61;,
 4;66,61,65,67;,
 4;66,68,62,61;,
 4;69,70,71,72;,
 4;69,73,74,70;,
 4;75,69,72,76;,
 4;75,77,73,69;,
 4;76,72,71,78;,
 4;77,79,74,73;,
 4;78,71,70,80;,
 4;79,80,70,74;,
 4;81,82,83,84;,
 4;82,85,86,83;,
 4;87,88,82,81;,
 4;87,78,80,88;,
 4;87,81,47,76;,
 4;88,89,85,82;,
 4;88,80,79,89;,
 4;76,47,46,75;,
 4;89,77,51,85;,
 4;75,46,51,77;,
 3;47,81,84;,
 3;76,78,87;,
 3;51,86,85;,
 3;77,89,79;;
 
 MeshMaterialList {
  4;
  60;
  2,
  2,
  2,
  2,
  2,
  2,
  2,
  2,
  2,
  2,
  2,
  2,
  2,
  2,
  2,
  2,
  2,
  2,
  2,
  2,
  2,
  2,
  2,
  2,
  3,
  3,
  3,
  3,
  3,
  3,
  3,
  3,
  3,
  3,
  3,
  3,
  3,
  3,
  3,
  3,
  3,
  3,
  3,
  3,
  3,
  3,
  3,
  3,
  3,
  3,
  3,
  3,
  3,
  3,
  3,
  3,
  3,
  3,
  3,
  3;;
  Material {
   0.752800;0.520800;0.179200;1.000000;;
   5.000000;
   0.000000;0.000000;0.000000;;
   0.000000;0.000000;0.000000;;
  }
  Material {
   0.225600;0.408000;0.144000;1.000000;;
   5.000000;
   0.000000;0.000000;0.000000;;
   0.000000;0.000000;0.000000;;
  }
  Material {
   0.800000;0.780800;0.552000;1.000000;;
   5.000000;
   0.000000;0.000000;0.000000;;
   0.000000;0.000000;0.000000;;
  }
  Material {
   0.800000;0.448800;0.000000;1.000000;;
   5.000000;
   0.000000;0.000000;0.000000;;
   0.000000;0.000000;0.000000;;
  }
 }
 MeshNormals {
  60;
  0.000000;1.000000;0.000000;,
  -0.008727;0.000000;0.999962;,
  0.700910;0.000000;0.713250;,
  0.999962;0.000000;0.008726;,
  0.713250;0.000000;-0.700909;,
  0.008726;0.000000;-0.999962;,
  -0.700910;0.000000;-0.713250;,
  -0.999962;0.000000;-0.008728;,
  -0.713252;0.000000;0.700908;,
  0.000000;-1.000000;-0.000000;,
  0.160116;0.917629;-0.363757;,
  -0.023632;-0.933769;-0.357095;,
  -0.151309;0.917768;-0.367161;,
  0.029434;-0.933780;-0.356634;,
  0.004446;0.929032;-0.369972;,
  0.002902;-0.934104;-0.356991;,
  -0.980026;0.198870;0.000326;,
  0.979871;0.198867;0.017429;,
  -0.007830;0.147109;0.989089;,
  0.008727;0.000000;-0.999962;,
  0.008727;0.000000;-0.999962;,
  0.008727;0.000000;-0.999962;,
  -0.971348;0.132671;-0.197184;,
  0.974641;0.132665;-0.180209;,
  0.002902;-0.934103;-0.356991;,
  -0.946556;0.268557;-0.178633;,
  0.006176;0.869894;-0.493199;,
  0.817486;0.523576;-0.239969;,
  -0.108262;0.963342;-0.245461;,
  0.003252;0.969255;-0.246036;,
  0.114727;0.963081;-0.243542;,
  -0.920861;0.389779;0.009366;,
  -0.999962;0.000000;-0.008730;,
  -0.999962;0.000000;-0.008726;,
  0.999962;0.000000;0.008727;,
  0.999962;0.000000;0.008727;,
  0.920559;0.389774;0.025434;,
  -0.094009;0.146516;0.984731;,
  -0.006746;0.293116;0.956053;,
  -0.176568;0.288787;0.940971;,
  -0.008726;0.000000;0.999962;,
  -0.008727;0.000000;0.999962;,
  0.078420;0.146606;0.986082;,
  -0.008728;0.000000;0.999962;,
  0.163272;0.288920;0.943328;,
  0.002886;0.973089;-0.230411;,
  -0.081618;0.969689;-0.230308;,
  0.087370;0.969529;-0.228866;,
  -0.977744;0.126323;-0.167510;,
  -0.988549;0.112897;-0.100124;,
  0.980518;0.126320;-0.150425;,
  0.990146;0.112896;-0.082855;,
  -0.007704;-0.469674;0.882807;,
  -0.007704;-0.469672;0.882807;,
  -0.970531;0.132837;-0.201055;,
  -0.996667;0.056827;-0.058525;,
  -0.007704;-0.469670;0.882809;,
  -0.134801;0.956052;-0.260373;,
  0.973892;0.132833;-0.184094;,
  0.997537;0.056828;-0.041118;;
  60;
  4;1,1,2,2;,
  4;2,2,3,3;,
  4;3,3,4,4;,
  4;4,4,5,5;,
  4;5,5,6,6;,
  4;6,6,7,7;,
  4;7,7,8,8;,
  4;8,8,1,1;,
  3;0,0,0;,
  3;0,0,0;,
  3;0,0,0;,
  3;0,0,0;,
  3;0,0,0;,
  3;0,0,0;,
  3;0,0,0;,
  3;0,0,0;,
  3;9,9,9;,
  3;9,9,9;,
  3;9,9,9;,
  3;9,9,9;,
  3;9,9,9;,
  3;9,9,9;,
  3;9,9,9;,
  3;9,9,9;,
  4;0,14,12,0;,
  4;0,0,10,14;,
  4;9,15,11,9;,
  4;9,9,13,15;,
  4;26,25,12,14;,
  4;26,14,10,27;,
  4;25,16,31,31;,
  4;25,32,33,16;,
  4;34,17,34,35;,
  4;27,36,36,17;,
  4;37,18,38,39;,
  4;37,40,41,18;,
  4;42,18,41,43;,
  4;42,44,38,18;,
  4;21,21,20,20;,
  4;21,19,19,21;,
  4;29,45,46,28;,
  4;29,30,47,45;,
  4;48,49,49,22;,
  4;50,23,51,51;,
  4;9,9,9,9;,
  4;9,9,9,9;,
  4;13,24,15,13;,
  4;24,11,11,15;,
  4;9,9,24,13;,
  4;52,52,53,53;,
  4;54,55,25,48;,
  4;9,9,11,24;,
  4;53,53,56,56;,
  4;28,57,26,29;,
  4;58,50,27,59;,
  4;29,26,27,30;,
  3;25,55,32;,
  3;48,22,54;,
  3;27,35,59;,
  3;50,58,23;;
 }
 MeshTextureCoords {
  90;
  0.000000;0.000000;,
  0.000000;1.000000;,
  0.125000;1.000000;,
  0.125000;0.000000;,
  0.250000;1.000000;,
  0.250000;0.000000;,
  0.375000;1.000000;,
  0.375000;0.000000;,
  0.500000;1.000000;,
  0.500000;0.000000;,
  0.625000;1.000000;,
  0.625000;0.000000;,
  0.750000;1.000000;,
  0.750000;0.000000;,
  0.875000;1.000000;,
  0.875000;0.000000;,
  1.000000;1.000000;,
  1.000000;0.000000;,
  0.062500;0.000000;,
  0.187500;0.000000;,
  0.312500;0.000000;,
  0.437500;0.000000;,
  0.562500;0.000000;,
  0.687500;0.000000;,
  0.812500;0.000000;,
  0.937500;0.000000;,
  0.062500;1.000000;,
  0.187500;1.000000;,
  0.312500;1.000000;,
  0.437500;1.000000;,
  0.562500;1.000000;,
  0.687500;1.000000;,
  0.812500;1.000000;,
  0.937500;1.000000;,
  0.504050;1.000000;,
  0.504050;0.000000;,
  0.000000;0.000000;,
  0.000000;1.000000;,
  1.000000;1.000000;,
  1.000000;0.000000;,
  0.504050;0.000000;,
  0.504050;1.000000;,
  1.000000;1.000000;,
  1.000000;0.000000;,
  0.000000;0.000000;,
  0.000000;1.000000;,
  0.495950;0.208810;,
  1.000000;0.208810;,
  1.000000;0.000000;,
  0.495950;0.000000;,
  0.000000;0.000000;,
  0.000000;0.208810;,
  0.000000;0.208810;,
  1.000000;0.208810;,
  1.000000;0.000000;,
  1.000000;1.000000;,
  1.000000;0.208810;,
  0.000000;0.208810;,
  0.000000;1.000000;,
  0.000000;0.000000;,
  0.000000;0.208810;,
  0.504050;0.208810;,
  0.504050;0.000000;,
  0.000000;0.000000;,
  0.000000;1.000000;,
  0.504050;1.000000;,
  1.000000;0.208810;,
  1.000000;1.000000;,
  1.000000;0.000000;,
  0.495950;0.208810;,
  0.495950;1.000000;,
  1.000000;1.000000;,
  1.000000;0.208810;,
  0.000000;0.208810;,
  0.000000;1.000000;,
  0.495950;0.208810;,
  1.000000;0.208810;,
  0.000000;0.208810;,
  1.000000;1.000000;,
  0.000000;1.000000;,
  0.495950;1.000000;,
  1.000000;1.000000;,
  0.495950;1.000000;,
  0.495950;1.000000;,
  1.000000;1.000000;,
  0.000000;1.000000;,
  0.000000;1.000000;,
  1.000000;1.000000;,
  0.495950;1.000000;,
  0.000000;1.000000;;
 }
}
