xof 0302txt 0064
template Header {
 <3D82AB43-62DA-11cf-AB39-0020AF71E433>
 WORD major;
 WORD minor;
 DWORD flags;
}

template Vector {
 <3D82AB5E-62DA-11cf-AB39-0020AF71E433>
 FLOAT x;
 FLOAT y;
 FLOAT z;
}

template Coords2d {
 <F6F23F44-7686-11cf-8F52-0040333594A3>
 FLOAT u;
 FLOAT v;
}

template Matrix4x4 {
 <F6F23F45-7686-11cf-8F52-0040333594A3>
 array FLOAT matrix[16];
}

template ColorRGBA {
 <35FF44E0-6C7C-11cf-8F52-0040333594A3>
 FLOAT red;
 FLOAT green;
 FLOAT blue;
 FLOAT alpha;
}

template ColorRGB {
 <D3E16E81-7835-11cf-8F52-0040333594A3>
 FLOAT red;
 FLOAT green;
 FLOAT blue;
}

template IndexedColor {
 <1630B820-7842-11cf-8F52-0040333594A3>
 DWORD index;
 ColorRGBA indexColor;
}

template Boolean {
 <4885AE61-78E8-11cf-8F52-0040333594A3>
 WORD truefalse;
}

template Boolean2d {
 <4885AE63-78E8-11cf-8F52-0040333594A3>
 Boolean u;
 Boolean v;
}

template MaterialWrap {
 <4885AE60-78E8-11cf-8F52-0040333594A3>
 Boolean u;
 Boolean v;
}

template TextureFilename {
 <A42790E1-7810-11cf-8F52-0040333594A3>
 STRING filename;
}

template Material {
 <3D82AB4D-62DA-11cf-AB39-0020AF71E433>
 ColorRGBA faceColor;
 FLOAT power;
 ColorRGB specularColor;
 ColorRGB emissiveColor;
 [...]
}

template MeshFace {
 <3D82AB5F-62DA-11cf-AB39-0020AF71E433>
 DWORD nFaceVertexIndices;
 array DWORD faceVertexIndices[nFaceVertexIndices];
}

template MeshFaceWraps {
 <4885AE62-78E8-11cf-8F52-0040333594A3>
 DWORD nFaceWrapValues;
 Boolean2d faceWrapValues;
}

template MeshTextureCoords {
 <F6F23F40-7686-11cf-8F52-0040333594A3>
 DWORD nTextureCoords;
 array Coords2d textureCoords[nTextureCoords];
}

template MeshMaterialList {
 <F6F23F42-7686-11cf-8F52-0040333594A3>
 DWORD nMaterials;
 DWORD nFaceIndexes;
 array DWORD faceIndexes[nFaceIndexes];
 [Material]
}

template MeshNormals {
 <F6F23F43-7686-11cf-8F52-0040333594A3>
 DWORD nNormals;
 array Vector normals[nNormals];
 DWORD nFaceNormals;
 array MeshFace faceNormals[nFaceNormals];
}

template MeshVertexColors {
 <1630B821-7842-11cf-8F52-0040333594A3>
 DWORD nVertexColors;
 array IndexedColor vertexColors[nVertexColors];
}

template Mesh {
 <3D82AB44-62DA-11cf-AB39-0020AF71E433>
 DWORD nVertices;
 array Vector vertices[nVertices];
 DWORD nFaces;
 array MeshFace faces[nFaces];
 [...]
}

Header{
1;
0;
1;
}

Mesh {
 147;
 -8.64331;0.42336;3.60203;,
 -8.62306;2.50960;2.71723;,
 -21.51580;2.62200;2.68717;,
 -21.53604;0.53575;3.57196;,
 -8.61076;3.35912;0.61633;,
 -21.50349;3.47150;0.58626;,
 -8.61360;2.47428;-1.46999;,
 -21.50634;2.58669;-1.50007;,
 -8.62992;0.37343;-2.31958;,
 -21.52266;0.48582;-2.34965;,
 -8.65021;-1.71278;-1.43479;,
 -21.54293;-1.60039;-1.46486;,
 -8.66249;-2.56232;0.66612;,
 -21.55521;-2.44992;0.63606;,
 -8.65967;-1.67748;2.75245;,
 -21.55237;-1.56509;2.72238;,
 -8.64331;0.42336;3.60203;,
 -21.53604;0.53575;3.57196;,
 -8.63663;0.39840;0.64122;,
 -8.63663;0.39840;0.64122;,
 -8.63663;0.39840;0.64122;,
 -8.63663;0.39840;0.64122;,
 -8.63663;0.39840;0.64122;,
 -8.63663;0.39840;0.64122;,
 -8.63663;0.39840;0.64122;,
 -8.63663;0.39840;0.64122;,
 -21.52935;0.51080;0.61115;,
 -21.52935;0.51080;0.61115;,
 -21.52935;0.51080;0.61115;,
 -21.52935;0.51080;0.61115;,
 -21.52935;0.51080;0.61115;,
 -21.52935;0.51080;0.61115;,
 -21.52935;0.51080;0.61115;,
 -21.52935;0.51080;0.61115;,
 1.24969;-0.05100;0.66734;,
 0.00002;3.37455;2.59765;,
 -0.03409;-0.00681;4.58809;,
 1.24969;-0.05100;0.66734;,
 0.00891;3.34148;-1.32607;,
 1.24969;-0.05100;0.66734;,
 -0.01636;-0.07298;-3.25936;,
 1.24969;-0.05100;0.66734;,
 -0.05048;-3.45436;-1.26892;,
 1.24969;-0.05100;0.66734;,
 -0.05935;-3.42127;2.65480;,
 1.24969;-0.05100;0.66734;,
 -0.03409;-0.00681;4.58809;,
 -3.32206;5.51388;3.78470;,
 -3.37726;0.04272;7.00530;,
 -3.30772;5.46038;-2.56401;,
 -3.34857;-0.06432;-5.69212;,
 -3.40377;-5.53550;-2.47153;,
 -3.41810;-5.48197;3.87718;,
 -3.37726;0.04272;7.00530;,
 -7.44768;5.54982;3.77508;,
 -7.50291;0.07868;6.99568;,
 -7.43333;5.49635;-2.57363;,
 -7.47423;-0.02836;-5.70175;,
 -7.52941;-5.49953;-2.48116;,
 -7.54377;-5.44602;3.86756;,
 -7.50291;0.07868;6.99568;,
 -8.95855;3.45265;2.57676;,
 -8.99265;0.07128;4.56720;,
 -8.94969;3.41958;-1.34696;,
 -8.97492;0.00513;-3.28025;,
 -9.00904;-3.37626;-1.28981;,
 -9.01790;-3.34319;2.63391;,
 -8.99265;0.07128;4.56720;,
 -12.10119;0.06537;0.63621;,
 -12.10119;0.06537;0.63621;,
 -12.10119;0.06537;0.63621;,
 -12.10119;0.06537;0.63621;,
 -12.10119;0.06537;0.63621;,
 -12.10119;0.06537;0.63621;,
 -23.17733;-2.56830;3.68390;,
 -23.16248;-2.62373;-2.89158;,
 -19.02411;-2.65981;-2.88192;,
 -19.03897;-2.60435;3.69356;,
 -23.50593;3.54345;4.47956;,
 -18.98758;3.50409;4.49009;,
 -18.96888;3.43434;-3.78107;,
 -23.48725;3.47374;-3.79159;,
 -23.54627;-1.07353;4.51837;,
 -23.17733;-2.56830;3.68390;,
 -19.03897;-2.60435;3.69356;,
 -19.02790;-1.11293;4.52893;,
 -18.98758;3.50409;4.49009;,
 -23.50593;3.54345;4.47956;,
 -28.32799;1.58357;4.48519;,
 -28.31059;3.57102;4.46846;,
 -28.29190;3.50132;-3.80270;,
 -28.30927;1.51381;-3.78597;,
 -19.02790;-1.11293;4.52893;,
 -19.03897;-2.60435;3.69356;,
 -19.00922;-1.18265;-3.74224;,
 -18.98758;3.50409;4.49009;,
 -19.00922;-1.18265;-3.74224;,
 -19.02411;-2.65981;-2.88192;,
 -23.16248;-2.62373;-2.89158;,
 -23.52759;-1.14326;-3.75277;,
 -23.48725;3.47374;-3.79159;,
 -18.96888;3.43434;-3.78107;,
 -24.79869;0.23584;4.50450;,
 -23.71568;3.54529;4.47906;,
 -24.79869;0.23584;4.50450;,
 -24.78003;0.16615;-3.76664;,
 -23.71568;3.54529;4.47906;,
 -23.69699;3.47555;-3.79210;,
 -23.69699;3.47555;-3.79210;,
 -24.78003;0.16615;-3.76664;,
 -24.79869;0.23584;4.50450;,
 -24.78003;0.16615;-3.76664;,
 -25.46070;3.45763;-3.79593;,
 -25.13140;0.85898;-3.77328;,
 -28.30927;1.51381;-3.78597;,
 -28.29190;3.50132;-3.80270;,
 -25.46070;3.45763;-3.79593;,
 -28.31059;3.57102;4.46846;,
 -25.47939;3.52737;4.47524;,
 -25.13140;0.85898;-3.77328;,
 -25.15009;0.92872;4.49788;,
 -28.32799;1.58357;4.48519;,
 -28.30927;1.51381;-3.78597;,
 -25.47939;3.52737;4.47524;,
 -28.31059;3.57102;4.46846;,
 -28.32799;1.58357;4.48519;,
 -25.15009;0.92872;4.49788;,
 -19.72361;-1.59720;-3.16416;,
 -19.70110;0.97726;-3.18582;,
 -26.61278;1.03752;-3.20191;,
 -26.63527;-1.53697;-3.18027;,
 -19.70110;0.97726;-3.18582;,
 -19.69674;0.96094;-5.12331;,
 -26.60839;1.02117;-5.13943;,
 -26.61278;1.03752;-3.20191;,
 -19.69674;0.96094;-5.12331;,
 -19.71925;-1.61354;-5.10166;,
 -26.63089;-1.55329;-5.11778;,
 -26.60839;1.02117;-5.13943;,
 -19.71925;-1.61354;-5.10166;,
 -19.72361;-1.59720;-3.16416;,
 -26.63527;-1.53697;-3.18027;,
 -26.63089;-1.55329;-5.11778;,
 -19.70110;0.97726;-3.18582;,
 -19.72361;-1.59720;-3.16416;,
 -26.63527;-1.53697;-3.18027;,
 -26.61278;1.03752;-3.20191;;
 
 83;
 4;0,1,2,3;,
 4;1,4,5,2;,
 4;4,6,7,5;,
 4;6,8,9,7;,
 4;8,10,11,9;,
 4;10,12,13,11;,
 4;12,14,15,13;,
 4;14,16,17,15;,
 3;18,1,0;,
 3;19,4,1;,
 3;20,6,4;,
 3;21,8,6;,
 3;22,10,8;,
 3;23,12,10;,
 3;24,14,12;,
 3;25,16,14;,
 3;26,3,2;,
 3;27,2,5;,
 3;28,5,7;,
 3;29,7,9;,
 3;30,9,11;,
 3;31,11,13;,
 3;32,13,15;,
 3;33,15,17;,
 3;34,35,36;,
 3;37,38,35;,
 3;39,40,38;,
 3;41,42,40;,
 3;43,44,42;,
 3;45,46,44;,
 4;36,35,47,48;,
 4;35,38,49,47;,
 4;38,40,50,49;,
 4;40,42,51,50;,
 4;42,44,52,51;,
 4;44,46,53,52;,
 4;48,47,54,55;,
 4;47,49,56,54;,
 4;49,50,57,56;,
 4;50,51,58,57;,
 4;51,52,59,58;,
 4;52,53,60,59;,
 4;55,54,61,62;,
 4;54,56,63,61;,
 4;56,57,64,63;,
 4;57,58,65,64;,
 4;58,59,66,65;,
 4;59,60,67,66;,
 3;62,61,68;,
 3;61,63,69;,
 3;63,64,70;,
 3;64,65,71;,
 3;65,66,72;,
 3;66,67,73;,
 4;74,75,76,77;,
 4;78,79,80,81;,
 4;82,83,84,85;,
 4;82,85,86,87;,
 4;88,89,90,91;,
 4;92,93,76,94;,
 4;92,94,80,95;,
 4;96,97,98,99;,
 4;96,99,100,101;,
 4;102,82,87,103;,
 4;104,105,75,74;,
 4;106,78,81,107;,
 4;108,100,99,109;,
 3;110,83,82;,
 3;111,99,98;,
 4;112,108,109,113;,
 4;112,113,114,115;,
 4;116,90,117,118;,
 4;116,118,106,107;,
 4;119,105,104,120;,
 4;119,120,121,122;,
 4;123,124,125,126;,
 4;123,126,102,103;,
 4;127,128,129,130;,
 4;131,132,133,134;,
 4;135,136,137,138;,
 4;139,140,141,142;,
 4;139,132,143,144;,
 4;145,146,133,142;;
 
 MeshMaterialList {
  4;
  83;
  2,
  2,
  2,
  2,
  2,
  2,
  2,
  2,
  2,
  2,
  2,
  2,
  2,
  2,
  2,
  2,
  2,
  2,
  2,
  2,
  2,
  2,
  2,
  2,
  0,
  0,
  0,
  0,
  0,
  0,
  0,
  0,
  0,
  0,
  0,
  0,
  0,
  0,
  0,
  0,
  0,
  0,
  0,
  0,
  0,
  0,
  0,
  0,
  0,
  0,
  0,
  0,
  0,
  0,
  3,
  3,
  3,
  3,
  3,
  3,
  3,
  3,
  3,
  3,
  3,
  3,
  3,
  3,
  3,
  3,
  3,
  3,
  3,
  3,
  3,
  3,
  3,
  3,
  3,
  3,
  3,
  3,
  3;;
  Material {
   0.752800;0.520800;0.179200;1.000000;;
   5.000000;
   0.000000;0.000000;0.000000;;
   0.000000;0.000000;0.000000;;
  }
  Material {
   0.225600;0.408000;0.144000;1.000000;;
   5.000000;
   0.000000;0.000000;0.000000;;
   0.000000;0.000000;0.000000;;
  }
  Material {
   0.800000;0.780800;0.552000;1.000000;;
   5.000000;
   0.000000;0.000000;0.000000;;
   0.000000;0.000000;0.000000;;
  }
  Material {
   0.800000;0.448800;0.000000;1.000000;;
   5.000000;
   0.000000;0.000000;0.000000;;
   0.000000;0.000000;0.000000;;
  }
 }
 MeshNormals {
  97;
  0.999959;-0.008721;0.002334;,
  -0.002259;0.008427;0.999962;,
  0.004581;0.713013;0.701136;,
  0.008737;0.999926;-0.008411;,
  0.007775;0.701092;-0.713028;,
  0.002259;-0.008430;-0.999962;,
  -0.004581;-0.713012;-0.701137;,
  -0.008737;-0.999927;0.008410;,
  -0.007775;-0.701090;0.713030;,
  -0.999959;0.008715;-0.002331;,
  0.999959;-0.008716;0.002334;,
  0.815528;-0.002256;0.578713;,
  0.820541;0.494827;0.286110;,
  0.821846;0.489963;-0.290699;,
  0.818133;-0.011983;-0.574905;,
  0.813118;-0.509066;-0.282297;,
  0.811814;-0.504203;0.294511;,
  0.313832;0.005245;0.949464;,
  0.322078;0.822838;0.468191;,
  0.324222;0.814841;-0.480535;,
  0.318116;-0.010752;-0.947991;,
  0.309867;-0.828347;-0.466716;,
  0.307725;-0.820349;0.482010;,
  -0.643751;0.209419;0.736022;,
  -0.640293;0.551522;0.534648;,
  -0.636898;0.742861;-0.206198;,
  -0.640411;0.196955;-0.742349;,
  -0.647315;-0.540292;-0.537650;,
  -0.650711;-0.731633;0.203196;,
  -0.820075;0.011977;0.572131;,
  -0.815081;0.506676;0.280931;,
  -0.813785;0.501837;-0.293110;,
  -0.817482;0.002299;-0.575949;,
  -0.822473;-0.492399;-0.284749;,
  -0.823770;-0.487560;0.289290;,
  -0.848501;0.529156;-0.006377;,
  -0.008734;-0.999926;0.008411;,
  -0.999959;0.008726;-0.002334;,
  0.008736;0.999926;-0.008410;,
  -0.554212;-0.788116;0.267812;,
  0.008717;0.999927;-0.008410;,
  -0.553027;-0.792539;-0.256988;,
  -0.147789;-0.263540;0.953260;,
  -0.004425;-0.248417;0.968643;,
  0.999959;-0.008720;0.002333;,
  -0.143477;-0.279576;-0.949343;,
  -0.196060;-0.177320;0.964426;,
  -0.002257;0.008429;0.999962;,
  -0.817632;-0.525163;-0.235968;,
  -0.000720;0.999964;-0.008432;,
  0.002259;-0.008431;-0.999962;,
  0.002651;0.999961;-0.008424;,
  -0.607054;-0.794643;0.005329;,
  -0.002256;0.008427;0.999962;,
  0.008735;0.999926;-0.008410;,
  0.002259;-0.008431;-0.999962;,
  0.999959;-0.008718;0.002332;,
  0.999959;-0.008725;0.002332;,
  0.999959;-0.008718;0.002334;,
  0.999959;-0.008716;0.002337;,
  0.999959;-0.008725;0.002338;,
  0.999959;-0.008726;0.002328;,
  0.999959;-0.008716;0.002333;,
  0.999959;-0.008724;0.002339;,
  -0.999959;0.008716;-0.002333;,
  -0.999959;0.008712;-0.002333;,
  -0.999959;0.008713;-0.002331;,
  -0.999959;0.008712;-0.002330;,
  -0.999959;0.008718;-0.002331;,
  -0.999959;0.008719;-0.002326;,
  -0.999959;0.008715;-0.002330;,
  -0.999959;0.008718;-0.002336;,
  0.008734;0.999927;-0.008405;,
  0.006325;0.492664;-0.870197;,
  -0.002411;-0.507264;-0.861787;,
  -0.008735;-0.999927;0.008410;,
  -0.006323;-0.492664;0.870197;,
  -0.857616;-0.514286;0.002398;,
  -0.006295;-0.488630;0.872468;,
  -0.002259;0.008429;0.999962;,
  -0.002272;0.008428;0.999962;,
  0.999959;-0.008724;0.002333;,
  0.999959;-0.008715;0.002333;,
  -0.000060;-0.264703;-0.964330;,
  -0.002372;-0.503256;-0.864134;,
  0.002273;-0.008434;-0.999962;,
  0.002257;-0.008429;-0.999962;,
  -0.878979;-0.476856;0.002034;,
  0.002275;-0.008434;-0.999962;,
  0.002257;-0.008433;-0.999962;,
  0.015441;0.999846;-0.008393;,
  -0.201843;-0.979387;0.007802;,
  -0.002245;0.008431;0.999962;,
  -0.002260;0.008431;0.999962;,
  -0.008735;-0.999927;0.008407;,
  0.999959;-0.008722;0.002324;,
  -0.999959;0.008718;-0.002337;;
  83;
  4;1,2,2,1;,
  4;2,3,3,2;,
  4;3,4,4,3;,
  4;4,5,5,4;,
  4;5,6,6,5;,
  4;6,7,7,6;,
  4;7,8,8,7;,
  4;8,1,1,8;,
  3;0,56,57;,
  3;0,58,56;,
  3;0,59,58;,
  3;0,60,59;,
  3;0,61,60;,
  3;0,62,61;,
  3;0,63,62;,
  3;0,57,63;,
  3;9,64,65;,
  3;9,65,66;,
  3;9,66,67;,
  3;9,67,68;,
  3;9,68,69;,
  3;9,69,70;,
  3;9,70,71;,
  3;9,71,64;,
  3;10,12,11;,
  3;10,13,12;,
  3;10,14,13;,
  3;10,15,14;,
  3;10,16,15;,
  3;10,11,16;,
  4;11,12,18,17;,
  4;12,13,19,18;,
  4;13,14,20,19;,
  4;14,15,21,20;,
  4;15,16,22,21;,
  4;16,11,17,22;,
  4;17,18,24,23;,
  4;18,19,25,72;,
  4;19,20,26,73;,
  4;20,21,27,74;,
  4;21,22,28,75;,
  4;22,17,76,76;,
  4;23,24,30,29;,
  4;24,25,31,30;,
  4;25,26,32,31;,
  4;26,27,33,32;,
  4;27,28,34,33;,
  4;28,23,29,34;,
  3;29,30,35;,
  3;30,31,35;,
  3;31,32,35;,
  3;32,33,77;,
  3;33,34,77;,
  3;34,29,77;,
  4;39,41,36,36;,
  4;40,38,38,40;,
  4;42,78,78,43;,
  4;42,43,79,80;,
  4;37,37,37,37;,
  4;44,81,81,44;,
  4;44,44,82,82;,
  4;83,84,84,45;,
  4;83,45,85,86;,
  4;46,42,80,47;,
  4;87,48,41,39;,
  4;49,40,40,49;,
  4;88,85,45,88;,
  3;46,39,42;,
  3;48,45,41;,
  4;50,88,88,50;,
  4;50,50,89,89;,
  4;51,90,90,51;,
  4;51,51,49,49;,
  4;52,48,87,52;,
  4;52,52,91,91;,
  4;92,93,93,92;,
  4;92,92,46,47;,
  4;53,53,53,53;,
  4;54,54,54,54;,
  4;55,55,55,55;,
  4;94,94,94,94;,
  4;95,95,95,95;,
  4;96,96,96,96;;
 }
 MeshTextureCoords {
  147;
  0.000000;0.000000;,
  0.125000;0.000000;,
  0.125000;1.000000;,
  0.000000;1.000000;,
  0.250000;0.000000;,
  0.250000;1.000000;,
  0.375000;0.000000;,
  0.375000;1.000000;,
  0.500000;0.000000;,
  0.500000;1.000000;,
  0.625000;0.000000;,
  0.625000;1.000000;,
  0.750000;0.000000;,
  0.750000;1.000000;,
  0.875000;0.000000;,
  0.875000;1.000000;,
  1.000000;0.000000;,
  1.000000;1.000000;,
  0.062500;0.000000;,
  0.187500;0.000000;,
  0.312500;0.000000;,
  0.437500;0.000000;,
  0.562500;0.000000;,
  0.687500;0.000000;,
  0.812500;0.000000;,
  0.937500;0.000000;,
  0.062500;1.000000;,
  0.187500;1.000000;,
  0.312500;1.000000;,
  0.437500;1.000000;,
  0.562500;1.000000;,
  0.687500;1.000000;,
  0.812500;1.000000;,
  0.937500;1.000000;,
  0.083330;0.000000;,
  0.166670;0.200000;,
  0.000000;0.200000;,
  0.250000;0.000000;,
  0.333330;0.200000;,
  0.416670;0.000000;,
  0.500000;0.200000;,
  0.583330;0.000000;,
  0.666670;0.200000;,
  0.750000;0.000000;,
  0.833330;0.200000;,
  0.916670;0.000000;,
  1.000000;0.200000;,
  0.166670;0.400000;,
  0.000000;0.400000;,
  0.333330;0.400000;,
  0.500000;0.400000;,
  0.666670;0.400000;,
  0.833330;0.400000;,
  1.000000;0.400000;,
  0.166670;0.600000;,
  0.000000;0.600000;,
  0.333330;0.600000;,
  0.500000;0.600000;,
  0.666670;0.600000;,
  0.833330;0.600000;,
  1.000000;0.600000;,
  0.166670;0.800000;,
  0.000000;0.800000;,
  0.333330;0.800000;,
  0.500000;0.800000;,
  0.666670;0.800000;,
  0.833330;0.800000;,
  1.000000;0.800000;,
  0.083330;1.000000;,
  0.250000;1.000000;,
  0.416670;1.000000;,
  0.583330;1.000000;,
  0.750000;1.000000;,
  0.916670;1.000000;,
  1.000000;0.484650;,
  0.000000;0.484650;,
  0.000000;0.000000;,
  1.000000;0.000000;,
  0.000000;0.484650;,
  0.000000;0.000000;,
  1.000000;0.000000;,
  1.000000;0.484650;,
  0.243280;0.484650;,
  0.000000;0.484650;,
  0.000000;0.000000;,
  0.243280;0.000000;,
  1.000000;0.000000;,
  1.000000;0.484650;,
  0.243280;0.000000;,
  1.000000;0.000000;,
  1.000000;1.000000;,
  0.243280;1.000000;,
  0.243280;1.000000;,
  0.000000;1.000000;,
  0.243280;0.000000;,
  1.000000;1.000000;,
  0.756720;0.000000;,
  1.000000;0.000000;,
  1.000000;0.484650;,
  0.756720;0.484650;,
  0.000000;0.484650;,
  0.000000;0.000000;,
  0.243280;0.507150;,
  1.000000;0.507150;,
  1.000000;0.507150;,
  0.000000;0.507150;,
  0.000000;0.507150;,
  1.000000;0.507150;,
  0.000000;0.507150;,
  0.756720;0.507150;,
  0.121640;0.507150;,
  0.878360;0.507150;,
  0.000000;0.696300;,
  0.756720;0.696300;,
  0.756720;1.000000;,
  0.000000;1.000000;,
  1.000000;0.696300;,
  0.000000;1.000000;,
  0.000000;0.696300;,
  0.000000;0.696300;,
  1.000000;0.696300;,
  1.000000;1.000000;,
  0.000000;1.000000;,
  1.000000;0.696300;,
  1.000000;1.000000;,
  0.243280;1.000000;,
  0.243280;0.696300;,
  0.000000;0.000000;,
  1.000000;0.000000;,
  1.000000;1.000000;,
  0.000000;1.000000;,
  0.000000;0.000000;,
  1.000000;0.000000;,
  1.000000;1.000000;,
  0.000000;1.000000;,
  0.000000;0.000000;,
  1.000000;0.000000;,
  1.000000;1.000000;,
  0.000000;1.000000;,
  0.000000;0.000000;,
  1.000000;0.000000;,
  1.000000;1.000000;,
  0.000000;1.000000;,
  1.000000;1.000000;,
  0.000000;1.000000;,
  0.000000;0.000000;,
  1.000000;0.000000;;
 }
}
