xof 0302txt 0064
template Header {
 <3D82AB43-62DA-11cf-AB39-0020AF71E433>
 WORD major;
 WORD minor;
 DWORD flags;
}

template Vector {
 <3D82AB5E-62DA-11cf-AB39-0020AF71E433>
 FLOAT x;
 FLOAT y;
 FLOAT z;
}

template Coords2d {
 <F6F23F44-7686-11cf-8F52-0040333594A3>
 FLOAT u;
 FLOAT v;
}

template Matrix4x4 {
 <F6F23F45-7686-11cf-8F52-0040333594A3>
 array FLOAT matrix[16];
}

template ColorRGBA {
 <35FF44E0-6C7C-11cf-8F52-0040333594A3>
 FLOAT red;
 FLOAT green;
 FLOAT blue;
 FLOAT alpha;
}

template ColorRGB {
 <D3E16E81-7835-11cf-8F52-0040333594A3>
 FLOAT red;
 FLOAT green;
 FLOAT blue;
}

template IndexedColor {
 <1630B820-7842-11cf-8F52-0040333594A3>
 DWORD index;
 ColorRGBA indexColor;
}

template Boolean {
 <4885AE61-78E8-11cf-8F52-0040333594A3>
 WORD truefalse;
}

template Boolean2d {
 <4885AE63-78E8-11cf-8F52-0040333594A3>
 Boolean u;
 Boolean v;
}

template MaterialWrap {
 <4885AE60-78E8-11cf-8F52-0040333594A3>
 Boolean u;
 Boolean v;
}

template TextureFilename {
 <A42790E1-7810-11cf-8F52-0040333594A3>
 STRING filename;
}

template Material {
 <3D82AB4D-62DA-11cf-AB39-0020AF71E433>
 ColorRGBA faceColor;
 FLOAT power;
 ColorRGB specularColor;
 ColorRGB emissiveColor;
 [...]
}

template MeshFace {
 <3D82AB5F-62DA-11cf-AB39-0020AF71E433>
 DWORD nFaceVertexIndices;
 array DWORD faceVertexIndices[nFaceVertexIndices];
}

template MeshFaceWraps {
 <4885AE62-78E8-11cf-8F52-0040333594A3>
 DWORD nFaceWrapValues;
 Boolean2d faceWrapValues;
}

template MeshTextureCoords {
 <F6F23F40-7686-11cf-8F52-0040333594A3>
 DWORD nTextureCoords;
 array Coords2d textureCoords[nTextureCoords];
}

template MeshMaterialList {
 <F6F23F42-7686-11cf-8F52-0040333594A3>
 DWORD nMaterials;
 DWORD nFaceIndexes;
 array DWORD faceIndexes[nFaceIndexes];
 [Material]
}

template MeshNormals {
 <F6F23F43-7686-11cf-8F52-0040333594A3>
 DWORD nNormals;
 array Vector normals[nNormals];
 DWORD nFaceNormals;
 array MeshFace faceNormals[nFaceNormals];
}

template MeshVertexColors {
 <1630B821-7842-11cf-8F52-0040333594A3>
 DWORD nVertexColors;
 array IndexedColor vertexColors[nVertexColors];
}

template Mesh {
 <3D82AB44-62DA-11cf-AB39-0020AF71E433>
 DWORD nVertices;
 array Vector vertices[nVertices];
 DWORD nFaces;
 array MeshFace faces[nFaces];
 [...]
}

Header{
1;
0;
1;
}

Mesh {
 147;
 12.28076;0.12800;7.14291;,
 30.37691;-0.18806;7.10069;,
 30.42519;2.74028;5.85865;,
 12.32898;3.05630;5.90087;,
 30.43915;3.93284;2.90949;,
 12.34294;4.24890;2.95170;,
 30.41061;2.69109;-0.01920;,
 12.31442;3.00711;0.02301;,
 30.35631;-0.25760;-1.21182;,
 12.26015;0.05843;-1.16961;,
 30.30808;-3.18589;0.03023;,
 12.21192;-2.86986;0.07244;,
 30.29414;-4.37845;2.97939;,
 12.19795;-4.06242;3.02161;,
 30.32265;-3.13671;5.90807;,
 12.22650;-2.82066;5.95029;,
 30.37691;-0.18806;7.10069;,
 12.28076;0.12800;7.14291;,
 12.27045;0.09322;2.98664;,
 12.27045;0.09322;2.98664;,
 12.27045;0.09322;2.98664;,
 12.27045;0.09322;2.98664;,
 12.27045;0.09322;2.98664;,
 12.27045;0.09322;2.98664;,
 12.27045;0.09322;2.98664;,
 12.27045;0.09322;2.98664;,
 30.36664;-0.22281;2.94444;,
 30.36664;-0.22281;2.94444;,
 30.36664;-0.22281;2.94444;,
 30.36664;-0.22281;2.94444;,
 30.36664;-0.22281;2.94444;,
 30.36664;-0.22281;2.94444;,
 30.36664;-0.22281;2.94444;,
 30.36664;-0.22281;2.94444;,
 -1.61928;-0.17415;3.02331;,
 0.18381;-0.15929;8.52711;,
 0.26021;4.58694;5.73300;,
 -1.61928;-0.17415;3.02331;,
 0.24655;4.54084;0.22505;,
 -1.61928;-0.17415;3.02331;,
 0.15651;-0.25148;-2.48883;,
 -1.61928;-0.17415;3.02331;,
 0.08014;-4.99778;0.30527;,
 -1.61928;-0.17415;3.02331;,
 0.09381;-4.95168;5.81322;,
 -1.61928;-0.17415;3.02331;,
 0.18381;-0.15929;8.52711;,
 4.87704;-0.21264;11.92027;,
 5.00064;7.46696;7.39933;,
 4.97854;7.39237;-1.51272;,
 4.83287;-0.36178;-5.90385;,
 4.70926;-8.04139;-1.38291;,
 4.73136;-7.96682;7.52915;,
 4.87704;-0.21264;11.92027;,
 10.66776;-0.31379;11.90676;,
 10.79132;7.36587;7.38583;,
 10.76924;7.29129;-1.52624;,
 10.62358;-0.46296;-5.91735;,
 10.50002;-8.14253;-1.39642;,
 10.52210;-8.06796;7.51564;,
 10.66776;-0.31379;11.90676;,
 12.75804;-0.37892;8.49777;,
 12.83445;4.36732;5.70367;,
 12.82080;4.32125;0.19572;,
 12.73073;-0.47109;-2.51816;,
 12.65438;-5.21735;0.27595;,
 12.66800;-5.17128;5.78390;,
 12.75804;-0.37892;8.49777;,
 17.11992;-0.50143;2.97961;,
 17.11992;-0.50143;2.97961;,
 17.11992;-0.50143;2.97961;,
 17.11992;-0.50143;2.97961;,
 17.11992;-0.50143;2.97961;,
 17.11992;-0.50143;2.97961;,
 32.56606;-4.60421;7.25783;,
 26.75747;-4.50273;7.27138;,
 26.73459;-4.57996;-1.95901;,
 32.54319;-4.68143;-1.97255;,
 33.25175;3.96026;8.37473;,
 33.22298;3.86309;-3.23598;,
 26.88102;3.97382;-3.22119;,
 26.90981;4.07099;8.38953;,
 33.13871;-2.52020;8.42924;,
 26.79672;-2.40942;8.44403;,
 26.75747;-4.50273;7.27138;,
 32.56606;-4.60421;7.25783;,
 33.25175;3.96026;8.37473;,
 26.90981;4.07099;8.38953;,
 39.94370;1.02378;7.30902;,
 39.91887;0.93988;-2.71942;,
 39.96749;3.72948;-2.74287;,
 39.99231;3.81338;7.28556;,
 26.79672;-2.40942;8.44403;,
 26.76794;-2.50660;-3.16668;,
 26.75747;-4.50273;7.27138;,
 26.90981;4.07099;8.38953;,
 26.76794;-2.50660;-3.16668;,
 33.10993;-2.61735;-3.18147;,
 32.54319;-4.68143;-1.97255;,
 26.73459;-4.57996;-1.95901;,
 26.88102;3.97382;-3.22119;,
 33.22298;3.86309;-3.23598;,
 34.94432;-0.72876;8.40977;,
 33.54615;3.95511;8.37405;,
 34.94432;-0.72876;8.40977;,
 34.91556;-0.82590;-3.20094;,
 33.54615;3.95511;8.37405;,
 33.51739;3.85792;-3.23667;,
 33.51739;3.85792;-3.23667;,
 34.91556;-0.82590;-3.20094;,
 34.94432;-0.72876;8.40977;,
 34.91556;-0.82590;-3.20094;,
 35.99166;3.76792;-3.24205;,
 35.43408;0.13344;-3.21025;,
 39.96749;3.72948;-2.74287;,
 39.91887;0.93988;-2.71942;,
 35.99166;3.76792;-3.24205;,
 36.02045;3.86511;8.36867;,
 39.99231;3.81338;7.28556;,
 35.43408;0.13344;-3.21025;,
 35.46285;0.23059;8.40046;,
 39.91887;0.93988;-2.71942;,
 39.94370;1.02378;7.30902;,
 36.02045;3.86511;8.36867;,
 35.46285;0.23059;8.40046;,
 39.94370;1.02378;7.30902;,
 39.99231;3.81338;7.28556;,
 27.75523;-3.11455;-2.35520;,
 37.45640;-3.28400;-2.37782;,
 37.51946;0.32954;-2.40822;,
 27.81823;0.49894;-2.38559;,
 27.81823;0.49894;-2.38559;,
 37.51946;0.32954;-2.40822;,
 36.04872;0.74044;-5.12799;,
 29.02286;0.12558;-4.20329;,
 29.02286;0.12558;-4.20329;,
 36.04872;0.74044;-5.12799;,
 35.98567;-2.87310;-5.09760;,
 28.95984;-3.48793;-4.17290;,
 28.95984;-3.48793;-4.17290;,
 35.98567;-2.87310;-5.09760;,
 37.45640;-3.28400;-2.37782;,
 27.75523;-3.11455;-2.35520;,
 27.75523;-3.11455;-2.35520;,
 27.81823;0.49894;-2.38559;,
 37.45640;-3.28400;-2.37782;,
 37.51946;0.32954;-2.40822;;
 
 83;
 4;0,1,2,3;,
 4;3,2,4,5;,
 4;5,4,6,7;,
 4;7,6,8,9;,
 4;9,8,10,11;,
 4;11,10,12,13;,
 4;13,12,14,15;,
 4;15,14,16,17;,
 3;18,0,3;,
 3;19,3,5;,
 3;20,5,7;,
 3;21,7,9;,
 3;22,9,11;,
 3;23,11,13;,
 3;24,13,15;,
 3;25,15,17;,
 3;26,2,1;,
 3;27,4,2;,
 3;28,6,4;,
 3;29,8,6;,
 3;30,10,8;,
 3;31,12,10;,
 3;32,14,12;,
 3;33,16,14;,
 3;34,35,36;,
 3;37,36,38;,
 3;39,38,40;,
 3;41,40,42;,
 3;43,42,44;,
 3;45,44,46;,
 4;35,47,48,36;,
 4;36,48,49,38;,
 4;38,49,50,40;,
 4;40,50,51,42;,
 4;42,51,52,44;,
 4;44,52,53,46;,
 4;47,54,55,48;,
 4;48,55,56,49;,
 4;49,56,57,50;,
 4;50,57,58,51;,
 4;51,58,59,52;,
 4;52,59,60,53;,
 4;54,61,62,55;,
 4;55,62,63,56;,
 4;56,63,64,57;,
 4;57,64,65,58;,
 4;58,65,66,59;,
 4;59,66,67,60;,
 3;61,68,62;,
 3;62,69,63;,
 3;63,70,64;,
 3;64,71,65;,
 3;65,72,66;,
 3;66,73,67;,
 4;74,75,76,77;,
 4;78,79,80,81;,
 4;82,83,84,85;,
 4;82,86,87,83;,
 4;88,89,90,91;,
 4;92,93,76,94;,
 4;92,95,80,93;,
 4;96,97,98,99;,
 4;96,100,101,97;,
 4;102,103,86,82;,
 4;104,74,77,105;,
 4;106,107,79,78;,
 4;108,109,97,101;,
 3;110,82,85;,
 3;111,98,97;,
 4;112,113,109,108;,
 4;112,114,115,113;,
 4;116,117,118,90;,
 4;116,107,106,117;,
 4;119,120,104,105;,
 4;119,121,122,120;,
 4;123,124,125,126;,
 4;123,103,102,124;,
 4;127,128,129,130;,
 4;131,132,133,134;,
 4;135,136,137,138;,
 4;139,140,141,142;,
 4;139,143,144,134;,
 4;145,140,133,146;;
 
 MeshMaterialList {
  5;
  83;
  4,
  4,
  4,
  4,
  4,
  4,
  4,
  4,
  4,
  4,
  4,
  4,
  4,
  4,
  4,
  4,
  4,
  4,
  4,
  4,
  4,
  4,
  4,
  4,
  0,
  0,
  0,
  0,
  0,
  0,
  0,
  0,
  0,
  0,
  0,
  0,
  0,
  0,
  0,
  0,
  0,
  0,
  0,
  0,
  0,
  0,
  0,
  0,
  0,
  0,
  0,
  0,
  0,
  0,
  1,
  1,
  1,
  1,
  1,
  1,
  1,
  1,
  1,
  1,
  1,
  1,
  1,
  1,
  1,
  1,
  1,
  1,
  1,
  1,
  1,
  1,
  1,
  1,
  1,
  1,
  1,
  1,
  1;;
  Material {
   0.310400;0.088000;0.094400;1.000000;;
   5.000000;
   0.000000;0.000000;0.000000;;
   0.000000;0.000000;0.000000;;
  }
  Material {
   0.598530;0.000000;0.047570;1.000000;;
   62.000000;
   0.480000;0.480000;0.480000;;
   0.000000;0.000000;0.000000;;
  }
  Material {
   0.122400;0.524000;0.341600;1.000000;;
   5.000000;
   0.000000;0.000000;0.000000;;
   0.000000;0.000000;0.000000;;
  }
  Material {
   0.800000;0.605600;0.401600;1.000000;;
   5.000000;
   0.000000;0.000000;0.000000;;
   0.000000;0.000000;0.000000;;
  }
  Material {
   0.599200;0.674400;0.480000;1.000000;;
   5.000000;
   0.000000;0.000000;0.000000;;
   0.000000;0.000000;0.000000;;
  }
 }
 MeshNormals {
  98;
  -0.999845;0.017459;0.002333;,
  0.002479;0.008364;0.999962;,
  0.014086;0.712888;0.701137;,
  0.017442;0.999813;-0.008410;,
  0.010580;0.701055;-0.713029;,
  -0.002479;-0.008368;-0.999962;,
  -0.014085;-0.712892;-0.701133;,
  -0.017441;-0.999813;0.008411;,
  -0.010580;-0.701058;0.713026;,
  0.999845;-0.017464;-0.002333;,
  -0.999845;0.017464;0.002332;,
  -0.815309;0.019092;0.578712;,
  -0.807307;0.516137;0.286107;,
  -0.808738;0.511310;-0.290699;,
  -0.818167;0.009440;-0.574903;,
  -0.826165;-0.487606;-0.282297;,
  -0.824734;-0.482781;0.294510;,
  -0.313586;0.013457;0.949464;,
  -0.300432;0.830987;0.468189;,
  -0.302783;0.823048;-0.480536;,
  -0.318289;-0.002420;-0.947991;,
  -0.331444;-0.819952;-0.466716;,
  -0.329092;-0.812013;0.482010;,
  0.649009;0.192492;0.736026;,
  0.654512;0.534568;0.534650;,
  0.656125;0.725934;-0.206203;,
  0.645345;0.180122;-0.742352;,
  0.632949;-0.557052;-0.537651;,
  0.631334;-0.748417;0.203198;,
  0.820107;-0.009496;0.572131;,
  0.828067;0.485162;0.280932;,
  0.826645;0.480358;-0.293110;,
  0.817262;-0.019102;-0.575949;,
  0.809303;-0.513758;-0.284748;,
  0.810725;-0.508956;0.289291;,
  0.862065;0.506758;-0.006376;,
  -0.017447;-0.999812;0.008408;,
  0.999845;-0.017446;-0.002329;,
  0.017437;0.999813;-0.008411;,
  0.533396;-0.802353;0.267804;,
  0.017466;0.999812;-0.008411;,
  0.532094;-0.806744;-0.256985;,
  0.140835;-0.267320;0.953260;,
  -0.002080;-0.248446;0.968644;,
  -0.999845;0.017453;0.002333;,
  0.136120;-0.283238;-0.949340;,
  0.191360;-0.182395;0.964424;,
  0.002480;0.008365;0.999962;,
  0.803610;-0.546381;-0.235964;,
  0.026914;0.999602;-0.008433;,
  0.058337;-0.013360;-0.998208;,
  0.023531;0.999688;-0.008425;,
  0.586055;-0.810254;0.005327;,
  0.002478;0.008367;0.999962;,
  -0.023054;0.999724;-0.004469;,
  -0.528711;0.002082;-0.848799;,
  -0.129964;-0.006072;-0.991500;,
  -0.999845;0.017454;0.002335;,
  -0.999845;0.017457;0.002332;,
  -0.999845;0.017461;0.002331;,
  -0.999845;0.017460;0.002331;,
  -0.999845;0.017458;0.002330;,
  -0.999845;0.017460;0.002328;,
  -0.999845;0.017462;0.002335;,
  -0.999845;0.017458;0.002339;,
  0.999845;-0.017469;-0.002329;,
  0.999845;-0.017465;-0.002327;,
  0.999845;-0.017467;-0.002334;,
  0.999845;-0.017467;-0.002338;,
  0.999845;-0.017463;-0.002338;,
  0.999845;-0.017461;-0.002336;,
  0.999845;-0.017463;-0.002332;,
  0.999845;-0.017461;-0.002328;,
  0.017434;0.999813;-0.008411;,
  0.006574;0.492660;-0.870197;,
  -0.010869;-0.507154;-0.861787;,
  -0.017442;-0.999812;0.008409;,
  -0.006575;-0.492662;0.870196;,
  0.843862;-0.536555;0.002399;,
  -0.006501;-0.488625;0.872470;,
  0.002475;0.008366;0.999962;,
  0.002479;0.008367;0.999962;,
  -0.999845;0.017440;0.002333;,
  -0.999845;0.017467;0.002333;,
  -0.006871;-0.264620;-0.964328;,
  -0.010803;-0.503156;-0.864128;,
  -0.002478;-0.008367;-0.999962;,
  -0.002478;-0.008367;-0.999962;,
  0.866200;-0.499694;0.002035;,
  -0.002478;-0.008368;-0.999962;,
  0.118936;-0.018301;-0.992733;,
  0.010729;0.999907;-0.008395;,
  0.176145;-0.984333;0.007800;,
  0.128413;-0.002089;0.991719;,
  0.252278;-0.012509;0.967574;,
  0.023050;-0.999724;0.004473;,
  -0.832592;0.009862;-0.553799;,
  0.878237;-0.019344;-0.477834;;
  83;
  4;1,1,2,2;,
  4;2,2,3,3;,
  4;3,3,4,4;,
  4;4,4,5,5;,
  4;5,5,6,6;,
  4;6,6,7,7;,
  4;7,7,8,8;,
  4;8,8,1,1;,
  3;0,57,58;,
  3;0,58,59;,
  3;0,59,60;,
  3;0,60,61;,
  3;0,61,62;,
  3;0,62,63;,
  3;0,63,64;,
  3;0,64,57;,
  3;9,65,66;,
  3;9,67,65;,
  3;9,68,67;,
  3;9,69,68;,
  3;9,70,69;,
  3;9,71,70;,
  3;9,72,71;,
  3;9,66,72;,
  3;10,11,12;,
  3;10,12,13;,
  3;10,13,14;,
  3;10,14,15;,
  3;10,15,16;,
  3;10,16,11;,
  4;11,17,18,12;,
  4;12,18,19,13;,
  4;13,19,20,14;,
  4;14,20,21,15;,
  4;15,21,22,16;,
  4;16,22,17,11;,
  4;17,23,24,18;,
  4;18,73,25,19;,
  4;19,74,26,20;,
  4;20,75,27,21;,
  4;21,76,28,22;,
  4;22,77,77,17;,
  4;23,29,30,24;,
  4;24,30,31,25;,
  4;25,31,32,26;,
  4;26,32,33,27;,
  4;27,33,34,28;,
  4;28,34,29,23;,
  3;29,35,30;,
  3;30,35,31;,
  3;31,35,32;,
  3;32,78,33;,
  3;33,78,34;,
  3;34,78,29;,
  4;39,36,36,41;,
  4;40,40,38,38;,
  4;42,43,79,79;,
  4;42,80,81,43;,
  4;37,37,37,37;,
  4;44,44,82,82;,
  4;44,83,83,44;,
  4;84,45,85,85;,
  4;84,86,87,45;,
  4;46,47,80,42;,
  4;88,39,41,48;,
  4;49,49,40,40;,
  4;89,89,45,87;,
  3;46,42,39;,
  3;48,41,45;,
  4;50,50,89,89;,
  4;50,90,90,50;,
  4;51,51,91,91;,
  4;51,49,49,51;,
  4;52,52,88,48;,
  4;52,92,92,52;,
  4;93,93,94,94;,
  4;93,47,46,93;,
  4;53,53,53,53;,
  4;54,54,54,54;,
  4;55,56,56,55;,
  4;95,95,95,95;,
  4;55,96,96,55;,
  4;97,97,97,97;;
 }
 MeshTextureCoords {
  147;
  0.000000;0.000000;,
  0.000000;1.000000;,
  0.125000;1.000000;,
  0.125000;0.000000;,
  0.250000;1.000000;,
  0.250000;0.000000;,
  0.375000;1.000000;,
  0.375000;0.000000;,
  0.500000;1.000000;,
  0.500000;0.000000;,
  0.625000;1.000000;,
  0.625000;0.000000;,
  0.750000;1.000000;,
  0.750000;0.000000;,
  0.875000;1.000000;,
  0.875000;0.000000;,
  1.000000;1.000000;,
  1.000000;0.000000;,
  0.062500;0.000000;,
  0.187500;0.000000;,
  0.312500;0.000000;,
  0.437500;0.000000;,
  0.562500;0.000000;,
  0.687500;0.000000;,
  0.812500;0.000000;,
  0.937500;0.000000;,
  0.062500;1.000000;,
  0.187500;1.000000;,
  0.312500;1.000000;,
  0.437500;1.000000;,
  0.562500;1.000000;,
  0.687500;1.000000;,
  0.812500;1.000000;,
  0.937500;1.000000;,
  0.083330;0.000000;,
  0.000000;0.200000;,
  0.166670;0.200000;,
  0.250000;0.000000;,
  0.333330;0.200000;,
  0.416670;0.000000;,
  0.500000;0.200000;,
  0.583330;0.000000;,
  0.666670;0.200000;,
  0.750000;0.000000;,
  0.833330;0.200000;,
  0.916670;0.000000;,
  1.000000;0.200000;,
  0.000000;0.400000;,
  0.166670;0.400000;,
  0.333330;0.400000;,
  0.500000;0.400000;,
  0.666670;0.400000;,
  0.833330;0.400000;,
  1.000000;0.400000;,
  0.000000;0.600000;,
  0.166670;0.600000;,
  0.333330;0.600000;,
  0.500000;0.600000;,
  0.666670;0.600000;,
  0.833330;0.600000;,
  1.000000;0.600000;,
  0.000000;0.800000;,
  0.166670;0.800000;,
  0.333330;0.800000;,
  0.500000;0.800000;,
  0.666670;0.800000;,
  0.833330;0.800000;,
  1.000000;0.800000;,
  0.083330;1.000000;,
  0.250000;1.000000;,
  0.416670;1.000000;,
  0.583330;1.000000;,
  0.750000;1.000000;,
  0.916670;1.000000;,
  1.000000;0.484650;,
  1.000000;0.000000;,
  0.000000;0.000000;,
  0.000000;0.484650;,
  0.000000;0.484650;,
  1.000000;0.484650;,
  1.000000;0.000000;,
  0.000000;0.000000;,
  0.243280;0.484650;,
  0.243280;0.000000;,
  0.000000;0.000000;,
  0.000000;0.484650;,
  1.000000;0.484650;,
  1.000000;0.000000;,
  0.243280;0.000000;,
  0.243280;1.000000;,
  1.000000;1.000000;,
  1.000000;0.000000;,
  0.243280;1.000000;,
  0.243280;0.000000;,
  0.000000;1.000000;,
  1.000000;1.000000;,
  0.756720;0.000000;,
  0.756720;0.484650;,
  1.000000;0.484650;,
  1.000000;0.000000;,
  0.000000;0.000000;,
  0.000000;0.484650;,
  0.243280;0.507150;,
  1.000000;0.507150;,
  1.000000;0.507150;,
  0.000000;0.507150;,
  0.000000;0.507150;,
  1.000000;0.507150;,
  0.000000;0.507150;,
  0.756720;0.507150;,
  0.121640;0.507150;,
  0.878360;0.507150;,
  0.000000;0.696300;,
  0.756720;0.696300;,
  0.000000;1.000000;,
  0.756720;1.000000;,
  1.000000;0.696300;,
  0.000000;0.696300;,
  0.000000;1.000000;,
  0.000000;0.696300;,
  1.000000;0.696300;,
  0.000000;1.000000;,
  1.000000;1.000000;,
  1.000000;0.696300;,
  0.243280;0.696300;,
  0.243280;1.000000;,
  1.000000;1.000000;,
  0.000000;0.000000;,
  0.000000;1.000000;,
  1.000000;1.000000;,
  1.000000;0.000000;,
  0.000000;0.000000;,
  0.000000;1.000000;,
  1.000000;1.000000;,
  1.000000;0.000000;,
  0.000000;0.000000;,
  0.000000;1.000000;,
  1.000000;1.000000;,
  1.000000;0.000000;,
  0.000000;0.000000;,
  0.000000;1.000000;,
  1.000000;1.000000;,
  1.000000;0.000000;,
  0.000000;1.000000;,
  1.000000;1.000000;,
  0.000000;0.000000;,
  1.000000;0.000000;;
 }
}
