xof 0302txt 0064
template Header {
 <3D82AB43-62DA-11cf-AB39-0020AF71E433>
 WORD major;
 WORD minor;
 DWORD flags;
}

template Vector {
 <3D82AB5E-62DA-11cf-AB39-0020AF71E433>
 FLOAT x;
 FLOAT y;
 FLOAT z;
}

template Coords2d {
 <F6F23F44-7686-11cf-8F52-0040333594A3>
 FLOAT u;
 FLOAT v;
}

template Matrix4x4 {
 <F6F23F45-7686-11cf-8F52-0040333594A3>
 array FLOAT matrix[16];
}

template ColorRGBA {
 <35FF44E0-6C7C-11cf-8F52-0040333594A3>
 FLOAT red;
 FLOAT green;
 FLOAT blue;
 FLOAT alpha;
}

template ColorRGB {
 <D3E16E81-7835-11cf-8F52-0040333594A3>
 FLOAT red;
 FLOAT green;
 FLOAT blue;
}

template IndexedColor {
 <1630B820-7842-11cf-8F52-0040333594A3>
 DWORD index;
 ColorRGBA indexColor;
}

template Boolean {
 <4885AE61-78E8-11cf-8F52-0040333594A3>
 WORD truefalse;
}

template Boolean2d {
 <4885AE63-78E8-11cf-8F52-0040333594A3>
 Boolean u;
 Boolean v;
}

template MaterialWrap {
 <4885AE60-78E8-11cf-8F52-0040333594A3>
 Boolean u;
 Boolean v;
}

template TextureFilename {
 <A42790E1-7810-11cf-8F52-0040333594A3>
 STRING filename;
}

template Material {
 <3D82AB4D-62DA-11cf-AB39-0020AF71E433>
 ColorRGBA faceColor;
 FLOAT power;
 ColorRGB specularColor;
 ColorRGB emissiveColor;
 [...]
}

template MeshFace {
 <3D82AB5F-62DA-11cf-AB39-0020AF71E433>
 DWORD nFaceVertexIndices;
 array DWORD faceVertexIndices[nFaceVertexIndices];
}

template MeshFaceWraps {
 <4885AE62-78E8-11cf-8F52-0040333594A3>
 DWORD nFaceWrapValues;
 Boolean2d faceWrapValues;
}

template MeshTextureCoords {
 <F6F23F40-7686-11cf-8F52-0040333594A3>
 DWORD nTextureCoords;
 array Coords2d textureCoords[nTextureCoords];
}

template MeshMaterialList {
 <F6F23F42-7686-11cf-8F52-0040333594A3>
 DWORD nMaterials;
 DWORD nFaceIndexes;
 array DWORD faceIndexes[nFaceIndexes];
 [Material]
}

template MeshNormals {
 <F6F23F43-7686-11cf-8F52-0040333594A3>
 DWORD nNormals;
 array Vector normals[nNormals];
 DWORD nFaceNormals;
 array MeshFace faceNormals[nFaceNormals];
}

template MeshVertexColors {
 <1630B821-7842-11cf-8F52-0040333594A3>
 DWORD nVertexColors;
 array IndexedColor vertexColors[nVertexColors];
}

template Mesh {
 <3D82AB44-62DA-11cf-AB39-0020AF71E433>
 DWORD nVertices;
 array Vector vertices[nVertices];
 DWORD nFaces;
 array MeshFace faces[nFaces];
 [...]
}

Header{
1;
0;
1;
}

Mesh {
 90;
 0.17887;0.08094;5.70197;,
 -3.85963;0.08094;4.07033;,
 -3.85963;-22.57215;4.07033;,
 0.17887;-22.57215;5.70197;,
 -5.56149;0.08094;0.06094;,
 -5.56149;-22.57215;0.06094;,
 -3.92986;0.08094;-3.97755;,
 -3.92986;-22.57215;-3.97755;,
 0.07954;0.08094;-5.67942;,
 0.07954;-22.57215;-5.67942;,
 4.11804;0.08094;-4.04779;,
 4.11804;-22.57215;-4.04779;,
 5.81991;0.08094;-0.03839;,
 5.81991;-22.57215;-0.03839;,
 4.18826;0.08094;4.00011;,
 4.18826;-22.57215;4.00011;,
 0.17887;0.08094;5.70197;,
 0.17887;-22.57215;5.70197;,
 0.12921;0.08094;0.01128;,
 0.12921;0.08094;0.01128;,
 0.12921;0.08094;0.01128;,
 0.12921;0.08094;0.01128;,
 0.12921;0.08094;0.01128;,
 0.12921;0.08094;0.01128;,
 0.12921;0.08094;0.01128;,
 0.12921;0.08094;0.01128;,
 0.12921;-22.57215;0.01128;,
 0.12921;-22.57215;0.01128;,
 0.12921;-22.57215;0.01128;,
 0.12921;-22.57215;0.01128;,
 0.12921;-22.57215;0.01128;,
 0.12921;-22.57215;0.01128;,
 0.12921;-22.57215;0.01128;,
 0.12921;-22.57215;0.01128;,
 0.06691;-17.46760;6.61375;,
 5.88447;-17.46760;4.60005;,
 6.16065;-17.46760;-4.58300;,
 -0.05864;-17.46760;-7.77426;,
 -6.10487;-17.46760;-4.47597;,
 -5.66849;-17.46760;4.70087;,
 0.06691;-29.05775;6.61375;,
 -7.06886;-29.05775;6.67603;,
 -7.19443;-29.05775;-7.71198;,
 -0.05864;-29.05775;-7.77426;,
 7.19356;-29.05775;-7.83755;,
 7.31912;-29.05775;6.55047;,
 -0.08028;-20.47205;-10.25332;,
 -0.05864;-17.46760;-7.77426;,
 6.16065;-17.46760;-4.58300;,
 7.19356;-20.47205;-7.83755;,
 -7.19443;-20.47205;-7.71198;,
 -6.10487;-17.46760;-4.47597;,
 7.19356;-20.47205;-7.83755;,
 5.88447;-17.46760;4.60005;,
 7.31912;-20.47205;6.55047;,
 7.31912;-29.05775;6.55047;,
 -7.19443;-20.47205;-7.71198;,
 -7.06886;-29.05775;6.67603;,
 -7.06886;-20.47205;6.67603;,
 -5.66849;-17.46760;4.70087;,
 7.31912;-20.47205;6.55047;,
 5.88447;-17.46760;4.60005;,
 0.06691;-17.46760;6.61375;,
 0.06691;-20.47205;6.61375;,
 0.06691;-29.05775;6.61375;,
 7.31912;-29.05775;6.55047;,
 -7.06886;-20.47205;6.67603;,
 -7.06886;-29.05775;6.67603;,
 -5.66849;-17.46760;4.70087;,
 -0.24605;-25.52259;-29.24777;,
 5.06638;-25.52259;-29.29414;,
 5.06638;-29.05775;-29.29414;,
 -0.24605;-29.05775;-29.24777;,
 -5.44204;-29.05775;-29.20244;,
 -5.44204;-25.52259;-29.20244;,
 -0.17216;-23.06011;-20.78245;,
 5.44731;-23.79744;-19.60202;,
 -5.65376;-23.79744;-19.50513;,
 7.11416;-29.05775;-16.93570;,
 -7.27383;-29.05775;-16.81014;,
 -0.13804;-29.05775;-16.87241;,
 7.17365;-27.91649;-10.11966;,
 7.19356;-29.05775;-7.83755;,
 -0.05864;-29.05775;-7.77426;,
 -0.06509;-27.91649;-8.51317;,
 -7.19443;-29.05775;-7.71198;,
 -7.21434;-27.91649;-9.99410;,
 7.11945;-27.91649;-16.32854;,
 -0.13274;-27.91649;-16.26525;,
 -7.26853;-27.91649;-16.20298;;
 
 60;
 4;0,1,2,3;,
 4;1,4,5,2;,
 4;4,6,7,5;,
 4;6,8,9,7;,
 4;8,10,11,9;,
 4;10,12,13,11;,
 4;12,14,15,13;,
 4;14,16,17,15;,
 3;18,1,0;,
 3;19,4,1;,
 3;20,6,4;,
 3;21,8,6;,
 3;22,10,8;,
 3;23,12,10;,
 3;24,14,12;,
 3;25,16,14;,
 3;26,3,2;,
 3;27,2,5;,
 3;28,5,7;,
 3;29,7,9;,
 3;30,9,11;,
 3;31,11,13;,
 3;32,13,15;,
 3;33,15,17;,
 4;34,35,36,37;,
 4;34,37,38,39;,
 4;40,41,42,43;,
 4;40,43,44,45;,
 4;46,47,48,49;,
 4;46,50,51,47;,
 4;52,36,53,54;,
 4;52,54,55,44;,
 4;56,42,57,58;,
 4;56,58,59,38;,
 4;60,61,62,63;,
 4;60,63,64,65;,
 4;66,67,64,63;,
 4;66,63,62,68;,
 4;69,70,71,72;,
 4;69,72,73,74;,
 4;75,76,70,69;,
 4;75,69,74,77;,
 4;76,78,71,70;,
 4;77,74,73,79;,
 4;78,80,72,71;,
 4;79,73,72,80;,
 4;81,82,83,84;,
 4;84,83,85,86;,
 4;87,81,84,88;,
 4;87,88,80,78;,
 4;87,76,49,81;,
 4;88,84,86,89;,
 4;88,89,79,80;,
 4;76,75,46,49;,
 4;89,86,50,77;,
 4;75,77,50,46;,
 3;49,82,81;,
 3;76,87,78;,
 3;50,86,85;,
 3;77,79,89;;
 
 MeshMaterialList {
  5;
  60;
  4,
  4,
  4,
  4,
  4,
  4,
  4,
  4,
  4,
  4,
  4,
  4,
  4,
  4,
  4,
  4,
  4,
  4,
  4,
  4,
  4,
  4,
  4,
  4,
  3,
  3,
  3,
  3,
  3,
  3,
  3,
  3,
  3,
  3,
  3,
  3,
  3,
  3,
  3,
  3,
  3,
  3,
  3,
  3,
  3,
  3,
  3,
  3,
  3,
  3,
  3,
  3,
  3,
  3,
  3,
  3,
  3,
  3,
  3,
  3;;
  Material {
   0.310400;0.088000;0.094400;1.000000;;
   5.000000;
   0.000000;0.000000;0.000000;;
   0.000000;0.000000;0.000000;;
  }
  Material {
   0.598530;0.000000;0.047570;1.000000;;
   62.000000;
   0.480000;0.480000;0.480000;;
   0.000000;0.000000;0.000000;;
  }
  Material {
   0.122400;0.524000;0.341600;1.000000;;
   5.000000;
   0.000000;0.000000;0.000000;;
   0.000000;0.000000;0.000000;;
  }
  Material {
   0.800000;0.605600;0.401600;1.000000;;
   5.000000;
   0.000000;0.000000;0.000000;;
   0.000000;0.000000;0.000000;;
  }
  Material {
   0.599200;0.674400;0.480000;1.000000;;
   5.000000;
   0.000000;0.000000;0.000000;;
   0.000000;0.000000;0.000000;;
  }
 }
 MeshNormals {
  59;
  0.000000;1.000000;0.000000;,
  0.008727;0.000000;0.999962;,
  -0.700910;0.000000;0.713250;,
  -0.999962;0.000000;0.008726;,
  -0.713251;0.000000;-0.700909;,
  -0.008727;0.000000;-0.999962;,
  0.700909;0.000000;-0.713251;,
  0.999962;0.000000;-0.008726;,
  0.713250;0.000000;0.700910;,
  0.000000;-1.000000;-0.000000;,
  -0.160116;0.917630;-0.363756;,
  0.023631;-0.933771;-0.357091;,
  0.151310;0.917768;-0.367160;,
  -0.029433;-0.933782;-0.356630;,
  -0.004446;0.929032;-0.369972;,
  -0.002902;-0.934105;-0.356986;,
  0.980026;0.198868;0.000326;,
  -0.979872;0.198867;0.017429;,
  0.007830;0.147108;0.989089;,
  -0.008723;0.000000;-0.999962;,
  -0.008728;0.000000;-0.999962;,
  -0.008725;0.000000;-0.999962;,
  0.971349;0.132668;-0.197181;,
  -0.974642;0.132666;-0.180203;,
  0.946556;0.268556;-0.178631;,
  -0.006175;0.869895;-0.493198;,
  -0.817486;0.523576;-0.239968;,
  0.108260;0.963343;-0.245459;,
  -0.003252;0.969256;-0.246034;,
  -0.114724;0.963082;-0.243541;,
  0.920862;0.389775;0.009366;,
  0.999962;0.000000;-0.008726;,
  0.999962;0.000000;-0.008726;,
  -0.999962;0.000000;0.008727;,
  -0.999962;0.000000;0.008726;,
  -0.920559;0.389774;0.025434;,
  0.094009;0.146515;0.984731;,
  0.176568;0.288786;0.940971;,
  0.006746;0.293115;0.956053;,
  0.008726;0.000000;0.999962;,
  0.008726;0.000000;0.999962;,
  -0.078421;0.146605;0.986082;,
  0.008727;0.000000;0.999962;,
  -0.163272;0.288918;0.943328;,
  0.081616;0.969690;-0.230307;,
  -0.002886;0.973089;-0.230410;,
  -0.087367;0.969530;-0.228865;,
  0.977744;0.126321;-0.167508;,
  0.988549;0.112894;-0.100126;,
  -0.980519;0.126320;-0.150421;,
  -0.990146;0.112894;-0.082858;,
  0.007704;-0.469690;0.882798;,
  0.007704;-0.469690;0.882798;,
  0.970532;0.132835;-0.201051;,
  0.996667;0.056827;-0.058521;,
  0.007704;-0.469690;0.882798;,
  0.134799;0.956052;-0.260372;,
  -0.973893;0.132833;-0.184087;,
  -0.997537;0.056827;-0.041118;;
  60;
  4;1,2,2,1;,
  4;2,3,3,2;,
  4;3,4,4,3;,
  4;4,5,5,4;,
  4;5,6,6,5;,
  4;6,7,7,6;,
  4;7,8,8,7;,
  4;8,1,1,8;,
  3;0,0,0;,
  3;0,0,0;,
  3;0,0,0;,
  3;0,0,0;,
  3;0,0,0;,
  3;0,0,0;,
  3;0,0,0;,
  3;0,0,0;,
  3;9,9,9;,
  3;9,9,9;,
  3;9,9,9;,
  3;9,9,9;,
  3;9,9,9;,
  3;9,9,9;,
  3;9,9,9;,
  3;9,9,9;,
  4;0,0,12,14;,
  4;0,14,10,0;,
  4;9,9,11,15;,
  4;9,15,13,9;,
  4;25,14,12,24;,
  4;25,26,10,14;,
  4;24,30,30,16;,
  4;24,16,31,32;,
  4;33,34,33,17;,
  4;26,17,35,35;,
  4;36,37,38,18;,
  4;36,18,39,40;,
  4;41,42,39,18;,
  4;41,18,38,43;,
  4;21,20,20,21;,
  4;21,21,19,19;,
  4;28,27,44,45;,
  4;28,45,46,29;,
  4;47,22,48,48;,
  4;49,50,50,23;,
  4;9,9,9,9;,
  4;9,9,9,9;,
  4;13,13,15,15;,
  4;15,15,11,11;,
  4;9,13,15,9;,
  4;51,52,52,51;,
  4;53,47,24,54;,
  4;9,15,11,9;,
  4;52,55,55,52;,
  4;27,28,25,56;,
  4;57,58,26,49;,
  4;28,29,26,25;,
  3;24,32,54;,
  3;47,53,22;,
  3;26,58,34;,
  3;49,23,57;;
 }
 MeshTextureCoords {
  90;
  0.000000;0.000000;,
  0.125000;0.000000;,
  0.125000;1.000000;,
  0.000000;1.000000;,
  0.250000;0.000000;,
  0.250000;1.000000;,
  0.375000;0.000000;,
  0.375000;1.000000;,
  0.500000;0.000000;,
  0.500000;1.000000;,
  0.625000;0.000000;,
  0.625000;1.000000;,
  0.750000;0.000000;,
  0.750000;1.000000;,
  0.875000;0.000000;,
  0.875000;1.000000;,
  1.000000;0.000000;,
  1.000000;1.000000;,
  0.062500;0.000000;,
  0.187500;0.000000;,
  0.312500;0.000000;,
  0.437500;0.000000;,
  0.562500;0.000000;,
  0.687500;0.000000;,
  0.812500;0.000000;,
  0.937500;0.000000;,
  0.062500;1.000000;,
  0.187500;1.000000;,
  0.312500;1.000000;,
  0.437500;1.000000;,
  0.562500;1.000000;,
  0.687500;1.000000;,
  0.812500;1.000000;,
  0.937500;1.000000;,
  0.504050;1.000000;,
  0.000000;1.000000;,
  0.000000;0.000000;,
  0.504050;0.000000;,
  1.000000;0.000000;,
  1.000000;1.000000;,
  0.504050;0.000000;,
  1.000000;0.000000;,
  1.000000;1.000000;,
  0.504050;1.000000;,
  0.000000;1.000000;,
  0.000000;0.000000;,
  0.495950;0.208810;,
  0.495950;0.000000;,
  1.000000;0.000000;,
  1.000000;0.208810;,
  0.000000;0.208810;,
  0.000000;0.000000;,
  0.000000;0.208810;,
  1.000000;0.000000;,
  1.000000;0.208810;,
  1.000000;1.000000;,
  1.000000;0.208810;,
  0.000000;1.000000;,
  0.000000;0.208810;,
  0.000000;0.000000;,
  0.000000;0.208810;,
  0.000000;0.000000;,
  0.504050;0.000000;,
  0.504050;0.208810;,
  0.504050;1.000000;,
  0.000000;1.000000;,
  1.000000;0.208810;,
  1.000000;1.000000;,
  1.000000;0.000000;,
  0.495950;0.208810;,
  1.000000;0.208810;,
  1.000000;1.000000;,
  0.495950;1.000000;,
  0.000000;1.000000;,
  0.000000;0.208810;,
  0.495950;0.208810;,
  1.000000;0.208810;,
  0.000000;0.208810;,
  1.000000;1.000000;,
  0.000000;1.000000;,
  0.495950;1.000000;,
  1.000000;1.000000;,
  1.000000;1.000000;,
  0.495950;1.000000;,
  0.495950;1.000000;,
  0.000000;1.000000;,
  0.000000;1.000000;,
  1.000000;1.000000;,
  0.495950;1.000000;,
  0.000000;1.000000;;
 }
}
