xof 0302txt 0064
template Header {
 <3D82AB43-62DA-11cf-AB39-0020AF71E433>
 WORD major;
 WORD minor;
 DWORD flags;
}

template Vector {
 <3D82AB5E-62DA-11cf-AB39-0020AF71E433>
 FLOAT x;
 FLOAT y;
 FLOAT z;
}

template Coords2d {
 <F6F23F44-7686-11cf-8F52-0040333594A3>
 FLOAT u;
 FLOAT v;
}

template Matrix4x4 {
 <F6F23F45-7686-11cf-8F52-0040333594A3>
 array FLOAT matrix[16];
}

template ColorRGBA {
 <35FF44E0-6C7C-11cf-8F52-0040333594A3>
 FLOAT red;
 FLOAT green;
 FLOAT blue;
 FLOAT alpha;
}

template ColorRGB {
 <D3E16E81-7835-11cf-8F52-0040333594A3>
 FLOAT red;
 FLOAT green;
 FLOAT blue;
}

template IndexedColor {
 <1630B820-7842-11cf-8F52-0040333594A3>
 DWORD index;
 ColorRGBA indexColor;
}

template Boolean {
 <4885AE61-78E8-11cf-8F52-0040333594A3>
 WORD truefalse;
}

template Boolean2d {
 <4885AE63-78E8-11cf-8F52-0040333594A3>
 Boolean u;
 Boolean v;
}

template MaterialWrap {
 <4885AE60-78E8-11cf-8F52-0040333594A3>
 Boolean u;
 Boolean v;
}

template TextureFilename {
 <A42790E1-7810-11cf-8F52-0040333594A3>
 STRING filename;
}

template Material {
 <3D82AB4D-62DA-11cf-AB39-0020AF71E433>
 ColorRGBA faceColor;
 FLOAT power;
 ColorRGB specularColor;
 ColorRGB emissiveColor;
 [...]
}

template MeshFace {
 <3D82AB5F-62DA-11cf-AB39-0020AF71E433>
 DWORD nFaceVertexIndices;
 array DWORD faceVertexIndices[nFaceVertexIndices];
}

template MeshFaceWraps {
 <4885AE62-78E8-11cf-8F52-0040333594A3>
 DWORD nFaceWrapValues;
 Boolean2d faceWrapValues;
}

template MeshTextureCoords {
 <F6F23F40-7686-11cf-8F52-0040333594A3>
 DWORD nTextureCoords;
 array Coords2d textureCoords[nTextureCoords];
}

template MeshMaterialList {
 <F6F23F42-7686-11cf-8F52-0040333594A3>
 DWORD nMaterials;
 DWORD nFaceIndexes;
 array DWORD faceIndexes[nFaceIndexes];
 [Material]
}

template MeshNormals {
 <F6F23F43-7686-11cf-8F52-0040333594A3>
 DWORD nNormals;
 array Vector normals[nNormals];
 DWORD nFaceNormals;
 array MeshFace faceNormals[nFaceNormals];
}

template MeshVertexColors {
 <1630B821-7842-11cf-8F52-0040333594A3>
 DWORD nVertexColors;
 array IndexedColor vertexColors[nVertexColors];
}

template Mesh {
 <3D82AB44-62DA-11cf-AB39-0020AF71E433>
 DWORD nVertices;
 array Vector vertices[nVertices];
 DWORD nFaces;
 array MeshFace faces[nFaces];
 [...]
}

Header{
1;
0;
1;
}

Mesh {
 370;
 -15.57026;21.09010;4.55784;,
 -11.84384;21.11792;-0.63052;,
 -16.31354;22.26522;-1.54130;,
 -15.57026;21.09010;4.55784;,
 -9.27824;20.57768;3.27456;,
 -15.57026;21.09010;4.55784;,
 -10.11956;20.96104;7.88644;,
 -15.57026;21.09010;4.55784;,
 -13.87508;22.04338;10.50346;,
 -15.57026;21.09010;4.55784;,
 -18.34474;23.19070;9.59268;,
 -15.57026;21.09010;4.55784;,
 -20.91034;23.73090;5.68758;,
 -15.57026;21.09010;4.55784;,
 -20.06898;23.34760;1.07574;,
 -15.57026;21.09010;4.55784;,
 -16.31354;22.26522;-1.54130;,
 -18.24830;22.32190;-9.30870;,
 -7.96272;19.68182;-7.21278;,
 -7.32382;12.68044;-10.59942;,
 -20.76264;16.13002;-13.33786;,
 -2.05874;18.43866;1.77360;,
 0.39010;11.05624;1.14186;,
 -3.99490;19.32076;12.38636;,
 -2.13966;12.20872;15.00808;,
 -12.63698;21.81132;18.40866;,
 -13.43108;15.46292;22.87660;,
 -22.92258;24.45156;16.31274;,
 -26.86988;18.91250;20.13814;,
 -28.82660;25.69472;7.32636;,
 -34.58376;20.53670;8.39688;,
 -26.89046;24.81267;-3.28640;,
 -32.05412;19.38422;-5.46934;,
 -18.24830;22.32190;-9.30870;,
 -20.76264;16.13002;-13.33786;,
 -8.46984;5.02748;-11.60692;,
 -23.01592;8.76128;-14.57102;,
 -0.12038;3.26942;1.10176;,
 -2.85852;4.51694;16.11048;,
 -15.08026;8.03922;24.62728;,
 -29.62628;11.77298;21.66318;,
 -37.97578;13.53104;8.95450;,
 -35.23766;12.28358;-6.05416;,
 -23.01592;8.76128;-14.57102;,
 -11.22628;-2.11200;-10.08186;,
 -24.66514;1.33756;-12.82032;,
 -3.51242;-3.73624;1.65940;,
 -6.04214;-2.58370;15.52566;,
 -17.33352;0.67044;23.39418;,
 -30.77230;4.12002;20.65570;,
 -38.48626;5.74426;8.91444;,
 -35.95658;4.59174;-4.95178;,
 -24.66514;1.33756;-12.82032;,
 -15.17360;-7.65112;-6.25644;,
 -25.45922;-5.01094;-8.35240;,
 -9.26964;-8.89424;2.72994;,
 -11.20578;-8.01214;13.34270;,
 -19.84784;-5.52152;19.36500;,
 -30.13346;-2.88136;17.26906;,
 -36.03746;-1.63816;8.28266;,
 -34.10128;-2.52030;-2.33006;,
 -25.45922;-5.01094;-8.35240;,
 -19.35600;-9.40214;-0.76010;,
 -24.92254;-7.97328;-1.89440;,
 -16.16080;-10.07494;4.10332;,
 -17.20862;-9.59754;9.84688;,
 -21.88570;-8.24958;13.10612;,
 -27.45228;-6.82076;11.97184;,
 -30.64746;-6.14798;7.10842;,
 -29.59968;-6.62538;1.36486;,
 -24.92254;-7.97328;-1.89440;,
 -23.73928;-9.79904;5.58110;,
 -23.73928;-9.79904;5.58110;,
 -23.73928;-9.79904;5.58110;,
 -23.73928;-9.79904;5.58110;,
 -23.73928;-9.79904;5.58110;,
 -23.73928;-9.79904;5.58110;,
 -23.73928;-9.79904;5.58110;,
 -23.73928;-9.79904;5.58110;,
 -9.87700;21.53294;-3.62214;,
 -16.96838;23.35318;-5.06716;,
 -5.80646;20.67584;2.57352;,
 -16.96838;23.35318;-5.06716;,
 -22.92664;25.07040;-0.91506;,
 -7.14132;21.28404;9.89050;,
 -24.26148;25.67854;6.40190;,
 -13.09962;23.00116;14.04260;,
 -20.19104;24.82144;12.59756;,
 -15.65040;20.09900;4.51320;,
 -15.60644;20.09364;6.24908;,
 -16.80648;20.40728;5.77170;,
 -15.65040;20.09900;4.51320;,
 -17.32926;20.54032;4.55708;,
 -15.65040;20.09900;4.51320;,
 -16.86866;20.41488;3.31680;,
 -15.65040;20.09900;4.51320;,
 -15.69438;20.10438;2.77734;,
 -15.65040;20.09900;4.51320;,
 -14.49438;19.79080;3.25472;,
 -15.65040;20.09900;4.51320;,
 -13.97158;19.65776;4.46930;,
 -15.65040;20.09900;4.51320;,
 -14.43220;19.78320;5.70962;,
 -15.65040;20.09900;4.51320;,
 -15.60644;20.09364;6.24908;,
 -17.11538;21.58014;2.80474;,
 -15.44216;21.13772;2.03604;,
 -17.77176;21.75886;4.57208;,
 -13.73226;20.69088;2.71630;,
 -17.02678;21.56932;6.30278;,
 -12.98730;20.50130;4.44700;,
 -15.31684;21.12242;6.98302;,
 -13.64366;20.68004;6.21432;,
 -15.31684;21.12242;6.98302;,
 -17.32646;23.45362;4.56604;,
 -16.58148;23.26406;6.29672;,
 -15.26024;25.47926;5.53616;,
 -15.69278;25.58933;4.53126;,
 -15.31168;25.48554;3.50510;,
 -16.67010;23.27488;2.79872;,
 -14.87156;22.81718;6.97698;,
 -14.26736;25.21982;5.93112;,
 -14.34014;25.22871;3.05876;,
 -14.99688;22.83248;2.03002;,
 -14.87156;22.81718;6.97698;,
 -13.19836;22.37478;6.20828;,
 -13.29588;24.96295;5.48480;,
 -14.26736;25.21982;5.93112;,
 -13.34734;24.96922;3.45374;,
 -13.28696;22.38560;2.71024;,
 -12.54198;22.19604;4.44094;,
 -12.91478;24.85918;4.45862;,
 -13.98054;26.36628;5.37618;,
 -14.59260;26.52620;5.13270;,
 -14.85924;26.59406;4.51326;,
 -14.62432;26.53008;3.88068;,
 -14.02540;26.37177;3.60554;,
 -13.41338;26.21180;3.84904;,
 -13.14676;26.14392;4.46848;,
 -13.38168;26.20790;5.10104;,
 -13.98054;26.36628;5.37618;,
 -4.95044;60.73374;5.25374;,
 -5.56252;60.89368;5.01026;,
 -5.82914;60.96151;4.39080;,
 -5.59422;60.89754;3.75824;,
 -4.99530;60.73925;3.48310;,
 -4.38332;60.57930;3.72658;,
 -4.11666;60.51142;4.34604;,
 -4.35158;60.57540;4.97860;,
 -4.95044;60.73374;5.25374;,
 -4.68194;61.73360;5.47294;,
 -5.60610;61.97539;5.17234;,
 -6.00530;62.07749;4.39872;,
 -5.64580;61.98023;3.60528;,
 -4.73808;61.74046;3.25678;,
 -3.81394;61.49870;3.55738;,
 -3.41472;61.39649;4.33100;,
 -3.77424;61.49386;5.12444;,
 -4.68194;61.73360;5.47294;,
 -4.10828;63.91696;5.46514;,
 -5.03240;64.15874;5.16454;,
 -5.43164;64.26093;4.39094;,
 -5.07210;64.16361;3.59750;,
 -4.16440;63.92382;3.24900;,
 -3.24026;63.68211;3.54960;,
 -2.84098;63.57994;4.32320;,
 -3.20058;63.67724;5.11666;,
 -4.10828;63.91696;5.46514;,
 -3.74464;65.33341;5.13356;,
 -4.39644;65.50382;4.92154;,
 -3.76444;65.33580;4.35202;,
 -4.67802;65.57592;4.37592;,
 -3.76444;65.33580;4.35202;,
 -4.42446;65.50726;3.81628;,
 -3.76444;65.33580;4.35202;,
 -3.78424;65.33822;3.57050;,
 -3.76444;65.33580;4.35202;,
 -3.13244;65.16774;3.78252;,
 -3.76444;65.33580;4.35202;,
 -2.85084;65.09569;4.32816;,
 -3.76444;65.33580;4.35202;,
 -3.10444;65.16433;4.88778;,
 -3.76444;65.33580;4.35202;,
 -3.74464;65.33341;5.13356;,
 -3.76444;65.33580;4.35202;,
 15.03668;20.41786;4.34336;,
 15.47348;21.61910;-1.78032;,
 11.14820;20.10868;-0.71530;,
 15.03668;20.41786;4.34336;,
 8.76958;19.37718;3.27606;,
 15.03668;20.41786;4.34336;,
 9.73102;19.85306;7.85574;,
 15.03668;20.41786;4.34336;,
 13.46932;21.25768;10.34092;,
 15.03668;20.41786;4.34336;,
 17.79462;22.76810;9.27592;,
 15.03668;20.41786;4.34336;,
 20.17324;23.49960;5.28454;,
 15.03668;20.41786;4.34336;,
 19.21176;23.02368;0.70488;,
 15.03668;20.41786;4.34336;,
 15.47348;21.61910;-1.78032;,
 17.13394;21.79630;-9.60912;,
 20.01820;15.81414;-13.70686;,
 7.01348;11.27282;-10.50470;,
 7.18060;18.32052;-7.15832;,
 -0.13816;9.07344;1.49600;,
 1.70696;16.63716;2.02662;,
 2.75262;10.50440;15.26538;,
 3.91944;17.73240;12.56524;,
 13.99238;14.72740;22.73752;,
 12.52196;20.96450;18.28420;,
 26.99708;19.26870;19.53540;,
 22.47538;24.44030;15.83336;,
 34.14876;21.46808;7.53468;,
 27.94906;26.12365;6.64844;,
 31.25806;20.03718;-6.23470;,
 25.73658;25.02849;-3.89020;,
 20.01820;15.81414;-13.70686;,
 17.13394;21.79630;-9.60912;,
 22.83480;8.65212;-14.99850;,
 8.75854;3.73660;-11.53248;,
 1.01766;1.35602;1.45698;,
 4.14660;2.90484;16.36086;,
 16.31242;7.47582;24.44868;,
 30.38860;12.39130;20.98264;,
 38.12952;14.77188;7.99318;,
 35.00060;13.22306;-6.91068;,
 22.83480;8.65212;-14.99850;,
 25.15482;1.40050;-13.28736;,
 12.15010;-3.14082;-10.08520;,
 4.99846;-5.34018;1.91548;,
 7.88920;-3.90926;15.68490;,
 19.12898;0.31376;23.15704;,
 32.13364;4.85504;19.95488;,
 39.28536;7.05444;7.95418;,
 36.39462;5.62354;-5.81520;,
 25.15482;1.40050;-13.28736;,
 26.62524;-4.83664;-8.83402;,
 16.67184;-8.31242;-6.38318;,
 11.19820;-9.99572;2.80178;,
 13.41068;-8.90056;13.34038;,
 22.01322;-5.66842;19.05932;,
 31.96660;-2.19264;16.60850;,
 37.44026;-0.50930;7.42352;,
 35.22778;-1.60450;-3.11508;,
 26.62524;-4.83664;-8.83402;,
 26.55520;-7.79982;-2.35454;,
 21.16846;-9.68090;-1.02818;,
 18.20616;-10.59192;3.94270;,
 19.40354;-9.99920;9.64616;,
 24.05920;-8.24996;12.74122;,
 29.44600;-6.36890;11.41486;,
 32.40830;-5.45788;6.44400;,
 31.21090;-6.05060;0.74054;,
 26.55520;-7.79982;-2.35454;,
 25.78080;-9.67886;5.16120;,
 25.78080;-9.67886;5.16120;,
 25.78080;-9.67886;5.16120;,
 25.78080;-9.67886;5.16120;,
 25.78080;-9.67886;5.16120;,
 25.78080;-9.67886;5.16120;,
 25.78080;-9.67886;5.16120;,
 25.78080;-9.67886;5.16120;,
 9.05386;20.34310;-3.63926;,
 15.91622;22.73944;-5.32896;,
 5.28006;19.18252;2.69328;,
 15.91622;22.73944;-5.32896;,
 21.84726;24.96787;-1.38604;,
 6.80544;19.93760;9.95918;,
 23.37262;25.72290;5.87984;,
 12.73648;22.16598;13.90212;,
 19.59880;24.56238;12.21238;,
 15.62768;19.93450;4.48306;,
 16.75834;20.41482;5.71030;,
 15.62552;19.94184;6.21950;,
 15.62768;19.93450;4.48306;,
 17.22886;20.60640;4.48222;,
 15.62768;19.93450;4.48306;,
 16.76140;20.40442;3.25462;,
 15.62768;19.93450;4.48306;,
 15.62986;19.92714;2.74664;,
 15.62768;19.93450;4.48306;,
 14.49700;19.45422;3.25582;,
 15.62768;19.93450;4.48306;,
 14.02648;19.26262;4.48392;,
 15.62768;19.93450;4.48306;,
 14.49392;19.46462;5.71150;,
 15.62768;19.93450;4.48306;,
 15.62552;19.94184;6.21950;,
 16.83066;21.58708;2.72796;,
 15.21828;20.90706;2.00412;,
 17.49676;21.87488;4.47718;,
 13.60406;20.23314;2.72968;,
 16.82630;21.60190;6.22712;,
 12.93362;19.96012;4.47960;,
 15.21210;20.92802;6.95264;,
 13.59970;20.24798;6.22882;,
 15.21210;20.92802;6.95264;,
 16.81874;23.49068;4.46950;,
 16.14830;23.21768;6.21940;,
 14.90198;25.37678;4.45910;,
 14.51272;25.21826;5.47516;,
 16.15266;23.20284;2.72028;,
 14.51524;25.20966;3.44346;,
 14.53408;22.54374;6.94496;,
 13.57546;24.82700;5.89642;,
 14.54026;22.52278;1.99644;,
 13.57906;24.81483;3.02316;,
 14.53408;22.54374;6.94496;,
 12.92170;21.86372;6.22112;,
 13.57546;24.82700;5.89642;,
 12.63924;24.43216;5.47614;,
 12.92608;21.84890;2.72198;,
 12.64176;24.42356;3.44444;,
 12.25562;21.57594;4.47192;,
 12.25252;24.26502;4.46050;,
 13.11818;25.91604;5.34020;,
 13.69596;26.15725;5.08050;,
 13.93588;26.25501;4.45416;,
 13.69750;26.15197;3.82808;,
 13.12040;25.90855;3.56902;,
 12.54262;25.66736;3.82870;,
 12.30266;25.56964;4.45504;,
 12.54104;25.67268;5.08112;,
 13.11818;25.91604;5.34020;,
 -2.38840;60.56137;5.17406;,
 -1.81066;60.80260;4.91436;,
 -1.57070;60.90031;4.28802;,
 -1.80910;60.79728;3.66194;,
 -2.38620;60.55386;3.40286;,
 -2.96398;60.31270;3.66256;,
 -3.20394;60.21496;4.28890;,
 -2.96554;60.31802;4.91498;,
 -2.38840;60.56137;5.17406;,
 -2.78900;61.51624;5.39236;,
 -1.91504;61.88145;5.06724;,
 -1.55222;62.02994;4.28326;,
 -1.91308;61.87481;3.49968;,
 -2.78622;61.50686;3.17548;,
 -3.66018;61.14171;3.50060;,
 -4.02298;60.99314;4.28456;,
 -3.66214;61.14834;5.06816;,
 -2.78900;61.51624;5.39236;,
 -3.66248;63.59793;5.38244;,
 -2.78854;63.96308;5.05732;,
 -2.42570;64.11160;4.27336;,
 -2.78658;63.95645;3.48976;,
 -3.65972;63.58853;3.16556;,
 -4.53368;63.22337;3.49068;,
 -4.89648;63.07482;4.27466;,
 -4.53564;63.23001;5.05824;,
 -3.66248;63.59793;5.38244;,
 -4.22832;64.94597;5.04936;,
 -3.61192;65.20352;4.82006;,
 -4.22734;64.94266;4.26758;,
 -3.35602;65.30827;4.26712;,
 -4.22734;64.94266;4.26758;,
 -3.61052;65.19882;3.71446;,
 -4.22734;64.94266;4.26758;,
 -4.22636;64.93934;3.48580;,
 -4.22734;64.94266;4.26758;,
 -4.84278;64.68178;3.71512;,
 -4.22734;64.94266;4.26758;,
 -5.09868;64.57706;4.26806;,
 -4.22734;64.94266;4.26758;,
 -4.84416;64.68646;4.82070;,
 -4.22734;64.94266;4.26758;,
 -4.22832;64.94597;5.04936;,
 -4.22734;64.94266;4.26758;;
 
 304;
 3;0,1,2;,
 3;3,4,1;,
 3;5,6,4;,
 3;7,8,6;,
 3;9,10,8;,
 3;11,12,10;,
 3;13,14,12;,
 3;15,16,14;,
 4;17,18,19,20;,
 4;18,21,22,19;,
 4;21,23,24,22;,
 4;23,25,26,24;,
 4;25,27,28,26;,
 4;27,29,30,28;,
 4;29,31,32,30;,
 4;31,33,34,32;,
 4;20,19,35,36;,
 4;19,22,37,35;,
 4;22,24,38,37;,
 4;24,26,39,38;,
 4;26,28,40,39;,
 4;28,30,41,40;,
 4;30,32,42,41;,
 4;32,34,43,42;,
 4;36,35,44,45;,
 4;35,37,46,44;,
 4;37,38,47,46;,
 4;38,39,48,47;,
 4;39,40,49,48;,
 4;40,41,50,49;,
 4;41,42,51,50;,
 4;42,43,52,51;,
 4;45,44,53,54;,
 4;44,46,55,53;,
 4;46,47,56,55;,
 4;47,48,57,56;,
 4;48,49,58,57;,
 4;49,50,59,58;,
 4;50,51,60,59;,
 4;51,52,61,60;,
 4;54,53,62,63;,
 4;53,55,64,62;,
 4;55,56,65,64;,
 4;56,57,66,65;,
 4;57,58,67,66;,
 4;58,59,68,67;,
 4;59,60,69,68;,
 4;60,61,70,69;,
 3;63,62,71;,
 3;62,64,72;,
 3;64,65,73;,
 3;65,66,74;,
 3;66,67,75;,
 3;67,68,76;,
 3;68,69,77;,
 3;69,70,78;,
 4;79,18,17,80;,
 4;79,80,2,1;,
 4;79,1,4,81;,
 4;79,81,21,18;,
 4;82,33,31,83;,
 4;82,83,14,16;,
 4;81,4,6,84;,
 4;81,84,23,21;,
 4;83,31,29,85;,
 4;83,85,12,14;,
 4;84,6,8,86;,
 4;84,86,25,23;,
 4;85,29,27,87;,
 4;85,87,10,12;,
 4;86,8,10,87;,
 4;86,87,27,25;,
 3;88,89,90;,
 3;91,90,92;,
 3;93,92,94;,
 3;95,94,96;,
 3;97,96,98;,
 3;99,98,100;,
 3;101,100,102;,
 3;103,102,104;,
 4;105,106,96,94;,
 4;105,94,92,107;,
 4;106,108,98,96;,
 4;107,92,90,109;,
 4;108,110,100,98;,
 4;109,90,89,111;,
 4;110,112,102,100;,
 4;113,104,102,112;,
 4;114,107,109,115;,
 4;114,115,116,117;,
 4;114,117,118,119;,
 4;114,119,105,107;,
 4;115,109,111,120;,
 4;115,120,121,116;,
 4;119,118,122,123;,
 4;119,123,106,105;,
 4;124,113,112,125;,
 4;124,125,126,127;,
 4;123,122,128,129;,
 4;123,129,108,106;,
 4;125,112,110,130;,
 4;125,130,131,126;,
 4;129,128,131,130;,
 4;129,130,110,108;,
 4;132,133,116,121;,
 4;133,134,117,116;,
 4;134,135,118,117;,
 4;135,136,122,118;,
 4;136,137,128,122;,
 4;137,138,131,128;,
 4;138,139,126,131;,
 4;139,140,127,126;,
 4;141,142,133,132;,
 4;142,143,134,133;,
 4;143,144,135,134;,
 4;144,145,136,135;,
 4;145,146,137,136;,
 4;146,147,138,137;,
 4;147,148,139,138;,
 4;148,149,140,139;,
 4;150,151,142,141;,
 4;151,152,143,142;,
 4;152,153,144,143;,
 4;153,154,145,144;,
 4;154,155,146,145;,
 4;155,156,147,146;,
 4;156,157,148,147;,
 4;157,158,149,148;,
 4;159,160,151,150;,
 4;160,161,152,151;,
 4;161,162,153,152;,
 4;162,163,154,153;,
 4;163,164,155,154;,
 4;164,165,156,155;,
 4;165,166,157,156;,
 4;166,167,158,157;,
 4;168,169,160,159;,
 3;170,169,168;,
 4;169,171,161,160;,
 3;172,171,169;,
 4;171,173,162,161;,
 3;174,173,171;,
 4;173,175,163,162;,
 3;176,175,173;,
 4;175,177,164,163;,
 3;178,177,175;,
 4;177,179,165,164;,
 3;180,179,177;,
 4;179,181,166,165;,
 3;182,181,179;,
 4;181,183,167,166;,
 3;184,183,181;,
 3;185,186,187;,
 3;188,187,189;,
 3;190,189,191;,
 3;192,191,193;,
 3;194,193,195;,
 3;196,195,197;,
 3;198,197,199;,
 3;200,199,201;,
 4;202,203,204,205;,
 4;205,204,206,207;,
 4;207,206,208,209;,
 4;209,208,210,211;,
 4;211,210,212,213;,
 4;213,212,214,215;,
 4;215,214,216,217;,
 4;217,216,218,219;,
 4;203,220,221,204;,
 4;204,221,222,206;,
 4;206,222,223,208;,
 4;208,223,224,210;,
 4;210,224,225,212;,
 4;212,225,226,214;,
 4;214,226,227,216;,
 4;216,227,228,218;,
 4;220,229,230,221;,
 4;221,230,231,222;,
 4;222,231,232,223;,
 4;223,232,233,224;,
 4;224,233,234,225;,
 4;225,234,235,226;,
 4;226,235,236,227;,
 4;227,236,237,228;,
 4;229,238,239,230;,
 4;230,239,240,231;,
 4;231,240,241,232;,
 4;232,241,242,233;,
 4;233,242,243,234;,
 4;234,243,244,235;,
 4;235,244,245,236;,
 4;236,245,246,237;,
 4;238,247,248,239;,
 4;239,248,249,240;,
 4;240,249,250,241;,
 4;241,250,251,242;,
 4;242,251,252,243;,
 4;243,252,253,244;,
 4;244,253,254,245;,
 4;245,254,255,246;,
 3;247,256,248;,
 3;248,257,249;,
 3;249,258,250;,
 3;250,259,251;,
 3;251,260,252;,
 3;252,261,253;,
 3;253,262,254;,
 3;254,263,255;,
 4;264,265,202,205;,
 4;264,187,186,265;,
 4;264,266,189,187;,
 4;264,205,207,266;,
 4;267,268,217,219;,
 4;267,201,199,268;,
 4;266,269,191,189;,
 4;266,207,209,269;,
 4;268,270,215,217;,
 4;268,199,197,270;,
 4;269,271,193,191;,
 4;269,209,211,271;,
 4;270,272,213,215;,
 4;270,197,195,272;,
 4;271,272,195,193;,
 4;271,211,213,272;,
 3;273,274,275;,
 3;276,277,274;,
 3;278,279,277;,
 3;280,281,279;,
 3;282,283,281;,
 3;284,285,283;,
 3;286,287,285;,
 3;288,289,287;,
 4;290,279,281,291;,
 4;290,292,277,279;,
 4;291,281,283,293;,
 4;292,294,274,277;,
 4;293,283,285,295;,
 4;294,296,275,274;,
 4;295,285,287,297;,
 4;298,297,287,289;,
 4;299,300,294,292;,
 4;299,301,302,300;,
 4;299,303,304,301;,
 4;299,292,290,303;,
 4;300,305,296,294;,
 4;300,302,306,305;,
 4;303,307,308,304;,
 4;303,290,291,307;,
 4;309,310,297,298;,
 4;309,311,312,310;,
 4;307,313,314,308;,
 4;307,291,293,313;,
 4;310,315,295,297;,
 4;310,312,316,315;,
 4;313,315,316,314;,
 4;313,293,295,315;,
 4;317,306,302,318;,
 4;318,302,301,319;,
 4;319,301,304,320;,
 4;320,304,308,321;,
 4;321,308,314,322;,
 4;322,314,316,323;,
 4;323,316,312,324;,
 4;324,312,311,325;,
 4;326,317,318,327;,
 4;327,318,319,328;,
 4;328,319,320,329;,
 4;329,320,321,330;,
 4;330,321,322,331;,
 4;331,322,323,332;,
 4;332,323,324,333;,
 4;333,324,325,334;,
 4;335,326,327,336;,
 4;336,327,328,337;,
 4;337,328,329,338;,
 4;338,329,330,339;,
 4;339,330,331,340;,
 4;340,331,332,341;,
 4;341,332,333,342;,
 4;342,333,334,343;,
 4;344,335,336,345;,
 4;345,336,337,346;,
 4;346,337,338,347;,
 4;347,338,339,348;,
 4;348,339,340,349;,
 4;349,340,341,350;,
 4;350,341,342,351;,
 4;351,342,343,352;,
 4;353,344,345,354;,
 3;355,353,354;,
 4;354,345,346,356;,
 3;357,354,356;,
 4;356,346,347,358;,
 3;359,356,358;,
 4;358,347,348,360;,
 3;361,358,360;,
 4;360,348,349,362;,
 3;363,360,362;,
 4;362,349,350,364;,
 3;365,362,364;,
 4;364,350,351,366;,
 3;367,364,366;,
 4;366,351,352,368;,
 3;369,366,368;;
 
 MeshMaterialList {
  5;
  304;
  1,
  1,
  1,
  1,
  1,
  1,
  1,
  1,
  1,
  1,
  1,
  1,
  1,
  1,
  1,
  1,
  1,
  1,
  1,
  1,
  1,
  1,
  1,
  1,
  1,
  1,
  1,
  1,
  1,
  1,
  1,
  1,
  1,
  1,
  1,
  1,
  1,
  1,
  1,
  1,
  1,
  1,
  1,
  1,
  1,
  1,
  1,
  1,
  1,
  1,
  1,
  1,
  1,
  1,
  1,
  1,
  1,
  1,
  1,
  1,
  1,
  1,
  1,
  1,
  1,
  1,
  1,
  1,
  1,
  1,
  1,
  1,
  2,
  2,
  2,
  2,
  2,
  2,
  2,
  2,
  2,
  2,
  2,
  2,
  2,
  2,
  2,
  2,
  2,
  2,
  2,
  2,
  2,
  2,
  2,
  2,
  2,
  2,
  2,
  2,
  2,
  2,
  2,
  2,
  2,
  2,
  2,
  2,
  2,
  2,
  2,
  2,
  2,
  2,
  2,
  2,
  2,
  2,
  2,
  2,
  2,
  2,
  2,
  2,
  2,
  2,
  2,
  2,
  2,
  2,
  2,
  2,
  2,
  2,
  2,
  2,
  2,
  2,
  2,
  2,
  2,
  2,
  2,
  2,
  2,
  2,
  2,
  2,
  2,
  2,
  2,
  2,
  1,
  1,
  1,
  1,
  1,
  1,
  1,
  1,
  1,
  1,
  1,
  1,
  1,
  1,
  1,
  1,
  1,
  1,
  1,
  1,
  1,
  1,
  1,
  1,
  1,
  1,
  1,
  1,
  1,
  1,
  1,
  1,
  1,
  1,
  1,
  1,
  1,
  1,
  1,
  1,
  1,
  1,
  1,
  1,
  1,
  1,
  1,
  1,
  1,
  1,
  1,
  1,
  1,
  1,
  1,
  1,
  1,
  1,
  1,
  1,
  1,
  1,
  1,
  1,
  1,
  1,
  1,
  1,
  1,
  1,
  1,
  1,
  2,
  2,
  2,
  2,
  2,
  2,
  2,
  2,
  2,
  2,
  2,
  2,
  2,
  2,
  2,
  2,
  2,
  2,
  2,
  2,
  2,
  2,
  2,
  2,
  2,
  2,
  2,
  2,
  2,
  2,
  2,
  2,
  2,
  2,
  2,
  2,
  2,
  2,
  2,
  2,
  2,
  2,
  2,
  2,
  2,
  2,
  2,
  2,
  2,
  2,
  2,
  2,
  2,
  2,
  2,
  2,
  2,
  2,
  2,
  2,
  2,
  2,
  2,
  2,
  2,
  2,
  2,
  2,
  2,
  2,
  2,
  2,
  2,
  2,
  2,
  2,
  2,
  2,
  2,
  2;;
  Material {
   0.310400;0.088000;0.094400;1.000000;;
   5.000000;
   0.000000;0.000000;0.000000;;
   0.000000;0.000000;0.000000;;
  }
  Material {
   0.598530;0.000000;0.047570;1.000000;;
   62.000000;
   0.480000;0.480000;0.480000;;
   0.000000;0.000000;0.000000;;
  }
  Material {
   0.122400;0.524000;0.341600;1.000000;;
   5.000000;
   0.000000;0.000000;0.000000;;
   0.000000;0.000000;0.000000;;
  }
  Material {
   0.800000;0.605600;0.401600;1.000000;;
   5.000000;
   0.000000;0.000000;0.000000;;
   0.000000;0.000000;0.000000;;
  }
  Material {
   0.599200;0.674400;0.480000;1.000000;;
   5.000000;
   0.000000;0.000000;0.000000;;
   0.000000;0.000000;0.000000;;
  }
 }
 MeshNormals {
  296;
  0.258075;0.965510;-0.034463;,
  0.292561;0.937353;0.189147;,
  0.126092;0.979371;0.157904;,
  0.029135;0.999497;0.012513;,
  0.061785;0.985222;-0.159751;,
  0.202696;0.945531;-0.254727;,
  0.366363;0.904301;-0.219129;,
  0.459058;0.885095;-0.076629;,
  0.429211;0.898580;0.091278;,
  0.095058;0.800857;-0.591263;,
  0.513748;0.691887;-0.507302;,
  0.754931;0.640459;-0.141036;,
  0.675518;0.677165;0.291759;,
  0.323210;0.780097;0.535708;,
  -0.093848;0.888507;0.449164;,
  -0.332526;0.939290;0.084625;,
  -0.254743;0.903148;-0.345587;,
  -0.085095;0.388281;-0.917604;,
  0.586279;0.215948;-0.780797;,
  0.971650;0.134803;-0.194225;,
  0.845271;0.192382;0.498504;,
  0.281174;0.354954;0.891599;,
  -0.390203;0.527286;0.754792;,
  -0.775575;0.608428;0.168224;,
  -0.649195;0.550852;-0.524507;,
  -0.198390;0.018052;-0.979957;,
  0.528913;-0.168637;-0.831753;,
  0.946386;-0.256541;-0.196319;,
  0.809479;-0.194165;0.554116;,
  0.198390;-0.018050;0.979957;,
  -0.528913;0.168636;0.831753;,
  -0.946385;0.256540;0.196322;,
  -0.809480;0.194166;-0.554114;,
  -0.281174;-0.354953;-0.891599;,
  0.390203;-0.527287;-0.754791;,
  0.775573;-0.608431;-0.168220;,
  0.649195;-0.550852;0.524508;,
  0.085096;-0.388279;0.917605;,
  -0.586279;-0.215944;0.780798;,
  -0.971650;-0.134801;0.194227;,
  -0.845272;-0.192380;-0.498503;,
  -0.322823;-0.728802;-0.603848;,
  0.144567;-0.848776;-0.508606;,
  0.412850;-0.905264;-0.100256;,
  0.324869;-0.865181;0.381998;,
  -0.067838;-0.752004;0.655658;,
  -0.535227;-0.632030;0.560419;,
  -0.803511;-0.575539;0.152068;,
  -0.715530;-0.615624;-0.330188;,
  -0.304518;-0.910554;-0.279572;,
  -0.072901;-0.969713;-0.233113;,
  0.060002;-0.997727;-0.030675;,
  0.015602;-0.978035;0.207856;,
  -0.178828;-0.922521;0.342017;,
  -0.408691;-0.863848;0.294515;,
  -0.540573;-0.836040;0.093899;,
  -0.497928;-0.855248;-0.143589;,
  -0.253285;-0.966847;0.032471;,
  0.250454;0.967730;-0.027772;,
  0.255188;0.966451;-0.029183;,
  0.246447;0.968626;-0.032050;,
  0.256172;0.966087;-0.032440;,
  0.248472;0.967910;-0.037575;,
  0.255630;0.966178;-0.033950;,
  0.253367;0.966617;-0.038159;,
  0.255535;0.966146;-0.035556;,
  0.125856;0.387964;0.913041;,
  -0.506308;0.553167;0.661558;,
  -0.781722;0.623248;0.021731;,
  -0.539073;0.557163;-0.631641;,
  0.079523;0.393617;-0.915828;,
  0.711675;0.228412;-0.664339;,
  0.987081;0.158333;-0.024516;,
  0.744434;0.224417;0.628852;,
  -0.215333;-0.864426;0.454311;,
  -0.527283;-0.782900;0.330212;,
  -0.663185;-0.748315;0.014479;,
  -0.543449;-0.780924;-0.307929;,
  -0.238196;-0.861636;-0.448159;,
  0.073760;-0.943155;-0.324064;,
  0.209663;-0.977738;-0.008339;,
  0.089922;-0.945131;0.314074;,
  -0.254128;-0.967164;0.003444;,
  -0.745547;-0.118416;-0.655849;,
  -0.100819;-0.288874;-0.952044;,
  -0.998456;-0.049538;0.025136;,
  0.558052;-0.461061;-0.689928;,
  -0.711403;-0.122583;0.692011;,
  0.845102;-0.534108;-0.023060;,
  -0.052529;-0.294768;0.954124;,
  0.592196;-0.465229;0.657925;,
  -0.897443;0.440473;0.024095;,
  -0.602309;0.365370;0.709738;,
  -0.637415;0.369655;-0.676060;,
  0.075111;0.188336;0.979228;,
  0.025460;0.194398;-0.980592;,
  0.737980;0.013078;0.674695;,
  0.702874;0.017364;-0.711103;,
  0.998007;-0.057741;-0.025460;,
  0.080022;0.207403;0.974977;,
  -0.594518;0.383680;0.706638;,
  -0.888394;0.458457;0.023923;,
  -0.629479;0.387943;-0.673243;,
  0.030586;0.213434;-0.976479;,
  0.705105;0.037156;-0.708129;,
  0.998969;-0.037620;-0.025425;,
  0.740059;0.032895;0.671736;,
  -0.004592;-0.116325;0.993201;,
  -0.682703;0.023069;0.730332;,
  -0.997585;0.064612;0.025466;,
  -0.718800;0.027478;-0.694674;,
  -0.054892;-0.110182;-0.992394;,
  0.604583;-0.320368;-0.729277;,
  0.900451;-0.434287;-0.024160;,
  0.640686;-0.324772;0.695733;,
  -0.004246;-0.114990;0.993358;,
  -0.658126;0.016860;0.752719;,
  -0.997786;0.061433;0.025463;,
  -0.695389;0.021408;-0.718315;,
  -0.054555;-0.108850;-0.992560;,
  0.580076;-0.313844;-0.751674;,
  0.899062;-0.437156;-0.024129;,
  0.617346;-0.318387;0.719385;,
  0.053045;0.103049;0.993261;,
  -0.581920;0.279463;0.763721;,
  -0.924900;0.379413;0.024613;,
  -0.619803;0.284082;-0.731534;,
  0.002713;0.109190;-0.994017;,
  0.642785;-0.047781;-0.764555;,
  0.991903;-0.124411;-0.025508;,
  0.680657;-0.052408;0.730725;,
  0.254086;0.967176;-0.003447;,
  0.080058;0.207677;0.974916;,
  -0.538362;0.389534;0.747281;,
  -0.867264;0.497293;0.023527;,
  -0.575452;0.394059;-0.716640;,
  0.030646;0.213709;-0.976417;,
  0.658993;0.069594;-0.748923;,
  0.999658;0.006575;-0.025299;,
  0.696068;0.065054;0.715023;,
  -0.338636;0.940502;-0.027946;,
  -0.363098;0.910736;0.196774;,
  -0.201859;0.966293;0.159785;,
  -0.111869;0.993661;0.011136;,
  -0.149007;0.975825;-0.159883;,
  -0.289243;0.924055;-0.249924;,
  -0.447610;0.869539;-0.208681;,
  -0.533525;0.843430;-0.063065;,
  -0.499260;0.860224;0.103701;,
  -0.181327;0.787097;-0.589575;,
  -0.586415;0.644107;-0.491166;,
  -0.809993;0.574693;-0.116790;,
  -0.719372;0.620127;0.312962;,
  -0.368844;0.753277;0.544544;,
  0.034578;0.895554;0.443608;,
  0.255771;0.964124;0.071042;,
  0.166815;0.919405;-0.356184;,
  0.021475;0.389247;-0.920883;,
  -0.628214;0.162372;-0.760909;,
  -0.985495;0.052495;-0.161378;,
  -0.841079;0.123982;0.526512;,
  -0.279562;0.334955;0.899805;,
  0.370129;0.561829;0.739833;,
  0.727413;0.671704;0.140304;,
  0.582995;0.600219;-0.547589;,
  0.163058;0.029407;-0.986178;,
  -0.540753;-0.216367;-0.812878;,
  -0.927797;-0.335396;-0.163405;,
  -0.771351;-0.257954;0.581788;,
  -0.163058;-0.029406;0.986178;,
  0.540753;0.216367;0.812879;,
  0.927797;0.335395;0.163408;,
  0.771352;0.257954;-0.581787;,
  0.279562;-0.334954;-0.899806;,
  -0.370128;-0.561831;-0.739832;,
  -0.727410;-0.671707;-0.140302;,
  -0.582994;-0.600220;0.547588;,
  -0.021476;-0.389246;0.920883;,
  0.628213;-0.162369;0.760911;,
  0.985495;-0.052492;0.161381;,
  0.841079;-0.123979;-0.526512;,
  0.361888;-0.702544;-0.612756;,
  -0.090405;-0.860488;-0.501386;,
  -0.339134;-0.936979;-0.084013;,
  -0.238595;-0.887213;0.394873;,
  0.152315;-0.740341;0.654749;,
  0.604608;-0.582396;0.543382;,
  0.853337;-0.505902;0.126008;,
  0.752799;-0.555670;-0.352880;,
  0.369730;-0.883503;-0.287615;,
  0.145543;-0.961484;-0.233165;,
  0.022334;-0.999406;-0.026256;,
  0.072952;-0.974851;0.210579;,
  0.266492;-0.902659;0.337917;,
  0.488937;-0.825313;0.282486;,
  0.611208;-0.787673;0.077432;,
  0.562332;-0.811594;-0.158422;,
  0.333910;-0.942243;0.026122;,
  -0.331009;0.943382;-0.021526;,
  -0.335660;0.941708;-0.022767;,
  -0.327237;0.944586;-0.025939;,
  -0.336718;0.941247;-0.025989;,
  -0.329378;0.943676;-0.031392;,
  -0.336239;0.941374;-0.027524;,
  -0.334165;0.941978;-0.031810;,
  -0.336197;0.941341;-0.029133;,
  -0.157481;0.376463;0.912949;,
  0.439280;0.625599;0.644717;,
  0.687141;0.726521;-0.002223;,
  0.440899;0.620112;-0.648899;,
  -0.155192;0.368712;-0.916497;,
  -0.751968;0.119577;-0.648263;,
  -0.999825;0.018643;-0.001325;,
  -0.753583;0.125053;0.645348;,
  0.344709;-0.820906;0.455291;,
  0.639193;-0.697960;0.322932;,
  0.761491;-0.648165;0.003694;,
  0.639989;-0.700662;-0.315415;,
  0.345839;-0.824727;-0.447460;,
  0.051348;-0.947667;-0.315103;,
  -0.070953;-0.997471;0.004139;,
  0.050546;-0.944963;0.323249;,
  0.386934;-0.922097;0.004388;,
  0.739227;-0.020227;-0.673152;,
  0.117937;-0.282256;-0.952062;,
  0.995881;0.090669;0.000857;,
  -0.504053;-0.541924;-0.672494;,
  0.737545;-0.014519;0.675142;,
  -0.762387;-0.647119;0.001792;,
  0.115555;-0.274181;0.954710;,
  -0.505734;-0.536213;0.675802;,
  0.827316;0.561735;-0.001350;,
  0.561709;0.453581;0.691915;,
  0.563442;0.447708;-0.694327;,
  -0.077784;0.186603;0.979351;,
  -0.075332;0.178298;-0.981089;,
  -0.716562;-0.082805;0.692591;,
  -0.714833;-0.088680;-0.693650;,
  -0.980438;-0.196829;-0.000387;,
  -0.085397;0.204763;0.975079;,
  0.547047;0.477512;0.687548;,
  0.809029;0.587767;-0.001485;,
  0.548762;0.471667;-0.690210;,
  -0.082964;0.196491;-0.976989;,
  -0.717744;-0.077272;-0.692006;,
  -0.982066;-0.188537;-0.000426;,
  -0.719469;-0.071422;0.690842;,
  0.044071;-0.103769;0.993625;,
  0.687266;0.134010;0.713937;,
  0.976591;0.215105;0.000302;,
  0.689040;0.127961;-0.713337;,
  0.046545;-0.112184;-0.992597;,
  -0.566692;-0.416750;-0.710760;,
  -0.824551;-0.565786;0.001369;,
  -0.568468;-0.410720;0.712848;,
  0.043534;-0.102498;0.993780;,
  0.666720;0.116768;0.736104;,
  0.979703;0.200454;0.000373;,
  0.668557;0.110533;-0.735400;,
  0.046016;-0.110917;-0.992764;,
  -0.547902;-0.399916;-0.734759;,
  -0.829387;-0.558673;0.001330;,
  -0.549741;-0.393682;0.736749;,
  -0.043697;0.105388;0.993471;,
  0.554813;0.366252;0.747022;,
  0.863054;0.505110;-0.001059;,
  0.556685;0.359917;-0.748706;,
  -0.041212;0.096968;-0.994434;,
  -0.647504;-0.145374;-0.748067;,
  -0.965069;-0.261997;-0.000093;,
  -0.649370;-0.139038;0.747654;,
  -0.386912;0.922106;-0.004395;,
  -0.085510;0.205016;0.975016;,
  0.495919;0.468978;0.730838;,
  0.789492;0.613759;-0.001610;,
  0.497752;0.462779;-0.733538;,
  -0.083074;0.196756;-0.976927;,
  -0.679606;-0.031250;-0.732912;,
  -0.991063;-0.133391;-0.000665;,
  -0.681426;-0.025053;0.731458;,
  0.254061;0.967182;-0.003401;,
  0.254054;0.967184;-0.003468;,
  0.254113;0.967168;-0.003430;,
  0.254081;0.967177;-0.003484;,
  0.254068;0.967180;-0.003446;,
  0.254097;0.967173;-0.003432;,
  0.254108;0.967170;-0.003447;,
  0.254105;0.967170;-0.003472;,
  -0.386924;0.922101;-0.004380;,
  -0.386916;0.922104;-0.004385;,
  -0.386912;0.922106;-0.004410;,
  -0.386902;0.922110;-0.004415;,
  -0.386908;0.922108;-0.004401;,
  -0.386914;0.922105;-0.004414;,
  -0.386905;0.922109;-0.004388;,
  -0.386917;0.922104;-0.004364;;
  304;
  3;0,2,1;,
  3;0,3,2;,
  3;0,4,3;,
  3;0,5,4;,
  3;0,6,5;,
  3;0,7,6;,
  3;0,8,7;,
  3;0,1,8;,
  4;9,10,18,17;,
  4;10,11,19,18;,
  4;11,12,20,19;,
  4;12,13,21,20;,
  4;13,14,22,21;,
  4;14,15,23,22;,
  4;15,16,24,23;,
  4;16,9,17,24;,
  4;17,18,26,25;,
  4;18,19,27,26;,
  4;19,20,28,27;,
  4;20,21,29,28;,
  4;21,22,30,29;,
  4;22,23,31,30;,
  4;23,24,32,31;,
  4;24,17,25,32;,
  4;25,26,34,33;,
  4;26,27,35,34;,
  4;27,28,36,35;,
  4;28,29,37,36;,
  4;29,30,38,37;,
  4;30,31,39,38;,
  4;31,32,40,39;,
  4;32,25,33,40;,
  4;33,34,42,41;,
  4;34,35,43,42;,
  4;35,36,44,43;,
  4;36,37,45,44;,
  4;37,38,46,45;,
  4;38,39,47,46;,
  4;39,40,48,47;,
  4;40,33,41,48;,
  4;41,42,50,49;,
  4;42,43,51,50;,
  4;43,44,52,51;,
  4;44,45,53,52;,
  4;45,46,54,53;,
  4;46,47,55,54;,
  4;47,48,56,55;,
  4;48,41,49,56;,
  3;49,50,57;,
  3;50,51,57;,
  3;51,52,57;,
  3;52,53,57;,
  3;53,54,57;,
  3;54,55,57;,
  3;55,56,57;,
  3;56,49,57;,
  4;58,10,9,59;,
  4;58,59,1,2;,
  4;58,2,3,60;,
  4;58,60,11,10;,
  4;59,9,16,61;,
  4;59,61,8,1;,
  4;60,3,4,62;,
  4;60,62,12,11;,
  4;61,16,15,63;,
  4;61,63,7,8;,
  4;62,4,5,64;,
  4;62,64,13,12;,
  4;63,15,14,65;,
  4;63,65,6,7;,
  4;64,5,6,65;,
  4;64,65,14,13;,
  3;82,74,75;,
  3;82,75,76;,
  3;82,76,77;,
  3;82,77,78;,
  3;82,78,79;,
  3;82,79,80;,
  3;82,80,81;,
  3;82,81,74;,
  4;83,84,78,77;,
  4;83,77,76,85;,
  4;84,86,79,78;,
  4;85,76,75,87;,
  4;86,88,80,79;,
  4;87,75,74,89;,
  4;88,90,81,80;,
  4;89,74,81,90;,
  4;91,85,87,92;,
  4;91,92,67,68;,
  4;91,68,69,93;,
  4;91,93,83,85;,
  4;92,87,89,94;,
  4;92,94,66,67;,
  4;93,69,70,95;,
  4;93,95,84,83;,
  4;94,89,90,96;,
  4;94,96,73,66;,
  4;95,70,71,97;,
  4;95,97,86,84;,
  4;96,90,88,98;,
  4;96,98,72,73;,
  4;97,71,72,98;,
  4;97,98,88,86;,
  4;99,100,67,66;,
  4;100,101,68,67;,
  4;101,102,69,68;,
  4;102,103,70,69;,
  4;103,104,71,70;,
  4;104,105,72,71;,
  4;105,106,73,72;,
  4;106,99,66,73;,
  4;107,108,100,99;,
  4;108,109,101,100;,
  4;109,110,102,101;,
  4;110,111,103,102;,
  4;111,112,104,103;,
  4;112,113,105,104;,
  4;113,114,106,105;,
  4;114,107,99,106;,
  4;115,116,108,107;,
  4;116,117,109,108;,
  4;117,118,110,109;,
  4;118,119,111,110;,
  4;119,120,112,111;,
  4;120,121,113,112;,
  4;121,122,114,113;,
  4;122,115,107,114;,
  4;123,124,116,115;,
  4;124,125,117,116;,
  4;125,126,118,117;,
  4;126,127,119,118;,
  4;127,128,120,119;,
  4;128,129,121,120;,
  4;129,130,122,121;,
  4;130,123,115,122;,
  4;132,133,124,123;,
  3;131,280,281;,
  4;133,134,125,124;,
  3;131,282,280;,
  4;134,135,126,125;,
  3;131,283,282;,
  4;135,136,127,126;,
  3;131,284,283;,
  4;136,137,128,127;,
  3;131,285,284;,
  4;137,138,129,128;,
  3;131,286,285;,
  4;138,139,130,129;,
  3;131,287,286;,
  4;139,132,123,130;,
  3;131,281,287;,
  3;140,141,142;,
  3;140,142,143;,
  3;140,143,144;,
  3;140,144,145;,
  3;140,145,146;,
  3;140,146,147;,
  3;140,147,148;,
  3;140,148,141;,
  4;149,157,158,150;,
  4;150,158,159,151;,
  4;151,159,160,152;,
  4;152,160,161,153;,
  4;153,161,162,154;,
  4;154,162,163,155;,
  4;155,163,164,156;,
  4;156,164,157,149;,
  4;157,165,166,158;,
  4;158,166,167,159;,
  4;159,167,168,160;,
  4;160,168,169,161;,
  4;161,169,170,162;,
  4;162,170,171,163;,
  4;163,171,172,164;,
  4;164,172,165,157;,
  4;165,173,174,166;,
  4;166,174,175,167;,
  4;167,175,176,168;,
  4;168,176,177,169;,
  4;169,177,178,170;,
  4;170,178,179,171;,
  4;171,179,180,172;,
  4;172,180,173,165;,
  4;173,181,182,174;,
  4;174,182,183,175;,
  4;175,183,184,176;,
  4;176,184,185,177;,
  4;177,185,186,178;,
  4;178,186,187,179;,
  4;179,187,188,180;,
  4;180,188,181,173;,
  4;181,189,190,182;,
  4;182,190,191,183;,
  4;183,191,192,184;,
  4;184,192,193,185;,
  4;185,193,194,186;,
  4;186,194,195,187;,
  4;187,195,196,188;,
  4;188,196,189,181;,
  3;189,197,190;,
  3;190,197,191;,
  3;191,197,192;,
  3;192,197,193;,
  3;193,197,194;,
  3;194,197,195;,
  3;195,197,196;,
  3;196,197,189;,
  4;198,199,149,150;,
  4;198,142,141,199;,
  4;198,200,143,142;,
  4;198,150,151,200;,
  4;199,201,156,149;,
  4;199,141,148,201;,
  4;200,202,144,143;,
  4;200,151,152,202;,
  4;201,203,155,156;,
  4;201,148,147,203;,
  4;202,204,145,144;,
  4;202,152,153,204;,
  4;203,205,154,155;,
  4;203,147,146,205;,
  4;204,205,146,145;,
  4;204,153,154,205;,
  3;222,215,214;,
  3;222,216,215;,
  3;222,217,216;,
  3;222,218,217;,
  3;222,219,218;,
  3;222,220,219;,
  3;222,221,220;,
  3;222,214,221;,
  4;223,217,218,224;,
  4;223,225,216,217;,
  4;224,218,219,226;,
  4;225,227,215,216;,
  4;226,219,220,228;,
  4;227,229,214,215;,
  4;228,220,221,230;,
  4;229,230,221,214;,
  4;231,232,227,225;,
  4;231,208,207,232;,
  4;231,233,209,208;,
  4;231,225,223,233;,
  4;232,234,229,227;,
  4;232,207,206,234;,
  4;233,235,210,209;,
  4;233,223,224,235;,
  4;234,236,230,229;,
  4;234,206,213,236;,
  4;235,237,211,210;,
  4;235,224,226,237;,
  4;236,238,228,230;,
  4;236,213,212,238;,
  4;237,238,212,211;,
  4;237,226,228,238;,
  4;239,206,207,240;,
  4;240,207,208,241;,
  4;241,208,209,242;,
  4;242,209,210,243;,
  4;243,210,211,244;,
  4;244,211,212,245;,
  4;245,212,213,246;,
  4;246,213,206,239;,
  4;247,239,240,248;,
  4;248,240,241,249;,
  4;249,241,242,250;,
  4;250,242,243,251;,
  4;251,243,244,252;,
  4;252,244,245,253;,
  4;253,245,246,254;,
  4;254,246,239,247;,
  4;255,247,248,256;,
  4;256,248,249,257;,
  4;257,249,250,258;,
  4;258,250,251,259;,
  4;259,251,252,260;,
  4;260,252,253,261;,
  4;261,253,254,262;,
  4;262,254,247,255;,
  4;263,255,256,264;,
  4;264,256,257,265;,
  4;265,257,258,266;,
  4;266,258,259,267;,
  4;267,259,260,268;,
  4;268,260,261,269;,
  4;269,261,262,270;,
  4;270,262,255,263;,
  4;272,263,264,273;,
  3;271,288,289;,
  4;273,264,265,274;,
  3;271,289,290;,
  4;274,265,266,275;,
  3;271,290,291;,
  4;275,266,267,276;,
  3;271,291,292;,
  4;276,267,268,277;,
  3;271,292,293;,
  4;277,268,269,278;,
  3;271,293,294;,
  4;278,269,270,279;,
  3;271,294,295;,
  4;279,270,263,272;,
  3;271,295,288;;
 }
 MeshTextureCoords {
  370;
  0.062500;0.000000;,
  0.125000;0.125000;,
  0.000000;0.125000;,
  0.187500;0.000000;,
  0.250000;0.125000;,
  0.312500;0.000000;,
  0.375000;0.125000;,
  0.437500;0.000000;,
  0.500000;0.125000;,
  0.562500;0.000000;,
  0.625000;0.125000;,
  0.687500;0.000000;,
  0.750000;0.125000;,
  0.812500;0.000000;,
  0.875000;0.125000;,
  0.937500;0.000000;,
  1.000000;0.125000;,
  0.000000;0.250000;,
  0.125000;0.250000;,
  0.125000;0.375000;,
  0.000000;0.375000;,
  0.250000;0.250000;,
  0.250000;0.375000;,
  0.375000;0.250000;,
  0.375000;0.375000;,
  0.500000;0.250000;,
  0.500000;0.375000;,
  0.625000;0.250000;,
  0.625000;0.375000;,
  0.750000;0.250000;,
  0.750000;0.375000;,
  0.875000;0.250000;,
  0.875000;0.375000;,
  1.000000;0.250000;,
  1.000000;0.375000;,
  0.125000;0.500000;,
  0.000000;0.500000;,
  0.250000;0.500000;,
  0.375000;0.500000;,
  0.500000;0.500000;,
  0.625000;0.500000;,
  0.750000;0.500000;,
  0.875000;0.500000;,
  1.000000;0.500000;,
  0.125000;0.625000;,
  0.000000;0.625000;,
  0.250000;0.625000;,
  0.375000;0.625000;,
  0.500000;0.625000;,
  0.625000;0.625000;,
  0.750000;0.625000;,
  0.875000;0.625000;,
  1.000000;0.625000;,
  0.125000;0.750000;,
  0.000000;0.750000;,
  0.250000;0.750000;,
  0.375000;0.750000;,
  0.500000;0.750000;,
  0.625000;0.750000;,
  0.750000;0.750000;,
  0.875000;0.750000;,
  1.000000;0.750000;,
  0.125000;0.875000;,
  0.000000;0.875000;,
  0.250000;0.875000;,
  0.375000;0.875000;,
  0.500000;0.875000;,
  0.625000;0.875000;,
  0.750000;0.875000;,
  0.875000;0.875000;,
  1.000000;0.875000;,
  0.062500;1.000000;,
  0.187500;1.000000;,
  0.312500;1.000000;,
  0.437500;1.000000;,
  0.562500;1.000000;,
  0.687500;1.000000;,
  0.812500;1.000000;,
  0.937500;1.000000;,
  0.125000;0.138810;,
  0.000000;0.138810;,
  0.250000;0.138810;,
  1.000000;0.138810;,
  0.875000;0.138810;,
  0.375000;0.138810;,
  0.750000;0.138810;,
  0.500000;0.138810;,
  0.625000;0.138810;,
  0.062500;1.000000;,
  0.000000;1.000000;,
  0.125000;1.000000;,
  0.187500;1.000000;,
  0.250000;1.000000;,
  0.312500;1.000000;,
  0.375000;1.000000;,
  0.437500;1.000000;,
  0.500000;1.000000;,
  0.562500;1.000000;,
  0.625000;1.000000;,
  0.687500;1.000000;,
  0.750000;1.000000;,
  0.812500;1.000000;,
  0.875000;1.000000;,
  0.937500;1.000000;,
  1.000000;1.000000;,
  0.375000;0.503700;,
  0.500000;0.503700;,
  0.250000;0.503700;,
  0.625000;0.503700;,
  0.125000;0.503700;,
  0.750000;0.503700;,
  0.000000;0.503700;,
  0.875000;0.503700;,
  1.000000;0.503700;,
  0.250000;0.149600;,
  0.125000;0.149600;,
  0.125000;0.000000;,
  0.250000;0.000000;,
  0.375000;0.000000;,
  0.375000;0.149600;,
  0.000000;0.149600;,
  0.000000;0.000000;,
  0.500000;0.000000;,
  0.500000;0.149600;,
  1.000000;0.149600;,
  0.875000;0.149600;,
  0.875000;0.000000;,
  1.000000;0.000000;,
  0.625000;0.000000;,
  0.625000;0.149600;,
  0.750000;0.149600;,
  0.750000;0.000000;,
  0.000000;0.000000;,
  0.125000;0.000000;,
  0.250000;0.000000;,
  0.375000;0.000000;,
  0.500000;0.000000;,
  0.625000;0.000000;,
  0.750000;0.000000;,
  0.875000;0.000000;,
  1.000000;0.000000;,
  0.000000;0.000000;,
  0.125000;0.000000;,
  0.250000;0.000000;,
  0.375000;0.000000;,
  0.500000;0.000000;,
  0.625000;0.000000;,
  0.750000;0.000000;,
  0.875000;0.000000;,
  1.000000;0.000000;,
  0.000000;0.000000;,
  0.125000;0.000000;,
  0.250000;0.000000;,
  0.375000;0.000000;,
  0.500000;0.000000;,
  0.625000;0.000000;,
  0.750000;0.000000;,
  0.875000;0.000000;,
  1.000000;0.000000;,
  0.000000;0.000000;,
  0.125000;0.000000;,
  0.250000;0.000000;,
  0.375000;0.000000;,
  0.500000;0.000000;,
  0.625000;0.000000;,
  0.750000;0.000000;,
  0.875000;0.000000;,
  1.000000;0.000000;,
  0.000000;0.000000;,
  0.125000;0.000000;,
  0.062500;0.000000;,
  0.250000;0.000000;,
  0.187500;0.000000;,
  0.375000;0.000000;,
  0.312500;0.000000;,
  0.500000;0.000000;,
  0.437500;0.000000;,
  0.625000;0.000000;,
  0.562500;0.000000;,
  0.750000;0.000000;,
  0.687500;0.000000;,
  0.875000;0.000000;,
  0.812500;0.000000;,
  1.000000;0.000000;,
  0.937500;0.000000;,
  0.062500;0.000000;,
  0.000000;0.125000;,
  0.125000;0.125000;,
  0.187500;0.000000;,
  0.250000;0.125000;,
  0.312500;0.000000;,
  0.375000;0.125000;,
  0.437500;0.000000;,
  0.500000;0.125000;,
  0.562500;0.000000;,
  0.625000;0.125000;,
  0.687500;0.000000;,
  0.750000;0.125000;,
  0.812500;0.000000;,
  0.875000;0.125000;,
  0.937500;0.000000;,
  1.000000;0.125000;,
  0.000000;0.250000;,
  0.000000;0.375000;,
  0.125000;0.375000;,
  0.125000;0.250000;,
  0.250000;0.375000;,
  0.250000;0.250000;,
  0.375000;0.375000;,
  0.375000;0.250000;,
  0.500000;0.375000;,
  0.500000;0.250000;,
  0.625000;0.375000;,
  0.625000;0.250000;,
  0.750000;0.375000;,
  0.750000;0.250000;,
  0.875000;0.375000;,
  0.875000;0.250000;,
  1.000000;0.375000;,
  1.000000;0.250000;,
  0.000000;0.500000;,
  0.125000;0.500000;,
  0.250000;0.500000;,
  0.375000;0.500000;,
  0.500000;0.500000;,
  0.625000;0.500000;,
  0.750000;0.500000;,
  0.875000;0.500000;,
  1.000000;0.500000;,
  0.000000;0.625000;,
  0.125000;0.625000;,
  0.250000;0.625000;,
  0.375000;0.625000;,
  0.500000;0.625000;,
  0.625000;0.625000;,
  0.750000;0.625000;,
  0.875000;0.625000;,
  1.000000;0.625000;,
  0.000000;0.750000;,
  0.125000;0.750000;,
  0.250000;0.750000;,
  0.375000;0.750000;,
  0.500000;0.750000;,
  0.625000;0.750000;,
  0.750000;0.750000;,
  0.875000;0.750000;,
  1.000000;0.750000;,
  0.000000;0.875000;,
  0.125000;0.875000;,
  0.250000;0.875000;,
  0.375000;0.875000;,
  0.500000;0.875000;,
  0.625000;0.875000;,
  0.750000;0.875000;,
  0.875000;0.875000;,
  1.000000;0.875000;,
  0.062500;1.000000;,
  0.187500;1.000000;,
  0.312500;1.000000;,
  0.437500;1.000000;,
  0.562500;1.000000;,
  0.687500;1.000000;,
  0.812500;1.000000;,
  0.937500;1.000000;,
  0.125000;0.138810;,
  0.000000;0.138810;,
  0.250000;0.138810;,
  1.000000;0.138810;,
  0.875000;0.138810;,
  0.375000;0.138810;,
  0.750000;0.138810;,
  0.500000;0.138810;,
  0.625000;0.138810;,
  0.062500;1.000000;,
  0.125000;1.000000;,
  0.000000;1.000000;,
  0.187500;1.000000;,
  0.250000;1.000000;,
  0.312500;1.000000;,
  0.375000;1.000000;,
  0.437500;1.000000;,
  0.500000;1.000000;,
  0.562500;1.000000;,
  0.625000;1.000000;,
  0.687500;1.000000;,
  0.750000;1.000000;,
  0.812500;1.000000;,
  0.875000;1.000000;,
  0.937500;1.000000;,
  1.000000;1.000000;,
  0.375000;0.503700;,
  0.500000;0.503700;,
  0.250000;0.503700;,
  0.625000;0.503700;,
  0.125000;0.503700;,
  0.750000;0.503700;,
  0.000000;0.503700;,
  0.875000;0.503700;,
  1.000000;0.503700;,
  0.250000;0.149600;,
  0.125000;0.149600;,
  0.250000;0.000000;,
  0.125000;0.000000;,
  0.375000;0.149600;,
  0.375000;0.000000;,
  0.000000;0.149600;,
  0.000000;0.000000;,
  0.500000;0.149600;,
  0.500000;0.000000;,
  1.000000;0.149600;,
  0.875000;0.149600;,
  1.000000;0.000000;,
  0.875000;0.000000;,
  0.625000;0.149600;,
  0.625000;0.000000;,
  0.750000;0.149600;,
  0.750000;0.000000;,
  0.000000;0.000000;,
  0.125000;0.000000;,
  0.250000;0.000000;,
  0.375000;0.000000;,
  0.500000;0.000000;,
  0.625000;0.000000;,
  0.750000;0.000000;,
  0.875000;0.000000;,
  1.000000;0.000000;,
  0.000000;0.000000;,
  0.125000;0.000000;,
  0.250000;0.000000;,
  0.375000;0.000000;,
  0.500000;0.000000;,
  0.625000;0.000000;,
  0.750000;0.000000;,
  0.875000;0.000000;,
  1.000000;0.000000;,
  0.000000;0.000000;,
  0.125000;0.000000;,
  0.250000;0.000000;,
  0.375000;0.000000;,
  0.500000;0.000000;,
  0.625000;0.000000;,
  0.750000;0.000000;,
  0.875000;0.000000;,
  1.000000;0.000000;,
  0.000000;0.000000;,
  0.125000;0.000000;,
  0.250000;0.000000;,
  0.375000;0.000000;,
  0.500000;0.000000;,
  0.625000;0.000000;,
  0.750000;0.000000;,
  0.875000;0.000000;,
  1.000000;0.000000;,
  0.000000;0.000000;,
  0.125000;0.000000;,
  0.062500;0.000000;,
  0.250000;0.000000;,
  0.187500;0.000000;,
  0.375000;0.000000;,
  0.312500;0.000000;,
  0.500000;0.000000;,
  0.437500;0.000000;,
  0.625000;0.000000;,
  0.562500;0.000000;,
  0.750000;0.000000;,
  0.687500;0.000000;,
  0.875000;0.000000;,
  0.812500;0.000000;,
  1.000000;0.000000;,
  0.937500;0.000000;;
 }
}
