xof 0302txt 0064
template Header {
 <3D82AB43-62DA-11cf-AB39-0020AF71E433>
 WORD major;
 WORD minor;
 DWORD flags;
}

template Vector {
 <3D82AB5E-62DA-11cf-AB39-0020AF71E433>
 FLOAT x;
 FLOAT y;
 FLOAT z;
}

template Coords2d {
 <F6F23F44-7686-11cf-8F52-0040333594A3>
 FLOAT u;
 FLOAT v;
}

template Matrix4x4 {
 <F6F23F45-7686-11cf-8F52-0040333594A3>
 array FLOAT matrix[16];
}

template ColorRGBA {
 <35FF44E0-6C7C-11cf-8F52-0040333594A3>
 FLOAT red;
 FLOAT green;
 FLOAT blue;
 FLOAT alpha;
}

template ColorRGB {
 <D3E16E81-7835-11cf-8F52-0040333594A3>
 FLOAT red;
 FLOAT green;
 FLOAT blue;
}

template IndexedColor {
 <1630B820-7842-11cf-8F52-0040333594A3>
 DWORD index;
 ColorRGBA indexColor;
}

template Boolean {
 <4885AE61-78E8-11cf-8F52-0040333594A3>
 WORD truefalse;
}

template Boolean2d {
 <4885AE63-78E8-11cf-8F52-0040333594A3>
 Boolean u;
 Boolean v;
}

template MaterialWrap {
 <4885AE60-78E8-11cf-8F52-0040333594A3>
 Boolean u;
 Boolean v;
}

template TextureFilename {
 <A42790E1-7810-11cf-8F52-0040333594A3>
 STRING filename;
}

template Material {
 <3D82AB4D-62DA-11cf-AB39-0020AF71E433>
 ColorRGBA faceColor;
 FLOAT power;
 ColorRGB specularColor;
 ColorRGB emissiveColor;
 [...]
}

template MeshFace {
 <3D82AB5F-62DA-11cf-AB39-0020AF71E433>
 DWORD nFaceVertexIndices;
 array DWORD faceVertexIndices[nFaceVertexIndices];
}

template MeshFaceWraps {
 <4885AE62-78E8-11cf-8F52-0040333594A3>
 DWORD nFaceWrapValues;
 Boolean2d faceWrapValues;
}

template MeshTextureCoords {
 <F6F23F40-7686-11cf-8F52-0040333594A3>
 DWORD nTextureCoords;
 array Coords2d textureCoords[nTextureCoords];
}

template MeshMaterialList {
 <F6F23F42-7686-11cf-8F52-0040333594A3>
 DWORD nMaterials;
 DWORD nFaceIndexes;
 array DWORD faceIndexes[nFaceIndexes];
 [Material]
}

template MeshNormals {
 <F6F23F43-7686-11cf-8F52-0040333594A3>
 DWORD nNormals;
 array Vector normals[nNormals];
 DWORD nFaceNormals;
 array MeshFace faceNormals[nFaceNormals];
}

template MeshVertexColors {
 <1630B821-7842-11cf-8F52-0040333594A3>
 DWORD nVertexColors;
 array IndexedColor vertexColors[nVertexColors];
}

template Mesh {
 <3D82AB44-62DA-11cf-AB39-0020AF71E433>
 DWORD nVertices;
 array Vector vertices[nVertices];
 DWORD nFaces;
 array MeshFace faces[nFaces];
 [...]
}

Header{
1;
0;
1;
}

Mesh {
 147;
 -12.11082;0.55941;7.76717;,
 -12.03642;3.50762;6.57455;,
 -30.12918;3.98123;6.61676;,
 -30.20354;1.03298;7.80938;,
 -12.01077;4.74946;3.64587;,
 -30.10351;5.22304;3.68807;,
 -12.04882;3.55741;0.69670;,
 -30.14159;4.03100;0.73891;,
 -12.12840;0.62976;-0.54535;,
 -30.22111;1.10339;-0.50314;,
 -12.20279;-2.31845;0.64727;,
 -30.29548;-1.84485;0.68948;,
 -12.22843;-3.56025;3.57596;,
 -30.32119;-3.08662;3.61817;,
 -12.19038;-2.36821;6.52513;,
 -30.28308;-1.89463;6.56734;,
 -12.11082;0.55941;7.76717;,
 -30.20354;1.03298;7.80938;,
 -12.11958;0.59457;3.61091;,
 -12.11958;0.59457;3.61091;,
 -12.11958;0.59457;3.61091;,
 -12.11958;0.59457;3.61091;,
 -12.11958;0.59457;3.61091;,
 -12.11958;0.59457;3.61091;,
 -12.11958;0.59457;3.61091;,
 -12.11958;0.59457;3.61091;,
 -30.21233;1.06819;3.65312;,
 -30.21233;1.06819;3.65312;,
 -30.21233;1.06819;3.65312;,
 -30.21233;1.06819;3.65312;,
 -30.21233;1.06819;3.65312;,
 -30.21233;1.06819;3.65312;,
 -30.21233;1.06819;3.65312;,
 -30.21233;1.06819;3.65312;,
 1.74527;-0.27840;3.57424;,
 0.08685;4.51353;6.37251;,
 -0.03222;-0.27819;9.08639;,
 1.74527;-0.27840;3.57424;,
 0.07523;4.56016;0.86456;,
 1.74527;-0.27840;3.57424;,
 -0.05548;-0.18491;-1.92955;,
 1.74527;-0.27840;3.57424;,
 -0.17457;-4.97665;0.78434;,
 1.74527;-0.27840;3.57424;,
 -0.16294;-5.02330;6.29228;,
 1.74527;-0.27840;3.57424;,
 -0.03222;-0.27819;9.08639;,
 -4.51624;7.56875;8.11028;,
 -4.70894;-0.18442;12.50141;,
 -4.53506;7.64422;-0.80178;,
 -4.74657;-0.03347;-5.32271;,
 -4.93926;-7.78666;-0.93158;,
 -4.92043;-7.86210;7.98047;,
 -4.70894;-0.18442;12.50141;,
 -10.30585;7.72031;8.12379;,
 -10.49856;-0.03286;12.51492;,
 -10.32466;7.79577;-0.78827;,
 -10.53618;0.11806;-5.30921;,
 -10.72890;-7.63510;-0.91808;,
 -10.71008;-7.71055;7.99398;,
 -10.49856;-0.03286;12.51492;,
 -12.48501;4.84259;6.40184;,
 -12.60404;0.05089;9.11572;,
 -12.49664;4.88922;0.89389;,
 -12.62732;0.14418;-1.90021;,
 -12.74642;-4.64756;0.81366;,
 -12.73477;-4.69420;6.32161;,
 -12.60404;0.05089;9.11572;,
 -16.99039;0.21204;3.61796;,
 -16.99039;0.21204;3.61796;,
 -16.99039;0.21204;3.61796;,
 -16.99039;0.21204;3.61796;,
 -16.99039;0.21204;3.61796;,
 -16.99039;0.21204;3.61796;,
 -32.58268;-3.28560;7.90344;,
 -32.60219;-3.20743;-1.32695;,
 -26.79471;-3.35946;-1.34050;,
 -26.77522;-3.43761;7.88989;,
 -32.88917;5.28048;9.16689;,
 -26.54841;5.11445;9.15210;,
 -26.57293;5.21276;-2.45862;,
 -32.91366;5.37877;-2.44383;,
 -33.05888;-1.19876;9.11238;,
 -32.58268;-3.28560;7.90344;,
 -26.77522;-3.43761;7.88989;,
 -26.71812;-1.36472;9.09759;,
 -26.54841;5.11445;9.15210;,
 -32.88917;5.28048;9.16689;,
 -39.70738;2.65686;8.08536;,
 -39.63432;5.44592;8.10883;,
 -39.65551;5.53086;-1.91961;,
 -39.72861;2.74178;-1.94307;,
 -26.71812;-1.36472;9.09759;,
 -26.77522;-3.43761;7.88989;,
 -26.74264;-1.26640;-2.51312;,
 -26.54841;5.11445;9.15210;,
 -26.74264;-1.26640;-2.51312;,
 -26.79471;-3.35946;-1.34050;,
 -32.60219;-3.20743;-1.32695;,
 -33.08339;-1.10044;-2.49834;,
 -32.91366;5.37877;-2.44383;,
 -26.57293;5.21276;-2.45862;,
 -34.78466;0.66973;9.13184;,
 -33.18351;5.28813;9.16758;,
 -34.78466;0.66973;9.13184;,
 -34.80916;0.76805;-2.47888;,
 -33.18351;5.28813;9.16758;,
 -33.20799;5.38646;-2.44314;,
 -33.20799;5.38646;-2.44314;,
 -34.80916;0.76805;-2.47888;,
 -34.78466;0.66973;9.13184;,
 -34.80916;0.76805;-2.47888;,
 -35.68388;5.40449;-2.43776;,
 -35.28536;1.74910;-2.46955;,
 -39.72861;2.74178;-1.94307;,
 -39.65551;5.53086;-1.91961;,
 -35.68388;5.40449;-2.43776;,
 -39.63432;5.44592;8.10883;,
 -35.65939;5.30617;9.17296;,
 -35.28536;1.74910;-2.46955;,
 -35.26086;1.65079;9.14116;,
 -39.70738;2.65686;8.08536;,
 -39.72861;2.74178;-1.94307;,
 -35.65939;5.30617;9.17296;,
 -39.63432;5.44592;8.10883;,
 -39.70738;2.65686;8.08536;,
 -35.26086;1.65079;9.14116;,
 -27.75206;-1.84444;-1.70704;,
 -27.65740;1.76838;-1.67665;,
 -37.35679;2.02228;-1.65402;,
 -37.45139;-1.59059;-1.68441;,
 -27.65740;1.76838;-1.67665;,
 -28.88480;1.47868;-3.49436;,
 -35.88101;2.41470;-4.37380;,
 -37.35679;2.02228;-1.65402;,
 -28.88480;1.47868;-3.49436;,
 -28.97948;-2.13413;-3.52475;,
 -35.97564;-1.19816;-4.40419;,
 -35.88101;2.41470;-4.37380;,
 -28.97948;-2.13413;-3.52475;,
 -27.75206;-1.84444;-1.70704;,
 -37.45139;-1.59059;-1.68441;,
 -35.97564;-1.19816;-4.40419;,
 -27.65740;1.76838;-1.67665;,
 -27.75206;-1.84444;-1.70704;,
 -37.45139;-1.59059;-1.68441;,
 -37.35679;2.02228;-1.65402;;
 
 83;
 4;0,1,2,3;,
 4;1,4,5,2;,
 4;4,6,7,5;,
 4;6,8,9,7;,
 4;8,10,11,9;,
 4;10,12,13,11;,
 4;12,14,15,13;,
 4;14,16,17,15;,
 3;18,1,0;,
 3;19,4,1;,
 3;20,6,4;,
 3;21,8,6;,
 3;22,10,8;,
 3;23,12,10;,
 3;24,14,12;,
 3;25,16,14;,
 3;26,3,2;,
 3;27,2,5;,
 3;28,5,7;,
 3;29,7,9;,
 3;30,9,11;,
 3;31,11,13;,
 3;32,13,15;,
 3;33,15,17;,
 3;34,35,36;,
 3;37,38,35;,
 3;39,40,38;,
 3;41,42,40;,
 3;43,44,42;,
 3;45,46,44;,
 4;36,35,47,48;,
 4;35,38,49,47;,
 4;38,40,50,49;,
 4;40,42,51,50;,
 4;42,44,52,51;,
 4;44,46,53,52;,
 4;48,47,54,55;,
 4;47,49,56,54;,
 4;49,50,57,56;,
 4;50,51,58,57;,
 4;51,52,59,58;,
 4;52,53,60,59;,
 4;55,54,61,62;,
 4;54,56,63,61;,
 4;56,57,64,63;,
 4;57,58,65,64;,
 4;58,59,66,65;,
 4;59,60,67,66;,
 3;62,61,68;,
 3;61,63,69;,
 3;63,64,70;,
 3;64,65,71;,
 3;65,66,72;,
 3;66,67,73;,
 4;74,75,76,77;,
 4;78,79,80,81;,
 4;82,83,84,85;,
 4;82,85,86,87;,
 4;88,89,90,91;,
 4;92,93,76,94;,
 4;92,94,80,95;,
 4;96,97,98,99;,
 4;96,99,100,101;,
 4;102,82,87,103;,
 4;104,105,75,74;,
 4;106,78,81,107;,
 4;108,100,99,109;,
 3;110,83,82;,
 3;111,99,98;,
 4;112,108,109,113;,
 4;112,113,114,115;,
 4;116,90,117,118;,
 4;116,118,106,107;,
 4;119,105,104,120;,
 4;119,120,121,122;,
 4;123,124,125,126;,
 4;123,126,102,103;,
 4;127,128,129,130;,
 4;131,132,133,134;,
 4;135,136,137,138;,
 4;139,140,141,142;,
 4;139,132,143,144;,
 4;145,146,133,142;;
 
 MeshMaterialList {
  5;
  83;
  4,
  4,
  4,
  4,
  4,
  4,
  4,
  4,
  4,
  4,
  4,
  4,
  4,
  4,
  4,
  4,
  4,
  4,
  4,
  4,
  4,
  4,
  4,
  4,
  0,
  0,
  0,
  0,
  0,
  0,
  0,
  0,
  0,
  0,
  0,
  0,
  0,
  0,
  0,
  0,
  0,
  0,
  0,
  0,
  0,
  0,
  0,
  0,
  0,
  0,
  0,
  0,
  0,
  0,
  1,
  1,
  1,
  1,
  1,
  1,
  1,
  1,
  1,
  1,
  1,
  1,
  1,
  1,
  1,
  1,
  1,
  1,
  1,
  1,
  1,
  1,
  1,
  1,
  1,
  1,
  1,
  1,
  1;;
  Material {
   0.310400;0.088000;0.094400;1.000000;;
   5.000000;
   0.000000;0.000000;0.000000;;
   0.000000;0.000000;0.000000;;
  }
  Material {
   0.598530;0.000000;0.047570;1.000000;;
   62.000000;
   0.480000;0.480000;0.480000;;
   0.000000;0.000000;0.000000;;
  }
  Material {
   0.122400;0.524000;0.341600;1.000000;;
   5.000000;
   0.000000;0.000000;0.000000;;
   0.000000;0.000000;0.000000;;
  }
  Material {
   0.800000;0.605600;0.401600;1.000000;;
   5.000000;
   0.000000;0.000000;0.000000;;
   0.000000;0.000000;0.000000;;
  }
  Material {
   0.599200;0.674400;0.480000;1.000000;;
   5.000000;
   0.000000;0.000000;0.000000;;
   0.000000;0.000000;0.000000;;
  }
 }
 MeshNormals {
  98;
  0.999655;-0.026170;-0.002333;,
  0.002111;-0.008467;0.999962;,
  0.020008;0.700850;0.713028;,
  0.026185;0.999622;0.008410;,
  0.017023;0.712825;-0.701135;,
  -0.002111;0.008465;-0.999962;,
  -0.020010;-0.700854;-0.713024;,
  -0.026187;-0.999622;-0.008410;,
  -0.017024;-0.712828;0.701132;,
  -0.999655;0.026165;0.002333;,
  0.999655;-0.026165;-0.002333;,
  0.817800;-0.026257;0.574903;,
  0.830271;0.475547;0.290699;,
  0.829053;0.480431;-0.286108;,
  0.815364;-0.016489;-0.578713;,
  0.802891;-0.518295;-0.294510;,
  0.804109;-0.523179;0.282298;,
  0.317880;-0.016302;0.947991;,
  0.338395;0.809058;0.480536;,
  0.336391;0.817092;-0.468190;,
  0.313874;-0.000234;-0.949464;,
  0.293359;-0.825595;-0.482009;,
  0.295361;-0.833628;0.466718;,
  -0.636876;0.208100;0.742350;,
  -0.628289;0.553452;0.546757;,
  -0.624674;0.757224;-0.190771;,
  -0.639995;0.220619;-0.736026;,
  -0.658928;-0.519756;-0.543753;,
  -0.662542;-0.723526;0.193773;,
  -0.817318;0.016563;0.575949;,
  -0.804906;0.515958;0.293111;,
  -0.806116;0.520820;-0.280931;,
  -0.819741;0.026286;-0.572131;,
  -0.832154;-0.473108;-0.289289;,
  -0.830942;-0.477968;0.284749;,
  -0.839140;0.543877;0.006378;,
  -0.026185;-0.999622;-0.008409;,
  -0.999655;0.026173;0.002336;,
  0.026193;0.999622;0.008408;,
  -0.566776;-0.782768;0.256981;,
  0.026129;0.999623;0.008408;,
  -0.567884;-0.778323;-0.267807;,
  -0.148343;-0.277035;0.949340;,
  -0.004678;-0.264668;0.964328;,
  0.999655;-0.026171;-0.002333;,
  -0.152361;-0.260918;-0.953262;,
  -0.195062;-0.190191;0.962174;,
  0.002113;-0.008471;0.999962;,
  -0.827681;-0.506775;-0.241088;,
  0.016685;0.999825;0.008431;,
  -0.063086;0.006099;-0.997989;,
  0.020100;0.999763;0.008424;,
  -0.620832;-0.783925;-0.005328;,
  0.002111;-0.008466;0.999962;,
  0.066655;0.997702;0.012144;,
  0.524714;-0.006588;-0.851253;,
  0.125386;0.005061;-0.992095;,
  0.999655;-0.026165;-0.002334;,
  0.999655;-0.026175;-0.002328;,
  0.999655;-0.026159;-0.002331;,
  0.999655;-0.026170;-0.002332;,
  0.999655;-0.026176;-0.002343;,
  0.999655;-0.026171;-0.002343;,
  0.999655;-0.026171;-0.002332;,
  0.999655;-0.026174;-0.002324;,
  -0.999655;0.026163;0.002336;,
  -0.999655;0.026160;0.002333;,
  -0.999655;0.026162;0.002332;,
  -0.999655;0.026162;0.002333;,
  -0.999655;0.026162;0.002333;,
  -0.999655;0.026168;0.002328;,
  -0.999655;0.026173;0.002331;,
  -0.999655;0.026171;0.002338;,
  0.026187;0.999622;0.008410;,
  0.011264;0.507144;-0.861788;,
  -0.014921;-0.492478;-0.870197;,
  -0.026187;-0.999622;-0.008407;,
  -0.011265;-0.507145;0.861787;,
  -0.866463;-0.499236;-0.002396;,
  -0.011154;-0.503148;0.864128;,
  0.002111;-0.008468;0.999962;,
  0.002116;-0.008470;0.999962;,
  0.999655;-0.026178;-0.002333;,
  0.999655;-0.026164;-0.002332;,
  -0.008758;-0.248296;-0.968645;,
  -0.014820;-0.488436;-0.872474;,
  -0.002112;0.008469;-0.999962;,
  -0.002111;0.008468;-0.999962;,
  -0.887167;-0.461444;-0.002035;,
  -0.002121;0.008467;-0.999962;,
  -0.123808;0.003711;-0.992299;,
  0.032893;0.999424;0.008395;,
  -0.218911;-0.975714;-0.007799;,
  -0.124191;-0.013286;0.992169;,
  -0.248496;-0.017889;0.968468;,
  -0.066649;-0.997703;-0.012145;,
  0.829890;-0.017055;-0.557667;,
  -0.880255;0.027036;-0.473730;;
  83;
  4;1,2,2,1;,
  4;2,3,3,2;,
  4;3,4,4,3;,
  4;4,5,5,4;,
  4;5,6,6,5;,
  4;6,7,7,6;,
  4;7,8,8,7;,
  4;8,1,1,8;,
  3;0,57,58;,
  3;0,59,57;,
  3;0,60,59;,
  3;0,61,60;,
  3;0,62,61;,
  3;0,63,62;,
  3;0,64,63;,
  3;0,58,64;,
  3;9,65,66;,
  3;9,66,67;,
  3;9,67,68;,
  3;9,68,69;,
  3;9,69,70;,
  3;9,70,71;,
  3;9,71,72;,
  3;9,72,65;,
  3;10,12,11;,
  3;10,13,12;,
  3;10,14,13;,
  3;10,15,14;,
  3;10,16,15;,
  3;10,11,16;,
  4;11,12,18,17;,
  4;12,13,19,18;,
  4;13,14,20,19;,
  4;14,15,21,20;,
  4;15,16,22,21;,
  4;16,11,17,22;,
  4;17,18,24,23;,
  4;18,19,25,73;,
  4;19,20,26,74;,
  4;20,21,27,75;,
  4;21,22,28,76;,
  4;22,17,77,77;,
  4;23,24,30,29;,
  4;24,25,31,30;,
  4;25,26,32,31;,
  4;26,27,33,32;,
  4;27,28,34,33;,
  4;28,23,29,34;,
  3;29,30,35;,
  3;30,31,35;,
  3;31,32,35;,
  3;32,33,78;,
  3;33,34,78;,
  3;34,29,78;,
  4;39,41,36,36;,
  4;40,38,38,40;,
  4;42,79,79,43;,
  4;42,43,80,81;,
  4;37,37,37,37;,
  4;44,82,82,44;,
  4;44,44,83,83;,
  4;84,85,85,45;,
  4;84,45,86,87;,
  4;46,42,81,47;,
  4;88,48,41,39;,
  4;49,40,40,49;,
  4;89,86,45,89;,
  3;46,39,42;,
  3;48,45,41;,
  4;50,89,89,50;,
  4;50,50,90,90;,
  4;51,91,91,51;,
  4;51,51,49,49;,
  4;52,48,88,52;,
  4;52,52,92,92;,
  4;93,94,94,93;,
  4;93,93,46,47;,
  4;53,53,53,53;,
  4;54,54,54,54;,
  4;55,55,56,56;,
  4;95,95,95,95;,
  4;55,55,96,96;,
  4;97,97,97,97;;
 }
 MeshTextureCoords {
  147;
  0.000000;0.000000;,
  0.125000;0.000000;,
  0.125000;1.000000;,
  0.000000;1.000000;,
  0.250000;0.000000;,
  0.250000;1.000000;,
  0.375000;0.000000;,
  0.375000;1.000000;,
  0.500000;0.000000;,
  0.500000;1.000000;,
  0.625000;0.000000;,
  0.625000;1.000000;,
  0.750000;0.000000;,
  0.750000;1.000000;,
  0.875000;0.000000;,
  0.875000;1.000000;,
  1.000000;0.000000;,
  1.000000;1.000000;,
  0.062500;0.000000;,
  0.187500;0.000000;,
  0.312500;0.000000;,
  0.437500;0.000000;,
  0.562500;0.000000;,
  0.687500;0.000000;,
  0.812500;0.000000;,
  0.937500;0.000000;,
  0.062500;1.000000;,
  0.187500;1.000000;,
  0.312500;1.000000;,
  0.437500;1.000000;,
  0.562500;1.000000;,
  0.687500;1.000000;,
  0.812500;1.000000;,
  0.937500;1.000000;,
  0.083330;0.000000;,
  0.166670;0.200000;,
  0.000000;0.200000;,
  0.250000;0.000000;,
  0.333330;0.200000;,
  0.416670;0.000000;,
  0.500000;0.200000;,
  0.583330;0.000000;,
  0.666670;0.200000;,
  0.750000;0.000000;,
  0.833330;0.200000;,
  0.916670;0.000000;,
  1.000000;0.200000;,
  0.166670;0.400000;,
  0.000000;0.400000;,
  0.333330;0.400000;,
  0.500000;0.400000;,
  0.666670;0.400000;,
  0.833330;0.400000;,
  1.000000;0.400000;,
  0.166670;0.600000;,
  0.000000;0.600000;,
  0.333330;0.600000;,
  0.500000;0.600000;,
  0.666670;0.600000;,
  0.833330;0.600000;,
  1.000000;0.600000;,
  0.166670;0.800000;,
  0.000000;0.800000;,
  0.333330;0.800000;,
  0.500000;0.800000;,
  0.666670;0.800000;,
  0.833330;0.800000;,
  1.000000;0.800000;,
  0.083330;1.000000;,
  0.250000;1.000000;,
  0.416670;1.000000;,
  0.583330;1.000000;,
  0.750000;1.000000;,
  0.916670;1.000000;,
  1.000000;0.484650;,
  0.000000;0.484650;,
  0.000000;0.000000;,
  1.000000;0.000000;,
  0.000000;0.484650;,
  0.000000;0.000000;,
  1.000000;0.000000;,
  1.000000;0.484650;,
  0.243280;0.484650;,
  0.000000;0.484650;,
  0.000000;0.000000;,
  0.243280;0.000000;,
  1.000000;0.000000;,
  1.000000;0.484650;,
  0.243280;0.000000;,
  1.000000;0.000000;,
  1.000000;1.000000;,
  0.243280;1.000000;,
  0.243280;1.000000;,
  0.000000;1.000000;,
  0.243280;0.000000;,
  1.000000;1.000000;,
  0.756720;0.000000;,
  1.000000;0.000000;,
  1.000000;0.484650;,
  0.756720;0.484650;,
  0.000000;0.484650;,
  0.000000;0.000000;,
  0.243280;0.507150;,
  1.000000;0.507150;,
  1.000000;0.507150;,
  0.000000;0.507150;,
  0.000000;0.507150;,
  1.000000;0.507150;,
  0.000000;0.507150;,
  0.756720;0.507150;,
  0.121640;0.507150;,
  0.878360;0.507150;,
  0.000000;0.696300;,
  0.756720;0.696300;,
  0.756720;1.000000;,
  0.000000;1.000000;,
  1.000000;0.696300;,
  0.000000;1.000000;,
  0.000000;0.696300;,
  0.000000;0.696300;,
  1.000000;0.696300;,
  1.000000;1.000000;,
  0.000000;1.000000;,
  1.000000;0.696300;,
  1.000000;1.000000;,
  0.243280;1.000000;,
  0.243280;0.696300;,
  0.000000;0.000000;,
  1.000000;0.000000;,
  1.000000;1.000000;,
  0.000000;1.000000;,
  0.000000;0.000000;,
  1.000000;0.000000;,
  1.000000;1.000000;,
  0.000000;1.000000;,
  0.000000;0.000000;,
  1.000000;0.000000;,
  1.000000;1.000000;,
  0.000000;1.000000;,
  0.000000;0.000000;,
  1.000000;0.000000;,
  1.000000;1.000000;,
  0.000000;1.000000;,
  1.000000;1.000000;,
  0.000000;1.000000;,
  0.000000;0.000000;,
  1.000000;0.000000;;
 }
}
