xof 0302txt 0064
template Header {
 <3D82AB43-62DA-11cf-AB39-0020AF71E433>
 WORD major;
 WORD minor;
 DWORD flags;
}

template Vector {
 <3D82AB5E-62DA-11cf-AB39-0020AF71E433>
 FLOAT x;
 FLOAT y;
 FLOAT z;
}

template Coords2d {
 <F6F23F44-7686-11cf-8F52-0040333594A3>
 FLOAT u;
 FLOAT v;
}

template Matrix4x4 {
 <F6F23F45-7686-11cf-8F52-0040333594A3>
 array FLOAT matrix[16];
}

template ColorRGBA {
 <35FF44E0-6C7C-11cf-8F52-0040333594A3>
 FLOAT red;
 FLOAT green;
 FLOAT blue;
 FLOAT alpha;
}

template ColorRGB {
 <D3E16E81-7835-11cf-8F52-0040333594A3>
 FLOAT red;
 FLOAT green;
 FLOAT blue;
}

template IndexedColor {
 <1630B820-7842-11cf-8F52-0040333594A3>
 DWORD index;
 ColorRGBA indexColor;
}

template Boolean {
 <4885AE61-78E8-11cf-8F52-0040333594A3>
 WORD truefalse;
}

template Boolean2d {
 <4885AE63-78E8-11cf-8F52-0040333594A3>
 Boolean u;
 Boolean v;
}

template MaterialWrap {
 <4885AE60-78E8-11cf-8F52-0040333594A3>
 Boolean u;
 Boolean v;
}

template TextureFilename {
 <A42790E1-7810-11cf-8F52-0040333594A3>
 STRING filename;
}

template Material {
 <3D82AB4D-62DA-11cf-AB39-0020AF71E433>
 ColorRGBA faceColor;
 FLOAT power;
 ColorRGB specularColor;
 ColorRGB emissiveColor;
 [...]
}

template MeshFace {
 <3D82AB5F-62DA-11cf-AB39-0020AF71E433>
 DWORD nFaceVertexIndices;
 array DWORD faceVertexIndices[nFaceVertexIndices];
}

template MeshFaceWraps {
 <4885AE62-78E8-11cf-8F52-0040333594A3>
 DWORD nFaceWrapValues;
 Boolean2d faceWrapValues;
}

template MeshTextureCoords {
 <F6F23F40-7686-11cf-8F52-0040333594A3>
 DWORD nTextureCoords;
 array Coords2d textureCoords[nTextureCoords];
}

template MeshMaterialList {
 <F6F23F42-7686-11cf-8F52-0040333594A3>
 DWORD nMaterials;
 DWORD nFaceIndexes;
 array DWORD faceIndexes[nFaceIndexes];
 [Material]
}

template MeshNormals {
 <F6F23F43-7686-11cf-8F52-0040333594A3>
 DWORD nNormals;
 array Vector normals[nNormals];
 DWORD nFaceNormals;
 array MeshFace faceNormals[nFaceNormals];
}

template MeshVertexColors {
 <1630B821-7842-11cf-8F52-0040333594A3>
 DWORD nVertexColors;
 array IndexedColor vertexColors[nVertexColors];
}

template Mesh {
 <3D82AB44-62DA-11cf-AB39-0020AF71E433>
 DWORD nVertices;
 array Vector vertices[nVertices];
 DWORD nFaces;
 array MeshFace faces[nFaces];
 [...]
}

Header{
1;
0;
1;
}

Mesh {
 90;
 -0.03592;0.06323;5.70786;,
 -0.03592;-22.58985;5.70786;,
 3.97348;-22.58985;4.00599;,
 3.97348;0.06323;4.00599;,
 5.60512;-22.58985;-0.03250;,
 5.60512;0.06323;-0.03250;,
 3.90324;-22.58985;-4.04190;,
 3.90324;0.06323;-4.04190;,
 -0.13524;-22.58985;-5.67354;,
 -0.13524;0.06323;-5.67354;,
 -4.14463;-22.58985;-3.97167;,
 -4.14463;0.06323;-3.97167;,
 -5.77627;-22.58985;0.06682;,
 -5.77627;0.06323;0.06682;,
 -4.07439;-22.58985;4.07622;,
 -4.07439;0.06323;4.07622;,
 -0.03592;-22.58985;5.70786;,
 -0.03592;0.06323;5.70786;,
 -0.08559;0.06323;0.01716;,
 -0.08559;0.06323;0.01716;,
 -0.08559;0.06323;0.01716;,
 -0.08559;0.06323;0.01716;,
 -0.08559;0.06323;0.01716;,
 -0.08559;0.06323;0.01716;,
 -0.08559;0.06323;0.01716;,
 -0.08559;0.06323;0.01716;,
 -0.08559;-22.58985;0.01716;,
 -0.08559;-22.58985;0.01716;,
 -0.08559;-22.58985;0.01716;,
 -0.08559;-22.58985;0.01716;,
 -0.08559;-22.58985;0.01716;,
 -0.08559;-22.58985;0.01716;,
 -0.08559;-22.58985;0.01716;,
 -0.08559;-22.58985;0.01716;,
 0.09194;-17.48528;6.61754;,
 -0.03362;-17.48528;-7.77047;,
 -6.19628;-17.48528;-4.47117;,
 -5.75987;-17.48528;4.70567;,
 5.79310;-17.48528;4.60485;,
 6.06923;-17.48528;-4.57821;,
 0.09194;-29.07541;6.61754;,
 -0.03362;-29.07541;-7.77047;,
 7.10214;-29.07541;-7.83274;,
 7.22771;-29.07541;6.55527;,
 -7.16026;-29.07541;6.68084;,
 -7.28582;-29.07541;-7.70718;,
 -0.05525;-20.48975;-10.24953;,
 -7.28582;-20.48975;-7.70718;,
 -6.19628;-17.48528;-4.47117;,
 -0.03362;-17.48528;-7.77047;,
 6.06923;-17.48528;-4.57821;,
 7.10214;-20.48975;-7.83274;,
 -7.28582;-20.48975;-7.70718;,
 -7.16026;-20.48975;6.68084;,
 -5.75987;-17.48528;4.70567;,
 -7.16026;-29.07541;6.68084;,
 7.10214;-20.48975;-7.83274;,
 7.22771;-20.48975;6.55527;,
 7.22771;-29.07541;6.55527;,
 5.79310;-17.48528;4.60485;,
 -7.16026;-20.48975;6.68084;,
 0.09194;-20.48975;6.61754;,
 0.09194;-17.48528;6.61754;,
 -5.75987;-17.48528;4.70567;,
 -7.16026;-29.07541;6.68084;,
 0.09194;-29.07541;6.61754;,
 7.22771;-20.48975;6.55527;,
 7.22771;-29.07541;6.55527;,
 5.79310;-17.48528;4.60485;,
 -0.22102;-25.54027;-29.24397;,
 -0.22102;-29.07541;-29.24397;,
 -5.53346;-29.07541;-29.19761;,
 -5.53346;-25.54027;-29.19761;,
 4.97497;-25.54027;-29.28931;,
 4.97497;-29.07541;-29.28931;,
 -0.14714;-23.07781;-20.77866;,
 -5.74518;-23.81515;-19.50034;,
 5.35590;-23.81515;-19.59720;,
 -7.36521;-29.07541;-16.80533;,
 7.02275;-29.07541;-16.93089;,
 -0.11301;-29.07541;-16.86862;,
 -7.30574;-27.93416;-9.98929;,
 -0.04007;-27.93416;-8.50938;,
 -0.03362;-29.07541;-7.77047;,
 -7.28582;-29.07541;-7.70718;,
 7.08223;-27.93416;-10.11485;,
 7.10214;-29.07541;-7.83274;,
 -7.35992;-27.93416;-16.19817;,
 -0.10772;-27.93416;-16.26146;,
 7.02805;-27.93416;-16.32373;;
 
 60;
 4;0,1,2,3;,
 4;3,2,4,5;,
 4;5,4,6,7;,
 4;7,6,8,9;,
 4;9,8,10,11;,
 4;11,10,12,13;,
 4;13,12,14,15;,
 4;15,14,16,17;,
 3;18,0,3;,
 3;19,3,5;,
 3;20,5,7;,
 3;21,7,9;,
 3;22,9,11;,
 3;23,11,13;,
 3;24,13,15;,
 3;25,15,17;,
 3;26,2,1;,
 3;27,4,2;,
 3;28,6,4;,
 3;29,8,6;,
 3;30,10,8;,
 3;31,12,10;,
 3;32,14,12;,
 3;33,16,14;,
 4;34,35,36,37;,
 4;34,38,39,35;,
 4;40,41,42,43;,
 4;40,44,45,41;,
 4;46,47,48,49;,
 4;46,49,50,51;,
 4;52,53,54,36;,
 4;52,45,55,53;,
 4;56,57,58,42;,
 4;56,39,59,57;,
 4;60,61,62,63;,
 4;60,64,65,61;,
 4;66,61,65,67;,
 4;66,68,62,61;,
 4;69,70,71,72;,
 4;69,73,74,70;,
 4;75,69,72,76;,
 4;75,77,73,69;,
 4;76,72,71,78;,
 4;77,79,74,73;,
 4;78,71,70,80;,
 4;79,80,70,74;,
 4;81,82,83,84;,
 4;82,85,86,83;,
 4;87,88,82,81;,
 4;87,78,80,88;,
 4;87,81,47,76;,
 4;88,89,85,82;,
 4;88,80,79,89;,
 4;76,47,46,75;,
 4;89,77,51,85;,
 4;75,46,51,77;,
 3;47,81,84;,
 3;76,78,87;,
 3;51,86,85;,
 3;77,89,79;;
 
 MeshMaterialList {
  5;
  60;
  4,
  4,
  4,
  4,
  4,
  4,
  4,
  4,
  4,
  4,
  4,
  4,
  4,
  4,
  4,
  4,
  4,
  4,
  4,
  4,
  4,
  4,
  4,
  4,
  3,
  3,
  3,
  3,
  3,
  3,
  3,
  3,
  3,
  3,
  3,
  3,
  3,
  3,
  3,
  3,
  3,
  3,
  3,
  3,
  3,
  3,
  3,
  3,
  3,
  3,
  3,
  3,
  3,
  3,
  3,
  3,
  3,
  3,
  3,
  3;;
  Material {
   0.310400;0.088000;0.094400;1.000000;;
   5.000000;
   0.000000;0.000000;0.000000;;
   0.000000;0.000000;0.000000;;
  }
  Material {
   0.598530;0.000000;0.047570;1.000000;;
   62.000000;
   0.480000;0.480000;0.480000;;
   0.000000;0.000000;0.000000;;
  }
  Material {
   0.122400;0.524000;0.341600;1.000000;;
   5.000000;
   0.000000;0.000000;0.000000;;
   0.000000;0.000000;0.000000;;
  }
  Material {
   0.800000;0.605600;0.401600;1.000000;;
   5.000000;
   0.000000;0.000000;0.000000;;
   0.000000;0.000000;0.000000;;
  }
  Material {
   0.599200;0.674400;0.480000;1.000000;;
   5.000000;
   0.000000;0.000000;0.000000;;
   0.000000;0.000000;0.000000;;
  }
 }
 MeshNormals {
  60;
  0.000000;1.000000;0.000000;,
  0.008726;0.000000;0.999962;,
  0.713251;0.000000;0.700909;,
  0.999962;0.000000;-0.008726;,
  0.700909;0.000000;-0.713250;,
  -0.008727;0.000000;-0.999962;,
  -0.713250;0.000000;-0.700910;,
  -0.999962;0.000000;0.008727;,
  -0.700909;0.000000;0.713251;,
  0.000000;-1.000000;-0.000000;,
  0.153744;0.917629;-0.366496;,
  -0.029860;-0.933770;-0.356625;,
  -0.157695;0.917768;-0.364465;,
  0.023204;-0.933782;-0.357089;,
  -0.002012;0.929032;-0.369994;,
  -0.003329;-0.934105;-0.356983;,
  -0.979872;0.198867;0.017430;,
  0.980027;0.198865;0.000325;,
  0.009434;0.147108;0.989075;,
  -0.008726;0.000000;-0.999962;,
  -0.008727;0.000000;-0.999962;,
  -0.008726;0.000000;-0.999962;,
  -0.974642;0.132662;-0.180204;,
  0.971348;0.132667;-0.197187;,
  -0.003329;-0.934105;-0.356983;,
  -0.949530;0.268555;-0.162084;,
  -0.002433;0.869894;-0.493232;,
  0.813174;0.523575;-0.254199;,
  -0.112527;0.963343;-0.243532;,
  -0.001042;0.969256;-0.246053;,
  0.110457;0.963082;-0.245506;,
  -0.920559;0.389774;0.025436;,
  -0.999962;0.000000;0.008726;,
  -0.999962;0.000000;0.008726;,
  0.999962;0.000000;-0.008727;,
  0.999962;0.000000;-0.008726;,
  0.920864;0.389771;0.009363;,
  -0.076808;0.146516;0.986222;,
  0.009941;0.293115;0.956026;,
  -0.160119;0.288786;0.943909;,
  0.008727;0.000000;0.999962;,
  0.008727;0.000000;0.999962;,
  0.095619;0.146605;0.984563;,
  0.008727;0.000000;0.999962;,
  0.179711;0.288918;0.940335;,
  -0.001135;0.973090;-0.230423;,
  -0.085622;0.969690;-0.228846;,
  0.083360;0.969530;-0.230353;,
  -0.980519;0.126317;-0.150421;,
  -0.990146;0.112893;-0.082856;,
  0.977744;0.126321;-0.167511;,
  0.988549;0.112895;-0.100125;,
  0.007705;-0.469692;0.882797;,
  0.007704;-0.469692;0.882797;,
  -0.973893;0.132830;-0.184087;,
  -0.997537;0.056827;-0.041117;,
  0.007703;-0.469693;0.882796;,
  -0.139322;0.956052;-0.257980;,
  0.970531;0.132834;-0.201057;,
  0.996667;0.056828;-0.058520;;
  60;
  4;1,1,2,2;,
  4;2,2,3,3;,
  4;3,3,4,4;,
  4;4,4,5,5;,
  4;5,5,6,6;,
  4;6,6,7,7;,
  4;7,7,8,8;,
  4;8,8,1,1;,
  3;0,0,0;,
  3;0,0,0;,
  3;0,0,0;,
  3;0,0,0;,
  3;0,0,0;,
  3;0,0,0;,
  3;0,0,0;,
  3;0,0,0;,
  3;9,9,9;,
  3;9,9,9;,
  3;9,9,9;,
  3;9,9,9;,
  3;9,9,9;,
  3;9,9,9;,
  3;9,9,9;,
  3;9,9,9;,
  4;0,14,12,0;,
  4;0,0,10,14;,
  4;9,15,11,9;,
  4;9,9,13,15;,
  4;26,25,12,14;,
  4;26,14,10,27;,
  4;25,16,31,31;,
  4;25,32,33,16;,
  4;34,17,34,35;,
  4;27,36,36,17;,
  4;37,18,38,39;,
  4;37,40,41,18;,
  4;42,18,41,43;,
  4;42,44,38,18;,
  4;21,21,20,20;,
  4;21,19,19,21;,
  4;29,45,46,28;,
  4;29,30,47,45;,
  4;48,49,49,22;,
  4;50,23,51,51;,
  4;9,9,9,9;,
  4;9,9,9,9;,
  4;13,24,15,13;,
  4;24,11,11,15;,
  4;9,9,24,13;,
  4;52,52,53,53;,
  4;54,55,25,48;,
  4;9,9,11,24;,
  4;53,53,56,56;,
  4;28,57,26,29;,
  4;58,50,27,59;,
  4;29,26,27,30;,
  3;25,55,32;,
  3;48,22,54;,
  3;27,35,59;,
  3;50,58,23;;
 }
 MeshTextureCoords {
  90;
  0.000000;0.000000;,
  0.000000;1.000000;,
  0.125000;1.000000;,
  0.125000;0.000000;,
  0.250000;1.000000;,
  0.250000;0.000000;,
  0.375000;1.000000;,
  0.375000;0.000000;,
  0.500000;1.000000;,
  0.500000;0.000000;,
  0.625000;1.000000;,
  0.625000;0.000000;,
  0.750000;1.000000;,
  0.750000;0.000000;,
  0.875000;1.000000;,
  0.875000;0.000000;,
  1.000000;1.000000;,
  1.000000;0.000000;,
  0.062500;0.000000;,
  0.187500;0.000000;,
  0.312500;0.000000;,
  0.437500;0.000000;,
  0.562500;0.000000;,
  0.687500;0.000000;,
  0.812500;0.000000;,
  0.937500;0.000000;,
  0.062500;1.000000;,
  0.187500;1.000000;,
  0.312500;1.000000;,
  0.437500;1.000000;,
  0.562500;1.000000;,
  0.687500;1.000000;,
  0.812500;1.000000;,
  0.937500;1.000000;,
  0.504050;1.000000;,
  0.504050;0.000000;,
  0.000000;0.000000;,
  0.000000;1.000000;,
  1.000000;1.000000;,
  1.000000;0.000000;,
  0.504050;0.000000;,
  0.504050;1.000000;,
  1.000000;1.000000;,
  1.000000;0.000000;,
  0.000000;0.000000;,
  0.000000;1.000000;,
  0.495950;0.208810;,
  1.000000;0.208810;,
  1.000000;0.000000;,
  0.495950;0.000000;,
  0.000000;0.000000;,
  0.000000;0.208810;,
  0.000000;0.208810;,
  1.000000;0.208810;,
  1.000000;0.000000;,
  1.000000;1.000000;,
  1.000000;0.208810;,
  0.000000;0.208810;,
  0.000000;1.000000;,
  0.000000;0.000000;,
  0.000000;0.208810;,
  0.504050;0.208810;,
  0.504050;0.000000;,
  0.000000;0.000000;,
  0.000000;1.000000;,
  0.504050;1.000000;,
  1.000000;0.208810;,
  1.000000;1.000000;,
  1.000000;0.000000;,
  0.495950;0.208810;,
  0.495950;1.000000;,
  1.000000;1.000000;,
  1.000000;0.208810;,
  0.000000;0.208810;,
  0.000000;1.000000;,
  0.495950;0.208810;,
  1.000000;0.208810;,
  0.000000;0.208810;,
  1.000000;1.000000;,
  0.000000;1.000000;,
  0.495950;1.000000;,
  1.000000;1.000000;,
  0.495950;1.000000;,
  0.495950;1.000000;,
  1.000000;1.000000;,
  0.000000;1.000000;,
  0.000000;1.000000;,
  1.000000;1.000000;,
  0.495950;1.000000;,
  0.000000;1.000000;;
 }
}
